{
  "_id": "dyN2PGe9qiUbMWyh",
  "name": "Mirror Man",
  "type": "npc",
  "img": "systems/pf1/icons/races/creature-types/construct.png",
  "data": {
    "abilities": {
      "str": {
        "value": 16
      },
      "dex": {
        "value": 23
      },
      "con": {
        "value": 0
      },
      "int": {
        "value": 15
      },
      "wis": {
        "value": 15
      },
      "cha": {
        "value": 12
      }
    },
    "attributes": {
      "naturalAC": "+1",
      "hp": {
        "value": 13
      },
      "spells": {
        "usedSpellbooks": [
          "spelllike"
        ],
        "spellbooks": {
          "spelllike": {
            "altName": "Spell-like Abilities",
            "cl": {
              "formula": "4"
            },
            "concentrationFormula": "2",
            "concentrationNotes": "sbc | Total in statblock was +11, adjust as needed.",
            "clNotes": "sbc | Total in statblock was CL 10, adjust as needed.",
            "autoSpellLevelCalculation": false,
            "autoSpellLevels": false,
            "arcaneSpellFailure": false,
            "spontaneous": true,
            "domainSlotValue": 0
          }
        }
      }
    },
    "details": {
      "alignment": "ne",
      "cr": {
        "base": 5
      }
    },
    "skills": {
      "klo": {
        "rank": 6
      },
      "kno": {
        "rank": 6
      },
      "lin": {
        "rank": 5
      },
      "per": {
        "rank": 10
      },
      "sen": {
        "rank": 10
      },
      "ste": {
        "rank": 4
      },
      "sur": {
        "rank": 3
      }
    },
    "traits": {
      "senses": "blindsight 60 ft., darkvision 60 ft., low-light vision; Perception +12",
      "dr": "5/bludgeoning",
      "fastHealing": "fast healing 2",
      "languages": {
        "value": [
          null,
          null,
          null,
          null
        ],
        "custom": "telepathy 100 ft."
      },
      "di": {
        "value": []
      },
      "dv": {
        "value": [],
        "custom": "Susceptible To Mind-affecting"
      },
      "ci": {
        "value": [],
        "custom": "Blindness;Gaze Attacks;Illusions Of The Pattern Subschool;Construct Traits;"
      },
      "stature": ""
    }
  },
  "token": {
    "name": "Mirror Man",
    "displayName": 20,
    "actorLink": false,
    "width": 1,
    "height": 1,
    "scale": 1,
    "mirrorX": false,
    "mirrorY": false,
    "lockRotation": false,
    "rotation": 0,
    "alpha": 1,
    "vision": false,
    "dimSight": 0,
    "brightSight": "60",
    "dimLight": 0,
    "brightLight": 0,
    "sightAngle": 0,
    "lightAngle": 0,
    "lightAlpha": 0.25,
    "lightAnimation": {
      "speed": 5,
      "intensity": 5
    },
    "disposition": -1,
    "displayBars": 20,
    "bar1": {
      "attribute": null
    },
    "bar2": {
      "attribute": null
    },
    "flags": {
      "pf1": {
        "lowLightVision": false
      }
    },
    "randomImg": false,
    "img": "systems/pf1/icons/races/creature-types/construct.png"
  },
  "items": [
    {
      "_id": "H8FbMUps5Z0gQdvV",
      "name": "Construct (Clockwork)",
      "type": "class",
      "img": "systems/pf1/icons/skills/mech_7.jpg",
      "data": {
        "description": {
          "value": "<p>A construct is an animated object or artificially created creature.</p>\n<h2><span id=\"Features\">Features</span></h2>\n<p>A construct has the following features.</p>\n<ul>\n<li>d10 Hit Die.</li>\n<li>Base attack bonus equal to total Hit Dice (fast progression).</li>\n<li>No good saving throws.</li>\n<li>Skill points equal to 2 + Int modifier (minimum 1) per Hit Die. However, most constructs are mindless and gain no skill points or feats. Constructs do not have any class skills, regardless of their&nbsp;<a href=\"https://www.d20pfsrd.com/basics-ability-scores/ability-scores/#Intelligence_Int\">Intelligence</a>&nbsp;scores.</li>\n<li>Construct Size Bonus Hit Points Fine — Diminutive — Tiny — Small 10 Medium 20 Large 30 Huge 40 Gargantuan 60 Colossal 80</li>\n</ul>\n<h2><span id=\"Traits\">Traits</span></h2>\n<p>A construct possesses the following traits (unless otherwise noted in a creature’s entry).</p>\n<ul>\n<li>No Constitution score. Any DCs or other statistics that rely on a Constitution score treat a construct as having a score of 10 (no bonus or penalty).</li>\n<li>Low-light vision.</li>\n<li>Darkvision 60 feet.</li>\n<li>Immunity to all mind-affecting effects (charms, compulsions, morale effects, patterns, and phantasms).</li>\n<li>Immunity to disease, death effects, necromancy effects, paralysis, poison, sleep effects, and stunning.</li>\n<li>Cannot heal damage on its own, but often can be repaired via exposure to a certain kind of effect (see the creature’s description for details) or through the use of the&nbsp;<a href=\"https://www.d20pfsrd.com/bestiary/rules-for-monsters/monster-feats#TOC-Craft-Construct-Item-Creation-\" rel=\"nofollow\">Craft Construct</a>&nbsp;feat. Constructs can also be healed through spells such as&nbsp;<a href=\"https://www.d20pfsrd.com/magic/all-spells/m/make-whole\" rel=\"nofollow\">make whole</a>. A construct with the fast healing special quality still benefits from that quality.</li>\n<li>Not subject to&nbsp;<a href=\"https://www.d20pfsrd.com/bestiary/rules-for-monsters/universal-monster-rules#TOC-Ability-Damage-and-Drain-Ex-or-Su-\" rel=\"nofollow\">ability damage</a>,&nbsp;<a href=\"https://www.d20pfsrd.com/bestiary/rules-for-monsters/universal-monster-rules#TOC-Ability-Damage-and-Drain-Ex-or-Su-\" rel=\"nofollow\">ability drain</a>, fatigue, exhaustion, energy drain, or nonlethal damage.</li>\n<li>Immunity to any effect that requires a&nbsp;<a href=\"https://www.d20pfsrd.com/gamemastering/combat#TOC-Fortitude\" rel=\"nofollow\">Fortitude</a>&nbsp;save (unless the effect also works on objects, or is harmless).</li>\n<li>Not at risk of death from massive damage. Immediately destroyed when reduced to 0 hit points or less.</li>\n<li>A construct cannot be raised or resurrected.</li>\n<li>A construct is hard to destroy, and gains bonus hit points based on size, as shown on the following table.</li>\n</ul>\n<ul>\n<li>Proficient with its natural weapons only, unless generally humanoid in form, in which case proficient with any weapon mentioned in its entry.</li>\n<li>Proficient with no armor.</li>\n<li>Constructs do not breathe, eat, or sleep.</li>\n</ul>\n<h2>Construct Size Bonus Hit Points</h2>\n<table style=\"width: 176px;\" border=\"1\">\n<tbody>\n<tr>\n<td style=\"width: 128px;\">Fine</td>\n<td style=\"width: 48px;\">10</td>\n</tr>\n<tr>\n<td>Diminutive</td>\n<td>10</td>\n</tr>\n<tr>\n<td>Tiny</td>\n<td>10</td>\n</tr>\n<tr>\n<td>Small</td>\n<td>10</td>\n</tr>\n<tr>\n<td>Medium</td>\n<td>20</td>\n</tr>\n<tr>\n<td>Large</td>\n<td>30</td>\n</tr>\n<tr>\n<td>Huge</td>\n<td>40</td>\n</tr>\n<tr>\n<td>Gargantuan</td>\n<td>60</td>\n</tr>\n<tr>\n<td>Colossal</td>\n<td>80</td>\n</tr>\n</tbody>\n</table>"
        },
        "tags": [],
        "changes": [],
        "links": "",
        "tag": "construct",
        "useCustomTag": true,
        "armorProf": {
          "value": []
        },
        "weaponProf": {
          "value": []
        },
        "flags": {
          "boolean": [],
          "dictionary": []
        },
        "scriptCalls": [],
        "classType": "racial",
        "level": 6,
        "hd": 10,
        "hp": 43,
        "bab": "high",
        "skillsPerLevel": 2,
        "classSkills": {
          "acr": false,
          "apr": false,
          "art": false,
          "blf": false,
          "clm": false,
          "crf": false,
          "dip": false,
          "dev": false,
          "dis": false,
          "esc": false,
          "fly": false,
          "han": false,
          "hea": false,
          "int": false,
          "kar": false,
          "kdu": false,
          "ken": false,
          "kge": false,
          "khi": false,
          "klo": false,
          "kna": false,
          "kno": false,
          "kpl": false,
          "kre": false,
          "lin": false,
          "lor": false,
          "per": false,
          "prf": false,
          "pro": false,
          "rid": false,
          "sen": false,
          "slt": false,
          "spl": false,
          "ste": false,
          "sur": false,
          "swm": false,
          "umd": false
        }
      },
      "effects": [],
      "folder": null,
      "sort": 0,
      "permission": {
        "default": 0
      },
      "flags": {}
    },
    {
      "_id": "cdr3g40964wdrzwq",
      "name": "Race: Construct",
      "type": "race",
      "img": "systems/pf1/icons/skills/mech_7.jpg",
      "data": {
        "description": {
          "value": "sbc | As no playable race was found a placeholder was generated."
        },
        "tags": [],
        "changes": [],
        "contextNotes": [],
        "links": {
          "children": []
        },
        "armorProf": {
          "value": []
        },
        "weaponProf": {
          "value": []
        },
        "flags": {
          "boolean": [],
          "dictionary": []
        },
        "scriptCalls": [],
        "creatureType": "construct",
        "subTypes": [
          [
            ""
          ]
        ]
      },
      "effects": [],
      "folder": null,
      "sort": 0,
      "permission": {
        "default": 0
      },
      "flags": {}
    },
    {
      "_id": "4vygtmw45mhj68bh",
      "name": "Sense: Blindsight",
      "type": "feat",
      "img": "systems/pf1/icons/skills/light_01.jpg",
      "data": {
        "description": {
          "value": "Using nonvisual senses such as acute smell or hearing, members of this race notice things they cannot see.\n                Members of this race usually do not need to make Perception checks to pinpoint the location of a creature within 30 feet, provided they have line of effect to that creature.<br><br>\n                A creature that members of this race cannot see still has total concealment against individuals with blindsense, and members of this race still have the normal miss chance when attacking creatures that have concealment.<br><br>\n                Visibility still affects the movement of members of this race. Members of this race are still denied their Dexterity bonus to AC against attacks from creatures they cannot see."
        },
        "tags": [],
        "damage": {
          "parts": [],
          "critParts": [],
          "nonCritParts": []
        },
        "attackParts": [],
        "effectNotes": [],
        "attackNotes": [],
        "changes": [],
        "contextNotes": [],
        "links": {
          "children": [],
          "charges": []
        },
        "tag": "senseBlindsight",
        "armorProf": {
          "value": []
        },
        "weaponProf": {
          "value": []
        },
        "flags": {
          "boolean": [],
          "dictionary": []
        },
        "scriptCalls": [],
        "featType": "racial",
        "associations": {
          "classes": []
        },
        "abilityType": "ex"
      },
      "effects": [],
      "folder": null,
      "sort": 0,
      "permission": {
        "default": 0
      },
      "flags": {}
    },
    {
      "_id": "glwmy6d43oczymel",
      "name": "Sense: Darkvision 60ft.",
      "type": "feat",
      "img": "systems/pf1/icons/skills/shadow_12.jpg",
      "data": {
        "description": {
          "value": "Darkvision is the extraordinary ability to see with no light source at all, out to a range specified for the creature. Darkvision is black-and-white only (colors cannot be discerned). It does not allow characters to see anything that they could not see otherwise—invisible objects are still invisible, and illusions are still visible as what they seem to be. Likewise, darkvision subjects a creature to gaze attacks normally. The presence of light does not spoil darkvision."
        },
        "tags": [],
        "damage": {
          "parts": [],
          "critParts": [],
          "nonCritParts": []
        },
        "attackParts": [],
        "effectNotes": [],
        "attackNotes": [],
        "changes": [],
        "contextNotes": [],
        "links": {
          "children": [],
          "charges": []
        },
        "tag": "senseDarkvision60ft",
        "armorProf": {
          "value": []
        },
        "weaponProf": {
          "value": []
        },
        "flags": {
          "boolean": [],
          "dictionary": []
        },
        "scriptCalls": [],
        "featType": "racial",
        "associations": {
          "classes": []
        },
        "abilityType": "ex"
      },
      "effects": [],
      "folder": null,
      "sort": 0,
      "permission": {
        "default": 0
      },
      "flags": {}
    },
    {
      "_id": "v2goyg0c3ak44h7h",
      "name": "Sense: Low-light Vision",
      "type": "feat",
      "img": "systems/pf1/icons/skills/shadow_11.jpg",
      "data": {
        "description": {
          "value": "A creature with low-light vision can see twice as far as a human in starlight, moonlight, torchlight, and similar conditions of dim light. It retains the ability to distinguish color and detail under these conditions."
        },
        "tags": [],
        "damage": {
          "parts": [],
          "critParts": [],
          "nonCritParts": []
        },
        "attackParts": [],
        "effectNotes": [],
        "attackNotes": [],
        "changes": [],
        "contextNotes": [],
        "links": {
          "children": [],
          "charges": []
        },
        "tag": "senseLowlightVision",
        "armorProf": {
          "value": []
        },
        "weaponProf": {
          "value": []
        },
        "flags": {
          "boolean": [],
          "dictionary": []
        },
        "scriptCalls": [],
        "featType": "racial",
        "associations": {
          "classes": []
        },
        "abilityType": "ex"
      },
      "effects": [],
      "folder": null,
      "sort": 0,
      "permission": {
        "default": 0
      },
      "flags": {}
    },
    {
      "_id": "Q1cY8r0Pvb66pMG0",
      "name": "Alertness",
      "type": "feat",
      "img": "systems/pf1/icons/feats/alertness.jpg",
      "data": {
        "description": {
          "value": "\n                <i>You often notice things that others might miss.</i>\n                <br />\n                <br />\n                \n                <p><b>Benefits</b></p>\n                <p><p class=\"stat-block-1\"> You get a +2 bonus on Perception and Sense Motive skill checks. If you have 10 or more ranks in one of these skills, the bonus increases to +4 for that skill.</p></p>\n                \n            \n            "
        },
        "tags": [
          [
            "General"
          ],
          [
            "Skill"
          ]
        ],
        "measureTemplate": {
          "size": "0"
        },
        "actionType": "",
        "damage": {
          "parts": [],
          "critParts": [],
          "nonCritParts": []
        },
        "attackParts": [],
        "effectNotes": [],
        "attackNotes": [],
        "changes": [
          {
            "_id": "4lwdra12",
            "formula": "@skills.sen.rank>=10?4:2",
            "operator": "add",
            "subTarget": "skill.sen",
            "modifier": "untyped",
            "priority": 0,
            "value": 0,
            "target": "skill"
          },
          {
            "_id": "3f1srila",
            "formula": "@skills.per.rank>=10?4:2",
            "operator": "add",
            "subTarget": "skill.per",
            "modifier": "untyped",
            "priority": 0,
            "value": 0,
            "target": "skill"
          }
        ],
        "contextNotes": [],
        "links": {
          "children": [],
          "charges": []
        },
        "tag": "alertness",
        "armorProf": {
          "value": []
        },
        "weaponProf": {
          "value": []
        },
        "flags": {
          "boolean": [],
          "dictionary": []
        },
        "scriptCalls": [],
        "associations": {
          "classes": []
        }
      },
      "effects": [],
      "folder": null,
      "sort": 0,
      "permission": {
        "default": 0
      },
      "flags": {}
    },
    {
      "_id": "JreaiTHdyWFNj3Tb",
      "name": "Dodge",
      "type": "feat",
      "img": "systems/pf1/icons/feats/dodge.jpg",
      "data": {
        "description": {
          "value": "\n                <i>Your training and reflexes allow you to react swiftly to avoid an opponents' attacks.</i>\n                <br />\n                <br />\n                \n                <p><b>Prerequisites</b></p>\n                <p> Dex 13.</p>\n                \n            <br />\n                <p><b>Benefits</b></p>\n                <p><p class=\"stat-block-1\"> You gain a +1 dodge bonus to your AC. A condition that makes you lose your Dex bonus to AC also makes you lose the benefits of this feat.</p></p>\n                \n            \n            "
        },
        "tags": [
          [
            "Combat"
          ],
          [
            "Defensive"
          ]
        ],
        "measureTemplate": {
          "size": "0"
        },
        "actionType": "",
        "damage": {
          "parts": [],
          "critParts": [],
          "nonCritParts": []
        },
        "attackParts": [],
        "effectNotes": [],
        "attackNotes": [],
        "changes": [
          {
            "_id": "9onhsept",
            "formula": "1",
            "operator": "add",
            "subTarget": "ac",
            "modifier": "dodge",
            "priority": 0,
            "value": 0,
            "target": "ac"
          }
        ],
        "contextNotes": [],
        "links": {
          "children": [],
          "charges": []
        },
        "tag": "dodge",
        "armorProf": {
          "value": []
        },
        "weaponProf": {
          "value": []
        },
        "flags": {
          "boolean": [],
          "dictionary": []
        },
        "scriptCalls": [],
        "associations": {
          "classes": []
        }
      },
      "effects": [],
      "folder": null,
      "sort": 0,
      "permission": {
        "default": 0
      },
      "flags": {}
    },
    {
      "_id": "WKIVfdosc5SqYzmP",
      "name": "Quick Draw",
      "type": "feat",
      "img": "systems/pf1/icons/feats/quick-draw.jpg",
      "data": {
        "description": {
          "value": "\n                <i>You can draw weapons faster than most.</i>\n                <br />\n                <br />\n                \n                <p><b>Prerequisites</b></p>\n                <p> Base attack bonus +1.</p>\n                \n            <br />\n                <p><b>Benefits</b></p>\n                <p><p class=\"stat-block-1\"> You can draw a weapon as a free action instead of as a move action. You can draw a hidden weapon (see the Sleight of Hand skill) as a move action.</p><p class=\"stat-block-2\">A character who has selected this feat may throw weapons at his full normal rate of attacks (much like a character with a bow).</p><p class=\"stat-block-2\">Alchemical items, potions, scrolls, and wands cannot be drawn quickly using this feat.</p></p>\n                \n            <br />\n                <p><b>Normal</b></p>\n                <p><p class=\"stat-block-1\"> Without this feat, you may draw a weapon as a move action, or (if your base attack bonus is +1 or higher) as a free action as part of movement. Without this feat, you can draw a hidden weapon as a standard action.</p></p>\n                \n            \n            "
        },
        "tags": [
          [
            "Combat"
          ],
          [
            "Weapon"
          ]
        ],
        "measureTemplate": {
          "size": "0"
        },
        "actionType": "",
        "damage": {
          "parts": [],
          "critParts": [],
          "nonCritParts": []
        },
        "attackParts": [],
        "effectNotes": [],
        "attackNotes": [],
        "changes": [],
        "contextNotes": [],
        "links": {
          "children": [],
          "charges": []
        },
        "tag": "quickDraw",
        "armorProf": {
          "value": []
        },
        "weaponProf": {
          "value": []
        },
        "flags": {
          "boolean": [],
          "dictionary": []
        },
        "scriptCalls": [],
        "associations": {
          "classes": []
        }
      },
      "effects": [],
      "folder": null,
      "sort": 0,
      "permission": {
        "default": 0
      },
      "flags": {}
    },
    {
      "_id": "hl312a72e47360s6",
      "name": "Special Quality: Alert Master",
      "type": "feat",
      "img": "systems/pf1/icons/skills/yellow_36.jpg",
      "data": {
        "description": {
          "value": "sbc | Placeholder for Special Qualities, which in most statblocks are listed under SQ in the statistics block, but described in the Special Abilities. Remove duplicates as needed!"
        },
        "tags": [],
        "damage": {
          "parts": [],
          "critParts": [],
          "nonCritParts": []
        },
        "attackParts": [],
        "effectNotes": [],
        "attackNotes": [],
        "changes": [],
        "contextNotes": [],
        "links": {
          "children": [],
          "charges": []
        },
        "armorProf": {
          "value": []
        },
        "weaponProf": {
          "value": []
        },
        "flags": {
          "boolean": [],
          "dictionary": []
        },
        "scriptCalls": [],
        "featType": "misc",
        "associations": {
          "classes": []
        }
      },
      "effects": [],
      "folder": null,
      "sort": 0,
      "permission": {
        "default": 0
      },
      "flags": {}
    },
    {
      "_id": "swxo3ebahwyifibz",
      "name": "Special Quality: Mirror Sight",
      "type": "feat",
      "img": "systems/pf1/icons/skills/yellow_36.jpg",
      "data": {
        "description": {
          "value": "sbc | Placeholder for Special Qualities, which in most statblocks are listed under SQ in the statistics block, but described in the Special Abilities. Remove duplicates as needed!"
        },
        "tags": [],
        "damage": {
          "parts": [],
          "critParts": [],
          "nonCritParts": []
        },
        "attackParts": [],
        "effectNotes": [],
        "attackNotes": [],
        "changes": [],
        "contextNotes": [],
        "links": {
          "children": [],
          "charges": []
        },
        "armorProf": {
          "value": []
        },
        "weaponProf": {
          "value": []
        },
        "flags": {
          "boolean": [],
          "dictionary": []
        },
        "scriptCalls": [],
        "featType": "misc",
        "associations": {
          "classes": []
        }
      },
      "effects": [],
      "folder": null,
      "sort": 0,
      "permission": {
        "default": 0
      },
      "flags": {}
    },
    {
      "_id": "xqdbuidu7lf0owvu",
      "name": "Special Quality: Scrying Focus",
      "type": "feat",
      "img": "systems/pf1/icons/skills/yellow_36.jpg",
      "data": {
        "description": {
          "value": "sbc | Placeholder for Special Qualities, which in most statblocks are listed under SQ in the statistics block, but described in the Special Abilities. Remove duplicates as needed!"
        },
        "tags": [],
        "damage": {
          "parts": [],
          "critParts": [],
          "nonCritParts": []
        },
        "attackParts": [],
        "effectNotes": [],
        "attackNotes": [],
        "changes": [],
        "contextNotes": [],
        "links": {
          "children": [],
          "charges": []
        },
        "armorProf": {
          "value": []
        },
        "weaponProf": {
          "value": []
        },
        "flags": {
          "boolean": [],
          "dictionary": []
        },
        "scriptCalls": [],
        "featType": "misc",
        "associations": {
          "classes": []
        }
      },
      "effects": [],
      "folder": null,
      "sort": 0,
      "permission": {
        "default": 0
      },
      "flags": {}
    },
    {
      "_id": "58s63ydzl1pdv1ab",
      "name": "Special Quality: Soul Mirror",
      "type": "feat",
      "img": "systems/pf1/icons/skills/yellow_36.jpg",
      "data": {
        "description": {
          "value": "sbc | Placeholder for Special Qualities, which in most statblocks are listed under SQ in the statistics block, but described in the Special Abilities. Remove duplicates as needed!"
        },
        "tags": [],
        "damage": {
          "parts": [],
          "critParts": [],
          "nonCritParts": []
        },
        "attackParts": [],
        "effectNotes": [],
        "attackNotes": [],
        "changes": [],
        "contextNotes": [],
        "links": {
          "children": [],
          "charges": []
        },
        "armorProf": {
          "value": []
        },
        "weaponProf": {
          "value": []
        },
        "flags": {
          "boolean": [],
          "dictionary": []
        },
        "scriptCalls": [],
        "featType": "misc",
        "associations": {
          "classes": []
        }
      },
      "effects": [],
      "folder": null,
      "sort": 0,
      "permission": {
        "default": 0
      },
      "flags": {}
    },
    {
      "_id": "va4leuyutw8q7ch4",
      "name": "+1 Longsword",
      "type": "attack",
      "img": null,
      "data": {
        "tags": [],
        "activation": {
          "type": "attack"
        },
        "unchainedAction": {
          "activation": {
            "type": "attack"
          }
        },
        "duration": {
          "units": "inst"
        },
        "range": {
          "value": "",
          "units": "melee"
        },
        "attackName": "Longsword",
        "actionType": "mwak",
        "attackBonus": "-9",
        "damage": {
          "parts": [
            [
              "1d8+0",
              "S"
            ]
          ],
          "critParts": [],
          "nonCritParts": []
        },
        "attackParts": [
          [
            -5,
            "Iterative Attack with -5"
          ]
        ],
        "ability": {
          "attack": "str",
          "damage": "str",
          "critRange": "19"
        },
        "effectNotes": [],
        "attackNotes": [
          "+1 longsword +1/+5 (1d8+4/19-20 )"
        ],
        "links": {
          "children": [],
          "charges": [],
          "ammunition": []
        },
        "flags": {
          "boolean": [],
          "dictionary": []
        },
        "scriptCalls": [],
        "masterwork": true,
        "enh": "1",
        "primaryAttack": false,
        "conditionals": []
      },
      "effects": [],
      "folder": null,
      "sort": 0,
      "permission": {
        "default": 0
      },
      "flags": {}
    },
    {
      "_id": "f7lu9b1sow2i18yn",
      "name": "Dagger",
      "type": "attack",
      "img": null,
      "data": {
        "tags": [],
        "activation": {
          "type": "attack"
        },
        "unchainedAction": {
          "activation": {
            "type": "attack"
          }
        },
        "duration": {
          "units": "inst"
        },
        "range": {
          "value": "10",
          "units": "ft"
        },
        "attackName": "Dagger",
        "actionType": "rwak",
        "attackBonus": "0",
        "damage": {
          "parts": [
            [
              "1d4+0",
              "P or S"
            ]
          ],
          "critParts": [],
          "nonCritParts": []
        },
        "attackParts": [
          [
            -5,
            "Iterative Attack with -5"
          ]
        ],
        "ability": {
          "attack": "dex",
          "damage": "str",
          "critRange": "19"
        },
        "effectNotes": [],
        "attackNotes": [
          "dagger +12/+5 (1d4+3/19-20 )"
        ],
        "links": {
          "children": [],
          "charges": [],
          "ammunition": []
        },
        "flags": {
          "boolean": [],
          "dictionary": []
        },
        "scriptCalls": [],
        "primaryAttack": false,
        "conditionals": []
      },
      "effects": [],
      "folder": null,
      "sort": 0,
      "permission": {
        "default": 0
      },
      "flags": {}
    },
    {
      "_id": "lj2b41bvezd4bare",
      "name": "Special Attack: Sneak Attack +2d6",
      "type": "attack",
      "img": "systems/pf1/icons/skills/yellow_36.jpg",
      "data": {
        "description": {
          "value": "sbc | Placeholder for Special Attacks, which in most statblocks are listed under 'Special Attacks' in the statistics block, but are described in the 'Special Abilities' block. Remove duplicates as needed!"
        },
        "tags": [],
        "damage": {
          "parts": [],
          "critParts": [],
          "nonCritParts": []
        },
        "attackParts": [],
        "effectNotes": [],
        "attackNotes": [],
        "links": {
          "children": [],
          "charges": [],
          "ammunition": []
        },
        "flags": {
          "boolean": [],
          "dictionary": []
        },
        "scriptCalls": [],
        "attackType": "misc",
        "conditionals": []
      },
      "effects": [],
      "folder": null,
      "sort": 0,
      "permission": {
        "default": 0
      },
      "flags": {}
    },
    {
      "_id": "uqh87jz757r2cb7r",
      "name": "Constant: Detect Magic",
      "type": "spell",
      "img": "systems/pf1/icons/misc/magic-swirl.png",
      "data": {
        "description": {
          "value": "<div class=\"spell-description\">\n  <p>\n    <strong>School</strong>&nbsp;divination;\n    <strong>Level</strong>&nbsp;adept 0, bard 0, cleric/oracle 0, druid 0, hunter 0, inquisitor 0, magus 0, medium 0, mesmerist 0, occultist 0, psychic 0, shaman 0, sorcerer/wizard 0, spiritualist 0, summoner 0, unchained Summoner 0, witch 0;\n    \n    \n    \n    \n  </p>\n  <p>\n    <strong>Casting Time</strong>&nbsp;1 standard action<br>\n    <strong>Components</strong>&nbsp;V, S<br>\n  </p>\n  <p>\n    <strong>Range</strong>&nbsp;60 feet<br>\n    <strong>Area</strong>&nbsp;cone-shaped emanation<br>\n    \n    \n    <strong>Duration</strong>&nbsp;concentration, up to 1 min./level<br>\n    <strong>Saving Throw</strong>&nbsp;none;&nbsp;<strong>Spell Resistance</strong>&nbsp;no<br>\n  </p>\n  <h2>Description</h2>\n  <p>You detect magical auras. The amount of information revealed depends on how long you study a particular area or subject.</p><p><i>1st Round</i>: Presence or absence of magical auras.</p><p><i>2nd Round</i>: Number of different magical auras and the power of the most potent aura.</p><p><i>3rd Round</i>: The strength and location of each aura. If the items or creatures bearing the auras are in line of sight, you can make Knowledge (arcana) skill checks to determine the school of magic involved in each. (Make one check per aura: DC 15 + spell level, or 15 + 1/2 caster level for a nonspell effect.) If the aura emanates from a magic item, you can attempt to identify its properties (see Spellcraft).</p><p>Magical areas, multiple types of magic, or strong local magical emanations may distort or conceal weaker auras.</p><p><i>Aura Strength</i>: An aura's power depends on a spell's functioning spell level or an item's caster level; see the accompanying table. If an aura falls into more than one category, detect magic indicates the stronger of the two.</p><p><table><tr><th rowspan=\"2\">Spell or Object</th><th colspan=\"4\" style=\"text-align:center\">Aura Power</th></tr> <tr><th>Faint</th><th>Moderate</th><th>Strong</th><th>Overwhelming</th></tr> <tr><td>Functioning spell (spell level)</td><td>3rd or lower</td><td>4th-6th</td><td>7th-9th</td><td>10th+ (deity-level)</td></tr> <tr><td>Magic item (caster level)</td><td>5th or lower</td><td>6th-11th</td><td>12th-20th</td><td>21st+ (artifact)</td></tr></table>  <i>Lingering Aura</i>: A magical aura lingers after its original source dissipates (in the case of a spell) or is destroyed (in the case of a magic item). If <i>detect magic</i> is cast and directed at such a location, the spell indicates an aura strength of dim (even weaker than a faint aura). How long the aura lingers at this dim level depends on its original power: <table><tr><th>Original Strength</th><th>Duration of Lingering Aura</th></tr> <tr><td>Faint</td><td>1d6 rounds</td></tr> <tr><td>Moderate</td><td>1d6 minutes</td></tr> <tr><td>Strong</td><td>1d6x10 minutes</td></tr> <tr><td>Overwhelming</td><td>1d6 days</td></tr></table>  Outsiders and elementals are not magical in themselves, but if they are summoned, the conjuration spell registers. Each round, you can turn to detect magic in a new area. The spell can penetrate barriers, but 1 foot of stone, 1 inch of common metal, a thin sheet of lead, or 3 feet of wood or dirt blocks it.</p><p><i>Detect magic</i> can be made permanent with a <i>permanency</i> spell.</p>\n</div>\n"
        },
        "tags": [],
        "activation": {
          "type": "standard"
        },
        "unchainedAction": {
          "activation": {
            "cost": 2,
            "type": "action"
          }
        },
        "range": {
          "value": 60,
          "units": "ft"
        },
        "uses": {
          "value": 3,
          "per": "day"
        },
        "measureTemplate": {
          "size": "0"
        },
        "actionType": "",
        "damage": {
          "parts": [],
          "critParts": [],
          "nonCritParts": []
        },
        "attackParts": [],
        "ability": {
          "attack": "",
          "damage": ""
        },
        "save": {
          "dc": "0"
        },
        "effectNotes": [],
        "attackNotes": [],
        "links": {
          "children": []
        },
        "flags": {
          "boolean": [],
          "dictionary": []
        },
        "scriptCalls": [],
        "learnedAt": {
          "class": [
            [
              "sorcerer/wizard",
              0
            ],
            [
              "cleric/oracle",
              0
            ],
            [
              "druid",
              0
            ],
            [
              "bard",
              0
            ],
            [
              "summoner",
              0
            ],
            [
              "witch",
              0
            ],
            [
              "inquisitor",
              0
            ],
            [
              "magus",
              0
            ],
            [
              "adept",
              0
            ],
            [
              "shaman",
              0
            ],
            [
              "psychic",
              0
            ],
            [
              "medium",
              0
            ],
            [
              "mesmerist",
              0
            ],
            [
              "occultist",
              0
            ],
            [
              "spiritualist",
              0
            ],
            [
              "hunter",
              0
            ],
            [
              "unchained Summoner",
              0
            ]
          ],
          "domain": [],
          "subDomain": [],
          "elementalSchool": [],
          "bloodline": []
        },
        "level": 0,
        "school": "div",
        "conditionals": [],
        "components": {
          "verbal": true,
          "somatic": true
        },
        "spellbook": "spelllike",
        "preparation": {
          "preparedAmount": 1,
          "maxAmount": 1,
          "autoDeductCharges": false
        },
        "atWill": true,
        "sr": false,
        "shortDescription": "<p>You detect magical auras. The amount of information revealed depends on how long you study a particular area or subject.</p><p><i>1st Round</i>: Presence or absence of magical auras.</p><p><i>2nd Round</i>: Number of different magical auras and the power of the most potent aura.</p><p><i>3rd Round</i>: The strength and location of each aura. If the items or creatures bearing the auras are in line of sight, you can make Knowledge (arcana) skill checks to determine the school of magic involved in each. (Make one check per aura: DC 15 + spell level, or 15 + 1/2 caster level for a nonspell effect.) If the aura emanates from a magic item, you can attempt to identify its properties (see Spellcraft).</p><p>Magical areas, multiple types of magic, or strong local magical emanations may distort or conceal weaker auras.</p><p><i>Aura Strength</i>: An aura's power depends on a spell's functioning spell level or an item's caster level; see the accompanying table. If an aura falls into more than one category, detect magic indicates the stronger of the two.</p><p><table><tr><th rowspan=\"2\">Spell or Object</th><th colspan=\"4\" style=\"text-align:center\">Aura Power</th></tr> <tr><th>Faint</th><th>Moderate</th><th>Strong</th><th>Overwhelming</th></tr> <tr><td>Functioning spell (spell level)</td><td>3rd or lower</td><td>4th-6th</td><td>7th-9th</td><td>10th+ (deity-level)</td></tr> <tr><td>Magic item (caster level)</td><td>5th or lower</td><td>6th-11th</td><td>12th-20th</td><td>21st+ (artifact)</td></tr></table>  <i>Lingering Aura</i>: A magical aura lingers after its original source dissipates (in the case of a spell) or is destroyed (in the case of a magic item). If <i>detect magic</i> is cast and directed at such a location, the spell indicates an aura strength of dim (even weaker than a faint aura). How long the aura lingers at this dim level depends on its original power: <table><tr><th>Original Strength</th><th>Duration of Lingering Aura</th></tr> <tr><td>Faint</td><td>1d6 rounds</td></tr> <tr><td>Moderate</td><td>1d6 minutes</td></tr> <tr><td>Strong</td><td>1d6x10 minutes</td></tr> <tr><td>Overwhelming</td><td>1d6 days</td></tr></table>  Outsiders and elementals are not magical in themselves, but if they are summoned, the conjuration spell registers. Each round, you can turn to detect magic in a new area. The spell can penetrate barriers, but 1 foot of stone, 1 inch of common metal, a thin sheet of lead, or 3 feet of wood or dirt blocks it.</p><p><i>Detect magic</i> can be made permanent with a <i>permanency</i> spell.</p>",
        "spellDuration": "concentration, up to 1 min./level",
        "spellArea": "cone-shaped emanation"
      },
      "effects": [],
      "folder": null,
      "sort": 0,
      "permission": {
        "default": 0
      },
      "flags": {}
    },
    {
      "_id": "ip9onjfp6nf1vlv9",
      "name": "Light",
      "type": "spell",
      "img": "systems/pf1/icons/misc/magic-swirl.png",
      "data": {
        "description": {
          "value": "<div class=\"spell-description\">\n  <p>\n    <strong>School</strong>&nbsp;evocation&nbsp;[light];\n    <strong>Level</strong>&nbsp;adept 0, bard 0, cleric/oracle 0, druid 0, hunter 0, inquisitor 0, magus 0, medium 0, mesmerist 0, occultist 0, psychic 0, shaman 0, sorcerer/wizard 0, spiritualist 0, summoner 0, unchained Summoner 0, witch 0;\n    \n    \n    \n    \n  </p>\n  <p>\n    <strong>Casting Time</strong>&nbsp;1 standard action<br>\n    <strong>Components</strong>&nbsp;V, M/DF (a firefly)<br>\n  </p>\n  <p>\n    <strong>Range</strong>&nbsp;touch<br>\n    \n    <strong>Targets</strong>&nbsp;object touched<br>\n    \n    <strong>Duration</strong>&nbsp;10 min./level<br>\n    <strong>Saving Throw</strong>&nbsp;none;&nbsp;<strong>Spell Resistance</strong>&nbsp;no<br>\n  </p>\n  <h2>Description</h2>\n  <p>This spell causes a touched object to glow like a torch, shedding normal light in a 20-foot radius from the point touched, and increasing the light level for an additional 20 feet by one step, up to normal light (darkness becomes dim light, and dim light becomes normal light). In an area of normal or bright light, this spell has no effect. The effect is immobile, but it can be cast on a movable object.</p><p>You can only have one light spell active at any one time. If you cast this spell while another casting is still in effect, the previous casting is dispelled. If you make this spell permanent (through permanency or a similar effect), it does not count against this limit. Light can be used to counter or dispel any darkness spell of equal or lower spell level.</p>\n</div>\n"
        },
        "tags": [],
        "activation": {
          "type": "standard"
        },
        "unchainedAction": {
          "activation": {
            "cost": 2,
            "type": "action"
          }
        },
        "target": {
          "value": "object touched"
        },
        "range": {
          "units": "touch"
        },
        "uses": {
          "value": 3,
          "per": "day"
        },
        "measureTemplate": {
          "size": "0"
        },
        "actionType": "",
        "damage": {
          "parts": [],
          "critParts": [],
          "nonCritParts": []
        },
        "attackParts": [],
        "ability": {
          "attack": "",
          "damage": ""
        },
        "save": {
          "dc": "0"
        },
        "effectNotes": [],
        "attackNotes": [],
        "links": {
          "children": []
        },
        "flags": {
          "boolean": [],
          "dictionary": []
        },
        "scriptCalls": [],
        "learnedAt": {
          "class": [
            [
              "sorcerer/wizard",
              0
            ],
            [
              "cleric/oracle",
              0
            ],
            [
              "druid",
              0
            ],
            [
              "bard",
              0
            ],
            [
              "summoner",
              0
            ],
            [
              "witch",
              0
            ],
            [
              "inquisitor",
              0
            ],
            [
              "magus",
              0
            ],
            [
              "adept",
              0
            ],
            [
              "shaman",
              0
            ],
            [
              "psychic",
              0
            ],
            [
              "medium",
              0
            ],
            [
              "mesmerist",
              0
            ],
            [
              "occultist",
              0
            ],
            [
              "spiritualist",
              0
            ],
            [
              "hunter",
              0
            ],
            [
              "unchained Summoner",
              0
            ]
          ],
          "domain": [],
          "subDomain": [],
          "elementalSchool": [],
          "bloodline": []
        },
        "level": 0,
        "school": "evo",
        "types": "light",
        "conditionals": [],
        "components": {
          "verbal": true,
          "material": true,
          "divineFocus": 2
        },
        "materials": {
          "value": "a firefly"
        },
        "spellbook": "spelllike",
        "preparation": {
          "preparedAmount": 3,
          "maxAmount": 3,
          "autoDeductCharges": false
        },
        "atWill": true,
        "sr": false,
        "shortDescription": "<p>This spell causes a touched object to glow like a torch, shedding normal light in a 20-foot radius from the point touched, and increasing the light level for an additional 20 feet by one step, up to normal light (darkness becomes dim light, and dim light becomes normal light). In an area of normal or bright light, this spell has no effect. The effect is immobile, but it can be cast on a movable object.</p><p>You can only have one light spell active at any one time. If you cast this spell while another casting is still in effect, the previous casting is dispelled. If you make this spell permanent (through permanency or a similar effect), it does not count against this limit. Light can be used to counter or dispel any darkness spell of equal or lower spell level.</p>",
        "spellDuration": "10 min./level"
      },
      "effects": [],
      "folder": null,
      "sort": 0,
      "permission": {
        "default": 0
      },
      "flags": {}
    },
    {
      "_id": "b795yhm7txhgvifa",
      "name": "Ecology",
      "type": "feat",
      "img": "icons/environment/wilderness/tree-oak.webp",
      "data": {
        "description": {
          "value": "<div><strong>Environment</strong>:  any land</div><div><strong>Organization</strong>:  solitary, pair, or cell (3-7)</div><div><strong>Treasure</strong>:  standard (+1 longsword, daggers [4], other treasure)</div>"
        },
        "tags": [],
        "damage": {
          "parts": [],
          "critParts": [],
          "nonCritParts": []
        },
        "attackParts": [],
        "effectNotes": [],
        "attackNotes": [],
        "changes": [],
        "contextNotes": [],
        "links": {
          "children": [],
          "charges": []
        },
        "armorProf": {
          "value": []
        },
        "weaponProf": {
          "value": []
        },
        "flags": {
          "boolean": [],
          "dictionary": []
        },
        "scriptCalls": [],
        "featType": "misc",
        "associations": {
          "classes": []
        }
      },
      "effects": [],
      "folder": null,
      "sort": 0,
      "permission": {
        "default": 0
      },
      "flags": {}
    },
    {
      "_id": "f35m0ol3onvcuxfj",
      "name": "Alert Master",
      "type": "feat",
      "img": "systems/pf1/icons/skills/yellow_36.jpg",
      "data": {
        "description": {
          "value": "Three times per day, a mirror man can send a brief message to a creature it is familiar with (typically its master). This effect is similar to the sending spell, but it takes only a standard action, the communication is one way, and the target cannot respond to the sending."
        },
        "tags": [],
        "damage": {
          "parts": [],
          "critParts": [],
          "nonCritParts": []
        },
        "attackParts": [],
        "effectNotes": [],
        "attackNotes": [],
        "changes": [],
        "contextNotes": [],
        "links": {
          "children": [],
          "charges": []
        },
        "armorProf": {
          "value": []
        },
        "weaponProf": {
          "value": []
        },
        "flags": {
          "boolean": [],
          "dictionary": []
        },
        "scriptCalls": [],
        "featType": "classFeat",
        "associations": {
          "classes": []
        },
        "abilityType": "su"
      },
      "effects": [],
      "folder": null,
      "sort": 0,
      "permission": {
        "default": 0
      },
      "flags": {}
    },
    {
      "_id": "sqx0kc1urahd8d62",
      "name": "Mirror Sight",
      "type": "feat",
      "img": "systems/pf1/icons/skills/yellow_36.jpg",
      "data": {
        "description": {
          "value": "A mirror man has no eyes, but is capable of visually perceiving through the use of blindsight, darkvision, and low-light vision."
        },
        "tags": [],
        "damage": {
          "parts": [],
          "critParts": [],
          "nonCritParts": []
        },
        "attackParts": [],
        "effectNotes": [],
        "attackNotes": [],
        "changes": [],
        "contextNotes": [],
        "links": {
          "children": [],
          "charges": []
        },
        "armorProf": {
          "value": []
        },
        "weaponProf": {
          "value": []
        },
        "flags": {
          "boolean": [],
          "dictionary": []
        },
        "scriptCalls": [],
        "featType": "classFeat",
        "associations": {
          "classes": []
        },
        "abilityType": "ex"
      },
      "effects": [],
      "folder": null,
      "sort": 0,
      "permission": {
        "default": 0
      },
      "flags": {}
    },
    {
      "_id": "kn7cd2d8c5yf18kq",
      "name": "Scrying Focus",
      "type": "feat",
      "img": "systems/pf1/icons/skills/yellow_36.jpg",
      "data": {
        "description": {
          "value": "Mirror men are specifically created to interact with the spell Irriseni mirror sight (Pathfinder Adventure Path #67 73) in special ways. The construct’s mirrored face can serve as a known mirror, allowing the caster to see from the perspective of the construct’s face with normal sight. The caster may also communicate telepathically with the mirror man. As a swift action, the mirror man can choose to remember and record up to 1 minute of what it sees. This memory is visual only and can be viewed remotely through Irriseni mirror sight or played back across its face. The mirror man can only retain 1 minute of images; when its memory is full, old memories are erased so it can remember new ones. The caster may interact with the mirror man’s soul mirror even after the construct body is destroyed as long as the face itself remains unbroken. If the construct has not been destroyed, an opponent must succeed at a sunder attempt targeting the mirrored face to break the mirror. The mirrored face is considered a separate weapon with a hardness of 1 and hit points equal to the mirror man’s Hit Dice. If the construct has been destroyed, the mirrored face can be smashed as a standard action."
        },
        "tags": [],
        "damage": {
          "parts": [],
          "critParts": [],
          "nonCritParts": []
        },
        "attackParts": [],
        "effectNotes": [],
        "attackNotes": [],
        "changes": [],
        "contextNotes": [],
        "links": {
          "children": [],
          "charges": []
        },
        "armorProf": {
          "value": []
        },
        "weaponProf": {
          "value": []
        },
        "flags": {
          "boolean": [],
          "dictionary": []
        },
        "scriptCalls": [],
        "featType": "classFeat",
        "associations": {
          "classes": []
        },
        "abilityType": "su"
      },
      "effects": [],
      "folder": null,
      "sort": 0,
      "permission": {
        "default": 0
      },
      "flags": {}
    },
    {
      "_id": "sytvv9ir535odcqx",
      "name": "Soul Mirror",
      "type": "feat",
      "img": "systems/pf1/icons/skills/yellow_36.jpg",
      "data": {
        "description": {
          "value": "The soul of a mirror man is bound within its mirrored face. As long as the face remains intact, it can be affixed to a new construct body using the same cost to create a new construct. Once a soul is bound to a mirror, the soul continues to learn, and if the mirror is later affixed to a new body, the soul retains any memories from its previous bodies."
        },
        "tags": [],
        "damage": {
          "parts": [],
          "critParts": [],
          "nonCritParts": []
        },
        "attackParts": [],
        "effectNotes": [],
        "attackNotes": [],
        "changes": [],
        "contextNotes": [],
        "links": {
          "children": [],
          "charges": []
        },
        "armorProf": {
          "value": []
        },
        "weaponProf": {
          "value": []
        },
        "flags": {
          "boolean": [],
          "dictionary": []
        },
        "scriptCalls": [],
        "featType": "classFeat",
        "associations": {
          "classes": []
        },
        "abilityType": "su"
      },
      "effects": [],
      "folder": null,
      "sort": 0,
      "permission": {
        "default": 0
      },
      "flags": {}
    },
    {
      "_id": "z1bdiuots54h0obs",
      "name": "Susceptible To Mind-affecting Effects",
      "type": "feat",
      "img": "systems/pf1/icons/skills/yellow_36.jpg",
      "data": {
        "description": {
          "value": "The self-aware and autonomous nature of a mirror man makes it susceptible to mind-affecting effects, despite the fact that it is a construct."
        },
        "tags": [],
        "damage": {
          "parts": [],
          "critParts": [],
          "nonCritParts": []
        },
        "attackParts": [],
        "effectNotes": [],
        "attackNotes": [],
        "changes": [],
        "contextNotes": [],
        "links": {
          "children": [],
          "charges": []
        },
        "armorProf": {
          "value": []
        },
        "weaponProf": {
          "value": []
        },
        "flags": {
          "boolean": [],
          "dictionary": []
        },
        "scriptCalls": [],
        "featType": "classFeat",
        "associations": {
          "classes": []
        },
        "abilityType": "ex"
      },
      "effects": [],
      "folder": null,
      "sort": 0,
      "permission": {
        "default": 0
      },
      "flags": {}
    },
    {
      "_id": "3dVsdEYRUMBNCvb2",
      "name": "sbc | Conversion Buff",
      "type": "buff",
      "img": "systems/pf1/icons/skills/yellow_36.jpg",
      "data": {
        "description": {
          "value": "<h2>sbc | Conversion Buff</h2>\n                        This Buff was created by <strong>sbc</strong> to compensate for differences between the input and the values FoundryVTT calculates automatically.\n                        <br><br>\n                        Especially when the pathfinder system gets upgraded, entries in compendiums get updated or foundry changes in some way, this buff may become outdated.\n                        <br><br>\n                        For most mooks the conversion should more or less work, but for important NPCs or creatures it is adviced to double check the conversion manually."
        },
        "tags": [],
        "changes": [
          {
            "formula": "1",
            "modifier": "dodge",
            "operator": "add",
            "priority": 0,
            "subTarget": "ac",
            "target": "ac",
            "value": 1,
            "id": "tc2tnjmn"
          },
          {
            "formula": "40",
            "modifier": "untypedPerm",
            "operator": "add",
            "priority": 0,
            "subTarget": "mhp",
            "target": "misc",
            "value": 40,
            "id": "77vcnkue"
          },
          {
            "formula": "5",
            "modifier": "untypedPerm",
            "operator": "add",
            "priority": 0,
            "subTarget": "fort",
            "target": "savingThrows",
            "value": 5,
            "id": "zyc2grun"
          },
          {
            "formula": "-1",
            "modifier": "untypedPerm",
            "operator": "add",
            "priority": 0,
            "subTarget": "aac",
            "target": "ac",
            "value": -1,
            "id": "8xbtghws"
          },
          {
            "formula": "-4",
            "modifier": "untypedPerm",
            "operator": "add",
            "priority": 0,
            "subTarget": "skill.per",
            "target": "skill",
            "value": -4,
            "id": "ba373rr6"
          },
          {
            "formula": "-4",
            "modifier": "untypedPerm",
            "operator": "add",
            "priority": 0,
            "subTarget": "skill.sen",
            "target": "skill",
            "value": -4,
            "id": "kkin17gw"
          }
        ],
        "contextNotes": [],
        "links": {
          "children": []
        },
        "tag": "sbcConversionBuff",
        "useCustomTag": true,
        "flags": {
          "boolean": [],
          "dictionary": []
        },
        "scriptCalls": [],
        "buffType": "perm",
        "active": true,
        "hideFromToken": true
      },
      "effects": [],
      "folder": null,
      "sort": 0,
      "permission": {
        "default": 0,
        "iM1ACTqH0Ml6HJtd": 3
      },
      "flags": {}
    }
  ],
  "effects": [],
  "folder": null,
  "sort": 0,
  "permission": {
    "default": 0
  },
  "flags": {}
}