{
  "_id": "jz9pCuu5ubrF4wQa",
  "name": "Fiend's Mouth Cannon",
  "type": "weapon",
  "img": "icons/weapons/artillery/cannon-simple.webp",
  "data": {
    "description": {
      "value": "<p><strong>Source</strong> <em>Ultimate Combat pg. 163</em></p><h3 class=\"framing\">Statistics</h3><p><strong>Cost</strong> 9,000 gp <strong>Weight</strong> -</p><p><strong>Damage</strong> 8d6; <strong>Critical</strong> x4; <strong>Range</strong> 150 ft.; <strong>Type</strong> B and P</p><p><strong>Crew</strong> 3; <strong>Aim</strong> 1; <strong>Load</strong> 3; <strong>Speed</strong> 0 ft.</p><p><strong>Category</strong> Direct-Fire (Huge); <strong>Proficiency</strong> Siege Engine</p><h3 class=\"framing\">Description</h3><p>These massive cannons are usually crafted in multiple pieces, and sometimes feature the heads of demons, devils, or other fiends at their mouths. Like normal canons, they propel their projectiles with great force. A fiend's mouth cannon has a misfire range of 1 (30 ft.). Fiend's mouth canons have a hardness of 10 and 140 hit points. Fiend's mouth cannon balls cost 45 gp and weigh 30 pounds each.</p>"
    },
    "tags": [],
    "price": 9000,
    "hardness": 10,
    "identifiedName": "Fiend's Mouth Cannon",
    "changes": [],
    "contextNotes": [],
    "links": {
      "children": []
    },
    "tag": "fiendsMouthCannon",
    "flags": {
      "boolean": [],
      "dictionary": []
    },
    "scriptCalls": [],
    "weaponType": "exotic",
    "weaponSubtype": "ranged",
    "weaponData": {
      "damageRoll": "8d6",
      "damageType": "B and P",
      "critRange": "",
      "critMult": "4",
      "range": 150
    }
  },
  "effects": [],
  "folder": null,
  "sort": 0,
  "permission": {
    "default": 0
  },
  "flags": {}
}