{
  "_id": "cfxzk6zSmOMMVoOo",
  "name": "Flask Pike",
  "type": "weapon",
  "img": "systems/pf1/icons/items/weapons/boarding-pike.png",
  "data": {
    "description": {
      "value": "<p><strong>Source</strong> <em>Giant Hunter's Handbook pg. 24</em></p><h3 class=\"framing\"><img src=\"https://www.aonprd.com/images/PathfinderSocietySymbol.gif\" title=\"PFS Legal\" style=\"margin:3px 3px 0px 3px;\">Statistics</h3><p><strong>Cost</strong> 30 gp <strong>Weight</strong> 9 lbs.</p><p><strong>Damage</strong> 1d6 (small), 1d8 (medium); <strong>Critical</strong> x3; <strong>Range</strong> -; <strong>Type</strong> P; <strong>Special</strong> reach, see text</p><p><strong>Category</strong> Two-Handed; <strong>Proficiency</strong> Exotic</p><h3 class=\"framing\">Description</h3><p>This pike has a hollow spot near its tip into which a flask can be strapped. If the flask is filled with an alchemical splash weapon and you hit a creature with the pike, the target is also hit with the splash weapon. This uses up the contents of the flask. Because of the added weight of a flask, attacks with the flask pike take a -2 penalty when it's loaded with one. Reloading the flask pike is a full-round action that provokes attacks of opportunity.</p>"
    },
    "tags": [],
    "weight": 9,
    "price": 30,
    "hardness": 10,
    "identifiedName": "Flask Pike",
    "changes": [],
    "contextNotes": [],
    "links": {
      "children": []
    },
    "tag": "flaskPike",
    "flags": {
      "boolean": [],
      "dictionary": []
    },
    "scriptCalls": [],
    "weaponType": "exotic",
    "weaponSubtype": "2h",
    "weaponData": {
      "damageRoll": "1d8",
      "damageType": "P",
      "critMult": 3,
      "range": 0
    }
  },
  "effects": [],
  "folder": null,
  "sort": 0,
  "permission": {
    "default": 0
  },
  "flags": {}
}