{
  "_id": "q1HlpY1NoUveS47l",
  "name": "Handwraps",
  "type": "weapon",
  "img": "systems/pf1/icons/items/weapons/handwraps.png",
  "data": {
    "description": {
      "value": "<p><strong>Source</strong> <em>Martial Arts Handbook pg. 30</em></p><h3 class=\"framing\">Statistics</h3><p><strong>Cost</strong> 1 sp <strong>Weight</strong> -</p><p><strong>Damage</strong> - (small), - (medium); <strong>Critical</strong> -; <strong>Range</strong> -; <strong>Type</strong> -; <strong>Special</strong> See text</p><p><strong>Category</strong> Light; <strong>Proficiency</strong> Simple</p><h3 class=\"framing\">Description</h3><p>Many unarmed fighters wrap their hands in cloth to minimize injuries to their fists. Some martial artists also weave small coins or metal bars into their handwraps, adding special material effects as well. Handwraps don't alter the damage a character's unarmed attacks deal. However, masterwork handwraps can be enchanted as weapons, providing their benefits on unarmed attacks the character makes with her hands. A character can't benefit from both handwraps and other items that provide enhancement bonuses or weapon special abilities (such as an <a style=\"text-decoration:underline\" href=\"MagicWondrousDisplay.aspx?FinalName=Amulet of Mighty Fists1\"><em>amulet of mighty fists</em></a>) on the same attack.</p>"
    },
    "tags": [],
    "price": 0.1,
    "hp": {
      "max": 2,
      "value": 2
    },
    "hardness": 10,
    "identifiedName": "Handwraps",
    "changes": [],
    "contextNotes": [],
    "links": {
      "children": []
    },
    "tag": "handwraps",
    "flags": {
      "boolean": [],
      "dictionary": []
    },
    "scriptCalls": [],
    "weaponData": {
      "damageRoll": "NULL",
      "damageType": "NULL",
      "critMult": 0,
      "range": 0
    }
  },
  "effects": [],
  "folder": null,
  "sort": 0,
  "permission": {
    "default": 0
  },
  "flags": {}
}