{
  "_id": "F9GR4mUpehjkNdMj",
  "name": "Handaxe",
  "type": "weapon",
  "img": "systems/pf1/icons/items/weapons/handaxe.png",
  "data": {
    "description": {
      "value": "<p><strong>Source</strong> <em>Ultimate Equipment pg. 18</em>, <em>PRPG Core Rulebook pg. 142</em></p><h3 class=\"framing\"><img src=\"https://www.aonprd.com/images/PathfinderSocietySymbol.gif\" title=\"PFS Legal\" style=\"margin:3px 3px 0px 3px;\">Statistics</h3><p><strong>Cost</strong> 6 gp <strong>Weight</strong> 3 lbs.</p><p><strong>Damage</strong> 1d4 (small), 1d6 (medium); <strong>Critical</strong> x3; <strong>Range</strong> -; <strong>Type</strong> S; <strong>Special</strong> -</p><p><strong>Category</strong> Light; <strong>Proficiency</strong> Martial</p><p><strong>Weapon Groups</strong> Axes; Tribal</p><h3 class=\"framing\">Description</h3><p>This one-handed axe is short (roughly 1 foot long) and designed for use with one hand. Unlike throwing axes, it is not well balanced for a graceful tumbling motion, and is instead heavier at its head. Tomahawks, war hatchets, and other such names usually refer to hand axes.</p>"
    },
    "tags": [],
    "weight": 3,
    "price": 6,
    "hp": {
      "max": 2,
      "value": 2
    },
    "hardness": 10,
    "identifiedName": "Handaxe",
    "changes": [],
    "contextNotes": [],
    "links": {
      "children": []
    },
    "tag": "handaxe",
    "flags": {
      "boolean": [],
      "dictionary": []
    },
    "scriptCalls": [],
    "weaponType": "martial",
    "weaponData": {
      "damageRoll": "1d6",
      "damageType": "S",
      "critMult": 3,
      "range": 0
    }
  },
  "effects": [],
  "folder": null,
  "sort": 0,
  "permission": {
    "default": 0
  },
  "flags": {}
}