{
  "_id": "rsDtJY6xEH7v7uLU",
  "name": "Horsechopper",
  "type": "weapon",
  "img": "systems/pf1/icons/items/weapons/horsechopper.png",
  "data": {
    "description": {
      "value": "<p><strong>Source</strong> <em>Ultimate Equipment pg. 19</em>, <em>Pathfinder Campaign Setting pg. 209</em>, <em>Inner Sea World Guide pg. 290</em>, <em>Adventurer's Armory pg. 18</em>, <em>Advanced Race Guide pg. 118</em></p><h3 class=\"framing\"><img src=\"https://www.aonprd.com/images/PathfinderSocietySymbol.gif\" title=\"PFS Legal\" style=\"margin:3px 3px 0px 3px;\">Statistics</h3><p><strong>Cost</strong> 10 gp <strong>Weight</strong> 12 lbs.</p><p><strong>Damage</strong> 1d8 (small), 1d10 (medium); <strong>Critical</strong> x3; <strong>Range</strong> -; <strong>Type</strong> P or S; <strong>Special</strong> reach, trip</p><p><strong>Category</strong> Two-Handed; <strong>Proficiency</strong> Martial</p><p><strong>Weapon Groups</strong> Polearms</p><h3 class=\"framing\">Description</h3><p>Crafted by goblins for battling horses, this weapon is essentially a long-handled halberd with an enlarged hook on the blade. Most horsechoppers are sized for Small creatures.</p>"
    },
    "tags": [],
    "weight": 12,
    "price": 10,
    "hardness": 10,
    "identifiedName": "Horsechopper",
    "changes": [],
    "contextNotes": [],
    "links": {
      "children": []
    },
    "tag": "horsechopper",
    "flags": {
      "boolean": [],
      "dictionary": []
    },
    "scriptCalls": [],
    "weaponType": "martial",
    "weaponSubtype": "2h",
    "weaponData": {
      "damageRoll": "1d10",
      "damageType": "P or S",
      "critMult": 3,
      "range": 0
    }
  },
  "effects": [],
  "folder": null,
  "sort": 0,
  "permission": {
    "default": 0
  },
  "flags": {}
}