{
  "_id": "TnlmmOvNB0gAy4LS",
  "name": "Incendiary Arrow",
  "type": "loot",
  "img": "systems/pf1/icons/items/weapons/arrow-special.PNG",
  "data": {
    "description": {
      "value": "<p><strong>Source</strong> <em>Ranged Tactics Toolbox pg. 19</em></p>\n<h3 class=\"framing\"><img style=\"margin: 3px 3px 0px 3px;\" title=\"PFS Legal\" src=\"https://www.aonprd.com/images/PathfinderSocietySymbol.gif\" />Statistics</h3>\n<p><strong>Cost</strong> 10 gp <strong>Weight</strong> 3 lbs.</p>\n<p><strong>Category</strong> Ammunition; <strong>Proficiency</strong> Ammunition</p>\n<h3 class=\"framing\">Description</h3>\n<p>A metal cage behind this arrow's point contains flammable material. You take a <strong>-1 penalty on attack rolls</strong> when firing incendiary arrows. You can light up to six incendiary arrows as a full-round action (a standard action if you use a tindertwig) that provokes attacks of opportunity.</p>\n<p>Once lit, the arrow burns for 2 rounds. A lit incendiary arrow deals an additional <strong>1 point of fire damage</strong>. On a critical hit, the target must succeed at a DC 15 Reflex save or catch fire.</p>\n<p>Incendiary bolts exist for crossbows.</p>"
    },
    "tags": [],
    "weight": 3,
    "price": 10,
    "hp": {
      "max": 1,
      "value": 1
    },
    "hardness": 5,
    "identifiedName": "Incendiary Arrow",
    "changes": [],
    "contextNotes": [],
    "links": {
      "children": []
    },
    "tag": "incendiaryArrow",
    "flags": {
      "boolean": [],
      "dictionary": []
    },
    "scriptCalls": [],
    "subType": "ammo",
    "equipped": false
  },
  "effects": [],
  "folder": null,
  "sort": 0,
  "permission": {
    "default": 0
  },
  "flags": {}
}