{
  "_id": "prQK9j1wfKuHR3jq",
  "name": "Launching Crossbow",
  "type": "weapon",
  "img": "systems/pf1/icons/items/weapons/crossbow-launching.PNG",
  "data": {
    "description": {
      "value": "<p><strong>Source</strong> <em>Adventurer's Armory pg. 4</em></p><h3 class=\"framing\"><img src=\"https://www.aonprd.com/images/PathfinderSocietySymbol.gif\" title=\"PFS Legal\" style=\"margin:3px 3px 0px 3px;\">Statistics</h3><p><strong>Cost</strong> 75 gp <strong>Weight</strong> 8 lbs.</p><p><strong>Damage</strong> - (small), - (medium); <strong>Critical</strong> -; <strong>Range</strong> 30 ft.; <strong>Type</strong> -; <strong>Special</strong> -</p><p><strong>Category</strong> Ranged; <strong>Proficiency</strong> Exotic</p><p><strong>Weapon Groups</strong> Crossbows</p><h3 class=\"framing\">Description</h3><p>This stubby-looking crossbow has a cup-like attachment rather than a groove for a bolt. It is designed to launch splash weapons. Loading a launching crossbow is a full-round action.</p>"
    },
    "tags": [],
    "weight": 8,
    "price": 75,
    "hp": {
      "max": 5,
      "value": 5
    },
    "hardness": 5,
    "identifiedName": "Launching Crossbow",
    "changes": [],
    "contextNotes": [],
    "links": {
      "children": []
    },
    "tag": "launchingCrossbow",
    "flags": {
      "boolean": [],
      "dictionary": []
    },
    "scriptCalls": [],
    "weaponType": "exotic",
    "weaponSubtype": "ranged",
    "weaponData": {
      "damageRoll": "NULL",
      "damageType": "NULL",
      "critMult": 0,
      "range": 30
    }
  },
  "effects": [],
  "folder": null,
  "sort": 0,
  "permission": {
    "default": 0
  },
  "flags": {}
}