{
  "_id": "qTS8jlwPlLSvBqXX",
  "name": "Little Starstones Sling Bullets (10)",
  "type": "loot",
  "img": "icons/weapons/ammunition/shot-round-silver.webp",
  "data": {
    "description": {
      "value": "<p><strong>Source</strong> <em>Halflings of Golarion pg. 22</em></p><h3 class=\"framing\"><img src=\"https://www.aonprd.com/images/PathfinderSocietySymbol.gif\" title=\"PFS Legal\" style=\"margin:3px 3px 0px 3px;\">Statistics</h3><p><strong>Cost</strong> 5 cp <strong>Weight</strong> 2 lbs.</p><p><strong>Category</strong> Ammunition; <strong>Proficiency</strong> Ammunition</p><h3 class=\"framing\">Description</h3><p>Though they are technically sling ammunition, these thread- or cloth-wrapped pebbles are mainly used for signaling or celebration rather than battle, as they barely hit hard enough to sting. When soaked in oil or strong alcohol, they burn brightly for 1 round, illuminating an area like a candle and creating brief streaks of light as they fly through the air. They generally aren't hot enough and burn out too quickly to ignite combustibles.</p>"
    },
    "tags": [],
    "quantity": 10,
    "weight": 20,
    "price": 0.1,
    "hp": {
      "max": 1,
      "value": 1
    },
    "hardness": 5,
    "identifiedName": "Little Starstones Sling Bullets (10)",
    "changes": [],
    "contextNotes": [],
    "links": {
      "children": []
    },
    "tag": "halflingLittleStarstones10",
    "flags": {
      "boolean": [],
      "dictionary": []
    },
    "scriptCalls": [],
    "subType": "ammo",
    "equipped": false
  },
  "effects": [],
  "folder": null,
  "sort": 0,
  "permission": {
    "default": 0
  },
  "flags": {}
}