{
  "_id": "KVnt2bU40TdySu6L",
  "name": "Lizard King War Trident",
  "type": "weapon",
  "img": "icons/weapons/polearms/trident-silver-blue.webp",
  "data": {
    "description": {
      "value": "<p><strong>Source</strong> <em>Classic Monsters Revisited pg. 38</em></p>\n<h3 class=\"framing\"><img style=\"margin: 3px 3px 0px 3px;\" title=\"3.5 Material\" src=\"https://www.aonprd.com/images/ThreeFiveSymbol.gif\" />Statistics</h3>\n<p><strong>Cost</strong> 20 gp <strong>Weight</strong> 12 lbs.</p>\n<p><strong>Damage</strong> see text (small), see text (medium); <strong>Critical</strong> x3; <strong>Range</strong> 10 ft.; <strong>Type</strong> P; <strong>Special</strong> brace</p>\n<p><strong>Category</strong> Two-Handed; <strong>Proficiency</strong> Martial</p>\n<h3 class=\"framing\">Description</h3>\n<p>Upon his 100th birthday, a lizard king's status is officially acknowledged, and he is honored with the presentation of a special weapon, the war trident, reserved exclusively for the use of his kind. These large, two-handed tridents are much heavier than normal (12 pounds) in order to take advantage of their wielders' great strength, and as a result they lose their range increment but deal 1d10 points of damage and have a x3 critical hit multiplier. In addition, extensive ritualistic practice with this weapon gives the lizard king the Improved Critical (war trident) feat as a bonus feat. A war trident is worth 20 gp, although most are masterwork and many are inlaid with precious metals and fetch higher prices.</p>"
    },
    "tags": [],
    "weight": 12,
    "price": 20,
    "hardness": 10,
    "identifiedName": "Lizard King War Trident",
    "changes": [],
    "contextNotes": [],
    "links": {
      "children": []
    },
    "tag": "lizardKingWarTrident",
    "flags": {
      "boolean": [],
      "dictionary": []
    },
    "scriptCalls": [],
    "weaponType": "martial",
    "weaponSubtype": "2h",
    "weaponData": {
      "damageRoll": "NULL",
      "damageType": "P",
      "critMult": 3,
      "range": 10
    }
  },
  "effects": [],
  "folder": null,
  "sort": 0,
  "permission": {
    "default": 0
  },
  "flags": {}
}