{
  "_id": "oXoCHa3VES4B98oz",
  "name": "Lucerne Hammer",
  "type": "weapon",
  "img": "systems/pf1/icons/items/weapons/hammer-lucerne.PNG",
  "data": {
    "description": {
      "value": "<p><strong>Source</strong> <em>Ultimate Equipment pg. 19</em>, <em>Adventurer's Armory pg. 4</em>, <em>Advanced Player's Guide pg. 179</em></p><h3 class=\"framing\"><img src=\"https://www.aonprd.com/images/PathfinderSocietySymbol.gif\" title=\"PFS Legal\" style=\"margin:3px 3px 0px 3px;\">Statistics</h3><p><strong>Cost</strong> 15 gp <strong>Weight</strong> 12 lbs.</p><p><strong>Damage</strong> 1d10 (small), 1d12 (medium); <strong>Critical</strong> x2; <strong>Range</strong> -; <strong>Type</strong> B or P; <strong>Special</strong> brace, reach, see text</p><p><strong>Category</strong> Two-Handed; <strong>Proficiency</strong> Martial</p><p><strong>Weapon Groups</strong> Polearms</p><h3 class=\"framing\">Description</h3><p>This polearm has both a pronged hammer head for crushing blows and a spiked head for piercing and peeling armor. The long haft allows the wielder to put amazing force behind the head of this weapon. You gain a +2 bonus on combat maneuver checks to sunder medium or heavy armor with a lucerne hammer.</p>"
    },
    "tags": [],
    "weight": 12,
    "price": 15,
    "hardness": 10,
    "identifiedName": "Lucerne Hammer",
    "changes": [],
    "contextNotes": [],
    "links": {
      "children": []
    },
    "tag": "lucerneHammer",
    "flags": {
      "boolean": [],
      "dictionary": []
    },
    "scriptCalls": [],
    "weaponType": "martial",
    "weaponSubtype": "2h",
    "weaponData": {
      "damageRoll": "1d12",
      "damageType": "B or P",
      "range": 0
    }
  },
  "effects": [],
  "folder": null,
  "sort": 0,
  "permission": {
    "default": 0
  },
  "flags": {}
}