{
  "_id": "05NnBuNnkMsaNoXf",
  "name": "Punching Dagger",
  "type": "weapon",
  "img": "systems/pf1/icons/items/weapons/dagger-punching.PNG",
  "data": {
    "description": {
      "value": "<p><strong>Source</strong> <em>Ultimate Equipment pg. 17</em>, <em>PRPG Core Rulebook pg. 142</em></p><h3 class=\"framing\"><img src=\"https://www.aonprd.com/images/PathfinderSocietySymbol.gif\" title=\"PFS Legal\" style=\"margin:3px 3px 0px 3px;\">Statistics</h3><p><strong>Cost</strong> 2 gp <strong>Weight</strong> 1 lb.</p><p><strong>Damage</strong> 1d3 (small), 1d4 (medium); <strong>Critical</strong> x3; <strong>Range</strong> -; <strong>Type</strong> P; <strong>Special</strong> -</p><p><strong>Category</strong> Light; <strong>Proficiency</strong> Simple</p><p><strong>Weapon Groups</strong> Close</p><h3 class=\"framing\">Description</h3><p>A punching dagger's blade is attached to a horizontal handle that projects out from the fist when held.</p>"
    },
    "tags": [],
    "weight": 1,
    "price": 2,
    "hp": {
      "max": 2,
      "value": 2
    },
    "hardness": 10,
    "identifiedName": "Punching Dagger",
    "changes": [],
    "contextNotes": [],
    "links": {
      "children": []
    },
    "tag": "punchingDagger",
    "flags": {
      "boolean": [],
      "dictionary": []
    },
    "scriptCalls": [],
    "weaponData": {
      "damageRoll": "1d4",
      "damageType": "P",
      "critMult": 3,
      "range": 0
    }
  },
  "effects": [],
  "folder": null,
  "sort": 0,
  "permission": {
    "default": 0
  },
  "flags": {}
}