{
  "_id": "xhUw4hzZlljYFCzj",
  "name": "Radium Rifle",
  "type": "weapon",
  "img": "icons/weapons/guns/gun-topbarrel.webp",
  "data": {
    "description": {
      "value": "<p><strong>Source</strong> <em>Pathfinder: Worldscape #2 pg. 27</em></p><h3 class=\"framing\">Statistics</h3><p><strong>Cost</strong> 5,500 gp <strong>Weight</strong> 10 lbs.</p><p><strong>Damage</strong> 1d8 (small), 1d10 (medium); <strong>Critical</strong> x4; <strong>Range</strong> 100 ft.; <strong>Type</strong> B and P; <strong>Special</strong> see text</p><p><strong>Misfire</strong> 1; <strong>Capacity</strong> 1</p><p><strong>Category</strong> Two-Handed; <strong>Proficiency</strong> Exotic</p><h3 class=\"framing\">Description</h3><p>The long barrel and line construction ofthis two handed weapon allows for a range superior to even modern Earth ri?es.<h2 class=\"title\">Radium Weapons</h2>Barsoomian ?rearms are stocked with rare local woods. Metal components consist of an alloy of aluminum and steel that exceeds the strength of Earth metals (giving Barsoomian ?mrms a hardness of 12). Radium weapons ?re special cartridges that must be manufactured under arti?cial light, as exposure to sunlight results in an explosion. When the cartridges strike their target they shatter exposingthe radium powder within. The moment sunlight strikes this substance it explodes with considerable violence, making the weapons versatile for either direct ?re or suppressive ?re. Radium weapons follow the general rules for advanced firearms found in <em>Path?nder Rolepla?ng Game: Ultimate Combat</em>.</p><p></p><p> All radium weapons use radium cartridges for ammunition. As a result. in addition to targeting speci?c creatures or objects. the wielder may ?re a radium weapon at an unoccupied square similar to throwing a splash weapon (<em>Pathfinder RFC Core Rulebook 202</em>). All creatures within 15 feet of the targeted square take 2d6 points of bludgeoning, piercing, and slashing damage (Re?ex DC 15 half). Radium cartridge damage does not change based on the size of the weapon used to ?re them. Radium cartridges cannot be ?red effectively in this way outside the rays of the sun, such as underground or at night. Radium cartridges cost 3 gp per cartridge.</p>"
    },
    "tags": [],
    "weight": 10,
    "price": 5500,
    "hardness": 10,
    "identifiedName": "Radium Rifle",
    "changes": [],
    "contextNotes": [],
    "links": {
      "children": []
    },
    "tag": "radiumRifle",
    "flags": {
      "boolean": [],
      "dictionary": []
    },
    "scriptCalls": [],
    "weaponType": "exotic",
    "weaponSubtype": "2h",
    "weaponData": {
      "damageRoll": "1d10",
      "damageType": "B and P",
      "critRange": "",
      "critMult": "4",
      "range": 100
    }
  },
  "effects": [],
  "folder": null,
  "sort": 0,
  "permission": {
    "default": 0
  },
  "flags": {}
}