{
  "_id": "mEOR0Hj86mCU1hwm",
  "name": "Repeating Crossbow Bolt",
  "type": "loot",
  "img": "systems/pf1/icons/items/weapons/bolt.PNG",
  "data": {
    "description": {
      "value": "<p><strong>Source</strong>&nbsp;<em>Ultimate Equipment pg. 22</em>,&nbsp;<em>PRPG Core Rulebook pg. 143</em></p>\n<h3 class=\"framing\"><img style=\"margin: 3px 3px 0px 3px;\" title=\"PFS Legal\" src=\"https://www.aonprd.com/images/PathfinderSocietySymbol.gif\" />Statistics</h3>\n<p><strong>Cost</strong>&nbsp;1 gp&nbsp;<strong>Weight</strong>&nbsp;1 lb.</p>\n<p><strong>Category</strong>&nbsp;Ammunition;&nbsp;<strong>Proficiency</strong>&nbsp;Ammunition</p>\n<h3 class=\"framing\">Description</h3>\n<p>Bolts for a repeating crossbow are designed to fit the bolt case of a repeating crossbow. They are slightly more expensive than regular crossbow bolts and sold in increments of 5 instead of 10 (to match the capacity of the bolt case).</p>"
    },
    "tags": [],
    "weight": 0.1,
    "price": 0.2,
    "hp": {
      "max": 1,
      "value": 1
    },
    "hardness": 5,
    "unidentified": {
      "price": 0.2
    },
    "identifiedName": "Repeating Crossbow Bolt",
    "changes": [],
    "contextNotes": [],
    "links": {
      "children": []
    },
    "flags": {
      "boolean": [],
      "dictionary": []
    },
    "scriptCalls": [],
    "subType": "ammo",
    "equipped": false
  },
  "effects": [],
  "folder": null,
  "sort": 0,
  "permission": {
    "default": 0
  },
  "flags": {}
}