{
  "_id": "dgmR0QtZF8vePzcz",
  "name": "Scythe",
  "type": "weapon",
  "img": "systems/pf1/icons/items/weapons/scythe.PNG",
  "data": {
    "description": {
      "value": "<p><strong>Source</strong> <em>Ultimate Equipment pg. 19</em>, <em>PRPG Core Rulebook pg. 143</em></p><h3 class=\"framing\"><img src=\"https://www.aonprd.com/images/PathfinderSocietySymbol.gif\" title=\"PFS Legal\" style=\"margin:3px 3px 0px 3px;\">Statistics</h3><p><strong>Cost</strong> 18 gp <strong>Weight</strong> 10 lbs.</p><p><strong>Damage</strong> 1d6 (small), 2d4 (medium); <strong>Critical</strong> x4; <strong>Range</strong> -; <strong>Type</strong> P or S; <strong>Special</strong> trip</p><p><strong>Category</strong> Two-Handed; <strong>Proficiency</strong> Martial</p><p><strong>Weapon Groups</strong> Blades, Heavy</p><h3 class=\"framing\">Description</h3><p>This weapon consists of a long wooden shaft with protruding handles and a sharp curved blade set at a right angle. Derived from a farm tool used to mow down crops, a scythe requires two hands to use, and is unwieldy but capable of inflicting grievous wounds. Its connotations as a symbol of death due to its association with reaping also make the scythe a particularly intimidating weapon.</p>"
    },
    "tags": [],
    "weight": 10,
    "price": 18,
    "hardness": 10,
    "identifiedName": "Scythe",
    "changes": [],
    "contextNotes": [],
    "links": {
      "children": []
    },
    "tag": "scythe",
    "flags": {
      "boolean": [],
      "dictionary": []
    },
    "scriptCalls": [],
    "weaponType": "martial",
    "weaponSubtype": "2h",
    "weaponData": {
      "damageRoll": "2d4",
      "damageType": "P or S",
      "critMult": 4,
      "range": 0
    }
  },
  "effects": [],
  "folder": null,
  "sort": 0,
  "permission": {
    "default": 0
  },
  "flags": {}
}