{
  "_id": "V40BXJ7fUxfXI2H4",
  "name": "Sharpened Combat Scabbard",
  "type": "weapon",
  "img": "systems/pf1/icons/items/weapons/blowgun.PNG",
  "data": {
    "description": {
      "value": "<p><strong>Source</strong> <em>Adventurer's Armory pg. 3</em></p><h3 class=\"framing\"><img src=\"https://www.aonprd.com/images/PathfinderSocietySymbol.gif\" title=\"PFS Legal\" style=\"margin:3px 3px 0px 3px;\">Statistics</h3><p><strong>Cost</strong> 10 gp <strong>Weight</strong> 1 lb.</p><p><strong>Damage</strong> 1d4 (small), 1d6 (medium); <strong>Critical</strong> x2; <strong>Range</strong> -; <strong>Type</strong> S; <strong>Special</strong> see text</p><p><strong>Category</strong> One-Handed; <strong>Proficiency</strong> Martial</p><h3 class=\"framing\">Description</h3><p>This combat scabbard has a sharp blade on the outer edge, allowing you to use it as a weapon (see also page 6).</p>"
    },
    "tags": [],
    "weight": 1,
    "price": 10,
    "hp": {
      "max": 5,
      "value": 5
    },
    "hardness": 10,
    "identifiedName": "Sharpened Combat Scabbard",
    "changes": [],
    "contextNotes": [],
    "links": {
      "children": []
    },
    "tag": "sharpenedCombatScabbard",
    "flags": {
      "boolean": [],
      "dictionary": []
    },
    "scriptCalls": [],
    "weaponType": "martial",
    "weaponSubtype": "1h",
    "weaponData": {
      "damageRoll": "1d6",
      "damageType": "S",
      "range": 0
    }
  },
  "effects": [],
  "folder": null,
  "sort": 0,
  "permission": {
    "default": 0
  },
  "flags": {}
}