{
  "_id": "epvu8cJJt1Q3i5T3",
  "name": "Smoke Bullet",
  "type": "loot",
  "img": "icons/weapons/ammunition/arrow-broadhead-green.webp",
  "data": {
    "description": {
      "value": "<p><strong>Source</strong> <em>Pathfinder Campaign Setting pg. 211</em></p><h3 class=\"framing\"><img src=\"https://www.aonprd.com/images/ThreeFiveSymbol.gif\" title=\"3.5 Material\" style=\"margin: 3px 3px 0px 3px\">Statistics</h3><p><strong>Cost</strong> 100 gp <strong>Weight</strong> -</p><p><strong>Category</strong> Ammunition; <strong>Proficiency</strong> Ammunition</p><h3 class=\"framing\">Description</h3><p>These sling stones require only a touch attack to succeed. When they strike a target, they burst, releasing a cloud of noxious gas that requires the creature struck to attempt a DC 13 Fortitude save. If the save fails, the target is nauseated for 2 rounds. A smoke bullets costs 100 gp.</p>"
    },
    "tags": [],
    "price": 100,
    "hp": {
      "max": 1,
      "value": 1
    },
    "hardness": 5,
    "identifiedName": "Smoke Bullet",
    "changes": [],
    "contextNotes": [],
    "links": {
      "children": []
    },
    "tag": "smokeBullet",
    "flags": {
      "boolean": [],
      "dictionary": []
    },
    "scriptCalls": [],
    "subType": "ammo",
    "equipped": false
  },
  "effects": [],
  "folder": null,
  "sort": 0,
  "permission": {
    "default": 0
  },
  "flags": {}
}