{
  "_id": "Du2nBZfVUxVgU644",
  "name": "Switchblade Knife",
  "type": "weapon",
  "img": "systems/pf1/icons/items/weapons/knife-switchblade.png",
  "data": {
    "description": {
      "value": "<p><strong>Source</strong> <em>Adventurer's Armory pg. 5</em></p><h3 class=\"framing\"><img src=\"https://www.aonprd.com/images/PathfinderSocietySymbol.gif\" title=\"PFS Legal\" style=\"margin:3px 3px 0px 3px;\">Statistics</h3><p><strong>Cost</strong> 5 gp <strong>Weight</strong> 1 lb.</p><p><strong>Damage</strong> 1d3 (small), 1d4 (medium); <strong>Critical</strong> 19-20/x2; <strong>Range</strong> 10 ft.; <strong>Type</strong> P; <strong>Special</strong> -</p><p><strong>Category</strong> Light; <strong>Proficiency</strong> Martial</p><h3 class=\"framing\">Description</h3><p>This knife has a springloaded blade hidden inside the handle. It can be designed to look like another type of object (a DC 15 Perception check reveals the deception). If held in your hand, you can activate it as a free action. This weapon is treated as a dagger.</p>"
    },
    "tags": [],
    "weight": 1,
    "price": 5,
    "hp": {
      "max": 2,
      "value": 2
    },
    "hardness": 10,
    "identifiedName": "Switchblade Knife",
    "changes": [],
    "contextNotes": [],
    "links": {
      "children": []
    },
    "tag": "switchbladeKnife",
    "flags": {
      "boolean": [],
      "dictionary": []
    },
    "scriptCalls": [],
    "weaponType": "martial",
    "weaponData": {
      "damageRoll": "1d4",
      "damageType": "P",
      "critRange": "19",
      "critMult": "2",
      "range": 10
    }
  },
  "effects": [],
  "folder": null,
  "sort": 0,
  "permission": {
    "default": 0
  },
  "flags": {}
}