{
  "_id": "3CB7btXEdhNgCWGn",
  "name": "Swordbreaker Dagger",
  "type": "weapon",
  "img": "systems/pf1/icons/items/weapons/dagger-swordbreaker.PNG",
  "data": {
    "description": {
      "value": "<p><strong>Source</strong> <em>Ultimate Equipment pg. 20</em>, <em>Adventurer's Armory pg. 5</em>, <em>Advanced Player's Guide pg. 179</em></p><h3 class=\"framing\"><img src=\"https://www.aonprd.com/images/PathfinderSocietySymbol.gif\" title=\"PFS Legal\" style=\"margin:3px 3px 0px 3px;\">Statistics</h3><p><strong>Cost</strong> 10 gp <strong>Weight</strong> 3 lbs.</p><p><strong>Damage</strong> 1d3 (small), 1d4 (medium); <strong>Critical</strong> x2; <strong>Range</strong> -; <strong>Type</strong> S; <strong>Special</strong> disarm, see text</p><p><strong>Category</strong> Light; <strong>Proficiency</strong> Exotic</p><p><strong>Weapon Groups</strong> Blades, Light</p><h3 class=\"framing\">Description</h3><p>You can use this dagger to disarm or sunder enemy blades by catching them in the grooves on the back of the blade and using your weapon as a lever. If you are proficient with this weapon, add a +4 bonus on combat maneuver checks to disarm or sunder bladed weapons while using it.</p>"
    },
    "tags": [],
    "weight": 3,
    "price": 10,
    "hp": {
      "max": 2,
      "value": 2
    },
    "hardness": 10,
    "identifiedName": "Swordbreaker Dagger",
    "changes": [],
    "contextNotes": [],
    "links": {
      "children": []
    },
    "tag": "swordbreakerDagger",
    "flags": {
      "boolean": [],
      "dictionary": []
    },
    "scriptCalls": [],
    "weaponType": "exotic",
    "weaponData": {
      "damageRoll": "1d4",
      "damageType": "S",
      "range": 0
    }
  },
  "effects": [],
  "folder": null,
  "sort": 0,
  "permission": {
    "default": 0
  },
  "flags": {}
}