{
  "_id": "xWh4TQU1hx0tVFC5",
  "name": "Warhammer Musket",
  "type": "weapon",
  "img": "icons/weapons/guns/gun-wood.webp",
  "data": {
    "description": {
      "value": "<p><strong>Source</strong> <em>Ultimate Equipment pg. 43</em>, <em>Ultimate Combat pg. 138</em></p>\n<h3 class=\"framing\"><img style=\"margin: 3px 3px 0px 3px;\" title=\"No character may purchase a firearm unless she possesses the Gunsmithing feat and firearms are never considered Always Available\" src=\"https://www.aonprd.com/images/PathfinderSocietySymbolN.gif\" />Statistics</h3>\n<p><strong>Cost</strong> 1,600 gp <strong>Weight</strong> 6 lbs.</p>\n<p><strong>Damage</strong> 1d6 (small), 1d8 (medium); <strong>Critical</strong> x4; <strong>Range</strong> 30 ft.; <strong>Type</strong> B and P; <strong>Special</strong> -</p>\n<p><strong>Misfire</strong> 1-2 (5 ft.); <strong>Capacity</strong> 1</p>\n<p><strong>Category</strong> Two-Handed; <strong>Proficiency</strong> Exotic</p>\n<h3 class=\"framing\">Description</h3>\n<p>This musket has a warhammer head at the end of its barrel, which allows it to be used as both a musket and a warhammer. It is considered a double weapon for the purposes of creating masterwork or magical versions of this weapon.</p>\n<p>If this firearm gains the broken condition, both the firearm component and the warhammer are considered broken. A warhammer musket uses either a bullet and 1 dose of black powder or a single alchemical cartridge as ammunition.</p>\n<p><strong>This is an early firearm.</strong></p>"
    },
    "tags": [],
    "weight": 6,
    "price": 1600,
    "hardness": 10,
    "identifiedName": "Warhammer Musket",
    "changes": [],
    "contextNotes": [],
    "links": {
      "children": []
    },
    "tag": "warhammerMusket",
    "flags": {
      "boolean": [],
      "dictionary": []
    },
    "scriptCalls": [],
    "weaponType": "exotic",
    "weaponSubtype": "2h",
    "weaponData": {
      "damageRoll": "1d8",
      "damageType": "B and P",
      "critRange": "",
      "critMult": "4",
      "range": 30
    }
  },
  "effects": [],
  "folder": null,
  "sort": 0,
  "permission": {
    "default": 0
  },
  "flags": {}
}