{
  "_id": "Y4zuC6CQxCFXcojX",
  "name": "Wushu Dart",
  "type": "weapon",
  "img": "icons/weapons/thrown/dart-feathered.webp",
  "data": {
    "description": {
      "value": "<p><strong>Source</strong> <em>Ultimate Equipment pg. 18</em>, <em>Ultimate Combat pg. 134</em></p><h3 class=\"framing\"><img src=\"https://www.aonprd.com/images/PathfinderSocietySymbol.gif\" title=\"PFS Legal\" style=\"margin:3px 3px 0px 3px;\">Statistics</h3><p><strong>Cost</strong> 2 sp <strong>Weight</strong> -</p><p><strong>Damage</strong> 1d2 (small), 1d3 (medium); <strong>Critical</strong> x2; <strong>Range</strong> 10 ft.; <strong>Type</strong> P; <strong>Special</strong> monk</p><p><strong>Category</strong> Light; <strong>Proficiency</strong> Martial</p><p><strong>Weapon Groups</strong> Close; Monk; Thrown</p><h3 class=\"framing\">Description</h3><p>This sharpened wooden spike can be used as a punching weapon, but it is also perfectly balanced for throwing.</p>"
    },
    "tags": [],
    "price": 0.2,
    "hp": {
      "max": 2,
      "value": 2
    },
    "hardness": 10,
    "identifiedName": "Wushu Dart",
    "changes": [],
    "contextNotes": [],
    "links": {
      "children": []
    },
    "tag": "wushuDart",
    "flags": {
      "boolean": [],
      "dictionary": []
    },
    "scriptCalls": [],
    "weaponType": "martial",
    "weaponData": {
      "damageRoll": "1d3",
      "damageType": "P",
      "range": 10
    }
  },
  "effects": [],
  "folder": null,
  "sort": 0,
  "permission": {
    "default": 0
  },
  "flags": {}
}