{
  "_id": "NO2iJiomV2Am1Z2p",
  "name": "Changeling",
  "type": "npc",
  "img": "systems/pf1/icons/races/human.jpg",
  "data": {
    "abilities": {
      "dex": {
        "value": 8
      },
      "con": {
        "value": 14
      },
      "int": {
        "value": 15
      },
      "wis": {
        "value": 12
      },
      "cha": {
        "value": 13
      }
    },
    "attributes": {
      "naturalAC": "+1",
      "hp": {
        "value": 7
      },
      "spells": {
        "usedSpellbooks": [
          "primary"
        ],
        "spellbooks": {
          "primary": {
            "altName": "Witch Spells Prepared",
            "class": "witch",
            "concentrationNotes": "sbc | Total in statblock was +3, adjust as needed.",
            "clNotes": "sbc | Total in statblock was CL 1, adjust as needed.",
            "autoSpellLevelCalculation": false,
            "autoSpellLevels": false,
            "spellPreparationMode": "prepared",
            "domainSlotValue": 0
          }
        }
      }
    },
    "details": {
      "alignment": "ln",
      "cr": {
        "base": 0.5
      }
    },
    "skills": {
      "hea": {
        "rank": 2
      },
      "kar": {
        "rank": 1
      },
      "spl": {
        "rank": 1
      }
    },
    "traits": {
      "senses": "darkvision 60 ft.; Perception +2",
      "languages": {
        "value": [
          "common",
          "draconic",
          "elven",
          "orc"
        ]
      },
      "di": {
        "value": []
      },
      "dv": {
        "value": []
      },
      "ci": {
        "value": []
      },
      "stature": ""
    }
  },
  "token": {
    "name": "Changeling",
    "displayName": 20,
    "actorLink": false,
    "width": 1,
    "height": 1,
    "scale": 1,
    "mirrorX": false,
    "mirrorY": false,
    "lockRotation": false,
    "rotation": 0,
    "alpha": 1,
    "vision": false,
    "dimSight": 0,
    "brightSight": "60",
    "dimLight": 0,
    "brightLight": 0,
    "sightAngle": 0,
    "lightAngle": 0,
    "lightAlpha": 0.25,
    "lightAnimation": {
      "speed": 5,
      "intensity": 5
    },
    "disposition": -1,
    "displayBars": 20,
    "bar1": {
      "attribute": null
    },
    "bar2": {
      "attribute": null
    },
    "flags": {
      "pf1": {
        "lowLightVision": false
      }
    },
    "randomImg": false,
    "img": "systems/pf1/icons/races/human.jpg"
  },
  "items": [
    {
      "_id": "9FBT6uqlRgaw9gug",
      "name": "Changeling",
      "type": "race",
      "img": "systems/pf1/icons/races/changeling.png",
      "data": {
        "description": {
          "value": "<h2>Starting Age</h2>\n<table style=\"border-spacing: 0px; background-color: #ffffff; margin: 10px; table-layout: fixed; border-color: #888888; min-width: 200px; color: #333333; font-family: Varela, sans-serif;\" border=\"1\" cellpadding=\"5\">\n<thead style=\"box-sizing: border-box; background-color: #cfe2f3;\">\n<tr style=\"box-sizing: border-box;\">\n<th class=\"text\" style=\"box-sizing: border-box; padding: 2px; text-align: left; border: 1px solid #888888;\">Adulthood</th>\n<th class=\"text\" style=\"box-sizing: border-box; padding: 2px; text-align: left; border: 1px solid #888888;\">Intuitive<span style=\"box-sizing: border-box; position: relative; font-size: 10px; line-height: 0; vertical-align: baseline; top: -0.5em;\">1</span></th>\n<th class=\"text\" style=\"box-sizing: border-box; padding: 2px; text-align: left; border: 1px solid #888888;\">Self-Taught<span style=\"box-sizing: border-box; position: relative; font-size: 10px; line-height: 0; vertical-align: baseline; top: -0.5em;\">2</span></th>\n<th class=\"text\" style=\"box-sizing: border-box; padding: 2px; text-align: left; border: 1px solid #888888;\">Trained<span style=\"box-sizing: border-box; position: relative; font-size: 10px; line-height: 0; vertical-align: baseline; top: -0.5em;\">3</span></th>\n</tr>\n</thead>\n<tbody style=\"box-sizing: border-box;\">\n<tr style=\"box-sizing: border-box;\">\n<td class=\"text\" style=\"box-sizing: border-box; padding: 2px; vertical-align: top; border: 1px solid #888888;\">15 years</td>\n<td class=\"text\" style=\"box-sizing: border-box; padding: 2px; vertical-align: top; border: 1px solid #888888;\">+1d4 years<br style=\"box-sizing: border-box;\" />(16 &ndash; 19 years)</td>\n<td class=\"text\" style=\"box-sizing: border-box; padding: 2px; vertical-align: top; border: 1px solid #888888;\">+1d6 years<br style=\"box-sizing: border-box;\" />(16 &ndash; 21 years)</td>\n<td class=\"text\" style=\"box-sizing: border-box; padding: 2px; vertical-align: top; border: 1px solid #888888;\">+2d6 years<br style=\"box-sizing: border-box;\" />(17 &ndash; 27 years)</td>\n</tr>\n</tbody>\n</table>\n<p><sup style=\"box-sizing: border-box; user-select: text; color: #191813;\">1</sup><span style=\"color: #191813; font-size: 13px;\">&nbsp;This category includes barbarians, oracles, rogues, and sorcerers.</span><br style=\"box-sizing: border-box; user-select: text; color: #191813; font-size: 13px;\" /><sup style=\"box-sizing: border-box; user-select: text; color: #191813;\">2</sup><span style=\"color: #191813; font-size: 13px;\">&nbsp;This category includes bards, cavaliers, fighters, gunslingers, paladins, rangers, summoners, and witches.</span><br style=\"box-sizing: border-box; user-select: text; color: #191813; font-size: 13px;\" /><sup style=\"box-sizing: border-box; user-select: text; color: #191813;\">3</sup><span style=\"color: #191813; font-size: 13px;\"> This category includes alchemists, clerics, druids, inquisitors, magi, monks, and wizards.</span></p>\n<h2>Height and Weight</h2>\n<table style=\"border-spacing: 0px; background-color: #ffffff; margin: 10px; table-layout: fixed; border-color: #888888; min-width: 200px; color: #333333; font-family: Varela, sans-serif;\" border=\"1\" cellpadding=\"5\">\n<thead style=\"box-sizing: border-box; background-color: #cfe2f3;\">\n<tr style=\"box-sizing: border-box;\">\n<th class=\"text\" style=\"box-sizing: border-box; padding: 2px; text-align: left; border: 1px solid #888888;\">Base Height</th>\n<th class=\"text\" style=\"box-sizing: border-box; padding: 2px; text-align: left; border: 1px solid #888888;\">Height Modifier</th>\n<th class=\"text\" style=\"box-sizing: border-box; padding: 2px; text-align: left; border: 1px solid #888888;\">Base Weight</th>\n<th class=\"text\" style=\"box-sizing: border-box; padding: 2px; text-align: left; border: 1px solid #888888;\">Weight Modifier</th>\n</tr>\n</thead>\n<tbody style=\"box-sizing: border-box;\">\n<tr style=\"box-sizing: border-box;\">\n<td class=\"text\" style=\"box-sizing: border-box; padding: 2px; vertical-align: top; border: 1px solid #888888;\">5 ft. 2 in.</td>\n<td class=\"text\" style=\"box-sizing: border-box; padding: 2px; vertical-align: top; border: 1px solid #888888;\">+2d4 in.<br style=\"box-sizing: border-box;\" />(5 ft. 4 in. &ndash; 5 ft. 10 in.)</td>\n<td class=\"text\" style=\"box-sizing: border-box; padding: 2px; vertical-align: top; border: 1px solid #888888;\">85 lbs.</td>\n<td class=\"text\" style=\"box-sizing: border-box; padding: 2px; vertical-align: top; border: 1px solid #888888;\">+(2d4&times;5 lbs.)<br style=\"box-sizing: border-box;\" />(95 &ndash; 125 lbs.)</td>\n</tr>\n</tbody>\n</table>\n<h2>Standard Racial Traits</h2>\n<ul>\n<li><strong>Ability Score Modifiers</strong>: Changelings are frail, but are clever and comely. They gain +2&nbsp;<a href=\"https://www.d20pfsrd.com/basics-ability-scores/ability-scores#TOC-Wisdom-Wis-\">Wisdom</a>, +2&nbsp;<a href=\"https://www.d20pfsrd.com/basics-ability-scores/ability-scores#TOC-Charisma-Cha-\">Charisma</a>, &ndash;2&nbsp;<a href=\"https://www.d20pfsrd.com/basics-ability-scores/ability-scores#TOC-Constitution-Con-\">Constitution</a>.</li>\n<li><strong>Size:</strong> Changelings are Medium creatures and have no bonuses or penalties due to their size.</li>\n<li><strong>Type:</strong> Changelings are&nbsp;<a href=\"https://www.d20pfsrd.com/bestiary/rules-for-monsters/creature-types#TOC-Humanoid\">humanoids</a>&nbsp;with the changeling subtype.</li>\n<li><strong>Base Speed</strong>: Changelings have a base speed of 30 feet.</li>\n<li><strong>Languages:</strong> Changelings begin play speaking Common and the primary language of their host society. Changelings with high&nbsp;<a href=\"https://www.d20pfsrd.com/basics-ability-scores/ability-scores#TOC-Intelligence-Int-\">Intelligence</a>&nbsp;scores can choose from the following: Aklo, Draconic, Dwarven, Elven, Giant, Gnoll, Goblin, and Orc.</li>\n</ul>\n<h3>Defense Racial Traits</h3>\n<ul>\n<li><strong>Natural Armor</strong>: Changelings have a +1&nbsp;<a href=\"https://www.d20pfsrd.com/basics-ability-scores/glossary#TOC-Natural-Armor-Bonus\">natural armor bonus</a>.</li>\n</ul>\n<h3>Offense Racial Traits</h3>\n<ul>\n<li><strong>Claws:</strong> Changelings&rsquo; fingernails are hard and sharp, granting them two claw attacks (1d4 points of damage each).</li>\n</ul>\n<h3>Senses Racial Traits</h3>\n<ul>\n<li><strong>Darkvision:</strong> Changelings see perfectly in the dark up to 60 feet.</li>\n</ul>\n<h3>Other Racial Traits</h3>\n<p>A changeling inherits one of the following racial traits, depending on her mother&rsquo;s&nbsp;<a href=\"https://www.d20pfsrd.com/bestiary/monster-listings/monstrous-humanoids/hag\">hag</a>&nbsp;type:</p>\n<ul>\n<li>Hulking Changeling&nbsp;(<a href=\"https://www.d20pfsrd.com/bestiary/monster-listings/monstrous-humanoids/hag/hag-annis\">Annis Hag</a>): The changeling gains a +1&nbsp;<a href=\"https://www.d20pfsrd.com/basics-ability-scores/glossary#TOC-Racial-Bonus\">racial bonus</a>&nbsp;on melee damage.</li>\n<li>Pyrophile&nbsp;(<a href=\"https://www.d20pfsrd.com/bestiary/monster-listings/monstrous-humanoids/hag/hag-ash\">Ash Hag</a>): The changeling gains a +1&nbsp;<a href=\"https://www.d20pfsrd.com/basics-ability-scores/glossary#TOC-Racial-Bonus\">racial bonus</a>&nbsp;on damage rolls when using spells with the&nbsp;<a href=\"https://www.d20pfsrd.com/magic#TOC-Magic-Descriptor-Fire\">fire descriptor</a>. This bonus increases by 1 for every 4 levels the changeling has beyond 1st.</li>\n<li>Green Widow&nbsp;(<a href=\"https://www.d20pfsrd.com/bestiary/monster-listings/monstrous-humanoids/hag/hag-green\">Green Hag</a>): The changeling gains a +2&nbsp;<a href=\"https://www.d20pfsrd.com/basics-ability-scores/glossary#TOC-Racial-Bonus\">racial bonus</a> on @Compendium[pf1.skills.pAB2PYkZO3lsmeaC]{Bluff}&nbsp;checks against creatures that are sexually attracted to her.</li>\n<li>Sea Lungs&nbsp;(<a href=\"https://www.d20pfsrd.com/bestiary/monster-listings/monstrous-humanoids/hag/hag-sea\">Sea Hag</a>): The changeling may hold her breath for a number of rounds equal to three times her&nbsp;<a href=\"https://www.d20pfsrd.com/basics-ability-scores/ability-scores#TOC-Constitution-Con-\">Constitution</a>&nbsp;before she risks drowning.</li>\n<li>Gaze Blindness&nbsp;(<a href=\"https://www.d20pfsrd.com/bestiary/monster-listings/monstrous-humanoids/hag/hag-mute\">Mute Hag</a>): The changeling gains a +2 racial bonus on saving throws against gaze attacks.</li>\n<li>Heartstone Heritor&nbsp;(<a href=\"https://www.d20pfsrd.com/bestiary/monster-listings/monstrous-humanoids/hag/hag-night\">Night Hag</a>): The changeling gains a +2 racial bonus on saving throws against disease.</li>\n<li>Ice Climber&nbsp;(<a href=\"https://www.d20pfsrd.com/bestiary/monster-listings/monstrous-humanoids/hag/winter-hag\">Winter Hag</a>): The changeling gains a +5 racial bonus on @Compendium[pf1.skills.xvua9V5Zggkc77Gt]{Climb} checks on icy or slippery surfaces.</li>\n<li>Inscrutable&nbsp;(<a href=\"https://www.d20pfsrd.com/bestiary/monster-listings/monstrous-humanoids/hag/hag-blood\">Blood Hag</a>): The @Compendium[pf1.skills.R8HGxGCKayOl15AO]{Sense Motive} check DC to gain a hunch about the changeling increases by 5.</li>\n<li>Wind Breaker&nbsp;(<a href=\"https://www.d20pfsrd.com/bestiary/monster-listings/monstrous-humanoids/hag/hag-storm\">Storm Hag</a>): The changeling is treated as two size categories larger for the purpose of resolving wind effects.</li>\n</ul>"
        },
        "tags": [],
        "changes": [
          {
            "_id": "wu6qp5qn",
            "formula": "2",
            "operator": "add",
            "subTarget": "wis",
            "modifier": "racial",
            "priority": 0,
            "value": 0,
            "target": "ability"
          },
          {
            "_id": "hkksqjy8",
            "formula": "2",
            "operator": "add",
            "subTarget": "cha",
            "modifier": "racial",
            "priority": 0,
            "value": 0,
            "target": "ability"
          },
          {
            "_id": "kphearck",
            "formula": "-2",
            "operator": "add",
            "subTarget": "con",
            "modifier": "racial",
            "priority": 0,
            "value": 0,
            "target": "ability"
          },
          {
            "_id": "mi36e33k",
            "formula": "1",
            "operator": "add",
            "subTarget": "nac",
            "modifier": "base",
            "priority": 0,
            "value": 0,
            "target": "ac"
          }
        ],
        "contextNotes": [],
        "links": {
          "children": []
        },
        "armorProf": {
          "value": []
        },
        "weaponProf": {
          "value": []
        },
        "flags": {
          "boolean": [],
          "dictionary": []
        },
        "scriptCalls": [],
        "subTypes": [
          [
            "Changeling"
          ]
        ]
      },
      "effects": [],
      "folder": null,
      "sort": 0,
      "permission": {
        "default": 0
      },
      "flags": {}
    },
    {
      "_id": "RC4D4WFT5kRKkdqp",
      "name": "Witch",
      "type": "class",
      "img": "systems/pf1/icons/skills/affliction_21.jpg",
      "data": {
        "description": {
          "value": "<p>Some gain power through study, some through devotion, others through blood, but the witch gains power from her communion with the unknown. Generally feared and misunderstood, the witch draws her magic from a pact made with an otherworldly power. Communing with that source, using her familiar as a conduit, the witch gains not only a host of spells, but a number of strange abilities known as hexes. As a witch grows in power, she might learn about the source of her magic, but some remain blissfully unaware. Some are even afraid of that source, fearful of what it might be or where its true purposes lie.</p>\n<p><strong>Role</strong>: While many witches are recluses, living on the edge of civilization, some live within society, openly or in hiding. The blend of witches’ spells makes them adept at filling a number of different roles, from seer to healer, and their hexes grant them a number of abilities that are useful in a fight. Some witches travel about, seeking greater knowledge and better understanding of the mysterious powers that guide them.</p>\n<p><strong>Alignment</strong>: Any.</p>\n<p><strong>Hit Die</strong>: d6.</p>\n<p><strong>Starting Wealth</strong>: 3d6 × 10 gp (average 105 gp.) In addition, each character begins play with an outfit worth 10 gp or less.</p>\n<h2><span id=\"Class_Skills\">Class Skills</span></h2>\n<p>The witch’s class skills are <a href=\"https://www.d20pfsrd.com/skills/craft\">Craft</a>&nbsp;(<a href=\"https://www.d20pfsrd.com/basics-ability-scores/ability-scores#TOC-Intelligence-Int-\">Int</a>), <a href=\"https://www.d20pfsrd.com/skills/fly\">Fly</a>&nbsp;(<a href=\"https://www.d20pfsrd.com/basics-ability-scores/ability-scores#TOC-Dexterity-Dex-\">Dex</a>), <a href=\"https://www.d20pfsrd.com/skills/heal\">Heal</a>&nbsp;(<a href=\"https://www.d20pfsrd.com/basics-ability-scores/ability-scores#TOC-Wisdom-Wis-\">Wis</a>), <a href=\"https://www.d20pfsrd.com/skills/intimidate\">Intimidate</a>&nbsp;(<a href=\"https://www.d20pfsrd.com/basics-ability-scores/ability-scores#TOC-Charisma-Cha-\">Cha</a>), <a href=\"https://www.d20pfsrd.com/skills/knowledge\">Knowledge</a>&nbsp;(arcana) (<a href=\"https://www.d20pfsrd.com/basics-ability-scores/ability-scores#TOC-Intelligence-Int-\">Int</a>), <a href=\"https://www.d20pfsrd.com/skills/knowledge\">Knowledge</a>&nbsp;(history) (<a href=\"https://www.d20pfsrd.com/basics-ability-scores/ability-scores#TOC-Intelligence-Int-\">Int</a>), <a href=\"https://www.d20pfsrd.com/skills/knowledge\">Knowledge</a>&nbsp;(nature) (<a href=\"https://www.d20pfsrd.com/basics-ability-scores/ability-scores#TOC-Intelligence-Int-\">Int</a>), <a href=\"https://www.d20pfsrd.com/skills/knowledge\">Knowledge</a>&nbsp;(planes) (<a href=\"https://www.d20pfsrd.com/basics-ability-scores/ability-scores#TOC-Intelligence-Int-\">Int</a>), <a href=\"https://www.d20pfsrd.com/skills/profession\">Profession</a>&nbsp;(<a href=\"https://www.d20pfsrd.com/basics-ability-scores/ability-scores#TOC-Wisdom-Wis-\">Wis</a>), <a href=\"https://www.d20pfsrd.com/skills/spellcraft\">Spellcraft</a>&nbsp;(<a href=\"https://www.d20pfsrd.com/basics-ability-scores/ability-scores#TOC-Intelligence-Int-\">Int</a>), and <a href=\"https://www.d20pfsrd.com/skills/use-magic-device\">Use Magic Device</a>&nbsp;(<a href=\"https://www.d20pfsrd.com/basics-ability-scores/ability-scores#TOC-Charisma-Cha-\">Cha</a>).</p>\n<p><strong>Skill Ranks per Level</strong>: 2 +&nbsp;<a href=\"https://www.d20pfsrd.com/basics-ability-scores/ability-scores#TOC-Intelligence-Int-\">Int</a> modifier.</p>"
        },
        "tags": [],
        "changes": [],
        "links": {
          "children": [],
          "classAssociations": [
            {
              "id": "pf1.class-abilities.GBkIhC1Bpp2MAD4e",
              "dataType": "compendium",
              "name": "Hex",
              "img": "systems/pf1/icons/skills/affliction_09.jpg",
              "hiddenLinks": {},
              "level": 1,
              "_index": 0
            },
            {
              "id": "pf1.class-abilities.3d9Rgw40NV8ohRtf",
              "dataType": "compendium",
              "name": "Witch's Familiar",
              "img": "systems/pf1/icons/skills/emerald_05.jpg",
              "hiddenLinks": {},
              "level": 1,
              "_index": 1
            },
            {
              "id": "pf1.class-abilities.aZ5eCIRrsvax5CZZ",
              "dataType": "compendium",
              "name": "Major Hex",
              "img": "systems/pf1/icons/skills/affliction_11.jpg",
              "hiddenLinks": {},
              "level": 10,
              "_index": 2
            },
            {
              "id": "pf1.class-abilities.IMhG1JjaWP6p9ORe",
              "dataType": "compendium",
              "name": "Grand Hex",
              "img": "systems/pf1/icons/skills/affliction_05.jpg",
              "hiddenLinks": {},
              "level": 18,
              "_index": 3
            }
          ]
        },
        "tag": "witch",
        "useCustomTag": true,
        "armorProf": {
          "value": []
        },
        "weaponProf": {
          "value": [
            "sim"
          ]
        },
        "flags": {
          "boolean": [],
          "dictionary": []
        },
        "scriptCalls": [],
        "hd": 6,
        "hp": 6,
        "skillsPerLevel": 2,
        "savingThrows": {
          "will": {
            "value": "high"
          }
        },
        "classSkills": {
          "acr": false,
          "apr": false,
          "art": false,
          "blf": false,
          "clm": false,
          "crf": true,
          "dip": false,
          "dev": false,
          "dis": false,
          "esc": false,
          "fly": true,
          "han": false,
          "hea": true,
          "int": true,
          "kar": true,
          "kdu": false,
          "ken": false,
          "kge": false,
          "khi": true,
          "klo": false,
          "kna": true,
          "kno": false,
          "kpl": true,
          "kre": false,
          "lin": false,
          "lor": false,
          "per": false,
          "prf": false,
          "pro": true,
          "rid": false,
          "sen": false,
          "slt": false,
          "spl": true,
          "ste": false,
          "sur": false,
          "swm": false,
          "umd": true
        }
      },
      "effects": [],
      "folder": null,
      "sort": 0,
      "permission": {
        "default": 0
      },
      "flags": {}
    },
    {
      "_id": "S38eYYsK7pRhPbwg",
      "name": "Humanoid (Changeling)",
      "type": "class",
      "img": "systems/pf1/icons/skills/blue_35.jpg",
      "data": {
        "description": {
          "value": "<p>A humanoid usually has two arms, two legs, and one head, or a human-like torso, arms, and a head. Humanoids have few or no supernatural or extraordinary abilities, but most can speak and usually have well-developed societies. They are usually Small or Medium (with the exception of giants). Every humanoid creature also has a specific subtype to match its race, such as human, giant, goblinoid, reptilian, or tengu.</p>\n<p>Humanoids with 1 Hit Die exchange the features of their humanoid Hit Die for the class features of a PC or NPC class. Humanoids of this sort are typically presented as 1st-level warriors, which means they have average combat ability and poor saving throws. Humanoids with more than 1 Hit Die are the only humanoids who make use of the features of the humanoid type.</p>\n<h2><span id=\"Features\">Features</span></h2>\n<p>A humanoid has the following features (unless otherwise noted in a creature’s entry).</p>\n<ul>\n<li>d8 Hit Die, or by character class.</li>\n<li>Base attack bonus equal to 3/4 total Hit Dice (medium progression).</li>\n<li>One good save, usually&nbsp;<a href=\"https://www.d20pfsrd.com/gamemastering/combat#TOC-Reflex\" rel=\"nofollow\">Reflex</a>.</li>\n<li>Skill points equal to 2 + Int modifier (minimum 1) per Hit Die or by character class. The following are class skills for humanoids without a character class: <a href=\"https://www.d20pfsrd.com/skills/climb\" rel=\"nofollow\">Climb</a>, <a href=\"https://www.d20pfsrd.com/skills/craft\" rel=\"nofollow\">Craft</a>, <a href=\"https://www.d20pfsrd.com/skills/handle-animal\" rel=\"nofollow\">Handle Animal</a>, <a href=\"https://www.d20pfsrd.com/skills/heal\" rel=\"nofollow\">Heal</a>, <a href=\"https://www.d20pfsrd.com/skills/profession\" rel=\"nofollow\">Profession</a>, <a href=\"https://www.d20pfsrd.com/skills/ride\" rel=\"nofollow\">Ride</a>, and <a href=\"https://www.d20pfsrd.com/skills/survival\" rel=\"nofollow\">Survival</a>. Humanoids with a character class use their class’s skill list instead.</li>\n</ul>\n<h2><span id=\"Traits\"><a name=\"TOC-Traits\"></a>Traits</span></h2>\n<p>A humanoid possesses the following traits (unless otherwise noted in a creature’s entry).</p>\n<ul>\n<li>Proficient with all simple weapons, or by character class.</li>\n<li>Proficient with whatever type of armor (light, medium, or heavy) it is described as wearing, or by character class. If a humanoid does not have a class and wears&nbsp;<a href=\"https://www.d20pfsrd.com/basics-ability-scores/glossary#TOC-Armor-Bonus\">armor</a>, it is proficient with that type of armor and all lighter types. Humanoids not indicated as wearing armor are not proficient with armor. Humanoids are proficient with shields if they are proficient with any form of armor.</li>\n<li>Humanoids breathe, eat, and sleep.</li>\n</ul>"
        },
        "tags": [],
        "changes": [],
        "links": "",
        "tag": "humanoid",
        "useCustomTag": true,
        "armorProf": {
          "value": []
        },
        "weaponProf": {
          "value": []
        },
        "flags": {
          "boolean": [],
          "dictionary": []
        },
        "scriptCalls": [],
        "classType": "racial",
        "level": 0,
        "hp": 0,
        "bab": "med",
        "skillsPerLevel": 2,
        "savingThrows": {
          "ref": {
            "value": "high"
          }
        },
        "classSkills": {
          "acr": false,
          "apr": false,
          "art": false,
          "blf": false,
          "clm": true,
          "crf": true,
          "dip": false,
          "dev": false,
          "dis": false,
          "esc": false,
          "fly": false,
          "han": true,
          "hea": true,
          "int": false,
          "kar": false,
          "kdu": false,
          "ken": false,
          "kge": false,
          "khi": false,
          "klo": false,
          "kna": false,
          "kno": false,
          "kpl": false,
          "kre": false,
          "lin": false,
          "lor": false,
          "per": false,
          "prf": false,
          "pro": true,
          "rid": true,
          "sen": false,
          "slt": false,
          "spl": false,
          "ste": false,
          "sur": true,
          "swm": false,
          "umd": false
        }
      },
      "effects": [],
      "folder": null,
      "sort": 0,
      "permission": {
        "default": 0
      },
      "flags": {}
    },
    {
      "_id": "tc6ojz3p5zpm8d53",
      "name": "Sense: Darkvision 60ft.",
      "type": "feat",
      "img": "systems/pf1/icons/skills/shadow_12.jpg",
      "data": {
        "description": {
          "value": "Darkvision is the extraordinary ability to see with no light source at all, out to a range specified for the creature. Darkvision is black-and-white only (colors cannot be discerned). It does not allow characters to see anything that they could not see otherwise—invisible objects are still invisible, and illusions are still visible as what they seem to be. Likewise, darkvision subjects a creature to gaze attacks normally. The presence of light does not spoil darkvision."
        },
        "tags": [],
        "damage": {
          "parts": [],
          "critParts": [],
          "nonCritParts": []
        },
        "attackParts": [],
        "effectNotes": [],
        "attackNotes": [],
        "changes": [],
        "contextNotes": [],
        "links": {
          "children": [],
          "charges": []
        },
        "tag": "senseDarkvision60ft",
        "armorProf": {
          "value": []
        },
        "weaponProf": {
          "value": []
        },
        "flags": {
          "boolean": [],
          "dictionary": []
        },
        "scriptCalls": [],
        "featType": "racial",
        "associations": {
          "classes": []
        },
        "abilityType": "ex"
      },
      "effects": [],
      "folder": null,
      "sort": 0,
      "permission": {
        "default": 0
      },
      "flags": {}
    },
    {
      "_id": "nNVFVFRBCT4O2ab9",
      "name": "Brew Potion",
      "type": "feat",
      "img": "systems/pf1/icons/feats/brew-potion.jpg",
      "data": {
        "description": {
          "value": "\n                <i>You can create magic potions.</i>\n                <br />\n                <br />\n                \n                <p><b>Prerequisites</b></p>\n                <p> Caster level 3rd.</p>\n                \n            <br />\n                <p><b>Benefits</b></p>\n                <p><p class=\"stat-block-1\"> You can create a potion of any 3rd-level or lower spell that you know and that targets one or more creatures or objects. Brewing a potion takes 2 hours if its base price is 250 gp or less, otherwise brewing a potion takes 1 day for each 1,000 gp in its base price. When you create a potion, you set the caster level, which must be sufficient to cast the spell in question and no higher than your own level. To brew a potion, you must use up raw materials costing one half this base price. See the magic item creation rules in Magic Items for more information.</p><p class=\"stat-block-2\">When you create a potion, you make any choices that you would normally make when casting the spell. Whoever drinks the potion is the target of the spell.</p></p>\n                \n            \n            "
        },
        "tags": [
          [
            "General"
          ],
          [
            "Item Creation"
          ]
        ],
        "measureTemplate": {
          "size": "0"
        },
        "actionType": "",
        "damage": {
          "parts": [],
          "critParts": [],
          "nonCritParts": []
        },
        "attackParts": [],
        "effectNotes": [],
        "attackNotes": [],
        "changes": [],
        "contextNotes": [],
        "links": {
          "children": [],
          "charges": []
        },
        "tag": "brewPotion",
        "armorProf": {
          "value": []
        },
        "weaponProf": {
          "value": []
        },
        "flags": {
          "boolean": [],
          "dictionary": []
        },
        "scriptCalls": [],
        "associations": {
          "classes": []
        }
      },
      "effects": [],
      "folder": null,
      "sort": 0,
      "permission": {
        "default": 0
      },
      "flags": {}
    },
    {
      "_id": "u7rGDZUL296QIuA0",
      "name": "Combat Casting",
      "type": "feat",
      "img": "systems/pf1/icons/feats/combat-casting.jpg",
      "data": {
        "description": {
          "value": "\n                <i>You are adept at spellcasting when threatened or distracted.</i>\n                <br />\n                <br />\n                \n                <p><b>Benefits</b></p>\n                <p><p class=\"stat-block-1\"> You get a +4 bonus on concentration checks made to cast a spell or use a spell-like ability when casting on the defensive or while grappled.</p></p>\n                \n            \n            "
        },
        "tags": [
          [
            "General"
          ],
          [
            "Magic"
          ],
          [
            "Defensive"
          ]
        ],
        "measureTemplate": {
          "size": "0"
        },
        "actionType": "",
        "damage": {
          "parts": [],
          "critParts": [],
          "nonCritParts": []
        },
        "attackParts": [],
        "effectNotes": [],
        "attackNotes": [],
        "changes": [],
        "contextNotes": [],
        "links": {
          "children": [],
          "charges": []
        },
        "tag": "combatCasting",
        "armorProf": {
          "value": []
        },
        "weaponProf": {
          "value": []
        },
        "flags": {
          "boolean": [],
          "dictionary": []
        },
        "scriptCalls": [],
        "associations": {
          "classes": []
        }
      },
      "effects": [],
      "folder": null,
      "sort": 0,
      "permission": {
        "default": 0
      },
      "flags": {}
    },
    {
      "_id": "ojnf8d6szz8ldntr",
      "name": "Special Quality: Hulking Changeling",
      "type": "feat",
      "img": "systems/pf1/icons/skills/yellow_36.jpg",
      "data": {
        "description": {
          "value": "sbc | Placeholder for Special Qualities, which in most statblocks are listed under SQ in the statistics block, but described in the Special Abilities. Remove duplicates as needed!"
        },
        "tags": [],
        "damage": {
          "parts": [],
          "critParts": [],
          "nonCritParts": []
        },
        "attackParts": [],
        "effectNotes": [],
        "attackNotes": [],
        "changes": [],
        "contextNotes": [],
        "links": {
          "children": [],
          "charges": []
        },
        "armorProf": {
          "value": []
        },
        "weaponProf": {
          "value": []
        },
        "flags": {
          "boolean": [],
          "dictionary": []
        },
        "scriptCalls": [],
        "featType": "misc",
        "associations": {
          "classes": []
        }
      },
      "effects": [],
      "folder": null,
      "sort": 0,
      "permission": {
        "default": 0
      },
      "flags": {}
    },
    {
      "_id": "syiqh7numtm0bbtm",
      "name": "Special Quality: Witch’s Familiar (spider)",
      "type": "feat",
      "img": "systems/pf1/icons/skills/yellow_36.jpg",
      "data": {
        "description": {
          "value": "sbc | Placeholder for Special Qualities, which in most statblocks are listed under SQ in the statistics block, but described in the Special Abilities. Remove duplicates as needed!"
        },
        "tags": [],
        "damage": {
          "parts": [],
          "critParts": [],
          "nonCritParts": []
        },
        "attackParts": [],
        "effectNotes": [],
        "attackNotes": [],
        "changes": [],
        "contextNotes": [],
        "links": {
          "children": [],
          "charges": []
        },
        "armorProf": {
          "value": []
        },
        "weaponProf": {
          "value": []
        },
        "flags": {
          "boolean": [],
          "dictionary": []
        },
        "scriptCalls": [],
        "featType": "misc",
        "associations": {
          "classes": []
        }
      },
      "effects": [],
      "folder": null,
      "sort": 0,
      "permission": {
        "default": 0
      },
      "flags": {}
    },
    {
      "_id": "b7lr25ui8y87nq5x",
      "name": "Claws",
      "type": "attack",
      "img": "systems/pf1/icons/items/inventory/monster-paw-bear.jpg",
      "data": {
        "tags": [],
        "activation": {
          "type": "attack"
        },
        "unchainedAction": {
          "activation": {
            "type": "attack"
          }
        },
        "duration": {
          "units": "inst"
        },
        "range": {
          "value": "",
          "units": "melee"
        },
        "attackName": "Claws",
        "actionType": "mwak",
        "attackBonus": "0",
        "damage": {
          "parts": [
            [
              "1d4+1",
              "B and S"
            ]
          ],
          "critParts": [],
          "nonCritParts": []
        },
        "attackParts": [
          [
            "0",
            "Claws: 1"
          ]
        ],
        "ability": {
          "attack": "str",
          "damage": "str"
        },
        "effectNotes": [],
        "attackNotes": [
          "2 claws +0 (1d4+1 )"
        ],
        "links": {
          "children": [],
          "charges": [],
          "ammunition": []
        },
        "flags": {
          "boolean": [],
          "dictionary": []
        },
        "scriptCalls": [],
        "attackType": "natural",
        "conditionals": []
      },
      "effects": [],
      "folder": null,
      "sort": 0,
      "permission": {
        "default": 0
      },
      "flags": {}
    },
    {
      "_id": "jiklyk7p37n2umdj",
      "name": "Special Attack: Hexes (cauldron)",
      "type": "attack",
      "img": "systems/pf1/icons/skills/yellow_36.jpg",
      "data": {
        "description": {
          "value": "sbc | Placeholder for Special Attacks, which in most statblocks are listed under 'Special Attacks' in the statistics block, but are described in the 'Special Abilities' block. Remove duplicates as needed!"
        },
        "tags": [],
        "damage": {
          "parts": [],
          "critParts": [],
          "nonCritParts": []
        },
        "attackParts": [],
        "effectNotes": [],
        "attackNotes": [],
        "links": {
          "children": [],
          "charges": [],
          "ammunition": []
        },
        "flags": {
          "boolean": [],
          "dictionary": []
        },
        "scriptCalls": [],
        "attackType": "misc",
        "conditionals": []
      },
      "effects": [],
      "folder": null,
      "sort": 0,
      "permission": {
        "default": 0
      },
      "flags": {}
    },
    {
      "_id": "3ntxp3zun1j9mf0m",
      "name": "Hypnotism",
      "type": "spell",
      "img": "systems/pf1/icons/misc/magic-swirl.png",
      "data": {
        "description": {
          "value": "<div class=\"spell-description\">\n  <p>\n    <strong>School</strong>&nbsp;enchantment&nbsp;(compulsion)&nbsp;[mind-affecting];\n    <strong>Level</strong>&nbsp;bard 1, mesmerist 1, occultist 1, psychic 1, sorcerer/wizard 1, witch 1;\n    \n    \n    \n    <strong>Bloodline</strong>&nbsp;Serpentine 1;\n  </p>\n  <p>\n    <strong>Casting Time</strong>&nbsp;1 round<br>\n    <strong>Components</strong>&nbsp;V, S<br>\n  </p>\n  <p>\n    <strong>Range</strong>&nbsp;close (25 ft. + 5 ft./2 levels)<br>\n    <strong>Area</strong>&nbsp;several living creatures, no two of which may be more than 30 ft. apart<br>\n    \n    \n    <strong>Duration</strong>&nbsp;2d4 rounds<br>\n    <strong>Saving Throw</strong>&nbsp;Will negates;&nbsp;<strong>Spell Resistance</strong>&nbsp;yes<br>\n  </p>\n  <h2>Description</h2>\n  <p>Your gestures and droning incantation fascinate nearby creatures, causing them to stop and stare blankly at you.</p><p>In addition, you can use their rapt attention to make your suggestions and requests seem more plausible. Roll 2d4 to see how many total HD of creatures you affect. Creatures with fewer HD are affected before creatures with more HD. Only creatures that can see or hear you are affected, but they do not need to understand you to be fascinated.</p><p>If you use this spell in combat, each target gains a +2 bonus on its saving throw. If the spell affects only a single creature not in combat at the time, the saving throw has a penalty of -2.</p><p>While the subject is fascinated by this spell, it reacts as though it were two steps more friendly in attitude. This allows you to make a single request of the affected creature (provided you can communicate with it). The request must be brief and reasonable. Even after the spell ends, the creature retains its new attitude toward you, but only with respect to that particular request.</p><p>A creature that fails its saving throw does not remember that you enspelled it.</p>\n</div>\n"
        },
        "tags": [],
        "activation": {
          "type": "round"
        },
        "unchainedAction": {
          "activation": {
            "cost": 3,
            "type": "action"
          }
        },
        "range": {
          "units": "close"
        },
        "uses": {
          "per": ""
        },
        "measureTemplate": {
          "size": "0"
        },
        "actionType": "spellsave",
        "damage": {
          "parts": [],
          "critParts": [],
          "nonCritParts": []
        },
        "attackParts": [],
        "ability": {
          "attack": "",
          "damage": ""
        },
        "save": {
          "dc": "1",
          "type": "will",
          "description": "Will negates"
        },
        "effectNotes": [],
        "attackNotes": [],
        "links": {
          "children": []
        },
        "flags": {
          "boolean": [],
          "dictionary": []
        },
        "scriptCalls": [],
        "learnedAt": {
          "class": [
            [
              "sorcerer/wizard",
              1
            ],
            [
              "bard",
              1
            ],
            [
              "witch",
              1
            ],
            [
              "psychic",
              1
            ],
            [
              "mesmerist",
              1
            ],
            [
              "occultist",
              1
            ]
          ],
          "domain": [],
          "subDomain": [],
          "elementalSchool": [],
          "bloodline": [
            [
              "Serpentine",
              1
            ]
          ]
        },
        "school": "enc",
        "subschool": "compulsion",
        "types": "mind-affecting",
        "conditionals": [],
        "components": {
          "verbal": true,
          "somatic": true
        },
        "preparation": {
          "preparedAmount": 1,
          "maxAmount": 1
        },
        "atWill": true,
        "shortDescription": "<p>Your gestures and droning incantation fascinate nearby creatures, causing them to stop and stare blankly at you.</p><p>In addition, you can use their rapt attention to make your suggestions and requests seem more plausible. Roll 2d4 to see how many total HD of creatures you affect. Creatures with fewer HD are affected before creatures with more HD. Only creatures that can see or hear you are affected, but they do not need to understand you to be fascinated.</p><p>If you use this spell in combat, each target gains a +2 bonus on its saving throw. If the spell affects only a single creature not in combat at the time, the saving throw has a penalty of -2.</p><p>While the subject is fascinated by this spell, it reacts as though it were two steps more friendly in attitude. This allows you to make a single request of the affected creature (provided you can communicate with it). The request must be brief and reasonable. Even after the spell ends, the creature retains its new attitude toward you, but only with respect to that particular request.</p><p>A creature that fails its saving throw does not remember that you enspelled it.</p>",
        "spellDuration": "2d4 rounds",
        "spellArea": "several living creatures, no two of which may be more than 30 ft. apart"
      },
      "effects": [],
      "folder": null,
      "sort": 0,
      "permission": {
        "default": 0
      },
      "flags": {}
    },
    {
      "_id": "3plb67e51webutdz",
      "name": "Sleep",
      "type": "spell",
      "img": "systems/pf1/icons/misc/magic-swirl.png",
      "data": {
        "description": {
          "value": "<div class=\"spell-description\">\n  <p>\n    <strong>School</strong>&nbsp;enchantment&nbsp;(compulsion)&nbsp;[mind-affecting];\n    <strong>Level</strong>&nbsp;adept 1, bard 1, mesmerist 1, occultist 1, psychic 1, shaman 1, sorcerer/wizard 1, witch 1;\n    \n    <strong>Subdomain</strong>&nbsp;Night 1;\n    \n    <strong>Bloodline</strong>&nbsp;Dreamspun 1;\n  </p>\n  <p>\n    <strong>Casting Time</strong>&nbsp;1 round<br>\n    <strong>Components</strong>&nbsp;V, S, M (fine sand, rose petals, or a live cricket)<br>\n  </p>\n  <p>\n    <strong>Range</strong>&nbsp;medium (100 ft. + 10 ft./level)<br>\n    <strong>Area</strong>&nbsp;one or more living creatures within a 10-ft.-radius burst<br>\n    \n    \n    <strong>Duration</strong>&nbsp;1 min./level<br>\n    <strong>Saving Throw</strong>&nbsp;Will negates;&nbsp;<strong>Spell Resistance</strong>&nbsp;yes<br>\n  </p>\n  <h2>Description</h2>\n  <p>A <i>sleep</i> spell causes a magical slumber to come upon 4 HD of creatures. Creatures with the fewest HD are affected first. Among creatures with equal HD, those who are closest to the spell's point of origin are affected first. HD that are not sufficient to affect a creature are wasted. <i>Sleep</i>ing creatures are helpless. Slapping or wounding awakens an affected creature, but normal noise does not. Awakening a creature is a standard action (an application of the aid another action). <i>Sleep</i> does not target unconscious creatures, constructs, or undead creatures.</p>\n</div>\n"
        },
        "tags": [],
        "activation": {
          "type": "round"
        },
        "unchainedAction": {
          "activation": {
            "cost": 3,
            "type": "action"
          }
        },
        "range": {
          "units": "medium"
        },
        "uses": {
          "value": 3,
          "per": "day"
        },
        "measureTemplate": {
          "type": "circle",
          "size": "10"
        },
        "actionType": "spellsave",
        "damage": {
          "parts": [],
          "critParts": [],
          "nonCritParts": []
        },
        "attackParts": [],
        "ability": {
          "attack": "",
          "damage": ""
        },
        "save": {
          "dc": "1",
          "type": "will",
          "description": "Will negates"
        },
        "effectNotes": [],
        "attackNotes": [],
        "links": {
          "children": []
        },
        "flags": {
          "boolean": [],
          "dictionary": []
        },
        "scriptCalls": [],
        "learnedAt": {
          "class": [
            [
              "sorcerer/wizard",
              1
            ],
            [
              "bard",
              1
            ],
            [
              "witch",
              1
            ],
            [
              "adept",
              1
            ],
            [
              "shaman",
              1
            ],
            [
              "psychic",
              1
            ],
            [
              "mesmerist",
              1
            ],
            [
              "occultist",
              1
            ]
          ],
          "domain": [],
          "subDomain": [
            [
              "Night",
              1
            ]
          ],
          "elementalSchool": [],
          "bloodline": [
            [
              "Dreamspun",
              1
            ]
          ]
        },
        "school": "enc",
        "subschool": "compulsion",
        "types": "mind-affecting",
        "conditionals": [],
        "components": {
          "verbal": true,
          "somatic": true,
          "material": true
        },
        "materials": {
          "value": "fine sand, rose petals, or a live cricket"
        },
        "preparation": {
          "preparedAmount": 1,
          "maxAmount": 1
        },
        "atWill": true,
        "shortDescription": "<p>A <i>sleep</i> spell causes a magical slumber to come upon 4 HD of creatures. Creatures with the fewest HD are affected first. Among creatures with equal HD, those who are closest to the spell's point of origin are affected first. HD that are not sufficient to affect a creature are wasted. <i>Sleep</i>ing creatures are helpless. Slapping or wounding awakens an affected creature, but normal noise does not. Awakening a creature is a standard action (an application of the aid another action). <i>Sleep</i> does not target unconscious creatures, constructs, or undead creatures.</p>",
        "spellDuration": "1 min./level",
        "spellArea": "one or more living creatures within a 10-ft.-radius burst"
      },
      "effects": [],
      "folder": null,
      "sort": 0,
      "permission": {
        "default": 0
      },
      "flags": {}
    },
    {
      "_id": "hk3xhc08blqzniv0",
      "name": "Daze",
      "type": "spell",
      "img": "systems/pf1/icons/misc/magic-swirl.png",
      "data": {
        "description": {
          "value": "<div class=\"spell-description\">\n  <p>\n    <strong>School</strong>&nbsp;enchantment&nbsp;(compulsion)&nbsp;[mind-affecting];\n    <strong>Level</strong>&nbsp;bard 0, inquisitor 0, magus 0, medium 0, mesmerist 0, occultist 0, psychic 0, shaman 0, sorcerer/wizard 0, spiritualist 0, summoner 0, unchained Summoner 0, witch 0;\n    \n    \n    \n    \n  </p>\n  <p>\n    <strong>Casting Time</strong>&nbsp;1 standard action<br>\n    <strong>Components</strong>&nbsp;V, S, M (a pinch of wool or similar substance)<br>\n  </p>\n  <p>\n    <strong>Range</strong>&nbsp;close (25 ft. + 5 ft./2 levels)<br>\n    \n    <strong>Targets</strong>&nbsp;one humanoid creature of 4 HD or less<br>\n    \n    <strong>Duration</strong>&nbsp;1 round<br>\n    <strong>Saving Throw</strong>&nbsp;Will negates;&nbsp;<strong>Spell Resistance</strong>&nbsp;yes<br>\n  </p>\n  <h2>Description</h2>\n  <p>This spell clouds the mind of a humanoid creature with 4 or fewer Hit Dice so that it takes no actions. Humanoids of 5 or more HD are not affected. A dazed subject is not stunned, so attackers get no special advantage against it. After a creature has been dazed by this spell, it is immune to the effects of this spell for 1 minute.</p>\n</div>\n"
        },
        "tags": [],
        "activation": {
          "type": "standard"
        },
        "unchainedAction": {
          "activation": {
            "cost": 2,
            "type": "action"
          }
        },
        "target": {
          "value": "one humanoid creature of 4 HD or less"
        },
        "range": {
          "units": "close"
        },
        "uses": {
          "per": ""
        },
        "measureTemplate": {
          "size": "0"
        },
        "actionType": "spellsave",
        "damage": {
          "parts": [],
          "critParts": [],
          "nonCritParts": []
        },
        "attackParts": [],
        "ability": {
          "attack": "",
          "damage": ""
        },
        "save": {
          "dc": "1",
          "type": "will",
          "description": "Will negates"
        },
        "effectNotes": [],
        "attackNotes": [],
        "links": {
          "children": []
        },
        "flags": {
          "boolean": [],
          "dictionary": []
        },
        "scriptCalls": [],
        "learnedAt": {
          "class": [
            [
              "sorcerer/wizard",
              0
            ],
            [
              "bard",
              0
            ],
            [
              "summoner",
              0
            ],
            [
              "witch",
              0
            ],
            [
              "inquisitor",
              0
            ],
            [
              "magus",
              0
            ],
            [
              "shaman",
              0
            ],
            [
              "psychic",
              0
            ],
            [
              "medium",
              0
            ],
            [
              "mesmerist",
              0
            ],
            [
              "occultist",
              0
            ],
            [
              "spiritualist",
              0
            ],
            [
              "unchained Summoner",
              0
            ]
          ],
          "domain": [],
          "subDomain": [],
          "elementalSchool": [],
          "bloodline": []
        },
        "level": 0,
        "school": "enc",
        "subschool": "compulsion",
        "types": "mind-affecting",
        "conditionals": [],
        "components": {
          "verbal": true,
          "somatic": true,
          "material": true
        },
        "materials": {
          "value": "a pinch of wool or similar substance"
        },
        "preparation": {
          "autoDeductCharges": false
        },
        "atWill": true,
        "shortDescription": "<p>This spell clouds the mind of a humanoid creature with 4 or fewer Hit Dice so that it takes no actions. Humanoids of 5 or more HD are not affected. A dazed subject is not stunned, so attackers get no special advantage against it. After a creature has been dazed by this spell, it is immune to the effects of this spell for 1 minute.</p>",
        "spellDuration": "1 round"
      },
      "effects": [],
      "folder": null,
      "sort": 0,
      "permission": {
        "default": 0
      },
      "flags": {}
    },
    {
      "_id": "ip9onjfp6nf1vlv9",
      "name": "Light",
      "type": "spell",
      "img": "systems/pf1/icons/misc/magic-swirl.png",
      "data": {
        "description": {
          "value": "<div class=\"spell-description\">\n  <p>\n    <strong>School</strong>&nbsp;evocation&nbsp;[light];\n    <strong>Level</strong>&nbsp;adept 0, bard 0, cleric/oracle 0, druid 0, hunter 0, inquisitor 0, magus 0, medium 0, mesmerist 0, occultist 0, psychic 0, shaman 0, sorcerer/wizard 0, spiritualist 0, summoner 0, unchained Summoner 0, witch 0;\n    \n    \n    \n    \n  </p>\n  <p>\n    <strong>Casting Time</strong>&nbsp;1 standard action<br>\n    <strong>Components</strong>&nbsp;V, M/DF (a firefly)<br>\n  </p>\n  <p>\n    <strong>Range</strong>&nbsp;touch<br>\n    \n    <strong>Targets</strong>&nbsp;object touched<br>\n    \n    <strong>Duration</strong>&nbsp;10 min./level<br>\n    <strong>Saving Throw</strong>&nbsp;none;&nbsp;<strong>Spell Resistance</strong>&nbsp;no<br>\n  </p>\n  <h2>Description</h2>\n  <p>This spell causes a touched object to glow like a torch, shedding normal light in a 20-foot radius from the point touched, and increasing the light level for an additional 20 feet by one step, up to normal light (darkness becomes dim light, and dim light becomes normal light). In an area of normal or bright light, this spell has no effect. The effect is immobile, but it can be cast on a movable object.</p><p>You can only have one light spell active at any one time. If you cast this spell while another casting is still in effect, the previous casting is dispelled. If you make this spell permanent (through permanency or a similar effect), it does not count against this limit. Light can be used to counter or dispel any darkness spell of equal or lower spell level.</p>\n</div>\n"
        },
        "tags": [],
        "activation": {
          "type": "standard"
        },
        "unchainedAction": {
          "activation": {
            "cost": 2,
            "type": "action"
          }
        },
        "target": {
          "value": "object touched"
        },
        "range": {
          "units": "touch"
        },
        "uses": {
          "value": 3,
          "per": "day"
        },
        "measureTemplate": {
          "size": "0"
        },
        "actionType": "",
        "damage": {
          "parts": [],
          "critParts": [],
          "nonCritParts": []
        },
        "attackParts": [],
        "ability": {
          "attack": "",
          "damage": ""
        },
        "save": {
          "dc": "0"
        },
        "effectNotes": [],
        "attackNotes": [],
        "links": {
          "children": []
        },
        "flags": {
          "boolean": [],
          "dictionary": []
        },
        "scriptCalls": [],
        "learnedAt": {
          "class": [
            [
              "sorcerer/wizard",
              0
            ],
            [
              "cleric/oracle",
              0
            ],
            [
              "druid",
              0
            ],
            [
              "bard",
              0
            ],
            [
              "summoner",
              0
            ],
            [
              "witch",
              0
            ],
            [
              "inquisitor",
              0
            ],
            [
              "magus",
              0
            ],
            [
              "adept",
              0
            ],
            [
              "shaman",
              0
            ],
            [
              "psychic",
              0
            ],
            [
              "medium",
              0
            ],
            [
              "mesmerist",
              0
            ],
            [
              "occultist",
              0
            ],
            [
              "spiritualist",
              0
            ],
            [
              "hunter",
              0
            ],
            [
              "unchained Summoner",
              0
            ]
          ],
          "domain": [],
          "subDomain": [],
          "elementalSchool": [],
          "bloodline": []
        },
        "level": 0,
        "school": "evo",
        "types": "light",
        "conditionals": [],
        "components": {
          "verbal": true,
          "material": true,
          "divineFocus": 2
        },
        "materials": {
          "value": "a firefly"
        },
        "preparation": {
          "preparedAmount": 3,
          "maxAmount": 3,
          "autoDeductCharges": false
        },
        "atWill": true,
        "sr": false,
        "shortDescription": "<p>This spell causes a touched object to glow like a torch, shedding normal light in a 20-foot radius from the point touched, and increasing the light level for an additional 20 feet by one step, up to normal light (darkness becomes dim light, and dim light becomes normal light). In an area of normal or bright light, this spell has no effect. The effect is immobile, but it can be cast on a movable object.</p><p>You can only have one light spell active at any one time. If you cast this spell while another casting is still in effect, the previous casting is dispelled. If you make this spell permanent (through permanency or a similar effect), it does not count against this limit. Light can be used to counter or dispel any darkness spell of equal or lower spell level.</p>",
        "spellDuration": "10 min./level"
      },
      "effects": [],
      "folder": null,
      "sort": 0,
      "permission": {
        "default": 0
      },
      "flags": {}
    },
    {
      "_id": "t1w2zq5fx7mislq8",
      "name": "Touch of Fatigue",
      "type": "spell",
      "img": "systems/pf1/icons/misc/magic-swirl.png",
      "data": {
        "description": {
          "value": "<div class=\"spell-description\">\n  <p>\n    <strong>School</strong>&nbsp;necromancy;\n    <strong>Level</strong>&nbsp;adept 0, mesmerist 0, occultist 0, shaman 0, sorcerer/wizard 0, witch 0;\n    \n    \n    \n    \n  </p>\n  <p>\n    <strong>Casting Time</strong>&nbsp;1 standard action<br>\n    <strong>Components</strong>&nbsp;V, S, M (a drop of sweat)<br>\n  </p>\n  <p>\n    <strong>Range</strong>&nbsp;touch<br>\n    \n    <strong>Targets</strong>&nbsp;creature touched<br>\n    \n    <strong>Duration</strong>&nbsp;1 round/level<br>\n    <strong>Saving Throw</strong>&nbsp;Fortitude negates;&nbsp;<strong>Spell Resistance</strong>&nbsp;yes<br>\n  </p>\n  <h2>Description</h2>\n  <p>You channel negative energy through your touch, fatiguing the target. You must succeed on a touch attack to strike a target. The subject is immediately fatigued for the spell's duration.</p><p>This spell has no effect on a creature that is already fatigued.</p><p>Unlike with normal fatigue, the effect ends as soon as the spell's duration expires.</p>\n</div>\n"
        },
        "tags": [],
        "activation": {
          "type": "standard"
        },
        "unchainedAction": {
          "activation": {
            "cost": 2,
            "type": "action"
          }
        },
        "target": {
          "value": "creature touched"
        },
        "range": {
          "units": "touch"
        },
        "uses": {
          "per": ""
        },
        "measureTemplate": {
          "size": "0"
        },
        "actionType": "spellsave",
        "damage": {
          "parts": [],
          "critParts": [],
          "nonCritParts": []
        },
        "attackParts": [],
        "ability": {
          "attack": "",
          "damage": ""
        },
        "save": {
          "dc": "1",
          "type": "fort",
          "description": "Fortitude negates"
        },
        "effectNotes": [],
        "attackNotes": [],
        "links": {
          "children": []
        },
        "flags": {
          "boolean": [],
          "dictionary": []
        },
        "scriptCalls": [],
        "learnedAt": {
          "class": [
            [
              "sorcerer/wizard",
              0
            ],
            [
              "witch",
              0
            ],
            [
              "adept",
              0
            ],
            [
              "shaman",
              0
            ],
            [
              "mesmerist",
              0
            ],
            [
              "occultist",
              0
            ]
          ],
          "domain": [],
          "subDomain": [],
          "elementalSchool": [],
          "bloodline": []
        },
        "level": 0,
        "school": "nec",
        "conditionals": [],
        "components": {
          "verbal": true,
          "somatic": true,
          "material": true
        },
        "materials": {
          "value": "a drop of sweat"
        },
        "preparation": {
          "autoDeductCharges": false
        },
        "atWill": true,
        "shortDescription": "<p>You channel negative energy through your touch, fatiguing the target. You must succeed on a touch attack to strike a target. The subject is immediately fatigued for the spell's duration.</p><p>This spell has no effect on a creature that is already fatigued.</p><p>Unlike with normal fatigue, the effect ends as soon as the spell's duration expires.</p>",
        "spellDuration": "1 round/level"
      },
      "effects": [],
      "folder": null,
      "sort": 0,
      "permission": {
        "default": 0
      },
      "flags": {}
    },
    {
      "_id": "s0uibx5mu7v6m96a",
      "name": "Ecology",
      "type": "feat",
      "img": "icons/environment/wilderness/tree-oak.webp",
      "data": {
        "description": {
          "value": "<div><strong>Environment</strong>:  any</div><div><strong>Organization</strong>:  solitary</div><div><strong>Treasure</strong>:  gear (quarterstaff, spell component pouch, other treasure)</div>"
        },
        "tags": [],
        "damage": {
          "parts": [],
          "critParts": [],
          "nonCritParts": []
        },
        "attackParts": [],
        "effectNotes": [],
        "attackNotes": [],
        "changes": [],
        "contextNotes": [],
        "links": {
          "children": [],
          "charges": []
        },
        "armorProf": {
          "value": []
        },
        "weaponProf": {
          "value": []
        },
        "flags": {
          "boolean": [],
          "dictionary": []
        },
        "scriptCalls": [],
        "featType": "misc",
        "associations": {
          "classes": []
        }
      },
      "effects": [],
      "folder": null,
      "sort": 0,
      "permission": {
        "default": 0
      },
      "flags": {}
    },
    {
      "_id": "jsIVcKZM2aBtU8jK",
      "name": "sbc | Conversion Buff",
      "type": "buff",
      "img": "systems/pf1/icons/skills/yellow_36.jpg",
      "data": {
        "description": {
          "value": "<h2>sbc | Conversion Buff</h2>\n                        This Buff was created by <strong>sbc</strong> to compensate for differences between the input and the values FoundryVTT calculates automatically.\n                        <br><br>\n                        Especially when the pathfinder system gets upgraded, entries in compendiums get updated or foundry changes in some way, this buff may become outdated.\n                        <br><br>\n                        For most mooks the conversion should more or less work, but for important NPCs or creatures it is adviced to double check the conversion manually."
        },
        "tags": [],
        "changes": [
          {
            "formula": "1",
            "modifier": "untypedPerm",
            "operator": "add",
            "priority": 0,
            "subTarget": "mhp",
            "target": "misc",
            "value": 1,
            "id": "zvg4y36f"
          },
          {
            "formula": "-2",
            "modifier": "untypedPerm",
            "operator": "add",
            "priority": 0,
            "subTarget": "ref",
            "target": "savingThrows",
            "value": -2,
            "id": "e73zt7l6"
          },
          {
            "formula": "-1",
            "modifier": "untypedPerm",
            "operator": "add",
            "priority": 0,
            "subTarget": "skill.hea",
            "target": "skill",
            "value": -1,
            "id": "ht1p7s1m"
          }
        ],
        "contextNotes": [],
        "links": {
          "children": []
        },
        "tag": "sbcConversionBuff",
        "useCustomTag": true,
        "flags": {
          "boolean": [],
          "dictionary": []
        },
        "scriptCalls": [],
        "buffType": "perm",
        "active": true,
        "hideFromToken": true
      },
      "effects": [],
      "folder": null,
      "sort": 0,
      "permission": {
        "default": 0,
        "iM1ACTqH0Ml6HJtd": 3
      },
      "flags": {}
    }
  ],
  "effects": [],
  "folder": null,
  "sort": 0,
  "permission": {
    "default": 0
  },
  "flags": {}
}