{
  "_id": "Kdkd8FP7nBcB3IiJ",
  "name": "Theletos",
  "type": "npc",
  "img": "systems/pf1/icons/races/creature-types/outsider.png",
  "data": {
    "abilities": {
      "str": {
        "value": 18
      },
      "dex": {
        "value": 14
      },
      "con": {
        "value": 17
      },
      "int": {
        "value": 11
      },
      "wis": {
        "value": 19
      },
      "cha": {
        "value": 12
      }
    },
    "attributes": {
      "cmdNotes": "can’t be tripped",
      "spells": {
        "usedSpellbooks": []
      }
    },
    "details": {
      "cr": {
        "base": 7
      }
    },
    "traits": {
      "senses": "darkvision 60 ft.; Perception +16",
      "languages": {
        "value": []
      },
      "di": {
        "value": []
      },
      "dv": {
        "value": []
      },
      "ci": {
        "value": []
      },
      "stature": ""
    }
  },
  "token": {
    "name": "Theletos",
    "displayName": 20,
    "actorLink": false,
    "width": 1,
    "height": 1,
    "scale": 1,
    "mirrorX": false,
    "mirrorY": false,
    "lockRotation": false,
    "rotation": 0,
    "alpha": 1,
    "vision": false,
    "dimSight": 0,
    "brightSight": "60",
    "dimLight": 0,
    "brightLight": 0,
    "sightAngle": 0,
    "lightAngle": 0,
    "lightAlpha": 0.25,
    "lightAnimation": {
      "speed": 5,
      "intensity": 5
    },
    "disposition": -1,
    "displayBars": 20,
    "bar1": {
      "attribute": null
    },
    "bar2": {
      "attribute": null
    },
    "flags": {
      "pf1": {
        "lowLightVision": false
      }
    },
    "randomImg": false,
    "img": "systems/pf1/icons/races/creature-types/outsider.png"
  },
  "items": [
    {
      "_id": "kgynwswfuj9oo0es",
      "name": "Constant: Detect Poison",
      "type": "spell",
      "img": "systems/pf1/icons/misc/magic-swirl.png",
      "data": {
        "description": {
          "value": "<div class=\"spell-description\">\n  <p>\n    <strong>School</strong>&nbsp;divination;\n    <strong>Level</strong>&nbsp;cleric/oracle 0, druid 0, hunter 0, inquisitor 0, mesmerist 0, occultist 0, paladin 1, psychic 0, ranger 1, shaman 0, sorcerer/wizard 0;\n    \n    \n    \n    \n  </p>\n  <p>\n    <strong>Casting Time</strong>&nbsp;1 standard action<br>\n    <strong>Components</strong>&nbsp;V, S<br>\n  </p>\n  <p>\n    <strong>Range</strong>&nbsp;close (25 ft. + 5 ft./2 levels)<br>\n    <strong>Area</strong>&nbsp;one creature, one object, or a 5-ft. cube<br>\n    <strong>Targets</strong>&nbsp;one creature, one object, or a 5-ft. cube<br>\n    \n    <strong>Duration</strong>&nbsp;instantaneous<br>\n    <strong>Saving Throw</strong>&nbsp;none;&nbsp;<strong>Spell Resistance</strong>&nbsp;no<br>\n  </p>\n  <h2>Description</h2>\n  <p>You determine whether a creature, object, or area has been poisoned or is poisonous. You can determine the exact type of poison with a DC 20 Wisdom check. A character with the Craft (alchemy) skill may try a DC 20 Craft (alchemy) check if the Wisdom check fails, or may try the Craft (alchemy) check prior to the Wisdom check. The spell can penetrate barriers, but 1 foot of stone, 1 inch of common metal, a thin sheet of lead, or 3 feet of wood or dirt blocks it.</p>\n</div>\n"
        },
        "tags": [],
        "activation": {
          "type": "standard"
        },
        "unchainedAction": {
          "activation": {
            "cost": 2,
            "type": "action"
          }
        },
        "target": {
          "value": "one creature, one object, or a 5-ft. cube"
        },
        "range": {
          "units": "close"
        },
        "uses": {
          "per": ""
        },
        "measureTemplate": {
          "size": "0"
        },
        "actionType": "",
        "damage": {
          "parts": [],
          "critParts": [],
          "nonCritParts": []
        },
        "attackParts": [],
        "ability": {
          "attack": "",
          "damage": ""
        },
        "save": {
          "dc": "0"
        },
        "effectNotes": [],
        "attackNotes": [],
        "links": {
          "children": []
        },
        "flags": {
          "boolean": [],
          "dictionary": []
        },
        "scriptCalls": [],
        "learnedAt": {
          "class": [
            [
              "sorcerer/wizard",
              0
            ],
            [
              "cleric/oracle",
              0
            ],
            [
              "druid",
              0
            ],
            [
              "ranger",
              1
            ],
            [
              "paladin",
              1
            ],
            [
              "inquisitor",
              0
            ],
            [
              "shaman",
              0
            ],
            [
              "psychic",
              0
            ],
            [
              "mesmerist",
              0
            ],
            [
              "occultist",
              0
            ],
            [
              "hunter",
              0
            ]
          ],
          "domain": [],
          "subDomain": [],
          "elementalSchool": [],
          "bloodline": []
        },
        "level": 0,
        "school": "div",
        "conditionals": [],
        "components": {
          "verbal": true,
          "somatic": true
        },
        "preparation": {
          "preparedAmount": 1,
          "maxAmount": 1,
          "autoDeductCharges": false
        },
        "atWill": true,
        "sr": false,
        "shortDescription": "<p>You determine whether a creature, object, or area has been poisoned or is poisonous. You can determine the exact type of poison with a DC 20 Wisdom check. A character with the Craft (alchemy) skill may try a DC 20 Craft (alchemy) check if the Wisdom check fails, or may try the Craft (alchemy) check prior to the Wisdom check. The spell can penetrate barriers, but 1 foot of stone, 1 inch of common metal, a thin sheet of lead, or 3 feet of wood or dirt blocks it.</p>",
        "spellDuration": "instantaneous",
        "spellArea": "one creature, one object, or a 5-ft. cube"
      },
      "effects": [],
      "folder": null,
      "sort": 0,
      "permission": {
        "default": 0
      },
      "flags": {}
    },
    {
      "_id": "cV7yHt8i5YCV0ZTd",
      "name": "Outsider (Aeon, Extraplanar)",
      "type": "class",
      "img": "systems/pf1/icons/skills/yellow_40.jpg",
      "data": {
        "description": {
          "value": "<p>An outsider is at least partially composed of the essence (but not necessarily the material) of some plane other than the Material Plane. Some creatures start out as some other type and become outsiders when they attain a higher (or lower) state of spiritual existence.</p>\n<h2><span id=\"Features\">Features</span></h2>\n<p>An outsider has the following features.</p>\n<ul>\n<li>d10 Hit Dice.</li>\n<li>Base attack bonus equal to total Hit Dice (fast progression).</li>\n<li>Two good saving throws, usually&nbsp;<a href=\"https://www.d20pfsrd.com/gamemastering/combat#TOC-Reflex\" rel=\"nofollow\">Reflex</a>&nbsp;and Will.</li>\n<li>Skill points equal to 6 + Int modifier (minimum 1) per Hit Die. The following are class skills for outsiders: <a href=\"https://www.d20pfsrd.com/skills/bluff\" rel=\"nofollow\">Bluff</a>, <a href=\"https://www.d20pfsrd.com/skills/craft\" rel=\"nofollow\">Craft</a>, <a href=\"https://www.d20pfsrd.com/skills/knowledge\" rel=\"nofollow\">Knowledge</a>&nbsp;(planes), <a href=\"https://www.d20pfsrd.com/skills/perception\" rel=\"nofollow\">Perception</a>, <a href=\"https://www.d20pfsrd.com/skills/sense-motive\" rel=\"nofollow\">Sense Motive</a>, and <a href=\"https://www.d20pfsrd.com/skills/stealth\" rel=\"nofollow\">Stealth</a>. Due to their varied nature, outsiders also receive 4 additional class skills determined by the creature’s theme.</li>\n</ul>\n<h2><span id=\"Traits\">Traits</span></h2>\n<p>An outsider possesses the following traits (unless otherwise noted in a creature’s entry).</p>\n<ul>\n<li>Darkvision 60 feet.</li>\n<li>Unlike most living creatures, an outsider does not have a dual nature—its soul and body form one unit. When an outsider is slain, no soul is set loose. Spells that restore souls to their bodies, such as&nbsp;<a href=\"https://www.d20pfsrd.com/magic/all-spells/r/raise-dead\" rel=\"nofollow\">raise dead</a>,&nbsp;<a href=\"https://www.d20pfsrd.com/magic/all-spells/r/reincarnate\" rel=\"nofollow\">reincarnate</a>,&nbsp;and&nbsp;<a href=\"https://www.d20pfsrd.com/magic/all-spells/r/resurrection\" rel=\"nofollow\">resurrection</a>,&nbsp;don’t work on an outsider. It takes a different magical effect, such as&nbsp;<a href=\"https://www.d20pfsrd.com/magic/all-spells/l/limited-wish\" rel=\"nofollow\">limited wish</a>,&nbsp;<a href=\"https://www.d20pfsrd.com/magic/all-spells/w/wish\" rel=\"nofollow\">wish</a>,&nbsp;<a href=\"https://www.d20pfsrd.com/magic/all-spells/m/miracle\" rel=\"nofollow\">miracle</a>,&nbsp;or&nbsp;<a href=\"https://www.d20pfsrd.com/magic/all-spells/t/true-resurrection\" rel=\"nofollow\">true resurrection</a>&nbsp;to restore it to life. An outsider with the native subtype can be raised, reincarnated, or resurrected just as other living creatures can be.</li>\n<li>Proficient with all simple and martial weapons and any weapons mentioned in its entry.</li>\n<li>Proficient with whatever type of armor (light, medium, or heavy) it is described as wearing, as well as all lighter types. Outsiders not indicated as wearing armor are not proficient with armor. Outsiders are proficient with shields if they are proficient with any form of armor.</li>\n<li>Outsiders breathe, but do not need to eat or sleep (although they can do so if they wish). Native outsiders breathe, eat, and sleep.</li>\n</ul>"
        },
        "tags": [],
        "changes": [],
        "links": "",
        "tag": "outsider",
        "useCustomTag": true,
        "armorProf": {
          "value": []
        },
        "weaponProf": {
          "value": []
        },
        "flags": {
          "boolean": [],
          "dictionary": []
        },
        "scriptCalls": [],
        "classType": "racial",
        "level": 16,
        "hd": 10,
        "hp": 98,
        "bab": "high",
        "skillsPerLevel": 6,
        "savingThrows": {
          "ref": {
            "value": "high"
          },
          "will": {
            "value": "high"
          }
        },
        "classSkills": {
          "acr": false,
          "apr": false,
          "art": false,
          "blf": true,
          "clm": false,
          "crf": true,
          "dip": false,
          "dev": false,
          "dis": false,
          "esc": false,
          "fly": false,
          "han": false,
          "hea": false,
          "int": false,
          "kar": false,
          "kdu": false,
          "ken": false,
          "kge": false,
          "khi": false,
          "klo": false,
          "kna": false,
          "kno": false,
          "kpl": true,
          "kre": false,
          "lin": false,
          "lor": false,
          "per": true,
          "prf": false,
          "pro": false,
          "rid": false,
          "sen": true,
          "slt": false,
          "spl": false,
          "ste": true,
          "sur": false,
          "swm": false,
          "umd": false
        }
      },
      "effects": [],
      "folder": null,
      "sort": 0,
      "permission": {
        "default": 0
      },
      "flags": {}
    },
    {
      "_id": "ybkvec7vmdgk7jmx",
      "name": "Race: Outsider",
      "type": "race",
      "img": "systems/pf1/icons/skills/yellow_40.jpg",
      "data": {
        "description": {
          "value": "sbc | As no playable race was found a placeholder was generated."
        },
        "tags": [],
        "changes": [],
        "contextNotes": [],
        "links": {
          "children": []
        },
        "armorProf": {
          "value": []
        },
        "weaponProf": {
          "value": []
        },
        "flags": {
          "boolean": [],
          "dictionary": []
        },
        "scriptCalls": [],
        "creatureType": "outsider",
        "subTypes": [
          [
            "aeon"
          ],
          [
            "extraplanar"
          ]
        ]
      },
      "effects": [],
      "folder": null,
      "sort": 0,
      "permission": {
        "default": 0
      },
      "flags": {}
    },
    {
      "_id": "87qy1tn40ar9a50m",
      "name": "Sense: Darkvision 60ft.",
      "type": "feat",
      "img": "systems/pf1/icons/skills/shadow_12.jpg",
      "data": {
        "description": {
          "value": "Darkvision is the extraordinary ability to see with no light source at all, out to a range specified for the creature. Darkvision is black-and-white only (colors cannot be discerned). It does not allow characters to see anything that they could not see otherwise—invisible objects are still invisible, and illusions are still visible as what they seem to be. Likewise, darkvision subjects a creature to gaze attacks normally. The presence of light does not spoil darkvision."
        },
        "tags": [],
        "damage": {
          "parts": [],
          "critParts": [],
          "nonCritParts": []
        },
        "attackParts": [],
        "effectNotes": [],
        "attackNotes": [],
        "changes": [],
        "contextNotes": [],
        "links": {
          "children": [],
          "charges": []
        },
        "tag": "senseDarkvision60ft",
        "armorProf": {
          "value": []
        },
        "weaponProf": {
          "value": []
        },
        "flags": {
          "boolean": [],
          "dictionary": []
        },
        "scriptCalls": [],
        "featType": "racial",
        "associations": {
          "classes": []
        },
        "abilityType": "ex"
      },
      "effects": [],
      "folder": null,
      "sort": 0,
      "permission": {
        "default": 0
      },
      "flags": {}
    },
    {
      "_id": "o8ds5jtvf0hf92dw",
      "name": "Guidance",
      "type": "spell",
      "img": "systems/pf1/icons/misc/magic-swirl.png",
      "data": {
        "description": {
          "value": "<div class=\"spell-description\">\n  <p>\n    <strong>School</strong>&nbsp;divination;\n    <strong>Level</strong>&nbsp;adept 0, cleric/oracle 0, druid 0, hunter 0, inquisitor 0, medium 0, occultist 0, shaman 0, spiritualist 0, summoner 0, unchained Summoner 0, witch 0;\n    \n    \n    \n    \n  </p>\n  <p>\n    <strong>Casting Time</strong>&nbsp;1 standard action<br>\n    <strong>Components</strong>&nbsp;V, S<br>\n  </p>\n  <p>\n    <strong>Range</strong>&nbsp;touch<br>\n    \n    <strong>Targets</strong>&nbsp;creature touched<br>\n    \n    <strong>Duration</strong>&nbsp;1 minute or until discharged<br>\n    <strong>Saving Throw</strong>&nbsp;Will negates (harmless);&nbsp;<strong>Spell Resistance</strong>&nbsp;yes<br>\n  </p>\n  <h2>Description</h2>\n  <p>This spell imbues the subject with a touch of divine guidance.</p><p>The creature gets a +1 competence bonus on a single attack roll, saving throw, or skill check. It must choose to use the bonus before making the roll to which it applies.</p>\n</div>\n"
        },
        "tags": [],
        "activation": {
          "type": "standard"
        },
        "unchainedAction": {
          "activation": {
            "cost": 2,
            "type": "action"
          }
        },
        "target": {
          "value": "creature touched"
        },
        "range": {
          "units": "touch"
        },
        "uses": {
          "per": ""
        },
        "measureTemplate": {
          "size": "0"
        },
        "actionType": "spellsave",
        "damage": {
          "parts": [],
          "critParts": [],
          "nonCritParts": []
        },
        "attackParts": [],
        "ability": {
          "attack": "",
          "damage": ""
        },
        "save": {
          "dc": "0",
          "type": "will",
          "description": "Will negates (harmless)"
        },
        "effectNotes": [],
        "attackNotes": [],
        "links": {
          "children": []
        },
        "flags": {
          "boolean": [],
          "dictionary": []
        },
        "scriptCalls": [],
        "learnedAt": {
          "class": [
            [
              "cleric/oracle",
              0
            ],
            [
              "druid",
              0
            ],
            [
              "summoner",
              0
            ],
            [
              "witch",
              0
            ],
            [
              "inquisitor",
              0
            ],
            [
              "adept",
              0
            ],
            [
              "shaman",
              0
            ],
            [
              "medium",
              0
            ],
            [
              "occultist",
              0
            ],
            [
              "spiritualist",
              0
            ],
            [
              "hunter",
              0
            ],
            [
              "unchained Summoner",
              0
            ]
          ],
          "domain": [],
          "subDomain": [],
          "elementalSchool": [],
          "bloodline": []
        },
        "level": 0,
        "school": "div",
        "conditionals": [],
        "components": {
          "verbal": true,
          "somatic": true
        },
        "preparation": {
          "preparedAmount": 1,
          "maxAmount": 1,
          "autoDeductCharges": false
        },
        "atWill": true,
        "shortDescription": "<p>This spell imbues the subject with a touch of divine guidance.</p><p>The creature gets a +1 competence bonus on a single attack roll, saving throw, or skill check. It must choose to use the bonus before making the roll to which it applies.</p>",
        "spellDuration": "1 minute or until discharged"
      },
      "effects": [],
      "folder": null,
      "sort": 0,
      "permission": {
        "default": 0
      },
      "flags": {}
    },
    {
      "_id": "JreaiTHdyWFNj3Tb",
      "name": "Dodge",
      "type": "feat",
      "img": "systems/pf1/icons/feats/dodge.jpg",
      "data": {
        "description": {
          "value": "\n                <i>Your training and reflexes allow you to react swiftly to avoid an opponents' attacks.</i>\n                <br />\n                <br />\n                \n                <p><b>Prerequisites</b></p>\n                <p> Dex 13.</p>\n                \n            <br />\n                <p><b>Benefits</b></p>\n                <p><p class=\"stat-block-1\"> You gain a +1 dodge bonus to your AC. A condition that makes you lose your Dex bonus to AC also makes you lose the benefits of this feat.</p></p>\n                \n            \n            "
        },
        "tags": [
          [
            "Combat"
          ],
          [
            "Defensive"
          ]
        ],
        "measureTemplate": {
          "size": "0"
        },
        "actionType": "",
        "damage": {
          "parts": [],
          "critParts": [],
          "nonCritParts": []
        },
        "attackParts": [],
        "effectNotes": [],
        "attackNotes": [],
        "changes": [
          {
            "_id": "9onhsept",
            "formula": "1",
            "operator": "add",
            "subTarget": "ac",
            "modifier": "dodge",
            "priority": 0,
            "value": 0,
            "target": "ac"
          }
        ],
        "contextNotes": [],
        "links": {
          "children": [],
          "charges": []
        },
        "tag": "dodge",
        "armorProf": {
          "value": []
        },
        "weaponProf": {
          "value": []
        },
        "flags": {
          "boolean": [],
          "dictionary": []
        },
        "scriptCalls": [],
        "associations": {
          "classes": []
        }
      },
      "effects": [],
      "folder": null,
      "sort": 0,
      "permission": {
        "default": 0
      },
      "flags": {}
    },
    {
      "_id": "g8j278xcu2s1zlwy",
      "name": "Resistance",
      "type": "spell",
      "img": "systems/pf1/icons/misc/magic-swirl.png",
      "data": {
        "description": {
          "value": "<div class=\"spell-description\">\n  <p>\n    <strong>School</strong>&nbsp;abjuration;\n    <strong>Level</strong>&nbsp;bard 0, cleric/oracle 0, druid 0, hunter 0, inquisitor 0, medium 0, occultist 0, paladin 1, psychic 0, shaman 0, sorcerer/wizard 0, spiritualist 0, summoner 0, unchained Summoner 0, witch 0;\n    \n    \n    \n    \n  </p>\n  <p>\n    <strong>Casting Time</strong>&nbsp;1 standard action<br>\n    <strong>Components</strong>&nbsp;V, S, M/DF (a miniature cloak)<br>\n  </p>\n  <p>\n    <strong>Range</strong>&nbsp;touch<br>\n    \n    <strong>Targets</strong>&nbsp;creature touched<br>\n    \n    <strong>Duration</strong>&nbsp;1 minute<br>\n    <strong>Saving Throw</strong>&nbsp;Will negates (harmless);&nbsp;<strong>Spell Resistance</strong>&nbsp;yes<br>\n  </p>\n  <h2>Description</h2>\n  <p>You imbue the subject with magical energy that protects it from harm, granting it a +1 resistance bonus on saves.</p><p><i>Resistance</i> can be made permanent with a <i>permanency</i> spell.</p>\n</div>\n"
        },
        "tags": [],
        "activation": {
          "type": "standard"
        },
        "unchainedAction": {
          "activation": {
            "cost": 2,
            "type": "action"
          }
        },
        "target": {
          "value": "creature touched"
        },
        "range": {
          "units": "touch"
        },
        "uses": {
          "per": ""
        },
        "measureTemplate": {
          "size": "0"
        },
        "actionType": "spellsave",
        "damage": {
          "parts": [],
          "critParts": [],
          "nonCritParts": []
        },
        "attackParts": [],
        "ability": {
          "attack": "",
          "damage": ""
        },
        "save": {
          "dc": "0",
          "type": "will",
          "description": "Will negates (harmless)"
        },
        "effectNotes": [],
        "attackNotes": [],
        "links": {
          "children": []
        },
        "flags": {
          "boolean": [],
          "dictionary": []
        },
        "scriptCalls": [],
        "learnedAt": {
          "class": [
            [
              "sorcerer/wizard",
              0
            ],
            [
              "cleric/oracle",
              0
            ],
            [
              "druid",
              0
            ],
            [
              "bard",
              0
            ],
            [
              "paladin",
              1
            ],
            [
              "summoner",
              0
            ],
            [
              "witch",
              0
            ],
            [
              "inquisitor",
              0
            ],
            [
              "shaman",
              0
            ],
            [
              "psychic",
              0
            ],
            [
              "medium",
              0
            ],
            [
              "occultist",
              0
            ],
            [
              "spiritualist",
              0
            ],
            [
              "hunter",
              0
            ],
            [
              "unchained Summoner",
              0
            ]
          ],
          "domain": [],
          "subDomain": [],
          "elementalSchool": [],
          "bloodline": []
        },
        "level": 0,
        "school": "abj",
        "conditionals": [],
        "components": {
          "verbal": true,
          "somatic": true,
          "material": true,
          "divineFocus": 2
        },
        "materials": {
          "value": "a miniature cloak"
        },
        "preparation": {
          "autoDeductCharges": false
        },
        "atWill": true,
        "shortDescription": "<p>You imbue the subject with magical energy that protects it from harm, granting it a +1 resistance bonus on saves.</p><p><i>Resistance</i> can be made permanent with a <i>permanency</i> spell.</p>",
        "spellDuration": "1 minute"
      },
      "effects": [],
      "folder": null,
      "sort": 0,
      "permission": {
        "default": 0
      },
      "flags": {}
    },
    {
      "_id": "Y1qWFTAiExbYb6rR",
      "name": "sbc | Conversion Buff",
      "type": "buff",
      "img": "systems/pf1/icons/skills/yellow_36.jpg",
      "data": {
        "description": {
          "value": "<h2>sbc | Conversion Buff</h2>\n                        This Buff was created by <strong>sbc</strong> to compensate for differences between the input and the values FoundryVTT calculates automatically.\n                        <br><br>\n                        Especially when the pathfinder system gets upgraded, entries in compendiums get updated or foundry changes in some way, this buff may become outdated.\n                        <br><br>\n                        For most mooks the conversion should more or less work, but for important NPCs or creatures it is adviced to double check the conversion manually."
        },
        "tags": [],
        "changes": [
          {
            "_id": "phxeveta",
            "formula": "4",
            "operator": "add",
            "subTarget": "init",
            "modifier": "untypedPerm",
            "priority": 0,
            "value": 4,
            "target": "misc",
            "id": "2i1ma622"
          },
          {
            "_id": "us8vrshy",
            "formula": "NaN",
            "operator": "add",
            "subTarget": "aac",
            "modifier": "untypedPerm",
            "priority": 0,
            "value": null,
            "target": "ac",
            "id": "l53zw4ga"
          }
        ],
        "contextNotes": [],
        "links": {
          "children": []
        },
        "tag": "sbcConversionBuff",
        "useCustomTag": true,
        "flags": {
          "boolean": [],
          "dictionary": []
        },
        "scriptCalls": [],
        "buffType": "perm",
        "active": true,
        "hideFromToken": true
      },
      "effects": [],
      "folder": null,
      "sort": 0,
      "permission": {
        "default": 0,
        "iM1ACTqH0Ml6HJtd": 3
      },
      "flags": {}
    }
  ],
  "effects": [],
  "folder": null,
  "sort": 0,
  "permission": {
    "default": 0
  },
  "flags": {}
}