{
  "_id": "ckJBY0CRCW3iFbHb",
  "name": "Harbinger Archon",
  "type": "npc",
  "img": "systems/pf1/icons/skills/yellow_40.jpg",
  "data": {
    "abilities": {
      "str": {
        "value": 6
      },
      "dex": {
        "value": 15
      },
      "con": {
        "value": 11
      },
      "wis": {
        "value": 13
      },
      "cha": {
        "value": 12
      }
    },
    "attributes": {
      "naturalAC": "+1",
      "saveNotes": " +4 vs. poison",
      "hp": {
        "value": 26
      },
      "speed": {
        "land": {
          "base": 50
        },
        "fly": {
          "base": 50,
          "maneuverability": "perfect"
        }
      },
      "spells": {
        "usedSpellbooks": [
          "spelllike"
        ],
        "spellbooks": {
          "spelllike": {
            "altName": "Spell-like Abilities",
            "cl": {
              "formula": "3"
            },
            "concentrationFormula": "2",
            "concentrationNotes": "sbc | Total in statblock was +7, adjust as needed.",
            "clNotes": "sbc | Total in statblock was CL 6, adjust as needed.",
            "autoSpellLevelCalculation": false,
            "autoSpellLevels": false,
            "arcaneSpellFailure": false,
            "domainSlotValue": 0
          }
        }
      }
    },
    "details": {
      "alignment": "lg",
      "cr": {
        "base": 2
      }
    },
    "skills": {
      "dip": {
        "rank": 6
      },
      "fly": {
        "rank": 14
      },
      "kpl": {
        "rank": 3
      },
      "kre": {
        "rank": 6
      },
      "per": {
        "rank": 3
      },
      "sen": {
        "rank": 3
      }
    },
    "traits": {
      "size": "tiny",
      "senses": "darkvision 60 ft., detect evil, low-light vision; Perception +7",
      "dr": "5/evil",
      "languages": {
        "value": [
          "celestial",
          "draconic",
          "infernal"
        ],
        "custom": "truespeech"
      },
      "di": {
        "value": [
          "electric"
        ]
      },
      "dv": {
        "value": []
      },
      "ci": {
        "value": [
          "petrify"
        ]
      },
      "stature": ""
    }
  },
  "token": {
    "name": "Harbinger Archon",
    "displayName": 20,
    "actorLink": false,
    "width": 1,
    "height": 1,
    "scale": 0.75,
    "mirrorX": false,
    "mirrorY": false,
    "lockRotation": false,
    "rotation": 0,
    "alpha": 1,
    "vision": false,
    "dimSight": 0,
    "brightSight": "60",
    "dimLight": 0,
    "brightLight": 0,
    "sightAngle": 0,
    "lightAngle": 0,
    "lightAlpha": 0.25,
    "lightAnimation": {
      "speed": 5,
      "intensity": 5
    },
    "disposition": -1,
    "displayBars": 20,
    "bar1": {
      "attribute": null
    },
    "bar2": {
      "attribute": null
    },
    "flags": {
      "pf1": {
        "lowLightVision": false
      }
    },
    "randomImg": false,
    "img": "systems/pf1/icons/skills/yellow_40.jpg"
  },
  "items": [
    {
      "_id": "cV7yHt8i5YCV0ZTd",
      "name": "Outsider (Archon, Extraplanar, Good, Lawful)",
      "type": "class",
      "img": "systems/pf1/icons/skills/yellow_40.jpg",
      "data": {
        "description": {
          "value": "<p>An outsider is at least partially composed of the essence (but not necessarily the material) of some plane other than the Material Plane. Some creatures start out as some other type and become outsiders when they attain a higher (or lower) state of spiritual existence.</p>\n<h2><span id=\"Features\">Features</span></h2>\n<p>An outsider has the following features.</p>\n<ul>\n<li>d10 Hit Dice.</li>\n<li>Base attack bonus equal to total Hit Dice (fast progression).</li>\n<li>Two good saving throws, usually&nbsp;<a href=\"https://www.d20pfsrd.com/gamemastering/combat#TOC-Reflex\" rel=\"nofollow\">Reflex</a>&nbsp;and Will.</li>\n<li>Skill points equal to 6 + Int modifier (minimum 1) per Hit Die. The following are class skills for outsiders: <a href=\"https://www.d20pfsrd.com/skills/bluff\" rel=\"nofollow\">Bluff</a>, <a href=\"https://www.d20pfsrd.com/skills/craft\" rel=\"nofollow\">Craft</a>, <a href=\"https://www.d20pfsrd.com/skills/knowledge\" rel=\"nofollow\">Knowledge</a>&nbsp;(planes), <a href=\"https://www.d20pfsrd.com/skills/perception\" rel=\"nofollow\">Perception</a>, <a href=\"https://www.d20pfsrd.com/skills/sense-motive\" rel=\"nofollow\">Sense Motive</a>, and <a href=\"https://www.d20pfsrd.com/skills/stealth\" rel=\"nofollow\">Stealth</a>. Due to their varied nature, outsiders also receive 4 additional class skills determined by the creature’s theme.</li>\n</ul>\n<h2><span id=\"Traits\">Traits</span></h2>\n<p>An outsider possesses the following traits (unless otherwise noted in a creature’s entry).</p>\n<ul>\n<li>Darkvision 60 feet.</li>\n<li>Unlike most living creatures, an outsider does not have a dual nature—its soul and body form one unit. When an outsider is slain, no soul is set loose. Spells that restore souls to their bodies, such as&nbsp;<a href=\"https://www.d20pfsrd.com/magic/all-spells/r/raise-dead\" rel=\"nofollow\">raise dead</a>,&nbsp;<a href=\"https://www.d20pfsrd.com/magic/all-spells/r/reincarnate\" rel=\"nofollow\">reincarnate</a>,&nbsp;and&nbsp;<a href=\"https://www.d20pfsrd.com/magic/all-spells/r/resurrection\" rel=\"nofollow\">resurrection</a>,&nbsp;don’t work on an outsider. It takes a different magical effect, such as&nbsp;<a href=\"https://www.d20pfsrd.com/magic/all-spells/l/limited-wish\" rel=\"nofollow\">limited wish</a>,&nbsp;<a href=\"https://www.d20pfsrd.com/magic/all-spells/w/wish\" rel=\"nofollow\">wish</a>,&nbsp;<a href=\"https://www.d20pfsrd.com/magic/all-spells/m/miracle\" rel=\"nofollow\">miracle</a>,&nbsp;or&nbsp;<a href=\"https://www.d20pfsrd.com/magic/all-spells/t/true-resurrection\" rel=\"nofollow\">true resurrection</a>&nbsp;to restore it to life. An outsider with the native subtype can be raised, reincarnated, or resurrected just as other living creatures can be.</li>\n<li>Proficient with all simple and martial weapons and any weapons mentioned in its entry.</li>\n<li>Proficient with whatever type of armor (light, medium, or heavy) it is described as wearing, as well as all lighter types. Outsiders not indicated as wearing armor are not proficient with armor. Outsiders are proficient with shields if they are proficient with any form of armor.</li>\n<li>Outsiders breathe, but do not need to eat or sleep (although they can do so if they wish). Native outsiders breathe, eat, and sleep.</li>\n</ul>"
        },
        "tags": [],
        "changes": [],
        "links": "",
        "tag": "outsider",
        "useCustomTag": true,
        "armorProf": {
          "value": []
        },
        "weaponProf": {
          "value": []
        },
        "flags": {
          "boolean": [],
          "dictionary": []
        },
        "scriptCalls": [],
        "classType": "racial",
        "level": 3,
        "hd": 10,
        "hp": 26,
        "bab": "high",
        "skillsPerLevel": 6,
        "savingThrows": {
          "ref": {
            "value": "high"
          },
          "will": {
            "value": "high"
          }
        },
        "classSkills": {
          "acr": false,
          "apr": false,
          "art": false,
          "blf": true,
          "clm": false,
          "crf": true,
          "dip": false,
          "dev": false,
          "dis": false,
          "esc": false,
          "fly": false,
          "han": false,
          "hea": false,
          "int": false,
          "kar": false,
          "kdu": false,
          "ken": false,
          "kge": false,
          "khi": false,
          "klo": false,
          "kna": false,
          "kno": false,
          "kpl": true,
          "kre": false,
          "lin": false,
          "lor": false,
          "per": true,
          "prf": false,
          "pro": false,
          "rid": false,
          "sen": true,
          "slt": false,
          "spl": false,
          "ste": true,
          "sur": false,
          "swm": false,
          "umd": false
        }
      },
      "effects": [],
      "folder": null,
      "sort": 0,
      "permission": {
        "default": 0
      },
      "flags": {}
    },
    {
      "_id": "o0jozeqczabslc34",
      "name": "Race: Outsider",
      "type": "race",
      "img": "systems/pf1/icons/skills/yellow_40.jpg",
      "data": {
        "description": {
          "value": "sbc | As no playable race was found a placeholder was generated."
        },
        "tags": [],
        "changes": [],
        "contextNotes": [],
        "links": {
          "children": []
        },
        "armorProf": {
          "value": []
        },
        "weaponProf": {
          "value": []
        },
        "flags": {
          "boolean": [],
          "dictionary": []
        },
        "scriptCalls": [],
        "creatureType": "outsider",
        "subTypes": [
          [
            "archon"
          ],
          [
            "extraplanar"
          ],
          [
            "good"
          ],
          [
            "lawful"
          ]
        ]
      },
      "effects": [],
      "folder": null,
      "sort": 0,
      "permission": {
        "default": 0
      },
      "flags": {}
    },
    {
      "_id": "v31y3m8171jk7ou0",
      "name": "Sense: Darkvision 60ft.",
      "type": "feat",
      "img": "systems/pf1/icons/skills/shadow_12.jpg",
      "data": {
        "description": {
          "value": "Darkvision is the extraordinary ability to see with no light source at all, out to a range specified for the creature. Darkvision is black-and-white only (colors cannot be discerned). It does not allow characters to see anything that they could not see otherwise—invisible objects are still invisible, and illusions are still visible as what they seem to be. Likewise, darkvision subjects a creature to gaze attacks normally. The presence of light does not spoil darkvision."
        },
        "tags": [],
        "damage": {
          "parts": [],
          "critParts": [],
          "nonCritParts": []
        },
        "attackParts": [],
        "effectNotes": [],
        "attackNotes": [],
        "changes": [],
        "contextNotes": [],
        "links": {
          "children": [],
          "charges": []
        },
        "tag": "senseDarkvision60ft",
        "armorProf": {
          "value": []
        },
        "weaponProf": {
          "value": []
        },
        "flags": {
          "boolean": [],
          "dictionary": []
        },
        "scriptCalls": [],
        "featType": "racial",
        "associations": {
          "classes": []
        },
        "abilityType": "ex"
      },
      "effects": [],
      "folder": null,
      "sort": 0,
      "permission": {
        "default": 0
      },
      "flags": {}
    },
    {
      "_id": "5s41asstnsy7lz8l",
      "name": "Sense: Low-light Vision",
      "type": "feat",
      "img": "systems/pf1/icons/skills/shadow_11.jpg",
      "data": {
        "description": {
          "value": "A creature with low-light vision can see twice as far as a human in starlight, moonlight, torchlight, and similar conditions of dim light. It retains the ability to distinguish color and detail under these conditions."
        },
        "tags": [],
        "damage": {
          "parts": [],
          "critParts": [],
          "nonCritParts": []
        },
        "attackParts": [],
        "effectNotes": [],
        "attackNotes": [],
        "changes": [],
        "contextNotes": [],
        "links": {
          "children": [],
          "charges": []
        },
        "tag": "senseLowlightVision",
        "armorProf": {
          "value": []
        },
        "weaponProf": {
          "value": []
        },
        "flags": {
          "boolean": [],
          "dictionary": []
        },
        "scriptCalls": [],
        "featType": "racial",
        "associations": {
          "classes": []
        },
        "abilityType": "ex"
      },
      "effects": [],
      "folder": null,
      "sort": 0,
      "permission": {
        "default": 0
      },
      "flags": {}
    },
    {
      "_id": "JreaiTHdyWFNj3Tb",
      "name": "Dodge",
      "type": "feat",
      "img": "systems/pf1/icons/feats/dodge.jpg",
      "data": {
        "description": {
          "value": "\n                <i>Your training and reflexes allow you to react swiftly to avoid an opponents' attacks.</i>\n                <br />\n                <br />\n                \n                <p><b>Prerequisites</b></p>\n                <p> Dex 13.</p>\n                \n            <br />\n                <p><b>Benefits</b></p>\n                <p><p class=\"stat-block-1\"> You gain a +1 dodge bonus to your AC. A condition that makes you lose your Dex bonus to AC also makes you lose the benefits of this feat.</p></p>\n                \n            \n            "
        },
        "tags": [
          [
            "Combat"
          ],
          [
            "Defensive"
          ]
        ],
        "measureTemplate": {
          "size": "0"
        },
        "actionType": "",
        "damage": {
          "parts": [],
          "critParts": [],
          "nonCritParts": []
        },
        "attackParts": [],
        "effectNotes": [],
        "attackNotes": [],
        "changes": [
          {
            "_id": "9onhsept",
            "formula": "1",
            "operator": "add",
            "subTarget": "ac",
            "modifier": "dodge",
            "priority": 0,
            "value": 0,
            "target": "ac"
          }
        ],
        "contextNotes": [],
        "links": {
          "children": [],
          "charges": []
        },
        "tag": "dodge",
        "armorProf": {
          "value": []
        },
        "weaponProf": {
          "value": []
        },
        "flags": {
          "boolean": [],
          "dictionary": []
        },
        "scriptCalls": [],
        "associations": {
          "classes": []
        }
      },
      "effects": [],
      "folder": null,
      "sort": 0,
      "permission": {
        "default": 0
      },
      "flags": {}
    },
    {
      "_id": "Uuiu3p982omhMEPj",
      "name": "Improved Initiative",
      "type": "feat",
      "img": "systems/pf1/icons/feats/improved-initiative.jpg",
      "data": {
        "description": {
          "value": "\n                <i>Your quick reflexes allow you to react rapidly to danger.</i>\n                <br />\n                <br />\n                \n                <p><b>Benefits</b></p>\n                <p><p class=\"stat-block-1\"> You get a +4 bonus on initiative checks.</p></p>\n                \n            \n            "
        },
        "tags": [
          [
            "Combat"
          ]
        ],
        "measureTemplate": {
          "size": "0"
        },
        "actionType": "",
        "damage": {
          "parts": [],
          "critParts": [],
          "nonCritParts": []
        },
        "attackParts": [],
        "effectNotes": [],
        "attackNotes": [],
        "changes": [
          {
            "_id": "ign7okhi",
            "formula": "4",
            "operator": "add",
            "subTarget": "init",
            "modifier": "untyped",
            "priority": 0,
            "value": 0,
            "target": "misc"
          }
        ],
        "contextNotes": [],
        "links": {
          "children": [],
          "charges": []
        },
        "tag": "improvedInitiative",
        "armorProf": {
          "value": []
        },
        "weaponProf": {
          "value": []
        },
        "flags": {
          "boolean": [],
          "dictionary": []
        },
        "scriptCalls": [],
        "associations": {
          "classes": []
        }
      },
      "effects": [],
      "folder": null,
      "sort": 0,
      "permission": {
        "default": 0
      },
      "flags": {}
    },
    {
      "_id": "sg5ji5s98ca25h28",
      "name": "Special Quality: Disassemble",
      "type": "feat",
      "img": "systems/pf1/icons/skills/yellow_36.jpg",
      "data": {
        "description": {
          "value": "sbc | Placeholder for Special Qualities, which in most statblocks are listed under SQ in the statistics block, but described in the Special Abilities. Remove duplicates as needed!"
        },
        "tags": [],
        "damage": {
          "parts": [],
          "critParts": [],
          "nonCritParts": []
        },
        "attackParts": [],
        "effectNotes": [],
        "attackNotes": [],
        "changes": [],
        "contextNotes": [],
        "links": {
          "children": [],
          "charges": []
        },
        "armorProf": {
          "value": []
        },
        "weaponProf": {
          "value": []
        },
        "flags": {
          "boolean": [],
          "dictionary": []
        },
        "scriptCalls": [],
        "featType": "misc",
        "associations": {
          "classes": []
        }
      },
      "effects": [],
      "folder": null,
      "sort": 0,
      "permission": {
        "default": 0
      },
      "flags": {}
    },
    {
      "_id": "av7ac68w9lcr8fht",
      "name": "Special Quality: Minor Archon",
      "type": "feat",
      "img": "systems/pf1/icons/skills/yellow_36.jpg",
      "data": {
        "description": {
          "value": "sbc | Placeholder for Special Qualities, which in most statblocks are listed under SQ in the statistics block, but described in the Special Abilities. Remove duplicates as needed!"
        },
        "tags": [],
        "damage": {
          "parts": [],
          "critParts": [],
          "nonCritParts": []
        },
        "attackParts": [],
        "effectNotes": [],
        "attackNotes": [],
        "changes": [],
        "contextNotes": [],
        "links": {
          "children": [],
          "charges": []
        },
        "armorProf": {
          "value": []
        },
        "weaponProf": {
          "value": []
        },
        "flags": {
          "boolean": [],
          "dictionary": []
        },
        "scriptCalls": [],
        "featType": "misc",
        "associations": {
          "classes": []
        }
      },
      "effects": [],
      "folder": null,
      "sort": 0,
      "permission": {
        "default": 0
      },
      "flags": {}
    },
    {
      "_id": "8uyf9c3zawn63v4n",
      "name": "Blades",
      "type": "attack",
      "img": null,
      "data": {
        "tags": [],
        "activation": {
          "type": "attack"
        },
        "unchainedAction": {
          "activation": {
            "type": "attack"
          }
        },
        "duration": {
          "units": "inst"
        },
        "range": {
          "value": "",
          "units": "melee"
        },
        "attackName": "Blades",
        "actionType": "mwak",
        "attackBonus": "1",
        "damage": {
          "parts": [
            [
              "1d4+1",
              ""
            ]
          ],
          "critParts": [],
          "nonCritParts": []
        },
        "attackParts": [
          [
            "0",
            "Blades: 1"
          ],
          [
            "0",
            "Blades: 2"
          ]
        ],
        "ability": {
          "attack": "str",
          "damage": "str"
        },
        "effectNotes": [],
        "attackNotes": [
          "3 blades +4 (1d4-1 )"
        ],
        "links": {
          "children": [],
          "charges": [],
          "ammunition": []
        },
        "flags": {
          "boolean": [],
          "dictionary": []
        },
        "scriptCalls": [],
        "primaryAttack": false,
        "conditionals": []
      },
      "effects": [],
      "folder": null,
      "sort": 0,
      "permission": {
        "default": 0
      },
      "flags": {}
    },
    {
      "_id": "i8c1p77wa64tdzjx",
      "name": "Special Attack: Wrath",
      "type": "attack",
      "img": "systems/pf1/icons/skills/yellow_36.jpg",
      "data": {
        "description": {
          "value": "sbc | Placeholder for Special Attacks, which in most statblocks are listed under 'Special Attacks' in the statistics block, but are described in the 'Special Abilities' block. Remove duplicates as needed!"
        },
        "tags": [],
        "damage": {
          "parts": [],
          "critParts": [],
          "nonCritParts": []
        },
        "attackParts": [],
        "effectNotes": [],
        "attackNotes": [],
        "links": {
          "children": [],
          "charges": [],
          "ammunition": []
        },
        "flags": {
          "boolean": [],
          "dictionary": []
        },
        "scriptCalls": [],
        "attackType": "misc",
        "conditionals": []
      },
      "effects": [],
      "folder": null,
      "sort": 0,
      "permission": {
        "default": 0
      },
      "flags": {}
    },
    {
      "_id": "tr7m97npkbgm4wp7",
      "name": "Constant: Detect Evil",
      "type": "spell",
      "img": "systems/pf1/icons/misc/magic-swirl.png",
      "data": {
        "description": {
          "value": "<div class=\"spell-description\">\n  <p>\n    <strong>School</strong>&nbsp;divination;\n    <strong>Level</strong>&nbsp;adept 1, cleric/oracle 1, inquisitor 1, shaman 1, spiritualist 1;\n    \n    \n    \n    \n  </p>\n  <p>\n    <strong>Casting Time</strong>&nbsp;1 standard action<br>\n    <strong>Components</strong>&nbsp;V, S, DF<br>\n  </p>\n  <p>\n    <strong>Range</strong>&nbsp;60 feet<br>\n    <strong>Area</strong>&nbsp;cone-shaped emanation<br>\n    \n    \n    <strong>Duration</strong>&nbsp;concentration, up to 10 min./level<br>\n    <strong>Saving Throw</strong>&nbsp;none;&nbsp;<strong>Spell Resistance</strong>&nbsp;no<br>\n  </p>\n  <h2>Description</h2>\n  <p>You can sense the presence of evil. The amount of information revealed depends on how long you study a particular area or subject.</p><p><i>1st Round</i>: Presence or absence of evil.</p><p><i>2nd Round</i>: Number of evil auras (creatures, objects, or spells) in the area and the power of the most potent evil aura present.</p><p>If you are of good alignment, and the strongest evil aura's power is overwhelming (see below), and the HD or level of the aura's source is at least twice your character level, you are stunned for 1 round and the spell ends.</p><p><i>3rd Round</i>: The power and location of each aura. If an aura is outside your line of sight, then you discern its direction but not its exact location.</p><p><i>Aura Power</i>: An evil aura's power depends on the type of evil creature or object that you're detecting and its HD, caster level, or (in the case of a cleric) class level; see the table below. If an aura falls into more than one strength category, the spell indicates the stronger of the two.</p><p><i>Lingering Aura</i>: An evil aura lingers after its original source dissipates (in the case of a spell) or is destroyed (in the case of a creature or magic item). If <i>detect evil</i> is cast and directed at such a location, the spell indicates an aura strength of dim (even weaker than a faint aura). How long the aura lingers at this dim level depends on its original power: <table><tr><th>Original Strength</th><th>Duration of Lingering Aura</th></tr> <tr><td>Faint</td><td>1d6 rounds</td></tr> <tr><td>Moderate</td><td>1d6 minutes</td></tr> <tr><td>Strong</td><td>1d6x10 minutes</td></tr> <tr><td>Overwhelming</td><td>1d6 days</td></tr></table>  Animals, traps, poisons, and other potential perils are not evil, and as such this spell does not detect them. Creatures with actively evil intents count as evil creatures for the purpose of this spell.</p><p> Each round, you can turn to <i>detect evil</i> in a new area. The spell can penetrate barriers, but 1 foot of stone, 1 inch of common metal, a thin sheet of lead, or 3 feet of wood or dirt blocks it.</p><p><table><caption>Detect Chaos/Evil/Good/Law</caption> <tr><th rowspan=\"2\">Creature/Object</th><th colspan=\"5\">Aura Power</th></tr> <tr><th style=\"text-align:center\">None</th><th style=\"text-align:center\">Faint</th><th style=\"text-align:center\">Moderate</th><th style=\"text-align:center\">Strong</th><th style=\"text-align:center\">Overwhelming</th></tr> <tr><td>Aligned creature<sup>1</sup> (HD)</td><td style=\"text-align:center\">5 or lower</td><td style=\"text-align:center\">5-10</td><td style=\"text-align:center\">11-25</td><td style=\"text-align:center\">26-50</td><td style=\"text-align:center\">51 or higher</td></tr> <tr><td>Aligned Undead (HD)</td><td style=\"text-align:center\">--<br /></td><td style=\"text-align:center\">2 or lower</td><td style=\"text-align:center\">3-8</td><td style=\"text-align:center\">9-20</td><td style=\"text-align:center\">21 or higher</td></tr>  <tr><td>Aligned outsider (HD)</td><td style=\"text-align:center\">--<br /></td><td style=\"text-align:center\">1 or lower</td><td style=\"text-align:center\">2-4</td><td style=\"text-align:center\">5-10</td><td style=\"text-align:center\">11 or higher</td></tr> <tr><td>Cleric or paladin of an aligned deity<sup>2</sup> (class levels)</td><td style=\"text-align:center\">--<br /></td><td style=\"text-align:center\">1</td><td style=\"text-align:center\">2-4</td><td style=\"text-align:center\">5-10</td><td style=\"text-align:center\">11 or higher</td></tr>  <tr><td>Aligned magic item or spell (caster level)</td><td>5th or lower</td><td style=\"text-align:center\">6th-10th</td><td style=\"text-align:center\">11th-15th</td><td style=\"text-align:center\">16th-20th</td><td style=\"text-align:center\">21st or higher</td></tr> </tbody><tfoot><tr><td colspan=\"6\">1 Except for undead and outsiders, which have their own entries on the table.</td></tr> <tr><td colspan=\"6\">2 Some characters who are not clerics may radiate an aura of equivalent power. The class description will indicate whether this applies.</td></tr></tfoot></table>></td></tr></table></p>\n</div>\n"
        },
        "tags": [],
        "activation": {
          "type": "standard"
        },
        "unchainedAction": {
          "activation": {
            "cost": 2,
            "type": "action"
          }
        },
        "range": {
          "value": 60,
          "units": "ft"
        },
        "uses": {
          "per": ""
        },
        "measureTemplate": {
          "size": "0"
        },
        "actionType": "",
        "damage": {
          "parts": [],
          "critParts": [],
          "nonCritParts": []
        },
        "attackParts": [],
        "ability": {
          "attack": "",
          "damage": ""
        },
        "save": {
          "dc": "0"
        },
        "effectNotes": [],
        "attackNotes": [],
        "links": {
          "children": []
        },
        "flags": {
          "boolean": [],
          "dictionary": []
        },
        "scriptCalls": [],
        "learnedAt": {
          "class": [
            [
              "cleric/oracle",
              1
            ],
            [
              "inquisitor",
              1
            ],
            [
              "adept",
              1
            ],
            [
              "shaman",
              1
            ],
            [
              "spiritualist",
              1
            ]
          ],
          "domain": [],
          "subDomain": [],
          "elementalSchool": [],
          "bloodline": []
        },
        "school": "div",
        "conditionals": [],
        "components": {
          "verbal": true,
          "somatic": true,
          "divineFocus": 1
        },
        "spellbook": "spelllike",
        "atWill": true,
        "sr": false,
        "shortDescription": "<p>You can sense the presence of evil. The amount of information revealed depends on how long you study a particular area or subject.</p><p><i>1st Round</i>: Presence or absence of evil.</p><p><i>2nd Round</i>: Number of evil auras (creatures, objects, or spells) in the area and the power of the most potent evil aura present.</p><p>If you are of good alignment, and the strongest evil aura's power is overwhelming (see below), and the HD or level of the aura's source is at least twice your character level, you are stunned for 1 round and the spell ends.</p><p><i>3rd Round</i>: The power and location of each aura. If an aura is outside your line of sight, then you discern its direction but not its exact location.</p><p><i>Aura Power</i>: An evil aura's power depends on the type of evil creature or object that you're detecting and its HD, caster level, or (in the case of a cleric) class level; see the table below. If an aura falls into more than one strength category, the spell indicates the stronger of the two.</p><p><i>Lingering Aura</i>: An evil aura lingers after its original source dissipates (in the case of a spell) or is destroyed (in the case of a creature or magic item). If <i>detect evil</i> is cast and directed at such a location, the spell indicates an aura strength of dim (even weaker than a faint aura). How long the aura lingers at this dim level depends on its original power: <table><tr><th>Original Strength</th><th>Duration of Lingering Aura</th></tr> <tr><td>Faint</td><td>1d6 rounds</td></tr> <tr><td>Moderate</td><td>1d6 minutes</td></tr> <tr><td>Strong</td><td>1d6x10 minutes</td></tr> <tr><td>Overwhelming</td><td>1d6 days</td></tr></table>  Animals, traps, poisons, and other potential perils are not evil, and as such this spell does not detect them. Creatures with actively evil intents count as evil creatures for the purpose of this spell.</p><p> Each round, you can turn to <i>detect evil</i> in a new area. The spell can penetrate barriers, but 1 foot of stone, 1 inch of common metal, a thin sheet of lead, or 3 feet of wood or dirt blocks it.</p><p><table><caption>Detect Chaos/Evil/Good/Law</caption> <tr><th rowspan=\"2\">Creature/Object</th><th colspan=\"5\">Aura Power</th></tr> <tr><th style=\"text-align:center\">None</th><th style=\"text-align:center\">Faint</th><th style=\"text-align:center\">Moderate</th><th style=\"text-align:center\">Strong</th><th style=\"text-align:center\">Overwhelming</th></tr> <tr><td>Aligned creature<sup>1</sup> (HD)</td><td style=\"text-align:center\">5 or lower</td><td style=\"text-align:center\">5-10</td><td style=\"text-align:center\">11-25</td><td style=\"text-align:center\">26-50</td><td style=\"text-align:center\">51 or higher</td></tr> <tr><td>Aligned Undead (HD)</td><td style=\"text-align:center\">--<br /></td><td style=\"text-align:center\">2 or lower</td><td style=\"text-align:center\">3-8</td><td style=\"text-align:center\">9-20</td><td style=\"text-align:center\">21 or higher</td></tr>  <tr><td>Aligned outsider (HD)</td><td style=\"text-align:center\">--<br /></td><td style=\"text-align:center\">1 or lower</td><td style=\"text-align:center\">2-4</td><td style=\"text-align:center\">5-10</td><td style=\"text-align:center\">11 or higher</td></tr> <tr><td>Cleric or paladin of an aligned deity<sup>2</sup> (class levels)</td><td style=\"text-align:center\">--<br /></td><td style=\"text-align:center\">1</td><td style=\"text-align:center\">2-4</td><td style=\"text-align:center\">5-10</td><td style=\"text-align:center\">11 or higher</td></tr>  <tr><td>Aligned magic item or spell (caster level)</td><td>5th or lower</td><td style=\"text-align:center\">6th-10th</td><td style=\"text-align:center\">11th-15th</td><td style=\"text-align:center\">16th-20th</td><td style=\"text-align:center\">21st or higher</td></tr> </tbody><tfoot><tr><td colspan=\"6\">1 Except for undead and outsiders, which have their own entries on the table.</td></tr> <tr><td colspan=\"6\">2 Some characters who are not clerics may radiate an aura of equivalent power. The class description will indicate whether this applies.</td></tr></tfoot></table>></td></tr></table></p>",
        "spellDuration": "concentration, up to 10 min./level",
        "spellArea": "cone-shaped emanation"
      },
      "effects": [],
      "folder": null,
      "sort": 0,
      "permission": {
        "default": 0
      },
      "flags": {}
    },
    {
      "_id": "zymaptg3vmnvfvxl",
      "name": "Dancing Lights",
      "type": "spell",
      "img": "systems/pf1/icons/misc/magic-swirl.png",
      "data": {
        "description": {
          "value": "<div class=\"spell-description\">\n  <p>\n    <strong>School</strong>&nbsp;evocation&nbsp;[light];\n    <strong>Level</strong>&nbsp;bard 0, magus 0, medium 0, mesmerist 0, occultist 0, psychic 0, shaman 0, sorcerer/wizard 0, witch 0;\n    \n    \n    \n    \n  </p>\n  <p>\n    <strong>Casting Time</strong>&nbsp;1 standard action<br>\n    <strong>Components</strong>&nbsp;V, S<br>\n  </p>\n  <p>\n    <strong>Range</strong>&nbsp;medium (100 ft. + 10 ft./level)<br>\n    \n    \n    <strong>Effect</strong>&nbsp;Up to four lights, all within a 10-ft.-radius area<br>\n    <strong>Duration</strong>&nbsp;1 minute<br>\n    <strong>Saving Throw</strong>&nbsp;none;&nbsp;<strong>Spell Resistance</strong>&nbsp;no<br>\n  </p>\n  <h2>Description</h2>\n  <p>Depending on the version selected, you create up to four lights that resemble lanterns or torches (and cast that amount of light), or up to four glowing spheres of light (which look like will-o'-wisps), or one faintly glowing, vaguely humanoid shape. The <i>dancing lights</i> must stay within a 10-foot-radius area in relation to each other but otherwise move as you desire (no concentration required): forward or back, up or down, straight or turning corners, or the like. The lights can move up to 100 feet per round. A light winks out if the distance between you and it exceeds the spell's range.</p><p>You can only have one <i>dancing lights</i> spell active at any one time. If you cast this spell while another casting is still in effect, the previous casting is dispelled. If you make this spell permanent, it does not count against this limit.</p><p><i>Dancing lights</i> can be made permanent with a <i>permanency</i> spell.</p>\n</div>\n"
        },
        "tags": [],
        "activation": {
          "type": "standard"
        },
        "unchainedAction": {
          "activation": {
            "cost": 2,
            "type": "action"
          }
        },
        "range": {
          "units": "medium"
        },
        "uses": {
          "value": 1,
          "per": "day"
        },
        "measureTemplate": {
          "size": "0"
        },
        "actionType": "other",
        "damage": {
          "parts": [],
          "critParts": [],
          "nonCritParts": []
        },
        "attackParts": [],
        "ability": {
          "attack": "",
          "damage": ""
        },
        "save": {
          "dc": "0"
        },
        "effectNotes": [],
        "attackNotes": [],
        "links": {
          "children": []
        },
        "flags": {
          "boolean": [],
          "dictionary": []
        },
        "scriptCalls": [],
        "learnedAt": {
          "class": [
            [
              "sorcerer/wizard",
              0
            ],
            [
              "bard",
              0
            ],
            [
              "witch",
              0
            ],
            [
              "magus",
              0
            ],
            [
              "shaman",
              0
            ],
            [
              "psychic",
              0
            ],
            [
              "medium",
              0
            ],
            [
              "mesmerist",
              0
            ],
            [
              "occultist",
              0
            ]
          ],
          "domain": [],
          "subDomain": [],
          "elementalSchool": [],
          "bloodline": []
        },
        "level": 0,
        "school": "evo",
        "types": "light",
        "conditionals": [],
        "components": {
          "verbal": true,
          "somatic": true
        },
        "spellbook": "spelllike",
        "preparation": {
          "preparedAmount": 1,
          "maxAmount": 1,
          "autoDeductCharges": false
        },
        "atWill": true,
        "sr": false,
        "shortDescription": "<p>Depending on the version selected, you create up to four lights that resemble lanterns or torches (and cast that amount of light), or up to four glowing spheres of light (which look like will-o'-wisps), or one faintly glowing, vaguely humanoid shape. The <i>dancing lights</i> must stay within a 10-foot-radius area in relation to each other but otherwise move as you desire (no concentration required): forward or back, up or down, straight or turning corners, or the like. The lights can move up to 100 feet per round. A light winks out if the distance between you and it exceeds the spell's range.</p><p>You can only have one <i>dancing lights</i> spell active at any one time. If you cast this spell while another casting is still in effect, the previous casting is dispelled. If you make this spell permanent, it does not count against this limit.</p><p><i>Dancing lights</i> can be made permanent with a <i>permanency</i> spell.</p>",
        "spellDuration": "1 minute",
        "spellEffect": "Up to four lights, all within a 10-ft.-radius area"
      },
      "effects": [],
      "folder": null,
      "sort": 0,
      "permission": {
        "default": 0
      },
      "flags": {}
    },
    {
      "_id": "xoc3vhg3btmfjauq",
      "name": "Cure Light Wounds",
      "type": "spell",
      "img": "systems/pf1/icons/spells/heal-sky-1.jpg",
      "data": {
        "description": {
          "value": "<div class=\"spell-description\">\n  <p>\n    <strong>School</strong>&nbsp;conjuration&nbsp;(healing);\n    <strong>Level</strong>&nbsp;adept 1, alchemist 1, bard 1, cleric/oracle 1, druid 1, hunter 1, inquisitor 1, occultist 1, paladin 1, ranger 2, shaman 1, spiritualist 1, witch 1;\n    <strong>Domain</strong>&nbsp;Healing 1;\n    \n    \n    \n  </p>\n  <p>\n    <strong>Casting Time</strong>&nbsp;1 standard<br>\n    <strong>Components</strong>&nbsp;V, S<br>\n  </p>\n  <p>\n    <strong>Range</strong>&nbsp;touch<br>\n    \n    <strong>Targets</strong>&nbsp;creature touched<br>\n    \n    <strong>Duration</strong>&nbsp;instantaneous<br>\n      <strong>Saving Throw</strong>&nbsp;Will half (harmless); see text;&nbsp;\n      <strong>Spell Resistance</strong>&nbsp;yes<br>\n  </p>\n  <h2>Description</h2>\n  <p>When laying your hand upon a living creature, you channel positive energy that cures 1d8 points of damage + 1 point per caster level (maximum +5). Since undead are powered by negative energy, this spell deals damage to them instead of curing their wounds. An undead creature can apply spell resistance, and can attempt a Will save to take half damage.</p>\n</div>\n"
        },
        "tags": [],
        "activation": {
          "type": "standard"
        },
        "unchainedAction": {
          "activation": {
            "cost": 2,
            "type": "action"
          }
        },
        "target": {
          "value": "creature touched"
        },
        "range": {
          "units": "touch"
        },
        "uses": {
          "value": 3,
          "per": "day"
        },
        "measureTemplate": {
          "size": "0"
        },
        "actionType": "heal",
        "damage": {
          "parts": [
            [
              "1d8 + min(5, @cl)",
              ""
            ]
          ],
          "critParts": [],
          "nonCritParts": []
        },
        "attackParts": [],
        "ability": {
          "attack": "",
          "damage": ""
        },
        "save": {
          "dc": "0",
          "type": "will",
          "description": "Will half (harmless); see text"
        },
        "effectNotes": [],
        "attackNotes": [],
        "links": {
          "children": []
        },
        "flags": {
          "boolean": [],
          "dictionary": []
        },
        "scriptCalls": [],
        "learnedAt": {
          "class": [
            [
              "cleric/oracle",
              1
            ],
            [
              "druid",
              1
            ],
            [
              "ranger",
              2
            ],
            [
              "bard",
              1
            ],
            [
              "paladin",
              1
            ],
            [
              "alchemist",
              1
            ],
            [
              "witch",
              1
            ],
            [
              "inquisitor",
              1
            ],
            [
              "adept",
              1
            ],
            [
              "shaman",
              1
            ],
            [
              "occultist",
              1
            ],
            [
              "spiritualist",
              1
            ],
            [
              "hunter",
              1
            ]
          ],
          "domain": [
            [
              "Healing",
              1
            ]
          ],
          "subDomain": [],
          "elementalSchool": [],
          "bloodline": []
        },
        "school": "con",
        "subschool": "healing",
        "conditionals": [],
        "components": {
          "verbal": true,
          "somatic": true
        },
        "spellbook": "spelllike",
        "preparation": {
          "preparedAmount": 3,
          "maxAmount": 3
        },
        "shortDescription": "<p>When laying your hand upon a living creature, you channel positive energy that cures 1d8 points of damage + 1 point per caster level (maximum +5). Since undead are powered by negative energy, this spell deals damage to them instead of curing their wounds. An undead creature can apply spell resistance, and can attempt a Will save to take half damage.</p>",
        "spellDuration": "instantaneous"
      },
      "effects": [],
      "folder": null,
      "sort": 0,
      "permission": {
        "default": 0
      },
      "flags": {}
    },
    {
      "_id": "skgjjub1hng29nwo",
      "name": "Protection from Evil",
      "type": "spell",
      "img": "systems/pf1/icons/misc/magic-swirl.png",
      "data": {
        "description": {
          "value": "<div class=\"spell-description\">\n  <p>\n    <strong>School</strong>&nbsp;abjuration&nbsp;[good];\n    <strong>Level</strong>&nbsp;adept 1, bloodrager 1, cleric/oracle 1, inquisitor 1, medium 1, paladin 1, shaman 1, sorcerer/wizard 1, spiritualist 1, summoner 1, unchained Summoner 1;\n    <strong>Domain</strong>&nbsp;Good 1;\n    <strong>Subdomain</strong>&nbsp;Purity 1;\n    \n    \n  </p>\n  <p>\n    <strong>Casting Time</strong>&nbsp;1 standard action<br>\n    <strong>Components</strong>&nbsp;V, S<br>\n  </p>\n  <p>\n    <strong>Range</strong>&nbsp;touch<br>\n    \n    <strong>Targets</strong>&nbsp;creature touched<br>\n    \n    <strong>Duration</strong>&nbsp;1 min./level (D)<br>\n    <strong>Saving Throw</strong>&nbsp;Will negates (harmless);&nbsp;<strong>Spell Resistance</strong>&nbsp;no<br>\n  </p>\n  <h2>Description</h2>\n  <p>This spell wards a creature from attacks by evil creatures, from mental control, and from summoned creatures. It creates a <i>magic</i>al barrier around the subject at a distance of 1 foot. The barrier moves with the subject and has three major effects.</p><p>First, the subject gains a +2 deflection bonus to AC and a +2 resistance bonus on saves. Both these bonuses apply against attacks made or effects created by evil creatures.</p><p>Second, the subject immediately receives another saving throw (if one was allowed to begin with) against any spells or effects that possess or exercise mental control over the creature (including enchantment [charm] effects and enchantment [compulsion] effects such as <i>charm person</i>, <i>command</i>, and <i>dominate</i> person). This saving throw is made with a +2 morale bonus, using the same DC as the original effect.</p><p>If successful, such effects are suppressed for the duration of this spell. The effects resume when the duration of this spell expires.</p><p>While under the effects of this spell, the target is immune to any new attempts to possess or exercise mental control over the target.</p><p>This spell does not expel a controlling life force (such as a ghost or spellcaster using <i>magic</i> jar), but it does prevent them from controlling the target. This second effect only functions against spells and effects created by evil creatures or objects, subject to GM discretion.</p><p>Third, the spell prevents bodily contact by evil summoned creatures. This causes the natural weapon attacks of such creatures to fail and the creatures to recoil if such attacks require touching the warded creature. Summoned creatures that are not evil are immune to this effect. The protection against contact by summoned creatures ends if the warded creature makes an attack against or tries to force the barrier against the blocked creature. Spell resistance can allow a creature to overcome this protection and touch the warded creature.</p>\n</div>\n"
        },
        "tags": [],
        "activation": {
          "type": "standard"
        },
        "unchainedAction": {
          "activation": {
            "cost": 2,
            "type": "action"
          }
        },
        "target": {
          "value": "creature touched"
        },
        "range": {
          "units": "touch"
        },
        "uses": {
          "value": 3,
          "per": "day"
        },
        "measureTemplate": {
          "size": "0"
        },
        "actionType": "spellsave",
        "damage": {
          "parts": [],
          "critParts": [],
          "nonCritParts": []
        },
        "attackParts": [],
        "ability": {
          "attack": "",
          "damage": ""
        },
        "save": {
          "dc": "0",
          "type": "will",
          "description": "Will negates (harmless)"
        },
        "effectNotes": [],
        "attackNotes": [],
        "links": {
          "children": []
        },
        "flags": {
          "boolean": [],
          "dictionary": []
        },
        "scriptCalls": [],
        "learnedAt": {
          "class": [
            [
              "sorcerer/wizard",
              1
            ],
            [
              "cleric/oracle",
              1
            ],
            [
              "paladin",
              1
            ],
            [
              "summoner",
              1
            ],
            [
              "inquisitor",
              1
            ],
            [
              "adept",
              1
            ],
            [
              "bloodrager",
              1
            ],
            [
              "shaman",
              1
            ],
            [
              "medium",
              1
            ],
            [
              "spiritualist",
              1
            ],
            [
              "unchained Summoner",
              1
            ]
          ],
          "domain": [
            [
              "Good",
              1
            ]
          ],
          "subDomain": [
            [
              "Purity",
              1
            ]
          ],
          "elementalSchool": [],
          "bloodline": []
        },
        "school": "abj",
        "types": "good",
        "conditionals": [],
        "components": {
          "verbal": true,
          "somatic": true
        },
        "spellbook": "spelllike",
        "preparation": {
          "preparedAmount": 3,
          "maxAmount": 3
        },
        "sr": false,
        "shortDescription": "<p>This spell wards a creature from attacks by evil creatures, from mental control, and from summoned creatures. It creates a <i>magic</i>al barrier around the subject at a distance of 1 foot. The barrier moves with the subject and has three major effects.</p><p>First, the subject gains a +2 deflection bonus to AC and a +2 resistance bonus on saves. Both these bonuses apply against attacks made or effects created by evil creatures.</p><p>Second, the subject immediately receives another saving throw (if one was allowed to begin with) against any spells or effects that possess or exercise mental control over the creature (including enchantment [charm] effects and enchantment [compulsion] effects such as <i>charm person</i>, <i>command</i>, and <i>dominate</i> person). This saving throw is made with a +2 morale bonus, using the same DC as the original effect.</p><p>If successful, such effects are suppressed for the duration of this spell. The effects resume when the duration of this spell expires.</p><p>While under the effects of this spell, the target is immune to any new attempts to possess or exercise mental control over the target.</p><p>This spell does not expel a controlling life force (such as a ghost or spellcaster using <i>magic</i> jar), but it does prevent them from controlling the target. This second effect only functions against spells and effects created by evil creatures or objects, subject to GM discretion.</p><p>Third, the spell prevents bodily contact by evil summoned creatures. This causes the natural weapon attacks of such creatures to fail and the creatures to recoil if such attacks require touching the warded creature. Summoned creatures that are not evil are immune to this effect. The protection against contact by summoned creatures ends if the warded creature makes an attack against or tries to force the barrier against the blocked creature. Spell resistance can allow a creature to overcome this protection and touch the warded creature.</p>",
        "spellDuration": "1 min./level (D)"
      },
      "effects": [],
      "folder": null,
      "sort": 0,
      "permission": {
        "default": 0
      },
      "flags": {}
    },
    {
      "_id": "p2kosvizylhy8vfa",
      "name": "Commune",
      "type": "spell",
      "img": "systems/pf1/icons/misc/magic-swirl.png",
      "data": {
        "description": {
          "value": "<div class=\"spell-description\">\n  <p>\n    <strong>School</strong>&nbsp;divination;\n    <strong>Level</strong>&nbsp;adept 5, cleric/oracle 5, inquisitor 5, occultist 5, shaman 5;\n    \n    \n    \n    \n  </p>\n  <p>\n    <strong>Casting Time</strong>&nbsp;10 minutes<br>\n    <strong>Components</strong>&nbsp;V, S, M (holy or unholy water and incense worth 500 gp), DF<br>\n  </p>\n  <p>\n    <strong>Range</strong>&nbsp;personal<br>\n    \n    <strong>Targets</strong>&nbsp;you<br>\n    \n    <strong>Duration</strong>&nbsp;1 round/level<br>\n  </p>\n  <h2>Description</h2>\n  <p>You contact your deity--or agents thereof--and ask questions that can be answered by a simple yes or no. (A cleric of no particular deity contacts a philosophically allied deity.) You are allowed one such question per caster level. The answers given are correct within the limits of the entity's knowledge. \"Unclear\" is a legitimate answer, because powerful beings of the Outer Planes are not necessarily omniscient. In cases where a one-word answer would be misleading or contrary to the deity's interests, a short phrase (five words or less) may be given as an answer instead.</p><p>The spell, at best, provides information to aid character decisions. The entities contacted structure their answers to further their own purposes. If you lag, discuss the answers, or go off to do anything else, the spell ends.</p>\n</div>\n"
        },
        "tags": [],
        "activation": {
          "cost": 10,
          "type": "minute"
        },
        "unchainedAction": {
          "activation": {
            "cost": 10,
            "type": "minute"
          }
        },
        "target": {
          "value": "you"
        },
        "range": {
          "units": "personal"
        },
        "uses": {
          "value": 1,
          "per": "week"
        },
        "measureTemplate": {
          "size": "0"
        },
        "actionType": "",
        "damage": {
          "parts": [],
          "critParts": [],
          "nonCritParts": []
        },
        "attackParts": [],
        "ability": {
          "attack": "",
          "damage": ""
        },
        "save": {
          "dc": "0"
        },
        "effectNotes": [],
        "attackNotes": [],
        "links": {
          "children": []
        },
        "flags": {
          "boolean": [],
          "dictionary": []
        },
        "scriptCalls": [],
        "learnedAt": {
          "class": [
            [
              "cleric/oracle",
              5
            ],
            [
              "inquisitor",
              5
            ],
            [
              "adept",
              5
            ],
            [
              "shaman",
              5
            ],
            [
              "occultist",
              5
            ]
          ],
          "domain": [],
          "subDomain": [],
          "elementalSchool": [],
          "bloodline": []
        },
        "level": 5,
        "school": "div",
        "conditionals": [],
        "components": {
          "verbal": true,
          "somatic": true,
          "material": true,
          "divineFocus": 1
        },
        "materials": {
          "value": "holy or unholy water and incense worth 500 gp",
          "gpValue": 500
        },
        "spellbook": "spelllike",
        "preparation": {
          "preparedAmount": 1,
          "maxAmount": 1,
          "autoDeductCharges": false,
          "spontaneousPrepared": false
        },
        "sr": false,
        "shortDescription": "<p>You contact your deity--or agents thereof--and ask questions that can be answered by a simple yes or no. (A cleric of no particular deity contacts a philosophically allied deity.) You are allowed one such question per caster level. The answers given are correct within the limits of the entity's knowledge. \"Unclear\" is a legitimate answer, because powerful beings of the Outer Planes are not necessarily omniscient. In cases where a one-word answer would be misleading or contrary to the deity's interests, a short phrase (five words or less) may be given as an answer instead.</p><p>The spell, at best, provides information to aid character decisions. The entities contacted structure their answers to further their own purposes. If you lag, discuss the answers, or go off to do anything else, the spell ends.</p>",
        "spellDuration": "1 round/level",
        "spellPoints": {
          "cost": ""
        }
      },
      "effects": [],
      "folder": null,
      "sort": 0,
      "permission": {
        "default": 0
      },
      "flags": {}
    },
    {
      "_id": "vzilnlee2zs7via0",
      "name": "Ecology",
      "type": "feat",
      "img": "icons/environment/wilderness/tree-oak.webp",
      "data": {
        "description": {
          "value": "<div><strong>Environment</strong>:  any (Heaven)</div><div><strong>Organization</strong>:  solitary, pair, or constellation (3-12)</div><div><strong>Treasure</strong>:  none</div>"
        },
        "tags": [],
        "damage": {
          "parts": [],
          "critParts": [],
          "nonCritParts": []
        },
        "attackParts": [],
        "effectNotes": [],
        "attackNotes": [],
        "changes": [],
        "contextNotes": [],
        "links": {
          "children": [],
          "charges": []
        },
        "armorProf": {
          "value": []
        },
        "weaponProf": {
          "value": []
        },
        "flags": {
          "boolean": [],
          "dictionary": []
        },
        "scriptCalls": [],
        "featType": "misc",
        "associations": {
          "classes": []
        }
      },
      "effects": [],
      "folder": null,
      "sort": 0,
      "permission": {
        "default": 0
      },
      "flags": {}
    },
    {
      "_id": "p1v3rg7x0lv3hdg3",
      "name": "Blades",
      "type": "feat",
      "img": "systems/pf1/icons/skills/yellow_36.jpg",
      "data": {
        "description": {
          "value": "A harbinger can extend blades from its body to strike with as primary natural attacks. These blades possess a +1 enhancement bonus on attack and damage rolls, and are treated as both magic and good-aligned for the purposes of penetrating damage reduction."
        },
        "tags": [],
        "damage": {
          "parts": [],
          "critParts": [],
          "nonCritParts": []
        },
        "attackParts": [],
        "effectNotes": [],
        "attackNotes": [],
        "changes": [],
        "contextNotes": [],
        "links": {
          "children": [],
          "charges": []
        },
        "armorProf": {
          "value": []
        },
        "weaponProf": {
          "value": []
        },
        "flags": {
          "boolean": [],
          "dictionary": []
        },
        "scriptCalls": [],
        "featType": "classFeat",
        "associations": {
          "classes": []
        },
        "abilityType": "ex"
      },
      "effects": [],
      "folder": null,
      "sort": 0,
      "permission": {
        "default": 0
      },
      "flags": {}
    },
    {
      "_id": "rzjia7usizngglpx",
      "name": "Disassemble",
      "type": "feat",
      "img": "systems/pf1/icons/skills/yellow_36.jpg",
      "data": {
        "description": {
          "value": "As a move-equivalent action, a harbinger can break apart into its components. This is treated as gaseous form, except the archon retains its full flight speed and DR, and cannot fit through gaps smaller than 1 inch in diameter. Reforming into an orrery is a standard action."
        },
        "tags": [],
        "damage": {
          "parts": [],
          "critParts": [],
          "nonCritParts": []
        },
        "attackParts": [],
        "effectNotes": [],
        "attackNotes": [],
        "changes": [],
        "contextNotes": [],
        "links": {
          "children": [],
          "charges": []
        },
        "armorProf": {
          "value": []
        },
        "weaponProf": {
          "value": []
        },
        "flags": {
          "boolean": [],
          "dictionary": []
        },
        "scriptCalls": [],
        "featType": "classFeat",
        "associations": {
          "classes": []
        },
        "abilityType": "su"
      },
      "effects": [],
      "folder": null,
      "sort": 0,
      "permission": {
        "default": 0
      },
      "flags": {}
    },
    {
      "_id": "64hu5uo3yfbx33pq",
      "name": "Minor Archon",
      "type": "feat",
      "img": "systems/pf1/icons/skills/yellow_36.jpg",
      "data": {
        "description": {
          "value": "Harbinger archons lack the aura of menace and teleport abilities of more powerful archons."
        },
        "tags": [],
        "damage": {
          "parts": [],
          "critParts": [],
          "nonCritParts": []
        },
        "attackParts": [],
        "effectNotes": [],
        "attackNotes": [],
        "changes": [],
        "contextNotes": [],
        "links": {
          "children": [],
          "charges": []
        },
        "armorProf": {
          "value": []
        },
        "weaponProf": {
          "value": []
        },
        "flags": {
          "boolean": [],
          "dictionary": []
        },
        "scriptCalls": [],
        "featType": "classFeat",
        "associations": {
          "classes": []
        },
        "abilityType": "ex"
      },
      "effects": [],
      "folder": null,
      "sort": 0,
      "permission": {
        "default": 0
      },
      "flags": {}
    },
    {
      "_id": "pwb9okzv72dx1q8g",
      "name": "Wrath",
      "type": "feat",
      "img": "systems/pf1/icons/skills/yellow_36.jpg",
      "data": {
        "description": {
          "value": "Once per minute, a harbinger archon can emit a blast of energy that deals 2d6 points of force damage to adjacent creatures. A DC 12 Reflex save halves this damage. The harbinger can choose to omit any target from this blast that it desires, damaging only those foes it chooses. The save DC is Charisma-based."
        },
        "tags": [],
        "damage": {
          "parts": [],
          "critParts": [],
          "nonCritParts": []
        },
        "attackParts": [],
        "effectNotes": [],
        "attackNotes": [],
        "changes": [],
        "contextNotes": [],
        "links": {
          "children": [],
          "charges": []
        },
        "armorProf": {
          "value": []
        },
        "weaponProf": {
          "value": []
        },
        "flags": {
          "boolean": [],
          "dictionary": []
        },
        "scriptCalls": [],
        "featType": "classFeat",
        "associations": {
          "classes": []
        },
        "abilityType": "su"
      },
      "effects": [],
      "folder": null,
      "sort": 0,
      "permission": {
        "default": 0
      },
      "flags": {}
    },
    {
      "_id": "knOLKtHHn4taUyuD",
      "name": "sbc | Conversion Buff",
      "type": "buff",
      "img": "systems/pf1/icons/skills/yellow_36.jpg",
      "data": {
        "description": {
          "value": "<h2>sbc | Conversion Buff</h2>\n                        This Buff was created by <strong>sbc</strong> to compensate for differences between the input and the values FoundryVTT calculates automatically.\n                        <br><br>\n                        Especially when the pathfinder system gets upgraded, entries in compendiums get updated or foundry changes in some way, this buff may become outdated.\n                        <br><br>\n                        For most mooks the conversion should more or less work, but for important NPCs or creatures it is adviced to double check the conversion manually."
        },
        "tags": [],
        "changes": [
          {
            "formula": "4",
            "modifier": "untypedPerm",
            "operator": "add",
            "priority": 0,
            "subTarget": "cmb",
            "target": "misc",
            "value": 4,
            "id": "tid31ium"
          },
          {
            "formula": "1",
            "modifier": "dodge",
            "operator": "add",
            "priority": 0,
            "subTarget": "ac",
            "target": "ac",
            "value": 1,
            "id": "yc2fotg1"
          },
          {
            "formula": "-10",
            "modifier": "untypedPerm",
            "operator": "add",
            "priority": 0,
            "subTarget": "mhp",
            "target": "misc",
            "value": -10,
            "id": "3ir8lgxg"
          },
          {
            "formula": "-1",
            "modifier": "untypedPerm",
            "operator": "add",
            "priority": 0,
            "subTarget": "aac",
            "target": "ac",
            "value": -1,
            "id": "0kd1vyp8"
          },
          {
            "formula": "-8",
            "modifier": "untypedPerm",
            "operator": "add",
            "priority": 0,
            "subTarget": "skill.fly",
            "target": "skill",
            "value": -8,
            "id": "skv1onfz"
          }
        ],
        "contextNotes": [],
        "links": {
          "children": []
        },
        "tag": "sbcConversionBuff",
        "useCustomTag": true,
        "flags": {
          "boolean": [],
          "dictionary": []
        },
        "scriptCalls": [],
        "buffType": "perm",
        "active": true,
        "hideFromToken": true
      },
      "effects": [],
      "folder": null,
      "sort": 0,
      "permission": {
        "default": 0,
        "iM1ACTqH0Ml6HJtd": 3
      },
      "flags": {}
    }
  ],
  "effects": [],
  "folder": null,
  "sort": 0,
  "permission": {
    "default": 0
  },
  "flags": {}
}