{
  "_id": "DZBbB0ftXWJjHyai",
  "name": "House Drake",
  "type": "npc",
  "img": "systems/pf1/icons/skills/fire_05.jpg",
  "data": {
    "abilities": {
      "str": {
        "value": 11
      },
      "dex": {
        "value": 15
      },
      "con": {
        "value": 17
      },
      "int": {
        "value": 12
      },
      "wis": {
        "value": 14
      },
      "cha": {
        "value": 14
      }
    },
    "attributes": {
      "naturalAC": "+2",
      "hp": {
        "value": 31
      },
      "speed": {
        "land": {
          "base": 20
        },
        "fly": {
          "base": 50,
          "maneuverability": "good"
        }
      },
      "spells": {
        "usedSpellbooks": [
          "spelllike"
        ],
        "spellbooks": {
          "spelllike": {
            "altName": "Spell-like Abilities",
            "cl": {
              "formula": "1"
            },
            "concentrationFormula": "4",
            "concentrationNotes": "sbc | Total in statblock was +5, adjust as needed.",
            "clNotes": "sbc | Total in statblock was CL 3, adjust as needed.",
            "autoSpellLevelCalculation": false,
            "autoSpellLevels": false,
            "arcaneSpellFailure": false,
            "domainSlotValue": 0
          }
        }
      }
    },
    "details": {
      "alignment": "cg",
      "cr": {
        "base": 2
      }
    },
    "skills": {
      "acr": {
        "rank": 2
      },
      "fly": {
        "rank": 6
      },
      "klo": {
        "rank": 2
      },
      "per": {
        "rank": 2
      },
      "sen": {
        "rank": 2
      },
      "ste": {
        "rank": 2
      },
      "sur": {
        "rank": 2
      }
    },
    "traits": {
      "size": "tiny",
      "senses": "darkvision 60 ft., low-light vision, scent, see invisibility; Perception +7",
      "languages": {
        "value": [
          "common",
          "draconic",
          "infernal"
        ]
      },
      "di": {
        "value": []
      },
      "dv": {
        "value": []
      },
      "ci": {
        "value": [
          "paralyze",
          "sleep"
        ]
      },
      "stature": ""
    }
  },
  "token": {
    "name": "House Drake",
    "displayName": 20,
    "actorLink": false,
    "width": 1,
    "height": 1,
    "scale": 0.75,
    "mirrorX": false,
    "mirrorY": false,
    "lockRotation": false,
    "rotation": 0,
    "alpha": 1,
    "vision": false,
    "dimSight": 0,
    "brightSight": "60",
    "dimLight": 0,
    "brightLight": 0,
    "sightAngle": 0,
    "lightAngle": 0,
    "lightAlpha": 0.25,
    "lightAnimation": {
      "speed": 5,
      "intensity": 5
    },
    "disposition": -1,
    "displayBars": 20,
    "bar1": {
      "attribute": null
    },
    "bar2": {
      "attribute": null
    },
    "flags": {
      "pf1": {
        "lowLightVision": false
      }
    },
    "randomImg": false,
    "img": "systems/pf1/icons/skills/fire_05.jpg"
  },
  "items": [
    {
      "_id": "X2WLdbFFedaah6VC",
      "name": "Dragon (Aquatic, Mythic)",
      "type": "class",
      "img": "systems/pf1/icons/skills/fire_05.jpg",
      "data": {
        "description": {
          "value": "<p>A dragon is a reptile-like creature, usually winged, with magical or unusual abilities.</p>\n<h2><span id=\"Features\">Features</span></h2>\n<p>A dragon has the following features.</p>\n<ul>\n<li>d12 Hit Die.</li>\n<li>Base attack bonus equal to total Hit Dice (fast progression).</li>\n<li>Good&nbsp;<a href=\"https://www.d20pfsrd.com/gamemastering/combat#TOC-Fortitude\" rel=\"nofollow\">Fortitude</a>,&nbsp;<a href=\"https://www.d20pfsrd.com/gamemastering/combat#TOC-Reflex\" rel=\"nofollow\">Reflex</a>, and&nbsp;<a href=\"https://www.d20pfsrd.com/gamemastering/combat#TOC-Will\" rel=\"nofollow\">Will</a>&nbsp;Saves.</li>\n<li>Skill points equal to 6 + Int modifier (minimum 1) per Hit Die. The following are class skills for dragons: <a href=\"https://www.d20pfsrd.com/skills/appraise\" rel=\"nofollow\">Appraise</a>, <a href=\"https://www.d20pfsrd.com/skills/bluff\" rel=\"nofollow\">Bluff</a>, <a href=\"https://www.d20pfsrd.com/skills/climb\" rel=\"nofollow\">Climb</a>, <a href=\"https://www.d20pfsrd.com/skills/craft\" rel=\"nofollow\">Craft</a>, <a href=\"https://www.d20pfsrd.com/skills/diplomacy\" rel=\"nofollow\">Diplomacy</a>, <a href=\"https://www.d20pfsrd.com/skills/fly\" rel=\"nofollow\">Fly</a>, <a href=\"https://www.d20pfsrd.com/skills/heal\" rel=\"nofollow\">Heal</a>, <a href=\"https://www.d20pfsrd.com/skills/intimidate\" rel=\"nofollow\">Intimidate</a>, <a href=\"https://www.d20pfsrd.com/skills/knowledge\" rel=\"nofollow\">Knowledge</a> (all), <a href=\"https://www.d20pfsrd.com/skills/linguistics\" rel=\"nofollow\">Linguistics</a>, <a href=\"https://www.d20pfsrd.com/skills/perception\" rel=\"nofollow\">Perception</a>, <a href=\"https://www.d20pfsrd.com/skills/sense-motive\" rel=\"nofollow\">Sense Motive</a>, <a href=\"https://www.d20pfsrd.com/skills/spellcraft\" rel=\"nofollow\">Spellcraft</a>, <a href=\"https://www.d20pfsrd.com/skills/stealth\" rel=\"nofollow\">Stealth</a>, <a href=\"https://www.d20pfsrd.com/skills/survival\" rel=\"nofollow\">Survival</a>, <a href=\"https://www.d20pfsrd.com/skills/swim\" rel=\"nofollow\">Swim</a>, and <a href=\"https://www.d20pfsrd.com/skills/use-magic-device\" rel=\"nofollow\">Use Magic Device</a>.</li>\n</ul>\n<h2><span id=\"Traits\">Traits</span></h2>\n<p>A dragon possesses the following traits (unless otherwise noted in a creature’s entry).</p>\n<ul>\n<li><a href=\"https://www.d20pfsrd.com/gamemastering/special-abilities#TOC-Darkvision\">Darkvision</a>&nbsp;60 feet and&nbsp;<a href=\"https://www.d20pfsrd.com/gamemastering/special-abilities#TOC-Low-Light-Vision\">low-light vision</a>.</li>\n<li>Immunity to magic sleep effects and paralysis effects.</li>\n<li>Proficient with its natural weapons only unless humanoid in form (or capable of assuming humanoid form), in which case proficient with all simple weapons and any weapons mentioned in its entry.</li>\n<li>Proficient with no armor.</li>\n<li>Dragons breathe, eat, and sleep.</li>\n</ul>"
        },
        "tags": [],
        "changes": [],
        "links": "",
        "tag": "dragon",
        "useCustomTag": true,
        "armorProf": {
          "value": []
        },
        "weaponProf": {
          "value": []
        },
        "flags": {
          "boolean": [],
          "dictionary": []
        },
        "scriptCalls": [],
        "classType": "racial",
        "level": 2,
        "hd": 12,
        "hp": 25,
        "bab": "high",
        "skillsPerLevel": 6,
        "savingThrows": {
          "fort": {
            "value": "high"
          },
          "ref": {
            "value": "high"
          },
          "will": {
            "value": "high"
          }
        },
        "classSkills": {
          "acr": false,
          "apr": true,
          "art": false,
          "blf": true,
          "clm": true,
          "crf": true,
          "dip": true,
          "dev": false,
          "dis": false,
          "esc": false,
          "fly": true,
          "han": false,
          "hea": true,
          "int": true,
          "kar": true,
          "kdu": true,
          "ken": true,
          "kge": true,
          "khi": true,
          "klo": true,
          "kna": true,
          "kno": true,
          "kpl": true,
          "kre": true,
          "lin": true,
          "lor": false,
          "per": true,
          "prf": false,
          "pro": false,
          "rid": false,
          "sen": true,
          "slt": false,
          "spl": true,
          "ste": true,
          "sur": true,
          "swm": true,
          "umd": true
        }
      },
      "effects": [],
      "folder": null,
      "sort": 0,
      "permission": {
        "default": 0
      },
      "flags": {}
    },
    {
      "_id": "v62lymq2jh2rdso5",
      "name": "Race: Dragon",
      "type": "race",
      "img": "systems/pf1/icons/skills/fire_05.jpg",
      "data": {
        "description": {
          "value": "sbc | As no playable race was found a placeholder was generated."
        },
        "tags": [],
        "changes": [],
        "contextNotes": [],
        "links": {
          "children": []
        },
        "armorProf": {
          "value": []
        },
        "weaponProf": {
          "value": []
        },
        "flags": {
          "boolean": [],
          "dictionary": []
        },
        "scriptCalls": [],
        "creatureType": "dragon",
        "subTypes": [
          [
            ""
          ]
        ]
      },
      "effects": [],
      "folder": null,
      "sort": 0,
      "permission": {
        "default": 0
      },
      "flags": {}
    },
    {
      "_id": "adduw5wsrm5mb74e",
      "name": "Sense: Darkvision 60ft.",
      "type": "feat",
      "img": "systems/pf1/icons/skills/shadow_12.jpg",
      "data": {
        "description": {
          "value": "Darkvision is the extraordinary ability to see with no light source at all, out to a range specified for the creature. Darkvision is black-and-white only (colors cannot be discerned). It does not allow characters to see anything that they could not see otherwise—invisible objects are still invisible, and illusions are still visible as what they seem to be. Likewise, darkvision subjects a creature to gaze attacks normally. The presence of light does not spoil darkvision."
        },
        "tags": [],
        "damage": {
          "parts": [],
          "critParts": [],
          "nonCritParts": []
        },
        "attackParts": [],
        "effectNotes": [],
        "attackNotes": [],
        "changes": [],
        "contextNotes": [],
        "links": {
          "children": [],
          "charges": []
        },
        "tag": "senseDarkvision60ft",
        "armorProf": {
          "value": []
        },
        "weaponProf": {
          "value": []
        },
        "flags": {
          "boolean": [],
          "dictionary": []
        },
        "scriptCalls": [],
        "featType": "racial",
        "associations": {
          "classes": []
        },
        "abilityType": "ex"
      },
      "effects": [],
      "folder": null,
      "sort": 0,
      "permission": {
        "default": 0
      },
      "flags": {}
    },
    {
      "_id": "o8dvvxveqrmnku9q",
      "name": "Sense: Low-light Vision",
      "type": "feat",
      "img": "systems/pf1/icons/skills/shadow_11.jpg",
      "data": {
        "description": {
          "value": "A creature with low-light vision can see twice as far as a human in starlight, moonlight, torchlight, and similar conditions of dim light. It retains the ability to distinguish color and detail under these conditions."
        },
        "tags": [],
        "damage": {
          "parts": [],
          "critParts": [],
          "nonCritParts": []
        },
        "attackParts": [],
        "effectNotes": [],
        "attackNotes": [],
        "changes": [],
        "contextNotes": [],
        "links": {
          "children": [],
          "charges": []
        },
        "tag": "senseLowlightVision",
        "armorProf": {
          "value": []
        },
        "weaponProf": {
          "value": []
        },
        "flags": {
          "boolean": [],
          "dictionary": []
        },
        "scriptCalls": [],
        "featType": "racial",
        "associations": {
          "classes": []
        },
        "abilityType": "ex"
      },
      "effects": [],
      "folder": null,
      "sort": 0,
      "permission": {
        "default": 0
      },
      "flags": {}
    },
    {
      "_id": "p9qsqxywncin2z9a",
      "name": "Sense: Scent",
      "type": "feat",
      "img": "systems/pf1/icons/skills/blue_29.jpg",
      "data": {
        "description": {
          "value": "This special quality allows a creature to detect approaching enemies, sniff out hidden foes, and track by sense of smell. Creatures with the scent ability can identify familiar odors just as humans do familiar sights.<br><br>\n                The creature can detect opponents within 30 feet by sense of smell. If the opponent is upwind, the range increases to 60 feet; if downwind, it drops to 15 feet. Strong scents, such as smoke or rotting garbage, can be detected at twice the ranges noted above. Overpowering scents, such as skunk musk or troglodyte stench, can be detected at triple normal range.<br><br>\n                When a creature detects a scent, the exact location of the source is not revealed—only its presence somewhere within range. The creature can take a move action to note the direction of the scent. When the creature is within 5 feet of the source, it pinpoints the source’s location.<br><br>\n                A creature with the scent ability can follow tracks by smell, making a Wisdom (or Survival) check to find or follow a track. The typical DC for a fresh trail is 10 (no matter what kind of surface holds the scent). This DC increases or decreases depending on how strong the quarry’s odor is, the number of creatures, and the age of the trail. For each hour that the trail is cold, the DC increases by 2. The ability otherwise follows the rules for the Survival skill. Creatures tracking by scent ignore the effects of surface conditions and poor visibility."
        },
        "tags": [],
        "damage": {
          "parts": [],
          "critParts": [],
          "nonCritParts": []
        },
        "attackParts": [],
        "effectNotes": [],
        "attackNotes": [],
        "changes": [],
        "contextNotes": [],
        "links": {
          "children": [],
          "charges": []
        },
        "tag": "senseScent",
        "armorProf": {
          "value": []
        },
        "weaponProf": {
          "value": []
        },
        "flags": {
          "boolean": [],
          "dictionary": []
        },
        "scriptCalls": [],
        "featType": "racial",
        "associations": {
          "classes": []
        },
        "abilityType": "ex"
      },
      "effects": [],
      "folder": null,
      "sort": 0,
      "permission": {
        "default": 0
      },
      "flags": {}
    },
    {
      "_id": "vWiTqHC4Y3Xn1Pme",
      "name": "Weapon Finesse",
      "type": "feat",
      "img": "systems/pf1/icons/feats/weapon-finesse.jpg",
      "data": {
        "description": {
          "value": "\n                <i>You are trained in using your agility in melee combat, as opposed to brute strength.</i>\n                <br />\n                <br />\n                \n                <p><b>Benefits</b></p>\n                <p><p class=\"stat-block-1\"> With a light weapon, rapier, whip, or spiked chain made for a creature of your size category, you may use your Dexterity modifier instead of your Strength modifier on attack rolls. If you carry a shield, its armor check penalty applies to your attack rolls.</p></p>\n                \n            <br />\n                <p><b>Special</b></p>\n                <p><p class=\"stat-block-1\"> Natural weapons are considered light weapons.</p></p>\n                \n            \n            "
        },
        "tags": [
          [
            "Combat"
          ],
          [
            "Weapon"
          ]
        ],
        "measureTemplate": {
          "size": "0"
        },
        "actionType": "",
        "damage": {
          "parts": [],
          "critParts": [],
          "nonCritParts": []
        },
        "attackParts": [],
        "effectNotes": [],
        "attackNotes": [],
        "changes": [],
        "contextNotes": [],
        "links": {
          "children": [],
          "charges": []
        },
        "tag": "weaponFinesse",
        "armorProf": {
          "value": []
        },
        "weaponProf": {
          "value": []
        },
        "flags": {
          "boolean": [],
          "dictionary": []
        },
        "scriptCalls": [],
        "associations": {
          "classes": []
        }
      },
      "effects": [],
      "folder": null,
      "sort": 0,
      "permission": {
        "default": 0
      },
      "flags": {}
    },
    {
      "_id": "z15j0wfcogqsqaix",
      "name": "Ferocious Will",
      "type": "feat",
      "img": "systems/pf1/icons/skills/yellow_36.jpg",
      "data": {
        "description": {
          "value": "sbc | Placeholder"
        },
        "tags": [],
        "damage": {
          "parts": [],
          "critParts": [],
          "nonCritParts": []
        },
        "attackParts": [],
        "effectNotes": [],
        "attackNotes": [],
        "changes": [],
        "contextNotes": [],
        "links": {
          "children": [],
          "charges": []
        },
        "armorProf": {
          "value": []
        },
        "weaponProf": {
          "value": []
        },
        "flags": {
          "boolean": [],
          "dictionary": []
        },
        "scriptCalls": [],
        "featType": "classFeat",
        "associations": {
          "classes": []
        },
        "abilityType": ""
      },
      "effects": [],
      "folder": null,
      "sort": 0,
      "permission": {
        "default": 0
      },
      "flags": {}
    },
    {
      "_id": "851vntbctm7oq40b",
      "name": "Bite",
      "type": "attack",
      "img": "systems/pf1/icons/items/inventory/monster-head.jpg",
      "data": {
        "tags": [],
        "activation": {
          "type": "attack"
        },
        "unchainedAction": {
          "activation": {
            "type": "attack"
          }
        },
        "duration": {
          "units": "inst"
        },
        "range": {
          "value": "",
          "units": "melee"
        },
        "attackName": "Bite",
        "actionType": "mwak",
        "attackBonus": "2",
        "damage": {
          "parts": [
            [
              "1d4+0",
              "B, P and S"
            ]
          ],
          "critParts": [],
          "nonCritParts": []
        },
        "attackParts": [],
        "ability": {
          "attack": "str",
          "damage": "str"
        },
        "effectNotes": [],
        "attackNotes": [
          "bite +6 (1d4 )"
        ],
        "links": {
          "children": [],
          "charges": [],
          "ammunition": []
        },
        "flags": {
          "boolean": [],
          "dictionary": []
        },
        "scriptCalls": [],
        "attackType": "natural",
        "conditionals": []
      },
      "effects": [],
      "folder": null,
      "sort": 0,
      "permission": {
        "default": 0
      },
      "flags": {}
    },
    {
      "_id": "d6uo9i9o8pe9pjyp",
      "name": "Sting",
      "type": "attack",
      "img": "systems/pf1/icons/items/inventory/monster-scorpion.jpg",
      "data": {
        "tags": [],
        "activation": {
          "type": "attack"
        },
        "unchainedAction": {
          "activation": {
            "type": "attack"
          }
        },
        "duration": {
          "units": "inst"
        },
        "range": {
          "value": "",
          "units": "melee"
        },
        "attackName": "Sting",
        "actionType": "mwak",
        "attackBonus": "2",
        "damage": {
          "parts": [
            [
              "1d4+0",
              "P"
            ]
          ],
          "critParts": [],
          "nonCritParts": []
        },
        "attackParts": [],
        "ability": {
          "attack": "str",
          "damage": "str"
        },
        "effectNotes": [],
        "attackNotes": [
          "sting +6 (1d4 )"
        ],
        "links": {
          "children": [],
          "charges": [],
          "ammunition": []
        },
        "flags": {
          "boolean": [],
          "dictionary": []
        },
        "scriptCalls": [],
        "attackType": "natural",
        "conditionals": []
      },
      "effects": [],
      "folder": null,
      "sort": 0,
      "permission": {
        "default": 0
      },
      "flags": {}
    },
    {
      "_id": "9cick1es6hmpotdb",
      "name": "Special Attack: Breath Weapon",
      "type": "attack",
      "img": "systems/pf1/icons/skills/yellow_36.jpg",
      "data": {
        "description": {
          "value": "sbc | Placeholder for Special Attacks, which in most statblocks are listed under 'Special Attacks' in the statistics block, but are described in the 'Special Abilities' block. Remove duplicates as needed!"
        },
        "tags": [],
        "damage": {
          "parts": [],
          "critParts": [],
          "nonCritParts": []
        },
        "attackParts": [],
        "effectNotes": [],
        "attackNotes": [],
        "links": {
          "children": [],
          "charges": [],
          "ammunition": []
        },
        "flags": {
          "boolean": [],
          "dictionary": []
        },
        "scriptCalls": [],
        "attackType": "misc",
        "conditionals": []
      },
      "effects": [],
      "folder": null,
      "sort": 0,
      "permission": {
        "default": 0
      },
      "flags": {}
    },
    {
      "_id": "znzuvkuqo3e4lryt",
      "name": "Special Attack:  Silver Strike",
      "type": "attack",
      "img": "systems/pf1/icons/skills/yellow_36.jpg",
      "data": {
        "description": {
          "value": "sbc | Placeholder for Special Attacks, which in most statblocks are listed under 'Special Attacks' in the statistics block, but are described in the 'Special Abilities' block. Remove duplicates as needed!"
        },
        "tags": [],
        "damage": {
          "parts": [],
          "critParts": [],
          "nonCritParts": []
        },
        "attackParts": [],
        "effectNotes": [],
        "attackNotes": [],
        "links": {
          "children": [],
          "charges": [],
          "ammunition": []
        },
        "flags": {
          "boolean": [],
          "dictionary": []
        },
        "scriptCalls": [],
        "attackType": "misc",
        "conditionals": []
      },
      "effects": [],
      "folder": null,
      "sort": 0,
      "permission": {
        "default": 0
      },
      "flags": {}
    },
    {
      "_id": "nokru6mxk9p3r513",
      "name": "Constant: See Invisibility",
      "type": "spell",
      "img": "systems/pf1/icons/misc/magic-swirl.png",
      "data": {
        "description": {
          "value": "<div class=\"spell-description\">\n  <p>\n    <strong>School</strong>&nbsp;divination;\n    <strong>Level</strong>&nbsp;adept 2, alchemist 2, bard 3, bloodrager 2, inquisitor 2, mesmerist 3, occultist 2, psychic 2, sorcerer/wizard 2, spiritualist 2, summoner 2, unchained Summoner 2, witch 2;\n    \n    <strong>Subdomain</strong>&nbsp;Revelation 2;\n    \n    <strong>Bloodline</strong>&nbsp;Marid 2;\n  </p>\n  <p>\n    <strong>Casting Time</strong>&nbsp;1 standard action<br>\n    <strong>Components</strong>&nbsp;V, S, M (talc and powdered silver)<br>\n  </p>\n  <p>\n    <strong>Range</strong>&nbsp;personal<br>\n    \n    <strong>Targets</strong>&nbsp;you<br>\n    \n    <strong>Duration</strong>&nbsp;10 min./level<br>\n    \n  </p>\n  <h2>Description</h2>\n  <p>You can see any objects or beings that are invisible within your range of vision, as well as any that are ethereal, as if they were normally visible. Such creatures are visible to you as translucent shapes, allowing you easily to discern the difference between visible, invisible, and ethereal creatures.</p><p>The spell does not reveal the method used to obtain <i>invisibility</i>.</p><p>It does not reveal illusions or enable you to see through opaque objects. It does not reveal creatures who are simply hiding, concealed, or otherwise hard to see.</p><p>See <i>invisibility</i> can be made permanent with a <i>permanency</i> spell.</p>\n</div>\n"
        },
        "tags": [],
        "activation": {
          "type": "standard"
        },
        "unchainedAction": {
          "activation": {
            "cost": 2,
            "type": "action"
          }
        },
        "target": {
          "value": "you"
        },
        "range": {
          "units": "personal"
        },
        "uses": {
          "value": 3,
          "per": ""
        },
        "measureTemplate": {
          "size": "0"
        },
        "actionType": "",
        "damage": {
          "parts": [],
          "critParts": [],
          "nonCritParts": []
        },
        "attackParts": [],
        "ability": {
          "attack": "",
          "damage": ""
        },
        "save": {
          "dc": "0"
        },
        "effectNotes": [],
        "attackNotes": [],
        "links": {
          "children": []
        },
        "flags": {
          "boolean": [],
          "dictionary": []
        },
        "scriptCalls": [],
        "learnedAt": {
          "class": [
            [
              "sorcerer/wizard",
              2
            ],
            [
              "bard",
              3
            ],
            [
              "alchemist",
              2
            ],
            [
              "summoner",
              2
            ],
            [
              "witch",
              2
            ],
            [
              "inquisitor",
              2
            ],
            [
              "adept",
              2
            ],
            [
              "bloodrager",
              2
            ],
            [
              "psychic",
              2
            ],
            [
              "mesmerist",
              3
            ],
            [
              "occultist",
              2
            ],
            [
              "spiritualist",
              2
            ],
            [
              "unchained Summoner",
              2
            ]
          ],
          "domain": [],
          "subDomain": [
            [
              "Revelation",
              2
            ]
          ],
          "elementalSchool": [],
          "bloodline": [
            [
              "Marid",
              2
            ]
          ]
        },
        "level": 2,
        "school": "div",
        "conditionals": [],
        "components": {
          "verbal": true,
          "somatic": true,
          "material": true
        },
        "materials": {
          "value": "talc and powdered silver"
        },
        "spellbook": "spelllike",
        "preparation": {
          "preparedAmount": 3,
          "maxAmount": 3
        },
        "atWill": true,
        "sr": false,
        "shortDescription": "<p>You can see any objects or beings that are invisible within your range of vision, as well as any that are ethereal, as if they were normally visible. Such creatures are visible to you as translucent shapes, allowing you easily to discern the difference between visible, invisible, and ethereal creatures.</p><p>The spell does not reveal the method used to obtain <i>invisibility</i>.</p><p>It does not reveal illusions or enable you to see through opaque objects. It does not reveal creatures who are simply hiding, concealed, or otherwise hard to see.</p><p>See <i>invisibility</i> can be made permanent with a <i>permanency</i> spell.</p>",
        "spellDuration": "10 min./level"
      },
      "effects": [],
      "folder": null,
      "sort": 0,
      "permission": {
        "default": 0
      },
      "flags": {}
    },
    {
      "_id": "xoc3vhg3btmfjauq",
      "name": "Cure Light Wounds",
      "type": "spell",
      "img": "systems/pf1/icons/spells/heal-sky-1.jpg",
      "data": {
        "description": {
          "value": "<div class=\"spell-description\">\n  <p>\n    <strong>School</strong>&nbsp;conjuration&nbsp;(healing);\n    <strong>Level</strong>&nbsp;adept 1, alchemist 1, bard 1, cleric/oracle 1, druid 1, hunter 1, inquisitor 1, occultist 1, paladin 1, ranger 2, shaman 1, spiritualist 1, witch 1;\n    <strong>Domain</strong>&nbsp;Healing 1;\n    \n    \n    \n  </p>\n  <p>\n    <strong>Casting Time</strong>&nbsp;1 standard<br>\n    <strong>Components</strong>&nbsp;V, S<br>\n  </p>\n  <p>\n    <strong>Range</strong>&nbsp;touch<br>\n    \n    <strong>Targets</strong>&nbsp;creature touched<br>\n    \n    <strong>Duration</strong>&nbsp;instantaneous<br>\n      <strong>Saving Throw</strong>&nbsp;Will half (harmless); see text;&nbsp;\n      <strong>Spell Resistance</strong>&nbsp;yes<br>\n  </p>\n  <h2>Description</h2>\n  <p>When laying your hand upon a living creature, you channel positive energy that cures 1d8 points of damage + 1 point per caster level (maximum +5). Since undead are powered by negative energy, this spell deals damage to them instead of curing their wounds. An undead creature can apply spell resistance, and can attempt a Will save to take half damage.</p>\n</div>\n"
        },
        "tags": [],
        "activation": {
          "type": "standard"
        },
        "unchainedAction": {
          "activation": {
            "cost": 2,
            "type": "action"
          }
        },
        "target": {
          "value": "creature touched"
        },
        "range": {
          "units": "touch"
        },
        "uses": {
          "value": 3,
          "per": "day"
        },
        "measureTemplate": {
          "size": "0"
        },
        "actionType": "heal",
        "damage": {
          "parts": [
            [
              "1d8 + min(5, @cl)",
              ""
            ]
          ],
          "critParts": [],
          "nonCritParts": []
        },
        "attackParts": [],
        "ability": {
          "attack": "",
          "damage": ""
        },
        "save": {
          "dc": "0",
          "type": "will",
          "description": "Will half (harmless); see text"
        },
        "effectNotes": [],
        "attackNotes": [],
        "links": {
          "children": []
        },
        "flags": {
          "boolean": [],
          "dictionary": []
        },
        "scriptCalls": [],
        "learnedAt": {
          "class": [
            [
              "cleric/oracle",
              1
            ],
            [
              "druid",
              1
            ],
            [
              "ranger",
              2
            ],
            [
              "bard",
              1
            ],
            [
              "paladin",
              1
            ],
            [
              "alchemist",
              1
            ],
            [
              "witch",
              1
            ],
            [
              "inquisitor",
              1
            ],
            [
              "adept",
              1
            ],
            [
              "shaman",
              1
            ],
            [
              "occultist",
              1
            ],
            [
              "spiritualist",
              1
            ],
            [
              "hunter",
              1
            ]
          ],
          "domain": [
            [
              "Healing",
              1
            ]
          ],
          "subDomain": [],
          "elementalSchool": [],
          "bloodline": []
        },
        "school": "con",
        "subschool": "healing",
        "conditionals": [],
        "components": {
          "verbal": true,
          "somatic": true
        },
        "spellbook": "spelllike",
        "preparation": {
          "preparedAmount": 3,
          "maxAmount": 3
        },
        "shortDescription": "<p>When laying your hand upon a living creature, you channel positive energy that cures 1d8 points of damage + 1 point per caster level (maximum +5). Since undead are powered by negative energy, this spell deals damage to them instead of curing their wounds. An undead creature can apply spell resistance, and can attempt a Will save to take half damage.</p>",
        "spellDuration": "instantaneous"
      },
      "effects": [],
      "folder": null,
      "sort": 0,
      "permission": {
        "default": 0
      },
      "flags": {}
    },
    {
      "_id": "nee6cxpoekp3aklq",
      "name": "Alarm",
      "type": "spell",
      "img": "systems/pf1/icons/misc/magic-swirl.png",
      "data": {
        "description": {
          "value": "<div class=\"spell-description\">\n  <p>\n    <strong>School</strong>&nbsp;abjuration;\n    <strong>Level</strong>&nbsp;bard 1, hunter 1, inquisitor 1, occultist 1, psychic 1, ranger 1, sorcerer/wizard 1, spiritualist 1, summoner 1, unchained Summoner 1;\n    \n    <strong>Subdomain</strong>&nbsp;Ambush 1, Home 1;\n    \n    <strong>Bloodline</strong>&nbsp;Destined 1, Kobold 1;\n  </p>\n  <p>\n    <strong>Casting Time</strong>&nbsp;1 standard action<br>\n    <strong>Components</strong>&nbsp;V, S, F/DF (a tiny bell and a piece of very fine silver wire)<br>\n  </p>\n  <p>\n    <strong>Range</strong>&nbsp;close (25 ft. + 5 ft./2 levels)<br>\n    <strong>Area</strong>&nbsp;20-ft.-radius emanation centered on a point in space<br>\n    \n    \n    <strong>Duration</strong>&nbsp;2 hours/level<br>\n    <strong>Saving Throw</strong>&nbsp;none;&nbsp;<strong>Spell Resistance</strong>&nbsp;no<br>\n  </p>\n  <h2>Description</h2>\n  <p><i>Alarm</i> creates a subtle ward on an area you select. Once the spell effect is in place, it thereafter sounds a mental or audible alarm each time a creature of Tiny or larger size enters the warded area or touches it. A creature that speaks the password (determined by you at the time of casting) does not set off the <i>alarm</i>. You decide at the time of casting whether the <i>alarm</i> will be mental or audible in nature.</p><p><i>Mental Alarm</i>: A mental <i>alarm</i> alerts you (and only you) so long as you remain within 1 mile of the warded area. You note a single mental \"ping\" that awakens you from normal sleep but does not otherwise disturb concentration. A silence spell has no effect on a mental <i>alarm</i>.</p><p><i>Audible Alarm</i>: An audible <i>alarm</i> produces the sound of a hand bell, and anyone within 60 feet of the warded area can hear it clearly. Reduce the distance by 10 feet for each interposing closed door and by 20 feet for each substantial interposing wall.</p><p>In quiet conditions, the ringing can be heard faintly as far as 180 feet away. The sound lasts for 1 round. Creatures within a <i>silence</i> spell cannot hear the ringing.  Ethereal or astral creatures do not trigger the <i>alarm</i>.</p><p><i>Alarm</i> can be made permanent with a <i>permanency</i> spell.</p>\n</div>\n"
        },
        "tags": [],
        "activation": {
          "type": "standard"
        },
        "unchainedAction": {
          "activation": {
            "cost": 2,
            "type": "action"
          }
        },
        "range": {
          "units": "close"
        },
        "uses": {
          "value": 1,
          "per": "day"
        },
        "measureTemplate": {
          "type": "circle",
          "size": "20"
        },
        "actionType": "",
        "damage": {
          "parts": [],
          "critParts": [],
          "nonCritParts": []
        },
        "attackParts": [],
        "ability": {
          "attack": "",
          "damage": ""
        },
        "save": {
          "dc": "0"
        },
        "effectNotes": [],
        "attackNotes": [],
        "links": {
          "children": []
        },
        "flags": {
          "boolean": [],
          "dictionary": []
        },
        "scriptCalls": [],
        "learnedAt": {
          "class": [
            [
              "sorcerer/wizard",
              1
            ],
            [
              "ranger",
              1
            ],
            [
              "bard",
              1
            ],
            [
              "summoner",
              1
            ],
            [
              "inquisitor",
              1
            ],
            [
              "psychic",
              1
            ],
            [
              "occultist",
              1
            ],
            [
              "spiritualist",
              1
            ],
            [
              "hunter",
              1
            ],
            [
              "unchained Summoner",
              1
            ]
          ],
          "domain": [],
          "subDomain": [
            [
              "Home",
              1
            ],
            [
              "Ambush",
              1
            ]
          ],
          "elementalSchool": [],
          "bloodline": [
            [
              "Destined",
              1
            ],
            [
              "Kobold",
              1
            ]
          ]
        },
        "school": "abj",
        "conditionals": [],
        "components": {
          "verbal": true,
          "somatic": true,
          "focus": true,
          "divineFocus": 3
        },
        "materials": {
          "focus": "a tiny bell and a piece of very fine silver wire"
        },
        "spellbook": "spelllike",
        "preparation": {
          "preparedAmount": 1,
          "maxAmount": 1
        },
        "sr": false,
        "shortDescription": "<p><i>Alarm</i> creates a subtle ward on an area you select. Once the spell effect is in place, it thereafter sounds a mental or audible alarm each time a creature of Tiny or larger size enters the warded area or touches it. A creature that speaks the password (determined by you at the time of casting) does not set off the <i>alarm</i>. You decide at the time of casting whether the <i>alarm</i> will be mental or audible in nature.</p><p><i>Mental Alarm</i>: A mental <i>alarm</i> alerts you (and only you) so long as you remain within 1 mile of the warded area. You note a single mental \"ping\" that awakens you from normal sleep but does not otherwise disturb concentration. A silence spell has no effect on a mental <i>alarm</i>.</p><p><i>Audible Alarm</i>: An audible <i>alarm</i> produces the sound of a hand bell, and anyone within 60 feet of the warded area can hear it clearly. Reduce the distance by 10 feet for each interposing closed door and by 20 feet for each substantial interposing wall.</p><p>In quiet conditions, the ringing can be heard faintly as far as 180 feet away. The sound lasts for 1 round. Creatures within a <i>silence</i> spell cannot hear the ringing.  Ethereal or astral creatures do not trigger the <i>alarm</i>.</p><p><i>Alarm</i> can be made permanent with a <i>permanency</i> spell.</p>",
        "spellDuration": "2 hours/level",
        "spellArea": "20-ft.-radius emanation centered on a point in space"
      },
      "effects": [],
      "folder": null,
      "sort": 0,
      "permission": {
        "default": 0
      },
      "flags": {}
    },
    {
      "_id": "tuh5vc2bojaws3ig",
      "name": "Obscuring Mist",
      "type": "spell",
      "img": "systems/pf1/icons/misc/magic-swirl.png",
      "data": {
        "description": {
          "value": "<div class=\"spell-description\">\n  <p>\n    <strong>School</strong>&nbsp;conjuration&nbsp;(creation);\n    <strong>Level</strong>&nbsp;adept 1, cleric/oracle 1, druid 1, hunter 1, magus 1, mesmerist 1, shaman 1, sorcerer/wizard 1, spiritualist 1, unchained Summoner 1, witch 1;\n    <strong>Domain</strong>&nbsp;Air 1, Darkness 1, Water 1, Weather 1;\n    \n    \n    <strong>Bloodline</strong>&nbsp;Ectoplasm 1, Marid 1;\n  </p>\n  <p>\n    <strong>Casting Time</strong>&nbsp;1 standard action<br>\n    <strong>Components</strong>&nbsp;V, S<br>\n  </p>\n  <p>\n    <strong>Range</strong>&nbsp;20 feet<br>\n    \n    \n    <strong>Effect</strong>&nbsp;cloud spreads in 20-ft. radius from you, 20 ft. high<br>\n    <strong>Duration</strong>&nbsp;1 min./level<br>\n    <strong>Saving Throw</strong>&nbsp;none;&nbsp;<strong>Spell Resistance</strong>&nbsp;no<br>\n  </p>\n  <h2>Description</h2>\n  <p>A misty vapor arises around you. It is stationary. The vapor obscures all sight, including darkvision, beyond 5 feet. A creature 5 feet away has concealment (attacks have a 20% miss chance). Creatures farther away have total concealment (50% miss chance, and the attacker cannot use sight to locate the target).</p><p>A moderate wind (11+ mph), such as from a <i>gust of wind</i> spell, disperses the fog in 4 rounds. A strong wind (21+ mph) disperses the fog in 1 round. A <i>fireball, flame strike</i>, or similar spell burns away the fog in the explosive or fiery spell's area. A <i>Wall of Fire</i> burns away the fog in the area into which it deals damage.</p><p>This spell does not function underwater.</p>\n</div>\n"
        },
        "tags": [],
        "activation": {
          "type": "standard"
        },
        "unchainedAction": {
          "activation": {
            "cost": 2,
            "type": "action"
          }
        },
        "range": {
          "value": 20,
          "units": "ft"
        },
        "uses": {
          "value": 1,
          "per": "day"
        },
        "measureTemplate": {
          "size": "0"
        },
        "actionType": "other",
        "damage": {
          "parts": [],
          "critParts": [],
          "nonCritParts": []
        },
        "attackParts": [],
        "ability": {
          "attack": "",
          "damage": ""
        },
        "save": {
          "dc": "0"
        },
        "effectNotes": [],
        "attackNotes": [],
        "links": {
          "children": []
        },
        "flags": {
          "boolean": [],
          "dictionary": []
        },
        "scriptCalls": [],
        "learnedAt": {
          "class": [
            [
              "sorcerer/wizard",
              1
            ],
            [
              "cleric/oracle",
              1
            ],
            [
              "druid",
              1
            ],
            [
              "witch",
              1
            ],
            [
              "magus",
              1
            ],
            [
              "adept",
              1
            ],
            [
              "shaman",
              1
            ],
            [
              "mesmerist",
              1
            ],
            [
              "spiritualist",
              1
            ],
            [
              "hunter",
              1
            ],
            [
              "unchained Summoner",
              1
            ]
          ],
          "domain": [
            [
              "Air",
              1
            ],
            [
              "Darkness",
              1
            ],
            [
              "Water",
              1
            ],
            [
              "Weather",
              1
            ]
          ],
          "subDomain": [],
          "elementalSchool": [],
          "bloodline": [
            [
              "Marid",
              1
            ],
            [
              "Ectoplasm",
              1
            ]
          ]
        },
        "school": "con",
        "subschool": "creation",
        "conditionals": [],
        "components": {
          "verbal": true,
          "somatic": true
        },
        "spellbook": "spelllike",
        "preparation": {
          "preparedAmount": 1,
          "maxAmount": 1
        },
        "sr": false,
        "shortDescription": "<p>A misty vapor arises around you. It is stationary. The vapor obscures all sight, including darkvision, beyond 5 feet. A creature 5 feet away has concealment (attacks have a 20% miss chance). Creatures farther away have total concealment (50% miss chance, and the attacker cannot use sight to locate the target).</p><p>A moderate wind (11+ mph), such as from a <i>gust of wind</i> spell, disperses the fog in 4 rounds. A strong wind (21+ mph) disperses the fog in 1 round. A <i>fireball, flame strike</i>, or similar spell burns away the fog in the explosive or fiery spell's area. A <i>Wall of Fire</i> burns away the fog in the area into which it deals damage.</p><p>This spell does not function underwater.</p>",
        "spellDuration": "1 min./level",
        "spellEffect": "cloud spreads in 20-ft. radius from you, 20 ft. high"
      },
      "effects": [],
      "folder": null,
      "sort": 0,
      "permission": {
        "default": 0
      },
      "flags": {}
    },
    {
      "_id": "qaeua1e5sog47oht",
      "name": "Ecology",
      "type": "feat",
      "img": "icons/environment/wilderness/tree-oak.webp",
      "data": {
        "description": {
          "value": "<div><strong>Environment</strong>:  urban (Korvosa)</div><div><strong>Organization</strong>:  solitary, pair, or clutch (3-9)</div><div><strong>Treasure</strong>:  standard</div>"
        },
        "tags": [],
        "damage": {
          "parts": [],
          "critParts": [],
          "nonCritParts": []
        },
        "attackParts": [],
        "effectNotes": [],
        "attackNotes": [],
        "changes": [],
        "contextNotes": [],
        "links": {
          "children": [],
          "charges": []
        },
        "armorProf": {
          "value": []
        },
        "weaponProf": {
          "value": []
        },
        "flags": {
          "boolean": [],
          "dictionary": []
        },
        "scriptCalls": [],
        "featType": "misc",
        "associations": {
          "classes": []
        }
      },
      "effects": [],
      "folder": null,
      "sort": 0,
      "permission": {
        "default": 0
      },
      "flags": {}
    },
    {
      "_id": "yva7chbd9rcvu3xw",
      "name": "Breath Weapon",
      "type": "feat",
      "img": "systems/pf1/icons/skills/yellow_36.jpg",
      "data": {
        "description": {
          "value": "Up to three times per day and no more than once every 1d4 rounds, a house drake can breathe out a small cloud of silver mist in a 10-foot cone. All creatures in this area must succeed at a DC 14 Will save or be confused for 1 round. This is a mind-affecting effect. The save DC is Constitution-based."
        },
        "tags": [],
        "damage": {
          "parts": [],
          "critParts": [],
          "nonCritParts": []
        },
        "attackParts": [],
        "effectNotes": [],
        "attackNotes": [],
        "changes": [],
        "contextNotes": [],
        "links": {
          "children": [],
          "charges": []
        },
        "armorProf": {
          "value": []
        },
        "weaponProf": {
          "value": []
        },
        "flags": {
          "boolean": [],
          "dictionary": []
        },
        "scriptCalls": [],
        "featType": "classFeat",
        "associations": {
          "classes": []
        },
        "abilityType": "su"
      },
      "effects": [],
      "folder": null,
      "sort": 0,
      "permission": {
        "default": 0
      },
      "flags": {}
    },
    {
      "_id": "97p38isnfuovi8v5",
      "name": "Ferocious Will",
      "type": "feat",
      "img": "systems/pf1/icons/skills/yellow_36.jpg",
      "data": {
        "description": {
          "value": "House drakes have a stubborn streak of fierce independence and gain a +2 racial bonus on Will saves (this bonus is included in the stats above). In addition, the first time in a day that a house drake successfully saves against a mind-affecting spell or spelllike ability, the caster of the spell must succeed at a DC 13 Will save or be staggered for 1 round by a blast of magical, mental feedback. This feedback is a mind-affecting effect, and the save DC is Charisma-based."
        },
        "tags": [],
        "damage": {
          "parts": [],
          "critParts": [],
          "nonCritParts": []
        },
        "attackParts": [],
        "effectNotes": [],
        "attackNotes": [],
        "changes": [],
        "contextNotes": [],
        "links": {
          "children": [],
          "charges": []
        },
        "armorProf": {
          "value": []
        },
        "weaponProf": {
          "value": []
        },
        "flags": {
          "boolean": [],
          "dictionary": []
        },
        "scriptCalls": [],
        "featType": "classFeat",
        "associations": {
          "classes": []
        },
        "abilityType": "ex"
      },
      "effects": [],
      "folder": null,
      "sort": 0,
      "permission": {
        "default": 0
      },
      "flags": {}
    },
    {
      "_id": "of8smj464zau75o9",
      "name": "Silver Strike",
      "type": "feat",
      "img": "systems/pf1/icons/skills/yellow_36.jpg",
      "data": {
        "description": {
          "value": "All of a house drake’s natural attacks are treated as being silver for the purposes of overcoming damage reduction."
        },
        "tags": [],
        "damage": {
          "parts": [],
          "critParts": [],
          "nonCritParts": []
        },
        "attackParts": [],
        "effectNotes": [],
        "attackNotes": [],
        "changes": [],
        "contextNotes": [],
        "links": {
          "children": [],
          "charges": []
        },
        "armorProf": {
          "value": []
        },
        "weaponProf": {
          "value": []
        },
        "flags": {
          "boolean": [],
          "dictionary": []
        },
        "scriptCalls": [],
        "featType": "classFeat",
        "associations": {
          "classes": []
        },
        "abilityType": "ex"
      },
      "effects": [],
      "folder": null,
      "sort": 0,
      "permission": {
        "default": 0
      },
      "flags": {}
    },
    {
      "_id": "y2kbF3EAknqrkart",
      "name": "sbc | Conversion Buff",
      "type": "buff",
      "img": "systems/pf1/icons/skills/yellow_36.jpg",
      "data": {
        "description": {
          "value": "<h2>sbc | Conversion Buff</h2>\n                        This Buff was created by <strong>sbc</strong> to compensate for differences between the input and the values FoundryVTT calculates automatically.\n                        <br><br>\n                        Especially when the pathfinder system gets upgraded, entries in compendiums get updated or foundry changes in some way, this buff may become outdated.\n                        <br><br>\n                        For most mooks the conversion should more or less work, but for important NPCs or creatures it is adviced to double check the conversion manually."
        },
        "tags": [],
        "changes": [
          {
            "formula": "2",
            "modifier": "untypedPerm",
            "operator": "add",
            "priority": 0,
            "subTarget": "cmb",
            "target": "misc",
            "value": 2,
            "id": "4zfp18rl"
          },
          {
            "formula": "-12",
            "modifier": "untypedPerm",
            "operator": "add",
            "priority": 0,
            "subTarget": "mhp",
            "target": "misc",
            "value": -12,
            "id": "si9ncu5z"
          },
          {
            "formula": "2",
            "modifier": "untypedPerm",
            "operator": "add",
            "priority": 0,
            "subTarget": "will",
            "target": "savingThrows",
            "value": 2,
            "id": "7f3c0kdt"
          },
          {
            "formula": "-4",
            "modifier": "untypedPerm",
            "operator": "add",
            "priority": 0,
            "subTarget": "skill.fly",
            "target": "skill",
            "value": -4,
            "id": "rtoefe0o"
          }
        ],
        "contextNotes": [],
        "links": {
          "children": []
        },
        "tag": "sbcConversionBuff",
        "useCustomTag": true,
        "flags": {
          "boolean": [],
          "dictionary": []
        },
        "scriptCalls": [],
        "buffType": "perm",
        "active": true,
        "hideFromToken": true
      },
      "effects": [],
      "folder": null,
      "sort": 0,
      "permission": {
        "default": 0,
        "iM1ACTqH0Ml6HJtd": 3
      },
      "flags": {}
    }
  ],
  "effects": [],
  "folder": null,
  "sort": 0,
  "permission": {
    "default": 0
  },
  "flags": {}
}