{
  "_id": "14he8rp5zehzk7tx",
  "name": "Abstemiousness",
  "type": "spell",
  "img": "systems/pf1/icons/misc/magic-swirl.png",
  "data": {
    "description": {
      "value": "<div class=\"spell-description\">\n  <p>\n    <strong>School</strong>&nbsp;transmutation;\n    <strong>Level</strong>&nbsp;bard 1, cleric/oracle 1, druid 1, hunter 1, witch 1;\n    \n    \n    \n    \n  </p>\n  <p>\n    <strong>Casting Time</strong>&nbsp;1 standard<br>\n    <strong>Components</strong>&nbsp;V<br>\n  </p>\n  <p>\n    <strong>Range</strong>&nbsp;touch<br>\n    \n    <strong>Targets</strong>&nbsp;a handful of berries, grains, nuts, or rice<br>\n    \n    <strong>Duration</strong>&nbsp;1 hour<br>\n      <strong>Saving Throw</strong>&nbsp;Fortitude negates (harmless);&nbsp;\n      <strong>Spell Resistance</strong>&nbsp;yes<br>\n  </p>\n  <h2>Description</h2>\n  <p>Sometimes Irori smiles on his worshipers, granting them a reprieve from physical hunger. This spell magically enhances a handful of simple food, imbuing it with enough nutrition to satisfy a Medium or smaller creature for a full day. The spell does not create food, and thus will not alone prevent someone from starving, but it can extend even limited reserves for lengthy periods.</p>\n</div>\n"
    },
    "tags": [],
    "activation": {
      "type": "standard"
    },
    "unchainedAction": {
      "activation": {
        "cost": 2,
        "type": "action"
      }
    },
    "target": {
      "value": "a handful of berries, grains, nuts, or rice"
    },
    "range": {
      "units": "touch"
    },
    "uses": {
      "per": ""
    },
    "measureTemplate": {
      "size": "0"
    },
    "actionType": "spellsave",
    "damage": {
      "parts": [],
      "critParts": [],
      "nonCritParts": []
    },
    "attackParts": [],
    "ability": {
      "attack": "",
      "damage": ""
    },
    "save": {
      "dc": "0",
      "type": "fort",
      "description": "Fortitude negates (harmless)"
    },
    "effectNotes": [],
    "attackNotes": [],
    "links": {
      "children": []
    },
    "flags": {
      "boolean": [],
      "dictionary": []
    },
    "scriptCalls": [],
    "learnedAt": {
      "class": [
        [
          "cleric/oracle",
          1
        ],
        [
          "druid",
          1
        ],
        [
          "bard",
          1
        ],
        [
          "witch",
          1
        ],
        [
          "hunter",
          1
        ]
      ],
      "domain": [],
      "subDomain": [],
      "elementalSchool": [],
      "bloodline": []
    },
    "school": "trs",
    "conditionals": [],
    "components": {
      "verbal": true
    },
    "shortDescription": "<p>Sometimes Irori smiles on his worshipers, granting them a reprieve from physical hunger. This spell magically enhances a handful of simple food, imbuing it with enough nutrition to satisfy a Medium or smaller creature for a full day. The spell does not create food, and thus will not alone prevent someone from starving, but it can extend even limited reserves for lengthy periods.</p>",
    "spellDuration": "1 hour"
  },
  "effects": [],
  "folder": null,
  "sort": 0,
  "permission": {
    "default": 0
  },
  "flags": {}
}