{
  "_id": "4wq7yxu0wyl0na7y",
  "name": "Adhesive Blood",
  "type": "spell",
  "img": "systems/pf1/icons/misc/magic-swirl.png",
  "data": {
    "description": {
      "value": "<div class=\"spell-description\">\n  <p>\n    <strong>School</strong>&nbsp;transmutation;\n    <strong>Level</strong>&nbsp;alchemist 2, bloodrager 2, psychic 2, sorcerer/wizard 2, witch 2;\n    \n    \n    \n    \n  </p>\n  <p>\n    <strong>Casting Time</strong>&nbsp;1 standard<br>\n    <strong>Components</strong>&nbsp;V, S<br>\n  </p>\n  <p>\n    <strong>Range</strong>&nbsp;personal<br>\n    \n    <strong>Targets</strong>&nbsp;you<br>\n    \n    <strong>Duration</strong>&nbsp;1 minute/level<br>\n  </p>\n  <h2>Description</h2>\n  <p>Your blood thickens to becomes a glue-like substance upon contact with air. A piercing or slashing weapon that deals hit point damage to you is stuck fast unless the wielder succeeds at a Reflex save. A creature can pry off a stuck weapon on its turn as a standard action with a successful Strength check against the spell's DC. Strong alcohol or universal solvent dissolves the adhesive. The glue breaks down 5 rounds after you die, or when the duration ends. This glue has no while underwater or in environments that lack air.</p>\n</div>\n"
    },
    "tags": [],
    "activation": {
      "type": "standard"
    },
    "unchainedAction": {
      "activation": {
        "cost": 2,
        "type": "action"
      }
    },
    "target": {
      "value": "you"
    },
    "range": {
      "units": "personal"
    },
    "uses": {
      "per": ""
    },
    "measureTemplate": {
      "size": "0"
    },
    "actionType": "spellsave",
    "damage": {
      "parts": [],
      "critParts": [],
      "nonCritParts": []
    },
    "attackParts": [],
    "ability": {
      "attack": "",
      "damage": ""
    },
    "save": {
      "dc": "0",
      "type": "ref",
      "description": "Reflex negates (see text)"
    },
    "effectNotes": [],
    "attackNotes": [],
    "links": {
      "children": []
    },
    "flags": {
      "boolean": [],
      "dictionary": []
    },
    "scriptCalls": [],
    "learnedAt": {
      "class": [
        [
          "sorcerer/wizard",
          2
        ],
        [
          "alchemist",
          2
        ],
        [
          "witch",
          2
        ],
        [
          "bloodrager",
          2
        ],
        [
          "psychic",
          2
        ]
      ],
      "domain": [],
      "subDomain": [],
      "elementalSchool": [],
      "bloodline": []
    },
    "level": 2,
    "school": "trs",
    "conditionals": [],
    "components": {
      "verbal": true,
      "somatic": true
    },
    "sr": false,
    "shortDescription": "<p>Your blood thickens to becomes a glue-like substance upon contact with air. A piercing or slashing weapon that deals hit point damage to you is stuck fast unless the wielder succeeds at a Reflex save. A creature can pry off a stuck weapon on its turn as a standard action with a successful Strength check against the spell's DC. Strong alcohol or universal solvent dissolves the adhesive. The glue breaks down 5 rounds after you die, or when the duration ends. This glue has no while underwater or in environments that lack air.</p>",
    "spellDuration": "1 minute/level"
  },
  "effects": [],
  "folder": null,
  "sort": 0,
  "permission": {
    "default": 0
  },
  "flags": {}
}