{
  "_id": "acjpqe8vchvzt5rl",
  "name": "Air Geyser",
  "type": "spell",
  "img": "systems/pf1/icons/misc/magic-swirl.png",
  "data": {
    "description": {
      "value": "<div class=\"spell-description\">\n  <p>\n    <strong>School</strong>&nbsp;evocation&nbsp;[air];\n    <strong>Level</strong>&nbsp;bloodrager 3, druid 3, hunter 3, magus 3, shaman 4, sorcerer/wizard 3, witch 3;\n    \n    \n    \n    \n  </p>\n  <p>\n    <strong>Casting Time</strong>&nbsp;1 standard<br>\n    <strong>Components</strong>&nbsp;V, S<br>\n  </p>\n  <p>\n    <strong>Range</strong>&nbsp;close (25 ft. + 5 ft./2 levels)<br>\n    \n    <strong>Targets</strong>&nbsp;one creature or object up to Large size<br>\n    \n    <strong>Duration</strong>&nbsp;instantaneous<br>\n      <strong>Saving Throw</strong>&nbsp;Reflex partial (see text);&nbsp;\n      <strong>Spell Resistance</strong>&nbsp;yes<br>\n  </p>\n  <h2>Description</h2>\n  <p>You create a powerful blast of air capable of flinging an opponent upward. If the target fails its Reflex save, the force of the air deals 2d6 points of bludgeoning damage and hurls the target upward a number of feet equal to 5 x your caster level. If a solid object (such as a ceiling) is encountered, the target strikes the object in the same manner as it would during a normal fall. After this blast of air ceases, the target falls down (unless it was flying), taking falling damage as normal. A successful save means the target takes half damage from the air blast but is not moved by it.</p>\n</div>\n"
    },
    "tags": [],
    "activation": {
      "type": "standard"
    },
    "unchainedAction": {
      "activation": {
        "cost": 2,
        "type": "action"
      }
    },
    "target": {
      "value": "one creature or object up to Large size"
    },
    "range": {
      "units": "close"
    },
    "uses": {
      "per": ""
    },
    "measureTemplate": {
      "size": "0"
    },
    "actionType": "spellsave",
    "damage": {
      "parts": [],
      "critParts": [],
      "nonCritParts": []
    },
    "attackParts": [],
    "ability": {
      "attack": "",
      "damage": ""
    },
    "save": {
      "dc": "0",
      "type": "ref",
      "description": "Reflex partial (see text)"
    },
    "effectNotes": [],
    "attackNotes": [],
    "links": {
      "children": []
    },
    "flags": {
      "boolean": [],
      "dictionary": []
    },
    "scriptCalls": [],
    "learnedAt": {
      "class": [
        [
          "sorcerer/wizard",
          3
        ],
        [
          "druid",
          3
        ],
        [
          "witch",
          3
        ],
        [
          "magus",
          3
        ],
        [
          "bloodrager",
          3
        ],
        [
          "shaman",
          4
        ],
        [
          "hunter",
          3
        ]
      ],
      "domain": [],
      "subDomain": [],
      "elementalSchool": [],
      "bloodline": []
    },
    "level": 3,
    "school": "evo",
    "types": "air",
    "conditionals": [],
    "components": {
      "verbal": true,
      "somatic": true
    },
    "shortDescription": "<p>You create a powerful blast of air capable of flinging an opponent upward. If the target fails its Reflex save, the force of the air deals 2d6 points of bludgeoning damage and hurls the target upward a number of feet equal to 5 x your caster level. If a solid object (such as a ceiling) is encountered, the target strikes the object in the same manner as it would during a normal fall. After this blast of air ceases, the target falls down (unless it was flying), taking falling damage as normal. A successful save means the target takes half damage from the air blast but is not moved by it.</p>",
    "spellDuration": "instantaneous"
  },
  "effects": [],
  "folder": null,
  "sort": 0,
  "permission": {
    "default": 0
  },
  "flags": {}
}