{
  "_id": "sxtpslsxy4yn66tg",
  "name": "Amplify Elixir",
  "type": "spell",
  "img": "systems/pf1/icons/misc/magic-swirl.png",
  "data": {
    "description": {
      "value": "<div class=\"spell-description\">\n  <p>\n    <strong>School</strong>&nbsp;transmutation;\n    <strong>Level</strong>&nbsp;alchemist 3;\n    \n    \n    \n    \n  </p>\n  <p>\n    <strong>Casting Time</strong>&nbsp;1 standard<br>\n    <strong>Components</strong>&nbsp;S<br>\n  </p>\n  <p>\n    <strong>Range</strong>&nbsp;personal<br>\n    \n    <strong>Targets</strong>&nbsp;you<br>\n    \n    <strong>Duration</strong>&nbsp;1 round/level<br>\n  </p>\n  <h2>Description</h2>\n  <p>This extract greatly enhances the effects of any potion or elixir you consume. For the duration of this extract, any potion or elixir you consume is treated as if it were empowered. Increase all variable numeric effects of the potion or elixir by half. If the potion or elixir does not have any variable numeric effects, it is instead treated as if it were extended (double the duration of the potion or elixir). If the potion or elixir does not have any variable numeric effects, or has an instantaneous duration, amplify elixir has no effect. Amplify elixir affects oils that target you, but it has no effect on oils that target your equipment.</p>\n</div>\n"
    },
    "tags": [],
    "activation": {
      "type": "standard"
    },
    "unchainedAction": {
      "activation": {
        "cost": 2,
        "type": "action"
      }
    },
    "target": {
      "value": "you"
    },
    "range": {
      "units": "personal"
    },
    "uses": {
      "per": ""
    },
    "measureTemplate": {
      "size": "0"
    },
    "actionType": "",
    "damage": {
      "parts": [],
      "critParts": [],
      "nonCritParts": []
    },
    "attackParts": [],
    "ability": {
      "attack": "",
      "damage": ""
    },
    "save": {
      "dc": "0"
    },
    "effectNotes": [],
    "attackNotes": [],
    "links": {
      "children": []
    },
    "flags": {
      "boolean": [],
      "dictionary": []
    },
    "scriptCalls": [],
    "learnedAt": {
      "class": [
        [
          "alchemist",
          3
        ]
      ],
      "domain": [],
      "subDomain": [],
      "elementalSchool": [],
      "bloodline": []
    },
    "level": 3,
    "school": "trs",
    "conditionals": [],
    "components": {
      "somatic": true
    },
    "sr": false,
    "shortDescription": "<p>This extract greatly enhances the effects of any potion or elixir you consume. For the duration of this extract, any potion or elixir you consume is treated as if it were empowered. Increase all variable numeric effects of the potion or elixir by half. If the potion or elixir does not have any variable numeric effects, it is instead treated as if it were extended (double the duration of the potion or elixir). If the potion or elixir does not have any variable numeric effects, or has an instantaneous duration, amplify elixir has no effect. Amplify elixir affects oils that target you, but it has no effect on oils that target your equipment.</p>",
    "spellDuration": "1 round/level"
  },
  "effects": [],
  "folder": null,
  "sort": 0,
  "permission": {
    "default": 0
  },
  "flags": {}
}