{
  "_id": "pwkizdjppc96lf7i",
  "name": "Aquatic Cavalry",
  "type": "spell",
  "img": "systems/pf1/icons/misc/magic-swirl.png",
  "data": {
    "description": {
      "value": "<div class=\"spell-description\">\n  <p>\n    <strong>School</strong>&nbsp;conjuration&nbsp;(summoning);\n    <strong>Level</strong>&nbsp;antipaladin 2, druid 2, hunter 2, paladin 2, ranger 2, shaman 2, summoner 2, unchained Summoner 2;\n    \n    \n    \n    \n  </p>\n  <p>\n    <strong>Casting Time</strong>&nbsp;1 round<br>\n    <strong>Components</strong>&nbsp;V, S, DF<br>\n  </p>\n  <p>\n    <strong>Range</strong>&nbsp;medium (100 ft. + 10 ft./level)<br>\n    \n    \n    <strong>Effect</strong>&nbsp;1 hippocampus plus 1 hippocampus/3 caster levels<br>\n    <strong>Duration</strong>&nbsp;1 hour/level (D)<br>\n      <strong>Saving Throw</strong>&nbsp;none;&nbsp;\n      <strong>Spell Resistance</strong>&nbsp;no<br>\n  </p>\n  <h2>Description</h2>\n  <p>You summon a school of hippocampi (one plus one per 3 caster levels, to a maximum of six at 15th level; Pathfinder RPG Bestiary 2 155) to serve as combat-trained mounts. The hippocampi avoid combat if possible but defend themselves if attacked. If any hippocampus attacks, the remaining duration of the spell changes from 1 hour per level to 1 round per level (so if a full 4 hours remained, the hippocampi last for only 4 more rounds).</p>\n</div>\n"
    },
    "tags": [],
    "activation": {
      "type": "round"
    },
    "unchainedAction": {
      "activation": {
        "cost": 3,
        "type": "action"
      }
    },
    "range": {
      "units": "medium"
    },
    "uses": {
      "per": ""
    },
    "measureTemplate": {
      "size": "0"
    },
    "actionType": "other",
    "damage": {
      "parts": [],
      "critParts": [],
      "nonCritParts": []
    },
    "attackParts": [],
    "ability": {
      "attack": "",
      "damage": ""
    },
    "save": {
      "dc": "0"
    },
    "effectNotes": [],
    "attackNotes": [],
    "links": {
      "children": []
    },
    "flags": {
      "boolean": [],
      "dictionary": []
    },
    "scriptCalls": [],
    "learnedAt": {
      "class": [
        [
          "druid",
          2
        ],
        [
          "ranger",
          2
        ],
        [
          "paladin",
          2
        ],
        [
          "summoner",
          2
        ],
        [
          "antipaladin",
          2
        ],
        [
          "shaman",
          2
        ],
        [
          "hunter",
          2
        ],
        [
          "unchained Summoner",
          2
        ]
      ],
      "domain": [],
      "subDomain": [],
      "elementalSchool": [],
      "bloodline": []
    },
    "level": 2,
    "school": "con",
    "subschool": "summoning",
    "conditionals": [],
    "components": {
      "verbal": true,
      "somatic": true,
      "divineFocus": 1
    },
    "sr": false,
    "shortDescription": "<p>You summon a school of hippocampi (one plus one per 3 caster levels, to a maximum of six at 15th level; Pathfinder RPG Bestiary 2 155) to serve as combat-trained mounts. The hippocampi avoid combat if possible but defend themselves if attacked. If any hippocampus attacks, the remaining duration of the spell changes from 1 hour per level to 1 round per level (so if a full 4 hours remained, the hippocampi last for only 4 more rounds).</p>",
    "spellDuration": "1 hour/level (D)",
    "spellEffect": "1 hippocampus plus 1 hippocampus/3 caster levels"
  },
  "effects": [],
  "folder": null,
  "sort": 0,
  "permission": {
    "default": 0
  },
  "flags": {}
}