{
  "_id": "xag021fsy3j4cxi5",
  "name": "Arboreal Hammer",
  "type": "spell",
  "img": "systems/pf1/icons/misc/magic-swirl.png",
  "data": {
    "description": {
      "value": "<div class=\"spell-description\">\n  <p>\n    <strong>School</strong>&nbsp;transmutation;\n    <strong>Level</strong>&nbsp;druid 4, hunter 4;\n    \n    \n    \n    \n  </p>\n  <p>\n    <strong>Casting Time</strong>&nbsp;1 standard<br>\n    <strong>Components</strong>&nbsp;V, S, DF<br>\n  </p>\n  <p>\n    <strong>Range</strong>&nbsp;medium (100 ft. + 10 ft./level)<br>\n    \n    <strong>Targets</strong>&nbsp;one Huge or larger tree<br>\n    \n    <strong>Duration</strong>&nbsp;1 round/level (D)<br>\n      <strong>Saving Throw</strong>&nbsp;none;&nbsp;\n      <strong>Spell Resistance</strong>&nbsp;no<br>\n  </p>\n  <h2>Description</h2>\n  <p>This spell animates a tree's branch and directs it against your foes. At caster level 10th or lower, you can target a Huge tree. At caster level 11th-15th, you can target a Gargantuan tree, and at caster level 16th or higher you can target a Colossal tree. The animated branch makes slam attacks with a Strength score equal to 10 + your caster level. The branch strikes once per round with an attack bonus equal to your caster level + the branch's Strength modifier, adjusted by the appropriate size modifier (-2 for Huge, -4 for Gargantuan, -8 for Colossal). A Huge tree's slam deals 2d6 points of damage, a Gargantuan tree's slam deals 3d6 points of damage, and a Colossal tree's slam deals 4d6 points of damage; the tree adds 1-1/2 times its Strength modifier to this damage. A Huge tree has reach 15 feet, a Gargantuan has reach 20 feet, and a Colossal has reach 30 feet. The tree attacks the creature you designate when you cast the spell, and is unable to move. You can direct the tree against a new target as a move action. The tree does not gain a bonus for flanking, nor can it help another combatant flank. It cannot attack a foe you cannot see.</p>\n</div>\n"
    },
    "tags": [],
    "activation": {
      "type": "standard"
    },
    "unchainedAction": {
      "activation": {
        "cost": 2,
        "type": "action"
      }
    },
    "target": {
      "value": "one Huge or larger tree"
    },
    "range": {
      "units": "medium"
    },
    "uses": {
      "per": ""
    },
    "measureTemplate": {
      "size": "0"
    },
    "actionType": "",
    "damage": {
      "parts": [],
      "critParts": [],
      "nonCritParts": []
    },
    "attackParts": [],
    "ability": {
      "attack": "",
      "damage": ""
    },
    "save": {
      "dc": "0"
    },
    "effectNotes": [],
    "attackNotes": [],
    "links": {
      "children": []
    },
    "flags": {
      "boolean": [],
      "dictionary": []
    },
    "scriptCalls": [],
    "learnedAt": {
      "class": [
        [
          "druid",
          4
        ],
        [
          "hunter",
          4
        ]
      ],
      "domain": [],
      "subDomain": [],
      "elementalSchool": [],
      "bloodline": []
    },
    "level": 4,
    "school": "trs",
    "conditionals": [],
    "components": {
      "verbal": true,
      "somatic": true,
      "divineFocus": 1
    },
    "sr": false,
    "shortDescription": "<p>This spell animates a tree's branch and directs it against your foes. At caster level 10th or lower, you can target a Huge tree. At caster level 11th-15th, you can target a Gargantuan tree, and at caster level 16th or higher you can target a Colossal tree. The animated branch makes slam attacks with a Strength score equal to 10 + your caster level. The branch strikes once per round with an attack bonus equal to your caster level + the branch's Strength modifier, adjusted by the appropriate size modifier (-2 for Huge, -4 for Gargantuan, -8 for Colossal). A Huge tree's slam deals 2d6 points of damage, a Gargantuan tree's slam deals 3d6 points of damage, and a Colossal tree's slam deals 4d6 points of damage; the tree adds 1-1/2 times its Strength modifier to this damage. A Huge tree has reach 15 feet, a Gargantuan has reach 20 feet, and a Colossal has reach 30 feet. The tree attacks the creature you designate when you cast the spell, and is unable to move. You can direct the tree against a new target as a move action. The tree does not gain a bonus for flanking, nor can it help another combatant flank. It cannot attack a foe you cannot see.</p>",
    "spellDuration": "1 round/level (D)"
  },
  "effects": [],
  "folder": null,
  "sort": 0,
  "permission": {
    "default": 0
  },
  "flags": {}
}