{
  "_id": "tj3amjrh75dlniwy",
  "name": "Arcane Disruption",
  "type": "spell",
  "img": "systems/pf1/icons/misc/magic-swirl.png",
  "data": {
    "description": {
      "value": "<div class=\"spell-description\">\n  <p>\n    <strong>School</strong>&nbsp;enchantment&nbsp;(compulsion)&nbsp;[curse, mind-affecting];\n    <strong>Level</strong>&nbsp;bard 2, bloodrager 2, magus 2, sorcerer/wizard 2, witch 2;\n    \n    \n    \n    \n  </p>\n  <p>\n    <strong>Casting Time</strong>&nbsp;1 standard<br>\n    <strong>Components</strong>&nbsp;V, S, M (a pinch of pepper)<br>\n  </p>\n  <p>\n    <strong>Range</strong>&nbsp;close (25 ft. + 5 ft./2 levels)<br>\n    \n    <strong>Targets</strong>&nbsp;one creature<br>\n    \n    <strong>Duration</strong>&nbsp;1 round/level<br>\n      <strong>Saving Throw</strong>&nbsp;Will negates;&nbsp;\n      <strong>Spell Resistance</strong>&nbsp;yes<br>\n  </p>\n  <h2>Description</h2>\n  <p>This spell makes it difficult for the subject to cast arcane spells, use spell-like abilities, and use some abilities granted by arcane spellcasting classes. The subject must succeed at a concentration check (DC = 10 + 1/2 its caster level) in order to cast an arcane spell, use any spell-like ability (even those that come from a divine source), use arcane spell completion or spell trigger magic items, or use any of the following class features that come from an arcane spellcasting class: arcane school powers, arcanist exploits, bardic performances, magus arcana, or witch hexes. Spells, spell-like abilities, or class features that take a free, swift, or immediate action aren't affected by this spell, nor are mythic spells or mythic powers.  While under the effect of this spell, if the subject must attempt a concentration check to cast an arcane spell or use an arcane spell-like ability for any reason other than the effect of this spell (such as casting defensively, being injured while casting, and so on), it takes a penalty on that check equal to 1/2 its caster level.</p>\n</div>\n"
    },
    "tags": [],
    "activation": {
      "type": "standard"
    },
    "unchainedAction": {
      "activation": {
        "cost": 2,
        "type": "action"
      }
    },
    "target": {
      "value": "one creature"
    },
    "range": {
      "units": "close"
    },
    "uses": {
      "per": ""
    },
    "measureTemplate": {
      "size": "0"
    },
    "actionType": "spellsave",
    "damage": {
      "parts": [],
      "critParts": [],
      "nonCritParts": []
    },
    "attackParts": [],
    "ability": {
      "attack": "",
      "damage": ""
    },
    "save": {
      "dc": "0",
      "type": "will",
      "description": "Will negates"
    },
    "effectNotes": [],
    "attackNotes": [],
    "links": {
      "children": []
    },
    "flags": {
      "boolean": [],
      "dictionary": []
    },
    "scriptCalls": [],
    "learnedAt": {
      "class": [
        [
          "sorcerer/wizard",
          2
        ],
        [
          "bard",
          2
        ],
        [
          "witch",
          2
        ],
        [
          "magus",
          2
        ],
        [
          "bloodrager",
          2
        ]
      ],
      "domain": [],
      "subDomain": [],
      "elementalSchool": [],
      "bloodline": []
    },
    "level": 2,
    "school": "enc",
    "subschool": "compulsion",
    "types": "curse, mind-affecting",
    "conditionals": [],
    "components": {
      "verbal": true,
      "somatic": true,
      "material": true
    },
    "materials": {
      "value": "a pinch of pepper"
    },
    "shortDescription": "<p>This spell makes it difficult for the subject to cast arcane spells, use spell-like abilities, and use some abilities granted by arcane spellcasting classes. The subject must succeed at a concentration check (DC = 10 + 1/2 its caster level) in order to cast an arcane spell, use any spell-like ability (even those that come from a divine source), use arcane spell completion or spell trigger magic items, or use any of the following class features that come from an arcane spellcasting class: arcane school powers, arcanist exploits, bardic performances, magus arcana, or witch hexes. Spells, spell-like abilities, or class features that take a free, swift, or immediate action aren't affected by this spell, nor are mythic spells or mythic powers.  While under the effect of this spell, if the subject must attempt a concentration check to cast an arcane spell or use an arcane spell-like ability for any reason other than the effect of this spell (such as casting defensively, being injured while casting, and so on), it takes a penalty on that check equal to 1/2 its caster level.</p>",
    "spellDuration": "1 round/level"
  },
  "effects": [],
  "folder": null,
  "sort": 0,
  "permission": {
    "default": 0
  },
  "flags": {}
}