{
  "_id": "vi7biwvv87ra1zef",
  "name": "Aura of Greater Courage",
  "type": "spell",
  "img": "systems/pf1/icons/misc/magic-swirl.png",
  "data": {
    "description": {
      "value": "<div class=\"spell-description\">\n  <p>\n    <strong>School</strong>&nbsp;abjuration&nbsp;[emotion];\n    <strong>Level</strong>&nbsp;paladin 2;\n    \n    \n    \n    \n  </p>\n  <p>\n    <strong>Casting Time</strong>&nbsp;1 standard<br>\n    <strong>Components</strong>&nbsp;V, S, DF<br>\n  </p>\n  <p>\n    <strong>Range</strong>&nbsp;personal<br>\n    <strong>Area</strong>&nbsp;10-ft.-radius emanation centered on you<br>\n    \n    \n    <strong>Duration</strong>&nbsp;10 minutes/level<br>\n  </p>\n  <h2>Description</h2>\n  <p>When you cast this spell you strengthen your paladin's aura of courage. Until the end of its duration, all allies within that aura are immune to fear (magical or otherwise). If you do not have the aura of courage class feature, <i>aura of greater courage</i> has no effect.</p>\n</div>\n"
    },
    "tags": [],
    "activation": {
      "type": "standard"
    },
    "unchainedAction": {
      "activation": {
        "cost": 2,
        "type": "action"
      }
    },
    "range": {
      "units": "personal"
    },
    "uses": {
      "per": ""
    },
    "measureTemplate": {
      "size": "0"
    },
    "actionType": "spellsave",
    "damage": {
      "parts": [],
      "critParts": [],
      "nonCritParts": []
    },
    "attackParts": [],
    "ability": {
      "attack": "",
      "damage": ""
    },
    "save": {
      "dc": "0",
      "type": "will",
      "description": "Will negates (harmless)"
    },
    "effectNotes": [],
    "attackNotes": [],
    "links": {
      "children": []
    },
    "flags": {
      "boolean": [],
      "dictionary": []
    },
    "scriptCalls": [],
    "learnedAt": {
      "class": [
        [
          "paladin",
          2
        ]
      ],
      "domain": [],
      "subDomain": [],
      "elementalSchool": [],
      "bloodline": []
    },
    "level": 2,
    "school": "abj",
    "types": "emotion",
    "conditionals": [],
    "components": {
      "verbal": true,
      "somatic": true,
      "divineFocus": 1
    },
    "spellbook": "",
    "shortDescription": "<p>When you cast this spell you strengthen your paladin's aura of courage. Until the end of its duration, all allies within that aura are immune to fear (magical or otherwise). If you do not have the aura of courage class feature, <i>aura of greater courage</i> has no effect.</p>",
    "spellDuration": "10 minutes/level",
    "spellArea": "10-ft.-radius emanation centered on you"
  },
  "effects": [],
  "folder": null,
  "sort": 0,
  "permission": {
    "default": 0
  },
  "flags": {}
}