{
  "_id": "m833x9kslz9m4osw",
  "name": "Call Weapon",
  "type": "spell",
  "img": "systems/pf1/icons/misc/magic-swirl.png",
  "data": {
    "description": {
      "value": "<div class=\"spell-description\">\n  <p>\n    <strong>School</strong>&nbsp;transmutation;\n    <strong>Level</strong>&nbsp;bard 1, hunter 1, magus 1, ranger 1;\n    \n    \n    \n    \n  </p>\n  <p>\n    <strong>Casting Time</strong>&nbsp;1 swift<br>\n    <strong>Components</strong>&nbsp;V, S<br>\n  </p>\n  <p>\n    <strong>Range</strong>&nbsp;30 feet<br>\n    \n    <strong>Targets</strong>&nbsp;one melee weapon wielded by an ally<br>\n    \n    <strong>Duration</strong>&nbsp;instantaneous<br>\n      <strong>Saving Throw</strong>&nbsp;none;&nbsp;\n      <strong>Spell Resistance</strong>&nbsp;no<br>\n  </p>\n  <h2>Description</h2>\n  <p>This spell first rose to prominence among the elves of Kyonin in the war to retake their ancestral land from the demon lord Treerazer and his minions. Elite units of elven magi entered battle with this spell prepared to shield fallen comrades or stand firm against fell foes. As the elven presence returned to the world, this spell spread throughout the Inner Sea and beyond.</p><p>When you cast this spell, you cause a weapon wielded by an ally within 30 feet to telekinetically fly across the space between you and into your open hand. This extra energy persists in the weapon for the rest of the round, granting you a +2 circumstance bonus on attack rolls and weapon damage rolls made during the same round you cast this spell.</p><p>If the ally targeted for this spell is unwilling to give up her weapon, the spell fails. An unconscious or dying ally is considered a \"willing\" target so long as the weapon to be called is still in contact with the ally's body.</p>\n</div>\n"
    },
    "tags": [],
    "activation": {
      "type": "swift"
    },
    "unchainedAction": {
      "activation": {
        "type": "action"
      }
    },
    "target": {
      "value": "one melee weapon wielded by an ally"
    },
    "range": {
      "value": 30,
      "units": "ft"
    },
    "uses": {
      "per": ""
    },
    "measureTemplate": {
      "size": "0"
    },
    "actionType": "",
    "damage": {
      "parts": [],
      "critParts": [],
      "nonCritParts": []
    },
    "attackParts": [],
    "ability": {
      "attack": "",
      "damage": ""
    },
    "save": {
      "dc": "0"
    },
    "effectNotes": [],
    "attackNotes": [],
    "links": {
      "children": []
    },
    "flags": {
      "boolean": [],
      "dictionary": []
    },
    "scriptCalls": [],
    "learnedAt": {
      "class": [
        [
          "ranger",
          1
        ],
        [
          "bard",
          1
        ],
        [
          "magus",
          1
        ],
        [
          "hunter",
          1
        ]
      ],
      "domain": [],
      "subDomain": [],
      "elementalSchool": [],
      "bloodline": []
    },
    "school": "trs",
    "conditionals": [],
    "components": {
      "verbal": true,
      "somatic": true
    },
    "sr": false,
    "shortDescription": "<p>This spell first rose to prominence among the elves of Kyonin in the war to retake their ancestral land from the demon lord Treerazer and his minions. Elite units of elven magi entered battle with this spell prepared to shield fallen comrades or stand firm against fell foes. As the elven presence returned to the world, this spell spread throughout the Inner Sea and beyond.</p><p>When you cast this spell, you cause a weapon wielded by an ally within 30 feet to telekinetically fly across the space between you and into your open hand. This extra energy persists in the weapon for the rest of the round, granting you a +2 circumstance bonus on attack rolls and weapon damage rolls made during the same round you cast this spell.</p><p>If the ally targeted for this spell is unwilling to give up her weapon, the spell fails. An unconscious or dying ally is considered a \"willing\" target so long as the weapon to be called is still in contact with the ally's body.</p>",
    "spellDuration": "instantaneous"
  },
  "effects": [],
  "folder": null,
  "sort": 0,
  "permission": {
    "default": 0
  },
  "flags": {}
}