{
  "_id": "0mbl9irc95io6wko",
  "name": "Catatonia",
  "type": "spell",
  "img": "systems/pf1/icons/misc/magic-swirl.png",
  "data": {
    "description": {
      "value": "<div class=\"spell-description\">\n  <p>\n    <strong>School</strong>&nbsp;necromancy;\n    <strong>Level</strong>&nbsp;alchemist 2, bard 2, cleric/oracle 3, medium 2, mesmerist 2, psychic 3, sorcerer/wizard 3, spiritualist 2, witch 3;\n    \n    \n    \n    \n  </p>\n  <p>\n    <strong>Casting Time</strong>&nbsp;1 standard<br>\n    <strong>Components</strong>&nbsp;S<br>\n  </p>\n  <p>\n    <strong>Range</strong>&nbsp;touch<br>\n    \n    <strong>Targets</strong>&nbsp;willing creature touched<br>\n    \n    <strong>Duration</strong>&nbsp;1 hour/level (D)<br>\n      <strong>Saving Throw</strong>&nbsp;none;&nbsp;\n      <strong>Spell Resistance</strong>&nbsp;yes<br>\n  </p>\n  <h2>Description</h2>\n  <p>You touch the target and place it into a deathlike state that persists for the duration. The target appears to be dead, and any creature that interacts with the target must succeed at a DC 20 Heal check to recognize it is actually alive.  Until the spell ends, the target counts as if it were dead for the purpose of resolving any effects that target or affect only living creatures, but it doesn't count as undead. The subject is helpless, and can still be killed normally.  Any effect that would bring the creature back to life or animate it as an undead fails, but ends the <i>catatonia</i>. The target can be affected by spells that affect only objects, including <i>animate objects</i> (if the creature is Small) and <i>teleport object</i>. However, anything that would cause the body to change form (such as <i>shrink</i> item) fails and ends the <i>catatonia</i>. This doesn't prevent the effects of spells that simply deal damage or otherwise destroy objects.</p>\n</div>\n"
    },
    "tags": [],
    "activation": {
      "type": "standard"
    },
    "unchainedAction": {
      "activation": {
        "cost": 2,
        "type": "action"
      }
    },
    "target": {
      "value": "willing creature touched"
    },
    "range": {
      "units": "touch"
    },
    "uses": {
      "per": ""
    },
    "measureTemplate": {
      "size": "0"
    },
    "actionType": "",
    "damage": {
      "parts": [],
      "critParts": [],
      "nonCritParts": []
    },
    "attackParts": [],
    "ability": {
      "attack": "",
      "damage": ""
    },
    "save": {
      "dc": "0"
    },
    "effectNotes": [],
    "attackNotes": [],
    "links": {
      "children": []
    },
    "flags": {
      "boolean": [],
      "dictionary": []
    },
    "scriptCalls": [],
    "learnedAt": {
      "class": [
        [
          "sorcerer/wizard",
          3
        ],
        [
          "cleric/oracle",
          3
        ],
        [
          "bard",
          2
        ],
        [
          "alchemist",
          2
        ],
        [
          "witch",
          3
        ],
        [
          "psychic",
          3
        ],
        [
          "medium",
          2
        ],
        [
          "mesmerist",
          2
        ],
        [
          "spiritualist",
          2
        ]
      ],
      "domain": [],
      "subDomain": [],
      "elementalSchool": [],
      "bloodline": []
    },
    "level": 3,
    "school": "nec",
    "conditionals": [],
    "components": {
      "somatic": true
    },
    "shortDescription": "<p>You touch the target and place it into a deathlike state that persists for the duration. The target appears to be dead, and any creature that interacts with the target must succeed at a DC 20 Heal check to recognize it is actually alive.  Until the spell ends, the target counts as if it were dead for the purpose of resolving any effects that target or affect only living creatures, but it doesn't count as undead. The subject is helpless, and can still be killed normally.  Any effect that would bring the creature back to life or animate it as an undead fails, but ends the <i>catatonia</i>. The target can be affected by spells that affect only objects, including <i>animate objects</i> (if the creature is Small) and <i>teleport object</i>. However, anything that would cause the body to change form (such as <i>shrink</i> item) fails and ends the <i>catatonia</i>. This doesn't prevent the effects of spells that simply deal damage or otherwise destroy objects.</p>",
    "spellDuration": "1 hour/level (D)"
  },
  "effects": [],
  "folder": null,
  "sort": 0,
  "permission": {
    "default": 0
  },
  "flags": {}
}