{
  "_id": "l1zl69j95ad7l9dn",
  "name": "Command, Greater",
  "type": "spell",
  "img": "systems/pf1/icons/misc/magic-swirl.png",
  "data": {
    "description": {
      "value": "<div class=\"spell-description\">\n  <p>\n    <strong>School</strong>&nbsp;enchantment&nbsp;(compulsion)&nbsp;[language-dependent, mind-affecting];\n    <strong>Level</strong>&nbsp;cleric/oracle 5, inquisitor 5, medium 4, mesmerist 4, occultist 5, psychic 5;\n    <strong>Domain</strong>&nbsp;Nobility 5;\n    <strong>Subdomain</strong>&nbsp;Inevitable 5, Loyalty 5, Tactics 5;\n    \n    <strong>Bloodline</strong>&nbsp;Imperious 5;\n  </p>\n  <p>\n    <strong>Casting Time</strong>&nbsp;1 standard<br>\n    <strong>Components</strong>&nbsp;V<br>\n  </p>\n  <p>\n    <strong>Range</strong>&nbsp;close (25 ft. + 5 ft./2 levels)<br>\n    \n    <strong>Targets</strong>&nbsp;one creature/level, no two of which can be more than 30 ft. apart<br>\n    \n    <strong>Duration</strong>&nbsp;1 round/level<br>\n      <strong>Saving Throw</strong>&nbsp;Will negates;&nbsp;\n      <strong>Spell Resistance</strong>&nbsp;yes<br>\n  </p>\n  <h2>Description</h2>\n  <p>This spell functions like @Compendium[pf1.spells.2p6fzj5t03oivndd]{command}, except that up to one creature per level may be affected, and the activities continue beyond 1 round. At the start of each commanded creature's action after the first, it gets another Will save to attempt to break free from the spell. Each creature must receive the same command.</p>\n</div>\n"
    },
    "tags": [],
    "activation": {
      "type": "standard"
    },
    "unchainedAction": {
      "activation": {
        "cost": 2,
        "type": "action"
      }
    },
    "target": {
      "value": "one creature/level, no two of which can be more than 30 ft. apart"
    },
    "range": {
      "units": "close"
    },
    "uses": {
      "per": ""
    },
    "measureTemplate": {
      "size": "0"
    },
    "actionType": "spellsave",
    "damage": {
      "parts": [],
      "critParts": [],
      "nonCritParts": []
    },
    "attackParts": [],
    "ability": {
      "attack": "",
      "damage": ""
    },
    "save": {
      "dc": "0",
      "type": "will",
      "description": "Will negates"
    },
    "effectNotes": [],
    "attackNotes": [],
    "links": {
      "children": []
    },
    "flags": {
      "boolean": [],
      "dictionary": []
    },
    "scriptCalls": [],
    "learnedAt": {
      "class": [
        [
          "cleric/oracle",
          5
        ],
        [
          "inquisitor",
          5
        ],
        [
          "psychic",
          5
        ],
        [
          "medium",
          4
        ],
        [
          "mesmerist",
          4
        ],
        [
          "occultist",
          5
        ]
      ],
      "domain": [
        [
          "Nobility",
          5
        ]
      ],
      "subDomain": [
        [
          "Inevitable",
          5
        ],
        [
          "Tactics",
          5
        ],
        [
          "Loyalty",
          5
        ]
      ],
      "elementalSchool": [],
      "bloodline": [
        [
          "Imperious",
          5
        ]
      ]
    },
    "level": 5,
    "school": "enc",
    "subschool": "compulsion",
    "types": "language-dependent, mind-affecting",
    "conditionals": [],
    "components": {
      "verbal": true
    },
    "spellbook": "",
    "shortDescription": "<p>This spell functions like @Compendium[pf1.spells.2p6fzj5t03oivndd]{command}, except that up to one creature per level may be affected, and the activities continue beyond 1 round. At the start of each commanded creature's action after the first, it gets another Will save to attempt to break free from the spell. Each creature must receive the same command.</p>",
    "spellDuration": "1 round/level"
  },
  "effects": [],
  "folder": null,
  "sort": 0,
  "permission": {
    "default": 0
  },
  "flags": {}
}