{
  "_id": "uw6b2gvn5lbk9ex6",
  "name": "Commune with Texts",
  "type": "spell",
  "img": "systems/pf1/icons/misc/magic-swirl.png",
  "data": {
    "description": {
      "value": "<div class=\"spell-description\">\n  <p>\n    <strong>School</strong>&nbsp;divination;\n    <strong>Level</strong>&nbsp;bard 5, cleric/oracle 6, inquisitor 6, medium 4, occultist 4, psychic 6, sorcerer/wizard 5, spiritualist 6;\n    \n    \n    \n    \n  </p>\n  <p>\n    <strong>Casting Time</strong>&nbsp;1 minute<br>\n    <strong>Components</strong>&nbsp;V, S, M (incense worth 250 gp)<br>\n  </p>\n  <p>\n    <strong>Range</strong>&nbsp;close (25 ft. + 5 ft./2 levels)<br>\n    \n    <strong>Targets</strong>&nbsp;a collection of texts<br>\n    \n    <strong>Duration</strong>&nbsp;1 hour/level<br>\n      <strong>Saving Throw</strong>&nbsp;none;&nbsp;\n      <strong>Spell Resistance</strong>&nbsp;no<br>\n  </p>\n  <h2>Description</h2>\n  <p>You quickly absorb the knowledge in the target, which can be any assortment of books, scrolls, or other texts. During the spell's duration, you can search the texts and immediately find the most relevant information regarding any topic the collection holds, potentially including singling out spellbooks or scrolls containing individual or particular types of spells. You can attempt Knowledge checks related to the collection's topics as if you were trained in those skills, and you know whether the collection contains any information about which you failed a Knowledge check in the past 24 hours. The bonus on Knowledge checks granted by the collection of texts (if any) increases by 2.  Additionally, you always deplete the maximum number of knowledge points from a library whenever you succeed at a Research check (<i>Pathfinder RPG Ultimate Intrigue</i> 148) using the target texts while this spell is in effect, even if completing the Research check takes longer than this spell lasts. Once during the duration of this spell, for a number of minutes equal to your caster level, you can also speak with the texts about anyone who has read or handled them previously, as per <i>stone tell</i>.</p>\n</div>\n"
    },
    "tags": [],
    "activation": {
      "type": "minute"
    },
    "unchainedAction": {
      "activation": {
        "type": "minute"
      }
    },
    "target": {
      "value": "a collection of texts"
    },
    "range": {
      "units": "close"
    },
    "uses": {
      "per": ""
    },
    "measureTemplate": {
      "size": "0"
    },
    "actionType": "",
    "damage": {
      "parts": [],
      "critParts": [],
      "nonCritParts": []
    },
    "attackParts": [],
    "ability": {
      "attack": "",
      "damage": ""
    },
    "save": {
      "dc": "0"
    },
    "effectNotes": [],
    "attackNotes": [],
    "links": {
      "children": []
    },
    "flags": {
      "boolean": [],
      "dictionary": []
    },
    "scriptCalls": [],
    "learnedAt": {
      "class": [
        [
          "sorcerer/wizard",
          5
        ],
        [
          "cleric/oracle",
          6
        ],
        [
          "bard",
          5
        ],
        [
          "inquisitor",
          6
        ],
        [
          "psychic",
          6
        ],
        [
          "medium",
          4
        ],
        [
          "occultist",
          4
        ],
        [
          "spiritualist",
          6
        ]
      ],
      "domain": [],
      "subDomain": [],
      "elementalSchool": [],
      "bloodline": []
    },
    "level": 5,
    "school": "div",
    "conditionals": [],
    "components": {
      "verbal": true,
      "somatic": true,
      "material": true
    },
    "materials": {
      "value": "incense worth 250 gp",
      "gpValue": 250
    },
    "spellbook": "",
    "preparation": {
      "autoDeductCharges": false,
      "spontaneousPrepared": false
    },
    "sr": false,
    "shortDescription": "<p>You quickly absorb the knowledge in the target, which can be any assortment of books, scrolls, or other texts. During the spell's duration, you can search the texts and immediately find the most relevant information regarding any topic the collection holds, potentially including singling out spellbooks or scrolls containing individual or particular types of spells. You can attempt Knowledge checks related to the collection's topics as if you were trained in those skills, and you know whether the collection contains any information about which you failed a Knowledge check in the past 24 hours. The bonus on Knowledge checks granted by the collection of texts (if any) increases by 2.  Additionally, you always deplete the maximum number of knowledge points from a library whenever you succeed at a Research check (<i>Pathfinder RPG Ultimate Intrigue</i> 148) using the target texts while this spell is in effect, even if completing the Research check takes longer than this spell lasts. Once during the duration of this spell, for a number of minutes equal to your caster level, you can also speak with the texts about anyone who has read or handled them previously, as per <i>stone tell</i>.</p>",
    "spellDuration": "1 hour/level",
    "spellPoints": {
      "cost": ""
    }
  },
  "effects": [],
  "folder": null,
  "sort": 0,
  "permission": {
    "default": 0
  },
  "flags": {}
}