{
  "_id": "stvj5zjdllpeed22",
  "name": "Conjure Black Pudding",
  "type": "spell",
  "img": "systems/pf1/icons/misc/magic-swirl.png",
  "data": {
    "description": {
      "value": "<div class=\"spell-description\">\n  <p>\n    <strong>School</strong>&nbsp;conjuration&nbsp;(summoning)&nbsp;[acid];\n    <strong>Level</strong>&nbsp;psychic 6, sorcerer/wizard 6, summoner 5, unchained Summoner 5;\n    \n    \n    \n    \n  </p>\n  <p>\n    <strong>Casting Time</strong>&nbsp;1 round<br>\n    <strong>Components</strong>&nbsp;V, S, M (a flask of acid worth 10 gp)<br>\n  </p>\n  <p>\n    <strong>Range</strong>&nbsp;close (25 ft. + 5 ft./2 levels)<br>\n    \n    \n    <strong>Effect</strong>&nbsp;one summoned black pudding<br>\n    <strong>Duration</strong>&nbsp;1 round/level (D)<br>\n      <strong>Saving Throw</strong>&nbsp;none;&nbsp;\n      <strong>Spell Resistance</strong>&nbsp;no<br>\n  </p>\n  <h2>Description</h2>\n  <p>You summon a black pudding (<i>Bestiary</i> 35) that immediately attacks creatures near it. You have no control over the creature, and it may attack you if there are no more obvious opponents. The black pudding is treated as a summoned creature and has the extraplanar subtype. The black pudding's split ability works normally, but all puddings derived from the summoned one disappear when the spell ends.</p>\n</div>\n"
    },
    "tags": [],
    "activation": {
      "type": "round"
    },
    "unchainedAction": {
      "activation": {
        "cost": 3,
        "type": "action"
      }
    },
    "range": {
      "units": "close"
    },
    "uses": {
      "per": ""
    },
    "measureTemplate": {
      "size": "0"
    },
    "actionType": "other",
    "damage": {
      "parts": [],
      "critParts": [],
      "nonCritParts": []
    },
    "attackParts": [],
    "ability": {
      "attack": "",
      "damage": ""
    },
    "save": {
      "dc": "0"
    },
    "effectNotes": [],
    "attackNotes": [],
    "links": {
      "children": []
    },
    "flags": {
      "boolean": [],
      "dictionary": []
    },
    "scriptCalls": [],
    "learnedAt": {
      "class": [
        [
          "sorcerer/wizard",
          6
        ],
        [
          "summoner",
          5
        ],
        [
          "psychic",
          6
        ],
        [
          "unchained Summoner",
          5
        ]
      ],
      "domain": [],
      "subDomain": [],
      "elementalSchool": [],
      "bloodline": []
    },
    "level": 6,
    "school": "con",
    "subschool": "summoning",
    "types": "acid",
    "conditionals": [],
    "components": {
      "verbal": true,
      "somatic": true,
      "material": true
    },
    "materials": {
      "value": "a flask of acid worth 10 gp",
      "gpValue": 10
    },
    "spellbook": "",
    "preparation": {
      "autoDeductCharges": false,
      "spontaneousPrepared": false
    },
    "sr": false,
    "shortDescription": "<p>You summon a black pudding (<i>Bestiary</i> 35) that immediately attacks creatures near it. You have no control over the creature, and it may attack you if there are no more obvious opponents. The black pudding is treated as a summoned creature and has the extraplanar subtype. The black pudding's split ability works normally, but all puddings derived from the summoned one disappear when the spell ends.</p>",
    "spellDuration": "1 round/level (D)",
    "spellEffect": "one summoned black pudding",
    "spellPoints": {
      "cost": ""
    }
  },
  "effects": [],
  "folder": null,
  "sort": 0,
  "permission": {
    "default": 0
  },
  "flags": {}
}