{
  "_id": "s4hj67rh919zv5xn",
  "name": "Curse of Burning Sleep",
  "type": "spell",
  "img": "systems/pf1/icons/misc/magic-swirl.png",
  "data": {
    "description": {
      "value": "<div class=\"spell-description\">\n  <p>\n    <strong>School</strong>&nbsp;transmutation&nbsp;[curse, fire];\n    <strong>Level</strong>&nbsp;psychic 4, shaman 4, sorcerer/wizard 4, witch 4;\n    \n    \n    \n    \n  </p>\n  <p>\n    <strong>Casting Time</strong>&nbsp;1 standard<br>\n    <strong>Components</strong>&nbsp;V, S, M (a feather and a drop of oil)<br>\n  </p>\n  <p>\n    <strong>Range</strong>&nbsp;close (25 ft. + 5 ft./2 levels)<br>\n    \n    <strong>Targets</strong>&nbsp;one creature<br>\n    \n    <strong>Duration</strong>&nbsp;permanent until triggered (see text)<br>\n      <strong>Saving Throw</strong>&nbsp;Will negates (see text);&nbsp;\n      <strong>Spell Resistance</strong>&nbsp;yes<br>\n  </p>\n  <h2>Description</h2>\n  <p>You place a curse upon the target that triggers 1 hour after the next time it falls asleep. When the curse is triggered, the creature bursts into flame, taking 1d6 points of fire damage per 2 caster levels (maximum 8d6). Furthermore, it catches on fire, taking 2d6 points of fire damage per round at the end of its turn each round until the creature dies or is quenched as normal (<i>Core Rulebook</i> 444). If the target is still asleep, the fire damage from this spell wakes it.  Only one of these spells can be in place on a creature at any time. This has no effect on creatures that don't sleep.</p>\n</div>\n"
    },
    "tags": [],
    "activation": {
      "type": "standard"
    },
    "unchainedAction": {
      "activation": {
        "cost": 2,
        "type": "action"
      }
    },
    "target": {
      "value": "one creature"
    },
    "range": {
      "units": "close"
    },
    "uses": {
      "per": ""
    },
    "measureTemplate": {
      "size": "0"
    },
    "actionType": "spellsave",
    "damage": {
      "parts": [],
      "critParts": [],
      "nonCritParts": []
    },
    "attackParts": [],
    "ability": {
      "attack": "",
      "damage": ""
    },
    "save": {
      "dc": "0",
      "type": "will",
      "description": "Will negates (see text)"
    },
    "effectNotes": [],
    "attackNotes": [],
    "links": {
      "children": []
    },
    "flags": {
      "boolean": [],
      "dictionary": []
    },
    "scriptCalls": [],
    "learnedAt": {
      "class": [
        [
          "sorcerer/wizard",
          4
        ],
        [
          "witch",
          4
        ],
        [
          "shaman",
          4
        ],
        [
          "psychic",
          4
        ]
      ],
      "domain": [],
      "subDomain": [],
      "elementalSchool": [],
      "bloodline": []
    },
    "level": 4,
    "school": "trs",
    "types": "curse, fire",
    "conditionals": [],
    "components": {
      "verbal": true,
      "somatic": true,
      "material": true
    },
    "materials": {
      "value": "a feather and a drop of oil"
    },
    "shortDescription": "<p>You place a curse upon the target that triggers 1 hour after the next time it falls asleep. When the curse is triggered, the creature bursts into flame, taking 1d6 points of fire damage per 2 caster levels (maximum 8d6). Furthermore, it catches on fire, taking 2d6 points of fire damage per round at the end of its turn each round until the creature dies or is quenched as normal (<i>Core Rulebook</i> 444). If the target is still asleep, the fire damage from this spell wakes it.  Only one of these spells can be in place on a creature at any time. This has no effect on creatures that don't sleep.</p>",
    "spellDuration": "permanent until triggered (see text)"
  },
  "effects": [],
  "folder": null,
  "sort": 0,
  "permission": {
    "default": 0
  },
  "flags": {}
}