{
  "_id": "3b6rq9ivrw2xwsxy",
  "name": "Curse of Keeping",
  "type": "spell",
  "img": "systems/pf1/icons/misc/magic-swirl.png",
  "data": {
    "description": {
      "value": "<div class=\"spell-description\">\n  <p>\n    <strong>School</strong>&nbsp;enchantment&nbsp;(compulsion)&nbsp;[curse];\n    <strong>Level</strong>&nbsp;antipaladin 2, mesmerist 2, shaman 2, witch 2;\n    \n    \n    \n    \n  </p>\n  <p>\n    <strong>Casting Time</strong>&nbsp;1 standard<br>\n    <strong>Components</strong>&nbsp;V, S, DF<br>\n  </p>\n  <p>\n    <strong>Range</strong>&nbsp;close (25 ft. + 5 ft./2 levels)<br>\n    \n    <strong>Targets</strong>&nbsp;one creature<br>\n    \n    <strong>Duration</strong>&nbsp;1 day/level<br>\n      <strong>Saving Throw</strong>&nbsp;Will negates;&nbsp;\n      <strong>Spell Resistance</strong>&nbsp;yes<br>\n  </p>\n  <h2>Description</h2>\n  <p>You curse the target with the inability to sell, barter, or give away any item it owns, other than ordinary currency, for as long as the spell remains in effect. The target cannot sell, trade, drop, or give away possessions. The target can purchase items using ordinary currency but can't then sell the purchased items. The target can accept gifts from others but can't offer anything in exchange. A <i>Curse of Keeping</i> can be ended by <i>break enchantment</i>, <i>limited <i>wish</i></i>, <i>remove curse</i>, <i>miracle</i>, or <i>wish</i>. <i>Dispel magic</i> does not affect a <i>Curse of Keeping</i>.</p>\n</div>\n"
    },
    "tags": [],
    "activation": {
      "type": "standard"
    },
    "unchainedAction": {
      "activation": {
        "cost": 2,
        "type": "action"
      }
    },
    "target": {
      "value": "one creature"
    },
    "range": {
      "units": "close"
    },
    "uses": {
      "per": ""
    },
    "measureTemplate": {
      "size": "0"
    },
    "actionType": "spellsave",
    "damage": {
      "parts": [],
      "critParts": [],
      "nonCritParts": []
    },
    "attackParts": [],
    "ability": {
      "attack": "",
      "damage": ""
    },
    "save": {
      "dc": "0",
      "type": "will",
      "description": "Will negates"
    },
    "effectNotes": [],
    "attackNotes": [],
    "links": {
      "children": []
    },
    "flags": {
      "boolean": [],
      "dictionary": []
    },
    "scriptCalls": [],
    "learnedAt": {
      "class": [
        [
          "witch",
          2
        ],
        [
          "antipaladin",
          2
        ],
        [
          "shaman",
          2
        ],
        [
          "mesmerist",
          2
        ]
      ],
      "domain": [],
      "subDomain": [],
      "elementalSchool": [],
      "bloodline": []
    },
    "level": 2,
    "school": "enc",
    "subschool": "compulsion",
    "types": "curse",
    "conditionals": [],
    "components": {
      "verbal": true,
      "somatic": true,
      "divineFocus": 1
    },
    "shortDescription": "<p>You curse the target with the inability to sell, barter, or give away any item it owns, other than ordinary currency, for as long as the spell remains in effect. The target cannot sell, trade, drop, or give away possessions. The target can purchase items using ordinary currency but can't then sell the purchased items. The target can accept gifts from others but can't offer anything in exchange. A <i>Curse of Keeping</i> can be ended by <i>break enchantment</i>, <i>limited <i>wish</i></i>, <i>remove curse</i>, <i>miracle</i>, or <i>wish</i>. <i>Dispel magic</i> does not affect a <i>Curse of Keeping</i>.</p>",
    "spellDuration": "1 day/level"
  },
  "effects": [],
  "folder": null,
  "sort": 0,
  "permission": {
    "default": 0
  },
  "flags": {}
}