{
  "_id": "ams8tn2nafvmydzu",
  "name": "Daywalker",
  "type": "spell",
  "img": "systems/pf1/icons/misc/magic-swirl.png",
  "data": {
    "description": {
      "value": "<div class=\"spell-description\">\n  <p>\n    <strong>School</strong>&nbsp;necromancy;\n    <strong>Level</strong>&nbsp;antipaladin 4, cleric/oracle 5, sorcerer/wizard 5, witch 5;\n    \n    \n    \n    \n  </p>\n  <p>\n    <strong>Casting Time</strong>&nbsp;1 standard<br>\n    <strong>Components</strong>&nbsp;V, S, M (a black glass vial containing unholy water)<br>\n  </p>\n  <p>\n    <strong>Range</strong>&nbsp;touch<br>\n    \n    <strong>Targets</strong>&nbsp;undead creature touched<br>\n    \n    <strong>Duration</strong>&nbsp;24 hours (D)<br>\n      <strong>Saving Throw</strong>&nbsp;none;&nbsp;\n      <strong>Spell Resistance</strong>&nbsp;yes<br>\n  </p>\n  <h2>Description</h2>\n  <p>You reshape the substance of a willing undead creature to resemble a living, breathing creature of the same size. This is a physical change to the undead creature's bone, flesh, or incorporeal ectoplasm, adding new flesh or bone and even hair, teeth, and blood, all of which demonstrate false signs of life that mimic a living creature's breathing and other physiological processes. An incorporeal undead creature using <i>daywalker</i> ceases to be incorporeal for the duration of the spell, gaining a physical corpse body. Creatures interacting with the undead can attempt a Perception check (DC = 30 or DC = 21 + the undead's Disguise modifier, whichever is higher) to realize that the signs of life are false, and a close examination with a Heal check always reveals the truth of the dead flesh.  If the undead has the frightful presence, incorporeal, light blindness, light sensitivity, stench, sunlight powerlessness, or unnatural aura abilities, the spell suppresses them. An undead creature whose touch normally deals damage, ability drain, or energy drain doesn't do so while under the spell's effects. The target of this spell may end its duration at any time as a standard action.</p>\n</div>\n"
    },
    "tags": [],
    "activation": {
      "type": "standard"
    },
    "unchainedAction": {
      "activation": {
        "cost": 2,
        "type": "action"
      }
    },
    "target": {
      "value": "undead creature touched"
    },
    "range": {
      "units": "touch"
    },
    "uses": {
      "per": ""
    },
    "measureTemplate": {
      "size": "0"
    },
    "actionType": "",
    "damage": {
      "parts": [],
      "critParts": [],
      "nonCritParts": []
    },
    "attackParts": [],
    "ability": {
      "attack": "",
      "damage": ""
    },
    "save": {
      "dc": "0"
    },
    "effectNotes": [],
    "attackNotes": [],
    "links": {
      "children": []
    },
    "flags": {
      "boolean": [],
      "dictionary": []
    },
    "scriptCalls": [],
    "learnedAt": {
      "class": [
        [
          "sorcerer/wizard",
          5
        ],
        [
          "cleric/oracle",
          5
        ],
        [
          "witch",
          5
        ],
        [
          "antipaladin",
          4
        ]
      ],
      "domain": [],
      "subDomain": [],
      "elementalSchool": [],
      "bloodline": []
    },
    "level": 5,
    "school": "nec",
    "conditionals": [],
    "components": {
      "verbal": true,
      "somatic": true,
      "material": true
    },
    "materials": {
      "value": "a black glass vial containing unholy water"
    },
    "shortDescription": "<p>You reshape the substance of a willing undead creature to resemble a living, breathing creature of the same size. This is a physical change to the undead creature's bone, flesh, or incorporeal ectoplasm, adding new flesh or bone and even hair, teeth, and blood, all of which demonstrate false signs of life that mimic a living creature's breathing and other physiological processes. An incorporeal undead creature using <i>daywalker</i> ceases to be incorporeal for the duration of the spell, gaining a physical corpse body. Creatures interacting with the undead can attempt a Perception check (DC = 30 or DC = 21 + the undead's Disguise modifier, whichever is higher) to realize that the signs of life are false, and a close examination with a Heal check always reveals the truth of the dead flesh.  If the undead has the frightful presence, incorporeal, light blindness, light sensitivity, stench, sunlight powerlessness, or unnatural aura abilities, the spell suppresses them. An undead creature whose touch normally deals damage, ability drain, or energy drain doesn't do so while under the spell's effects. The target of this spell may end its duration at any time as a standard action.</p>",
    "spellDuration": "24 hours (D)"
  },
  "effects": [],
  "folder": null,
  "sort": 0,
  "permission": {
    "default": 0
  },
  "flags": {}
}