{
  "_id": "jaxzdishpxpvxu3t",
  "name": "Dazzling Blade",
  "type": "spell",
  "img": "systems/pf1/icons/misc/magic-swirl.png",
  "data": {
    "description": {
      "value": "<div class=\"spell-description\">\n  <p>\n    <strong>School</strong>&nbsp;illusion&nbsp;(pattern);\n    <strong>Level</strong>&nbsp;bard 1, sorcerer/wizard 1;\n    \n    \n    \n    \n  </p>\n  <p>\n    <strong>Casting Time</strong>&nbsp;1 swift<br>\n    <strong>Components</strong>&nbsp;V, S<br>\n  </p>\n  <p>\n    <strong>Range</strong>&nbsp;touch<br>\n    \n    <strong>Targets</strong>&nbsp;one metal weapon<br>\n    \n    <strong>Duration</strong>&nbsp;1 minute/level<br>\n      <strong>Saving Throw</strong>&nbsp;Will negates (see text);&nbsp;\n      <strong>Spell Resistance</strong>&nbsp;yes<br>\n  </p>\n  <h2>Description</h2>\n  <p><i>Dazzling blade</i> makes a weapon appear dazzlingly shiny, as if crafted from pure silver and heavily polished. In combat, the flashing movements of a <i>dazzling blade</i> become almost hypnotic. The wielder of a weapon under the effects of <i>dazzling blade</i> gains a +1 competence bonus on all Bluff checks made to feint in combat. The wielder also gains a +1 competence bonus on all CMB checks made to disarm a foe, and a +1 competence bonus to his CMD against disarm attempts made against the weapon bearing the <i>dazzling blade</i> effect. This bonus increases by +1 for every 3 caster levels, to a maximum bonus of +5 at 12th level.</p><p>The wielder of a <i>dazzling blade</i> can discharge the spell into a blinding burst of silvery light as a free action. The wielder selects an adjacent opponent as the focal point of this burst of light-that creature must make a Will save to avoid being blinded for 1 round (with a successful save, the creature is instead dazzled for 1 round).</p><p>Despite its shiny appearance, a <i>dazzling blade</i> grants no extra benefit against creatures that are vulnerable to silver.</p>\n</div>\n"
    },
    "tags": [],
    "activation": {
      "type": "swift"
    },
    "unchainedAction": {
      "activation": {
        "type": "action"
      }
    },
    "target": {
      "value": "one metal weapon"
    },
    "range": {
      "units": "touch"
    },
    "uses": {
      "per": ""
    },
    "measureTemplate": {
      "size": "0"
    },
    "actionType": "spellsave",
    "damage": {
      "parts": [],
      "critParts": [],
      "nonCritParts": []
    },
    "attackParts": [],
    "ability": {
      "attack": "",
      "damage": ""
    },
    "save": {
      "dc": "0",
      "type": "will",
      "description": "Will negates (see text)"
    },
    "effectNotes": [],
    "attackNotes": [],
    "links": {
      "children": []
    },
    "flags": {
      "boolean": [],
      "dictionary": []
    },
    "scriptCalls": [],
    "learnedAt": {
      "class": [
        [
          "sorcerer/wizard",
          1
        ],
        [
          "bard",
          1
        ]
      ],
      "domain": [],
      "subDomain": [],
      "elementalSchool": [],
      "bloodline": []
    },
    "school": "ill",
    "subschool": "pattern",
    "conditionals": [],
    "components": {
      "verbal": true,
      "somatic": true
    },
    "shortDescription": "<p><i>Dazzling blade</i> makes a weapon appear dazzlingly shiny, as if crafted from pure silver and heavily polished. In combat, the flashing movements of a <i>dazzling blade</i> become almost hypnotic. The wielder of a weapon under the effects of <i>dazzling blade</i> gains a +1 competence bonus on all Bluff checks made to feint in combat. The wielder also gains a +1 competence bonus on all CMB checks made to disarm a foe, and a +1 competence bonus to his CMD against disarm attempts made against the weapon bearing the <i>dazzling blade</i> effect. This bonus increases by +1 for every 3 caster levels, to a maximum bonus of +5 at 12th level.</p><p>The wielder of a <i>dazzling blade</i> can discharge the spell into a blinding burst of silvery light as a free action. The wielder selects an adjacent opponent as the focal point of this burst of light-that creature must make a Will save to avoid being blinded for 1 round (with a successful save, the creature is instead dazzled for 1 round).</p><p>Despite its shiny appearance, a <i>dazzling blade</i> grants no extra benefit against creatures that are vulnerable to silver.</p>",
    "spellDuration": "1 minute/level"
  },
  "effects": [],
  "folder": null,
  "sort": 0,
  "permission": {
    "default": 0
  },
  "flags": {}
}