{
  "_id": "atclo4xtkept97ox",
  "name": "Dead Eye's Arrow",
  "type": "spell",
  "img": "systems/pf1/icons/misc/magic-swirl.png",
  "data": {
    "description": {
      "value": "<div class=\"spell-description\">\n  <p>\n    <strong>School</strong>&nbsp;evocation&nbsp;[electricity];\n    <strong>Level</strong>&nbsp;cleric/oracle 2, druid 1, hunter 1, inquisitor 1, magus 1, paladin 1, ranger 1;\n    \n    \n    \n    \n  </p>\n  <p>\n    <strong>Casting Time</strong>&nbsp;1 standard<br>\n    <strong>Components</strong>&nbsp;V, S, M (one arrow)<br>\n  </p>\n  <p>\n    \n    \n    \n    <strong>Effect</strong>&nbsp;arrow of electricity<br>\n    <strong>Duration</strong>&nbsp;instantaneous or 1 round (see text)<br>\n      <strong>Saving Throw</strong>&nbsp;none;&nbsp;\n      <strong>Spell Resistance</strong>&nbsp;yes<br>\n  </p>\n  <h2>Description</h2>\n  <p>You create an arrow made of crackling electricity, which you may use for one of two effects.</p><p><i>Attack</i>: You may throw the arrow up to Medium range or fire it from a bow up to the bow's maximum range. Either use is a ranged touch attack. The arrow deals 1d6 points of electricity damage + 1 point per level (maximum +5).</p><p><i>Beacon</i>: You throw or fire the arrow straight up. When it reaches maximum range or a solid surface (such as the roof of a cave) it explodes in a peal of thunder and forms a forked bolt of electricity resembling Erastil's holy symbol, which lingers for 1 round. The thunder and lightning are as loud and bright as natural thunder and lightning, but they do not harm any nearby creatures.</p>\n</div>\n"
    },
    "tags": [],
    "activation": {
      "type": "standard"
    },
    "unchainedAction": {
      "activation": {
        "cost": 2,
        "type": "action"
      }
    },
    "uses": {
      "per": ""
    },
    "measureTemplate": {
      "size": "0"
    },
    "actionType": "other",
    "damage": {
      "parts": [],
      "critParts": [],
      "nonCritParts": []
    },
    "attackParts": [],
    "ability": {
      "attack": "",
      "damage": ""
    },
    "save": {
      "dc": "0"
    },
    "effectNotes": [],
    "attackNotes": [],
    "links": {
      "children": []
    },
    "flags": {
      "boolean": [],
      "dictionary": []
    },
    "scriptCalls": [],
    "learnedAt": {
      "class": [
        [
          "cleric/oracle",
          2
        ],
        [
          "druid",
          1
        ],
        [
          "ranger",
          1
        ],
        [
          "paladin",
          1
        ],
        [
          "inquisitor",
          1
        ],
        [
          "magus",
          1
        ],
        [
          "hunter",
          1
        ]
      ],
      "domain": [],
      "subDomain": [],
      "elementalSchool": [],
      "bloodline": []
    },
    "level": 2,
    "school": "evo",
    "types": "electricity",
    "conditionals": [],
    "components": {
      "verbal": true,
      "somatic": true,
      "material": true
    },
    "materials": {
      "value": "one arrow"
    },
    "shortDescription": "<p>You create an arrow made of crackling electricity, which you may use for one of two effects.</p><p><i>Attack</i>: You may throw the arrow up to Medium range or fire it from a bow up to the bow's maximum range. Either use is a ranged touch attack. The arrow deals 1d6 points of electricity damage + 1 point per level (maximum +5).</p><p><i>Beacon</i>: You throw or fire the arrow straight up. When it reaches maximum range or a solid surface (such as the roof of a cave) it explodes in a peal of thunder and forms a forked bolt of electricity resembling Erastil's holy symbol, which lingers for 1 round. The thunder and lightning are as loud and bright as natural thunder and lightning, but they do not harm any nearby creatures.</p>",
    "spellDuration": "instantaneous or 1 round (see text)",
    "spellEffect": "arrow of electricity"
  },
  "effects": [],
  "folder": null,
  "sort": 0,
  "permission": {
    "default": 0
  },
  "flags": {}
}