{
  "_id": "7u45op4znvtkvgv3",
  "name": "Decrepit Disguise",
  "type": "spell",
  "img": "systems/pf1/icons/misc/magic-swirl.png",
  "data": {
    "description": {
      "value": "<div class=\"spell-description\">\n  <p>\n    <strong>School</strong>&nbsp;illusion&nbsp;(glamer);\n    <strong>Level</strong>&nbsp;bard 1, medium 1, mesmerist 1, occultist 1, psychic 1, sorcerer/wizard 1;\n    \n    \n    \n    \n  </p>\n  <p>\n    <strong>Casting Time</strong>&nbsp;1 standard<br>\n    <strong>Components</strong>&nbsp;V<br>\n  </p>\n  <p>\n    <strong>Range</strong>&nbsp;close (25 ft. + 5 ft./2 levels)<br>\n    \n    <strong>Targets</strong>&nbsp;one object of no more than 10 cu. ft./level<br>\n    \n    <strong>Duration</strong>&nbsp;1 day/level<br>\n      <strong>Saving Throw</strong>&nbsp;none (object) or Will disbelief (if interacted with);&nbsp;\n      <strong>Spell Resistance</strong>&nbsp;no<br>\n  </p>\n  <h2>Description</h2>\n  <p>You make an object seem like a worthless version of itself. A masterwork or magic sword could seem to be a useless, rusting, discarded blade, and a luxurious throne could appear to be a decrepit wooden chair. If used against an attended object, the wielder can immediately attempt a Will save to disbelieve the effect. <i>Decrepit disguise</i> counters and dispels <i>quintessence</i>.  <i>Decrepit disguise</i> can be made permanent with a <i>permanency</i> spell by a caster of 9th level or higher for the cost of 500 gp.</p>\n</div>\n"
    },
    "tags": [],
    "activation": {
      "type": "standard"
    },
    "unchainedAction": {
      "activation": {
        "cost": 2,
        "type": "action"
      }
    },
    "target": {
      "value": "one object of no more than 10 cu. ft./level"
    },
    "range": {
      "units": "close"
    },
    "uses": {
      "per": ""
    },
    "measureTemplate": {
      "size": "0"
    },
    "actionType": "spellsave",
    "damage": {
      "parts": [],
      "critParts": [],
      "nonCritParts": []
    },
    "attackParts": [],
    "ability": {
      "attack": "",
      "damage": ""
    },
    "save": {
      "dc": "0",
      "type": "will",
      "description": "none (object) or Will disbelief (if interacted with)"
    },
    "effectNotes": [],
    "attackNotes": [],
    "links": {
      "children": []
    },
    "flags": {
      "boolean": [],
      "dictionary": []
    },
    "scriptCalls": [],
    "learnedAt": {
      "class": [
        [
          "sorcerer/wizard",
          1
        ],
        [
          "bard",
          1
        ],
        [
          "psychic",
          1
        ],
        [
          "medium",
          1
        ],
        [
          "mesmerist",
          1
        ],
        [
          "occultist",
          1
        ]
      ],
      "domain": [],
      "subDomain": [],
      "elementalSchool": [],
      "bloodline": []
    },
    "school": "ill",
    "subschool": "glamer",
    "conditionals": [],
    "components": {
      "verbal": true
    },
    "sr": false,
    "shortDescription": "<p>You make an object seem like a worthless version of itself. A masterwork or magic sword could seem to be a useless, rusting, discarded blade, and a luxurious throne could appear to be a decrepit wooden chair. If used against an attended object, the wielder can immediately attempt a Will save to disbelieve the effect. <i>Decrepit disguise</i> counters and dispels <i>quintessence</i>.  <i>Decrepit disguise</i> can be made permanent with a <i>permanency</i> spell by a caster of 9th level or higher for the cost of 500 gp.</p>",
    "spellDuration": "1 day/level"
  },
  "effects": [],
  "folder": null,
  "sort": 0,
  "permission": {
    "default": 0
  },
  "flags": {}
}