{
  "_id": "i4fjl8679kdo0vgb",
  "name": "Detect the Faithful",
  "type": "spell",
  "img": "systems/pf1/icons/misc/magic-swirl.png",
  "data": {
    "description": {
      "value": "<div class=\"spell-description\">\n  <p>\n    <strong>School</strong>&nbsp;divination;\n    <strong>Level</strong>&nbsp;antipaladin 1, cleric/oracle 1, druid 1, hunter 1, inquisitor 1, paladin 1, ranger 1, shaman 1;\n    \n    \n    \n    \n  </p>\n  <p>\n    <strong>Casting Time</strong>&nbsp;1 standard<br>\n    <strong>Components</strong>&nbsp;V, S, DF<br>\n  </p>\n  <p>\n    <strong>Range</strong>&nbsp;60 feet<br>\n    <strong>Area</strong>&nbsp;cone-shaped emanation<br>\n    \n    \n    <strong>Duration</strong>&nbsp;concentration, up to 1 minute/level (D)<br>\n      <strong>Saving Throw</strong>&nbsp;none;&nbsp;\n      <strong>Spell Resistance</strong>&nbsp;no<br>\n  </p>\n  <h2>Description</h2>\n  <p>You can detect other worshipers of your deity (mortal worshipers, outsider servants, and so on). The amount of information revealed depends on how long you focus on a particular area or subject.  <i>1st Round</i>: Presence or absence of the faithful.  <i>2nd Round</i>: Number of individual faithful in the area.  <i>3rd Round</i>: The exact location of each worshiper. If a fellow worshiper is outside your line of sight, then you discern his direction but not his exact location.  Each round, you can rotate to detect worshipers in a new area. The spell can penetrate barriers, but a sheet of lead, 1 foot of stone, 1 inch of common metal, or 3 feet of wood or dirt blocks it. A creature's personal interpretation of its beliefs determines whether or not it is of the same faith as you-hence heretics and splinter cultists of your deity still count as worshipers of that deity. Furthermore, since the spell picks up a creature's current beliefs and feelings, a creature actively pretending to be a member of the same faith also appears to the spell to be a member. Thus, the spell is still useful in locating potential hidden members of the same faith among the general populace, but on its own, it doesn't weed out spies.</p>\n</div>\n"
    },
    "tags": [],
    "activation": {
      "type": "standard"
    },
    "unchainedAction": {
      "activation": {
        "cost": 2,
        "type": "action"
      }
    },
    "range": {
      "value": 60,
      "units": "ft"
    },
    "uses": {
      "per": ""
    },
    "measureTemplate": {
      "size": "0"
    },
    "actionType": "",
    "damage": {
      "parts": [],
      "critParts": [],
      "nonCritParts": []
    },
    "attackParts": [],
    "ability": {
      "attack": "",
      "damage": ""
    },
    "save": {
      "dc": "0"
    },
    "effectNotes": [],
    "attackNotes": [],
    "links": {
      "children": []
    },
    "flags": {
      "boolean": [],
      "dictionary": []
    },
    "scriptCalls": [],
    "learnedAt": {
      "class": [
        [
          "cleric/oracle",
          1
        ],
        [
          "druid",
          1
        ],
        [
          "ranger",
          1
        ],
        [
          "paladin",
          1
        ],
        [
          "inquisitor",
          1
        ],
        [
          "antipaladin",
          1
        ],
        [
          "shaman",
          1
        ],
        [
          "hunter",
          1
        ]
      ],
      "domain": [],
      "subDomain": [],
      "elementalSchool": [],
      "bloodline": []
    },
    "school": "div",
    "conditionals": [],
    "components": {
      "verbal": true,
      "somatic": true,
      "divineFocus": 1
    },
    "sr": false,
    "shortDescription": "<p>You can detect other worshipers of your deity (mortal worshipers, outsider servants, and so on). The amount of information revealed depends on how long you focus on a particular area or subject.  <i>1st Round</i>: Presence or absence of the faithful.  <i>2nd Round</i>: Number of individual faithful in the area.  <i>3rd Round</i>: The exact location of each worshiper. If a fellow worshiper is outside your line of sight, then you discern his direction but not his exact location.  Each round, you can rotate to detect worshipers in a new area. The spell can penetrate barriers, but a sheet of lead, 1 foot of stone, 1 inch of common metal, or 3 feet of wood or dirt blocks it. A creature's personal interpretation of its beliefs determines whether or not it is of the same faith as you-hence heretics and splinter cultists of your deity still count as worshipers of that deity. Furthermore, since the spell picks up a creature's current beliefs and feelings, a creature actively pretending to be a member of the same faith also appears to the spell to be a member. Thus, the spell is still useful in locating potential hidden members of the same faith among the general populace, but on its own, it doesn't weed out spies.</p>",
    "spellDuration": "concentration, up to 1 minute/level (D)",
    "spellArea": "cone-shaped emanation"
  },
  "effects": [],
  "folder": null,
  "sort": 0,
  "permission": {
    "default": 0
  },
  "flags": {}
}