{
  "_id": "ecscodm829hw0rkx",
  "name": "Dimensional Bounce",
  "type": "spell",
  "img": "systems/pf1/icons/misc/magic-swirl.png",
  "data": {
    "description": {
      "value": "<div class=\"spell-description\">\n  <p>\n    <strong>School</strong>&nbsp;conjuration&nbsp;(teleportation);\n    <strong>Level</strong>&nbsp;psychic 7, sorcerer/wizard 7, summoner 6, unchained Summoner 6, witch 7;\n    \n    \n    \n    \n  </p>\n  <p>\n    <strong>Casting Time</strong>&nbsp;1 standard<br>\n    <strong>Components</strong>&nbsp;V, S<br>\n  </p>\n  <p>\n    <strong>Range</strong>&nbsp;close (25 ft. + 5 ft./2 levels)<br>\n    \n    <strong>Targets</strong>&nbsp;you and touched objects or other touched willing creatures<br>\n    \n    <strong>Duration</strong>&nbsp;1 round/level or until discharged<br>\n      <strong>Saving Throw</strong>&nbsp;none and Will negates (object);&nbsp;\n      <strong>Spell Resistance</strong>&nbsp;no<br>\n  </p>\n  <h2>Description</h2>\n  <p>You designate two locations within range and create a dimensional link between them; you must have line of effect to both locations when casting this spell. As a swift action, you can teleport from your current location to either of the designated locations as if you had cast <i>dimension door</i>. The spell is discharged once you have used it to teleport a number of times equal to one-fourth your caster level (maximum 5 times).</p>\n</div>\n"
    },
    "tags": [],
    "activation": {
      "type": "standard"
    },
    "unchainedAction": {
      "activation": {
        "cost": 2,
        "type": "action"
      }
    },
    "target": {
      "value": "you and touched objects or other touched willing creatures"
    },
    "range": {
      "units": "close"
    },
    "uses": {
      "per": ""
    },
    "measureTemplate": {
      "size": "0"
    },
    "actionType": "spellsave",
    "damage": {
      "parts": [],
      "critParts": [],
      "nonCritParts": []
    },
    "attackParts": [],
    "ability": {
      "attack": "",
      "damage": ""
    },
    "save": {
      "dc": "0",
      "type": "will",
      "description": "none and Will negates (object)"
    },
    "effectNotes": [],
    "attackNotes": [],
    "links": {
      "children": []
    },
    "flags": {
      "boolean": [],
      "dictionary": []
    },
    "scriptCalls": [],
    "learnedAt": {
      "class": [
        [
          "sorcerer/wizard",
          7
        ],
        [
          "summoner",
          6
        ],
        [
          "witch",
          7
        ],
        [
          "psychic",
          7
        ],
        [
          "unchained Summoner",
          6
        ]
      ],
      "domain": [],
      "subDomain": [],
      "elementalSchool": [],
      "bloodline": []
    },
    "level": 7,
    "school": "con",
    "subschool": "teleportation",
    "conditionals": [],
    "components": {
      "verbal": true,
      "somatic": true
    },
    "sr": false,
    "shortDescription": "<p>You designate two locations within range and create a dimensional link between them; you must have line of effect to both locations when casting this spell. As a swift action, you can teleport from your current location to either of the designated locations as if you had cast <i>dimension door</i>. The spell is discharged once you have used it to teleport a number of times equal to one-fourth your caster level (maximum 5 times).</p>",
    "spellDuration": "1 round/level or until discharged"
  },
  "effects": [],
  "folder": null,
  "sort": 0,
  "permission": {
    "default": 0
  },
  "flags": {}
}