{
  "_id": "sds6f78h5xnfhjpg",
  "name": "Discharge, Greater",
  "type": "spell",
  "img": "systems/pf1/icons/misc/magic-swirl.png",
  "data": {
    "description": {
      "value": "<div class=\"spell-description\">\n  <p>\n    <strong>School</strong>&nbsp;abjuration;\n    <strong>Level</strong>&nbsp;bard 6, cleric/oracle 6, magus 6, sorcerer/wizard 6, witch 6;\n    \n    \n    \n    \n  </p>\n  <p>\n    <strong>Casting Time</strong>&nbsp;1 standard<br>\n    <strong>Components</strong>&nbsp;V, S<br>\n  </p>\n  <p>\n    <strong>Range</strong>&nbsp;medium (100 ft. + 10 ft./level)<br>\n    <strong>Area</strong>&nbsp;one creature or technological object, or a 20-ft.-radius burst<br>\n    <strong>Targets</strong>&nbsp;one creature or technological object, or a 20-ft.-radius burst<br>\n    \n    <strong>Duration</strong>&nbsp;instantaneous<br>\n      <strong>Saving Throw</strong>&nbsp;Fortitude negates;&nbsp;\n      <strong>Spell Resistance</strong>&nbsp;no<br>\n  </p>\n  <h2>Description</h2>\n  <p>This spell functions as @Compendium[pf1.spells.cnn3hvm9e4bub6pr]{discharge}, except it can discharge multiple technological objects and can be used to target an area.</p>\n<p>You choose to use greater <em>discharge</em> in one of two ways: an area <em>discharge</em> or a targeted <em>discharge</em>.</p>\n<p><em>Area</em> <em><strong>Discharge</strong></em>: When greater <em>discharge</em> is used in this way, the spell affects everything within a 20-foot-radius burst.</p>\n<p>Each creature in the area is affected as though by <em>discharge</em> (affecting only one object in the creature's possession), and each unattended object is similarly affected.</p>\n<p><em>Targeted</em> <em><strong>Discharge</strong></em>: This spell functions as <em>discharge</em>, but if the target is a creature, it can <em>discharge</em> one randomly determined object from the target's charged or electrically powered possessions for every 4 caster levels you possess.</p>\n</div>\n"
    },
    "tags": [],
    "activation": {
      "type": "standard"
    },
    "unchainedAction": {
      "activation": {
        "cost": 2,
        "type": "action"
      }
    },
    "target": {
      "value": "one creature or technological object, or a 20-ft.-radius burst"
    },
    "range": {
      "units": "medium"
    },
    "uses": {
      "per": ""
    },
    "measureTemplate": {
      "size": "0"
    },
    "actionType": "spellsave",
    "damage": {
      "parts": [],
      "critParts": [],
      "nonCritParts": []
    },
    "attackParts": [],
    "ability": {
      "attack": "",
      "damage": ""
    },
    "save": {
      "dc": "0",
      "type": "fort",
      "description": "Fortitude negates"
    },
    "effectNotes": [],
    "attackNotes": [],
    "links": {
      "children": []
    },
    "flags": {
      "boolean": [],
      "dictionary": []
    },
    "scriptCalls": [],
    "learnedAt": {
      "class": [
        [
          "sorcerer/wizard",
          6
        ],
        [
          "cleric/oracle",
          6
        ],
        [
          "bard",
          6
        ],
        [
          "witch",
          6
        ],
        [
          "magus",
          6
        ]
      ],
      "domain": [],
      "subDomain": [],
      "elementalSchool": [],
      "bloodline": []
    },
    "level": 6,
    "school": "abj",
    "conditionals": [],
    "components": {
      "verbal": true,
      "somatic": true
    },
    "spellbook": "",
    "sr": false,
    "shortDescription": "<p>This spell functions as @Compendium[pf1.spells.cnn3hvm9e4bub6pr]{discharge}, except it can discharge multiple technological objects and can be used to target an area.</p>\n<p>You choose to use greater <em>discharge</em> in one of two ways: an area <em>discharge</em> or a targeted <em>discharge</em>.</p>\n<p><em>Area</em> <em><strong>Discharge</strong></em>: When greater <em>discharge</em> is used in this way, the spell affects everything within a 20-foot-radius burst.</p>\n<p>Each creature in the area is affected as though by <em>discharge</em> (affecting only one object in the creature's possession), and each unattended object is similarly affected.</p>\n<p><em>Targeted</em> <em><strong>Discharge</strong></em>: This spell functions as <em>discharge</em>, but if the target is a creature, it can <em>discharge</em> one randomly determined object from the target's charged or electrically powered possessions for every 4 caster levels you possess.</p>",
    "spellDuration": "instantaneous",
    "spellArea": "one creature or technological object, or a 20-ft.-radius burst"
  },
  "effects": [],
  "folder": null,
  "sort": 0,
  "permission": {
    "default": 0
  },
  "flags": {}
}