{
  "_id": "h5ysr008zwoz16gu",
  "name": "Dongun Shaper's Touch",
  "type": "spell",
  "img": "systems/pf1/icons/misc/magic-swirl.png",
  "data": {
    "description": {
      "value": "<div class=\"spell-description\">\n  <p>\n    <strong>School</strong>&nbsp;transmutation;\n    <strong>Level</strong>&nbsp;alchemist 2, occultist 3, sorcerer/wizard 3;\n    \n    \n    \n    \n  </p>\n  <p>\n    <strong>Casting Time</strong>&nbsp;1 standard<br>\n    <strong>Components</strong>&nbsp;V, S<br>\n  </p>\n  <p>\n    <strong>Range</strong>&nbsp;touch<br>\n    \n    <strong>Targets</strong>&nbsp;object touched<br>\n    \n    <strong>Duration</strong>&nbsp;concentration, up to 1 round/level<br>\n      <strong>Saving Throw</strong>&nbsp;none;&nbsp;\n      <strong>Spell Resistance</strong>&nbsp;no<br>\n  </p>\n  <h2>Description</h2>\n  <p>You create an alchemical residue on your hands that allows you to reshape any nonmagical, unattended object with  hardness 19 or less as though it were clay. Objects with hardness 9 or less are like soft clay, allowing you to reshape up to 1 cubic foot per round of effort. Objects with hardness 10 or higher are harder to mold, allowing you to reshape up to 1/4 cubic foot per round. The object retains its new shape for 24 hours before returning to its original shape. This spell does not allow you to reshape a portion of a large object, such as a wall; you must be able to reshape the entire target within the spell's duration or the spell fizzles and has no effect.</p>\n</div>\n"
    },
    "tags": [],
    "activation": {
      "type": "standard"
    },
    "unchainedAction": {
      "activation": {
        "cost": 2,
        "type": "action"
      }
    },
    "target": {
      "value": "object touched"
    },
    "range": {
      "units": "touch"
    },
    "uses": {
      "per": ""
    },
    "measureTemplate": {
      "size": "0"
    },
    "actionType": "",
    "damage": {
      "parts": [],
      "critParts": [],
      "nonCritParts": []
    },
    "attackParts": [],
    "ability": {
      "attack": "",
      "damage": ""
    },
    "save": {
      "dc": "0"
    },
    "effectNotes": [],
    "attackNotes": [],
    "links": {
      "children": []
    },
    "flags": {
      "boolean": [],
      "dictionary": []
    },
    "scriptCalls": [],
    "learnedAt": {
      "class": [
        [
          "sorcerer/wizard",
          3
        ],
        [
          "alchemist",
          2
        ],
        [
          "occultist",
          3
        ]
      ],
      "domain": [],
      "subDomain": [],
      "elementalSchool": [],
      "bloodline": []
    },
    "level": 3,
    "school": "trs",
    "conditionals": [],
    "components": {
      "verbal": true,
      "somatic": true
    },
    "sr": false,
    "shortDescription": "<p>You create an alchemical residue on your hands that allows you to reshape any nonmagical, unattended object with  hardness 19 or less as though it were clay. Objects with hardness 9 or less are like soft clay, allowing you to reshape up to 1 cubic foot per round of effort. Objects with hardness 10 or higher are harder to mold, allowing you to reshape up to 1/4 cubic foot per round. The object retains its new shape for 24 hours before returning to its original shape. This spell does not allow you to reshape a portion of a large object, such as a wall; you must be able to reshape the entire target within the spell's duration or the spell fizzles and has no effect.</p>",
    "spellDuration": "concentration, up to 1 round/level"
  },
  "effects": [],
  "folder": null,
  "sort": 0,
  "permission": {
    "default": 0
  },
  "flags": {}
}