{
  "_id": "mlwe19v7suk75jrl",
  "name": "Dream Dalliance",
  "type": "spell",
  "img": "systems/pf1/icons/misc/magic-swirl.png",
  "data": {
    "description": {
      "value": "<div class=\"spell-description\">\n  <p>\n    <strong>School</strong>&nbsp;illusion&nbsp;(phantasm)&nbsp;[mind-affecting];\n    <strong>Level</strong>&nbsp;mesmerist 3, psychic 4, sorcerer/wizard 4;\n    \n    \n    \n    \n  </p>\n  <p>\n    <strong>Casting Time</strong>&nbsp;1 round<br>\n    <strong>Components</strong>&nbsp;V, S<br>\n  </p>\n  <p>\n    <strong>Range</strong>&nbsp;medium (100 ft. + 10 ft./level)<br>\n    \n    <strong>Targets</strong>&nbsp;one creature<br>\n    \n    <strong>Duration</strong>&nbsp;instantaneous<br>\n      <strong>Saving Throw</strong>&nbsp;Will disbelief, then Will partial (see text);&nbsp;\n      <strong>Spell Resistance</strong>&nbsp;yes<br>\n  </p>\n  <h2>Description</h2>\n  <p>You create a comforting phantasm, which leeches onto the psyche of a nearby target. The creature can attempt a Will saving throw to prevent the phantasm from entering its psyche, but otherwise it takes up permanent residence in the creature's mind. The phantasm fills its target's dreams with happy visions, comforting manifestations of loved ones, and incredible vistas, feeding the target a perfect fantasy life it never wishes to leave. After the target's next night's sleep, the target must succeed at a Will saving throw to wake up; otherwise, it remains asleep for the rest of the day and following night. Each night it must succeed at a new saving throw or remain asleep for days or weeks on end as it slowly starves to death (presuming it normally needs to eat to survive). Loud noises, jostling, and even pain won't rouse the slumbering target. Dealing 1 point of damage per the target's Hit Die awakens the target, but it awakens fatigued and takes a -2 penalty on all saving throws against spells and effects that may put it back to sleep until the phantasm has been banished.  The phantasm remains in its host's mind indefinitely, requiring a new Will saving throw to wake up every time the target rests, until it is removed via <i>break enchantment</i>, <i>greater restoration</i>, or <i>miracle</i>. Alternatively, the phantasm can be confronted in its host's mindscape (<i>Pathfinder RPG Occult Adventures</i> 202), where it manifests as a slothful duplicate of its host with identical abilities, skills, and attributes.</p>\n</div>\n"
    },
    "tags": [],
    "activation": {
      "type": "round"
    },
    "unchainedAction": {
      "activation": {
        "cost": 3,
        "type": "action"
      }
    },
    "target": {
      "value": "one creature"
    },
    "range": {
      "units": "medium"
    },
    "uses": {
      "per": ""
    },
    "measureTemplate": {
      "size": "0"
    },
    "actionType": "spellsave",
    "damage": {
      "parts": [],
      "critParts": [],
      "nonCritParts": []
    },
    "attackParts": [],
    "ability": {
      "attack": "",
      "damage": ""
    },
    "save": {
      "dc": "0",
      "type": "will",
      "description": "Will disbelief, then Will partial (see text)"
    },
    "effectNotes": [],
    "attackNotes": [],
    "links": {
      "children": []
    },
    "flags": {
      "boolean": [],
      "dictionary": []
    },
    "scriptCalls": [],
    "learnedAt": {
      "class": [
        [
          "sorcerer/wizard",
          4
        ],
        [
          "psychic",
          4
        ],
        [
          "mesmerist",
          3
        ]
      ],
      "domain": [],
      "subDomain": [],
      "elementalSchool": [],
      "bloodline": []
    },
    "level": 4,
    "school": "ill",
    "subschool": "phantasm",
    "types": "mind-affecting",
    "conditionals": [],
    "components": {
      "verbal": true,
      "somatic": true
    },
    "shortDescription": "<p>You create a comforting phantasm, which leeches onto the psyche of a nearby target. The creature can attempt a Will saving throw to prevent the phantasm from entering its psyche, but otherwise it takes up permanent residence in the creature's mind. The phantasm fills its target's dreams with happy visions, comforting manifestations of loved ones, and incredible vistas, feeding the target a perfect fantasy life it never wishes to leave. After the target's next night's sleep, the target must succeed at a Will saving throw to wake up; otherwise, it remains asleep for the rest of the day and following night. Each night it must succeed at a new saving throw or remain asleep for days or weeks on end as it slowly starves to death (presuming it normally needs to eat to survive). Loud noises, jostling, and even pain won't rouse the slumbering target. Dealing 1 point of damage per the target's Hit Die awakens the target, but it awakens fatigued and takes a -2 penalty on all saving throws against spells and effects that may put it back to sleep until the phantasm has been banished.  The phantasm remains in its host's mind indefinitely, requiring a new Will saving throw to wake up every time the target rests, until it is removed via <i>break enchantment</i>, <i>greater restoration</i>, or <i>miracle</i>. Alternatively, the phantasm can be confronted in its host's mindscape (<i>Pathfinder RPG Occult Adventures</i> 202), where it manifests as a slothful duplicate of its host with identical abilities, skills, and attributes.</p>",
    "spellDuration": "instantaneous"
  },
  "effects": [],
  "folder": null,
  "sort": 0,
  "permission": {
    "default": 0
  },
  "flags": {}
}