{
  "_id": "g0akb0o9nkn217tg",
  "name": "Dream Council",
  "type": "spell",
  "img": "systems/pf1/icons/misc/magic-swirl.png",
  "data": {
    "description": {
      "value": "<div class=\"spell-description\">\n  <p>\n    <strong>School</strong>&nbsp;illusion&nbsp;(phantasm)&nbsp;[mind-affecting];\n    <strong>Level</strong>&nbsp;bard 6, medium 4, mesmerist 5, psychic 6, sorcerer/wizard 7;\n    \n    \n    \n    \n  </p>\n  <p>\n    <strong>Casting Time</strong>&nbsp;1 standard<br>\n    <strong>Components</strong>&nbsp;V, S<br>\n  </p>\n  <p>\n    \n    \n    <strong>Targets</strong>&nbsp;one or more living creatures<br>\n    \n    <strong>Duration</strong>&nbsp;see text<br>\n      <strong>Saving Throw</strong>&nbsp;Will negates;&nbsp;\n      <strong>Spell Resistance</strong>&nbsp;yes<br>\n  </p>\n  <h2>Description</h2>\n  <p>This spell functions as <i>dream</i>, but you and the target of your <i>dream</i> can converse in a limited fashion as long as the recipient is also asleep. You can send or receive a number of <i>dream</i> messages equal to your caster level. Each message can be up to 25 words long or a single vague image that can't convey fine details such as words. You can send and receive these <i>dream</i> messages with a single target or multiple targets, but each message you send or receive counts against the total number of messages allowed. Sending a message takes 1 round. The spell ends and you wake up when you run out of messages.  If you use <i>dream</i> council to send a message to a sleeping creature that has <i>dream</i> or <i>dream</i> council prepared (or is able to cast it spontaneously or as a spell-like ability), the recipient can expend one of your allotted messages to cast that spell while remaining asleep. This uses up that creature's prepared spell, spell per day, or spell-like ability use as normal. Instead of replying to your message, that character is able to enter your <i>dream</i>scape. If the sleeping recipient has the Lucid Dreamer feat, it can enter your <i>dream</i>scape without casting either of those spells. While in the original caster's <i>dream</i>scape, those involved in the council can interact with one another and that <i>dream</i>scape for 10 minutes for each message remaining. When that time elapses, the spell ends.</p>\n</div>\n"
    },
    "tags": [],
    "activation": {
      "type": "standard"
    },
    "unchainedAction": {
      "activation": {
        "cost": 2,
        "type": "action"
      }
    },
    "target": {
      "value": "one or more living creatures"
    },
    "uses": {
      "per": ""
    },
    "measureTemplate": {
      "size": "0"
    },
    "actionType": "spellsave",
    "damage": {
      "parts": [],
      "critParts": [],
      "nonCritParts": []
    },
    "attackParts": [],
    "ability": {
      "attack": "",
      "damage": ""
    },
    "save": {
      "dc": "0",
      "type": "will",
      "description": "Will negates"
    },
    "effectNotes": [],
    "attackNotes": [],
    "links": {
      "children": []
    },
    "flags": {
      "boolean": [],
      "dictionary": []
    },
    "scriptCalls": [],
    "learnedAt": {
      "class": [
        [
          "sorcerer/wizard",
          7
        ],
        [
          "bard",
          6
        ],
        [
          "psychic",
          6
        ],
        [
          "medium",
          4
        ],
        [
          "mesmerist",
          5
        ]
      ],
      "domain": [],
      "subDomain": [],
      "elementalSchool": [],
      "bloodline": []
    },
    "level": 7,
    "school": "ill",
    "subschool": "phantasm",
    "types": "mind-affecting",
    "conditionals": [],
    "components": {
      "verbal": true,
      "somatic": true
    },
    "shortDescription": "<p>This spell functions as <i>dream</i>, but you and the target of your <i>dream</i> can converse in a limited fashion as long as the recipient is also asleep. You can send or receive a number of <i>dream</i> messages equal to your caster level. Each message can be up to 25 words long or a single vague image that can't convey fine details such as words. You can send and receive these <i>dream</i> messages with a single target or multiple targets, but each message you send or receive counts against the total number of messages allowed. Sending a message takes 1 round. The spell ends and you wake up when you run out of messages.  If you use <i>dream</i> council to send a message to a sleeping creature that has <i>dream</i> or <i>dream</i> council prepared (or is able to cast it spontaneously or as a spell-like ability), the recipient can expend one of your allotted messages to cast that spell while remaining asleep. This uses up that creature's prepared spell, spell per day, or spell-like ability use as normal. Instead of replying to your message, that character is able to enter your <i>dream</i>scape. If the sleeping recipient has the Lucid Dreamer feat, it can enter your <i>dream</i>scape without casting either of those spells. While in the original caster's <i>dream</i>scape, those involved in the council can interact with one another and that <i>dream</i>scape for 10 minutes for each message remaining. When that time elapses, the spell ends.</p>",
    "spellDuration": "see text"
  },
  "effects": [],
  "folder": null,
  "sort": 0,
  "permission": {
    "default": 0
  },
  "flags": {}
}