{
  "_id": "ix120t034th9zh49",
  "name": "Dweomer Retaliation",
  "type": "spell",
  "img": "systems/pf1/icons/misc/magic-swirl.png",
  "data": {
    "description": {
      "value": "<div class=\"spell-description\">\n  <p>\n    <strong>School</strong>&nbsp;abjuration;\n    <strong>Level</strong>&nbsp;sorcerer/wizard 3;\n    \n    \n    \n    \n  </p>\n  <p>\n    <strong>Casting Time</strong>&nbsp;1 immediate<br>\n    <strong>Components</strong>&nbsp;V<br>\n  </p>\n  <p>\n    \n    \n    <strong>Targets</strong>&nbsp;one creature you counterspelled since your last turn<br>\n    \n    <strong>Duration</strong>&nbsp;instantaneous<br>\n      <strong>Saving Throw</strong>&nbsp;none;&nbsp;\n      <strong>Spell Resistance</strong>&nbsp;yes<br>\n  </p>\n  <h2>Description</h2>\n  <p>You may only cast this spell immediately after successfully counterspelling an opponent. Drawing upon the residual energy of the countered spells, you gain a number of temporary hit points equal to the level of the countered spell plus your Charisma or Intelligence modifier (for sorcerers and wizards, respectively); your counterspelled opponent takes damage equal to this amount.</p><p>If the countered spell was at least 4th level, you and your opponent make opposed concentration checks. If you beat your opponent by 10 or more, you retain this spell (or its spell slot, if you are a sorcerer) as if you had not cast it.</p>\n</div>\n"
    },
    "tags": [],
    "activation": {
      "type": "immediate"
    },
    "unchainedAction": {
      "activation": {
        "type": "reaction"
      }
    },
    "target": {
      "value": "one creature you counterspelled since your last turn"
    },
    "uses": {
      "per": ""
    },
    "measureTemplate": {
      "size": "0"
    },
    "actionType": "",
    "damage": {
      "parts": [],
      "critParts": [],
      "nonCritParts": []
    },
    "attackParts": [],
    "ability": {
      "attack": "",
      "damage": ""
    },
    "save": {
      "dc": "0"
    },
    "effectNotes": [],
    "attackNotes": [],
    "links": {
      "children": []
    },
    "flags": {
      "boolean": [],
      "dictionary": []
    },
    "scriptCalls": [],
    "learnedAt": {
      "class": [
        [
          "sorcerer/wizard",
          3
        ]
      ],
      "domain": [],
      "subDomain": [],
      "elementalSchool": [],
      "bloodline": []
    },
    "level": 3,
    "school": "abj",
    "conditionals": [],
    "components": {
      "verbal": true
    },
    "shortDescription": "<p>You may only cast this spell immediately after successfully counterspelling an opponent. Drawing upon the residual energy of the countered spells, you gain a number of temporary hit points equal to the level of the countered spell plus your Charisma or Intelligence modifier (for sorcerers and wizards, respectively); your counterspelled opponent takes damage equal to this amount.</p><p>If the countered spell was at least 4th level, you and your opponent make opposed concentration checks. If you beat your opponent by 10 or more, you retain this spell (or its spell slot, if you are a sorcerer) as if you had not cast it.</p>",
    "spellDuration": "instantaneous"
  },
  "effects": [],
  "folder": null,
  "sort": 0,
  "permission": {
    "default": 0
  },
  "flags": {}
}