{
  "_id": "gq7tigg3d1u4jyeo",
  "name": "Enchantment Foil",
  "type": "spell",
  "img": "systems/pf1/icons/misc/magic-swirl.png",
  "data": {
    "description": {
      "value": "<div class=\"spell-description\">\n  <p>\n    <strong>School</strong>&nbsp;abjuration;\n    <strong>Level</strong>&nbsp;alchemist 4, cleric/oracle 4, inquisitor 4, mesmerist 3, occultist 4, psychic 4, sorcerer/wizard 4, witch 4;\n    \n    \n    \n    \n  </p>\n  <p>\n    <strong>Casting Time</strong>&nbsp;1 standard<br>\n    <strong>Components</strong>&nbsp;V, S<br>\n  </p>\n  <p>\n    <strong>Range</strong>&nbsp;personal<br>\n    \n    <strong>Targets</strong>&nbsp;you<br>\n    \n    <strong>Duration</strong>&nbsp;1 hour/level (see text)<br>\n  </p>\n  <h2>Description</h2>\n  <p>You gain a +4 bonus on saving throws against enchantment effects. If you succeed at a save against an enchantment effect, you identify the effect as if you had succeeded at a Spellcraft check to do so. Furthermore, you can choose to act as if you had failed your saving throw. If you do so, you gain a +20 bonus on Bluff checks to convince others that you failed your save and are under the enchantment's effects. A creature that attempts to use magic to detect this ruse or to make you speak truthfully about it must succeed at a caster level check (DC 15 + your caster level) to do so.</p>\n</div>\n"
    },
    "tags": [],
    "activation": {
      "type": "standard"
    },
    "unchainedAction": {
      "activation": {
        "cost": 2,
        "type": "action"
      }
    },
    "target": {
      "value": "you"
    },
    "range": {
      "units": "personal"
    },
    "uses": {
      "per": ""
    },
    "measureTemplate": {
      "size": "0"
    },
    "actionType": "",
    "damage": {
      "parts": [],
      "critParts": [],
      "nonCritParts": []
    },
    "attackParts": [],
    "ability": {
      "attack": "",
      "damage": ""
    },
    "save": {
      "dc": "0"
    },
    "effectNotes": [],
    "attackNotes": [],
    "links": {
      "children": []
    },
    "flags": {
      "boolean": [],
      "dictionary": []
    },
    "scriptCalls": [],
    "learnedAt": {
      "class": [
        [
          "sorcerer/wizard",
          4
        ],
        [
          "cleric/oracle",
          4
        ],
        [
          "alchemist",
          4
        ],
        [
          "witch",
          4
        ],
        [
          "inquisitor",
          4
        ],
        [
          "psychic",
          4
        ],
        [
          "mesmerist",
          3
        ],
        [
          "occultist",
          4
        ]
      ],
      "domain": [],
      "subDomain": [],
      "elementalSchool": [],
      "bloodline": []
    },
    "level": 4,
    "school": "abj",
    "conditionals": [],
    "components": {
      "verbal": true,
      "somatic": true
    },
    "sr": false,
    "shortDescription": "<p>You gain a +4 bonus on saving throws against enchantment effects. If you succeed at a save against an enchantment effect, you identify the effect as if you had succeeded at a Spellcraft check to do so. Furthermore, you can choose to act as if you had failed your saving throw. If you do so, you gain a +20 bonus on Bluff checks to convince others that you failed your save and are under the enchantment's effects. A creature that attempts to use magic to detect this ruse or to make you speak truthfully about it must succeed at a caster level check (DC 15 + your caster level) to do so.</p>",
    "spellDuration": "1 hour/level (see text)"
  },
  "effects": [],
  "folder": null,
  "sort": 0,
  "permission": {
    "default": 0
  },
  "flags": {}
}