{
  "_id": "gdyto5az5aveibsb",
  "name": "Floating Disk",
  "type": "spell",
  "img": "systems/pf1/icons/misc/magic-swirl.png",
  "data": {
    "description": {
      "value": "<div class=\"spell-description\">\n  <p>\n    <strong>School</strong>&nbsp;evocation&nbsp;[force];\n    <strong>Level</strong>&nbsp;magus 1, occultist 1, psychic 1, sorcerer/wizard 1;\n    \n    <strong>Subdomain</strong>&nbsp;Trade 1;\n    \n    \n  </p>\n  <p>\n    <strong>Casting Time</strong>&nbsp;1 standard<br>\n    <strong>Components</strong>&nbsp;V, S, M (a drop of mercury)<br>\n  </p>\n  <p>\n    <strong>Range</strong>&nbsp;close (25 ft. + 5 ft./2 levels)<br>\n    \n    \n    <strong>Effect</strong>&nbsp;3-ft.-diameter disk of force<br>\n    <strong>Duration</strong>&nbsp;1 hour/level<br>\n      <strong>Saving Throw</strong>&nbsp;none;&nbsp;\n      <strong>Spell Resistance</strong>&nbsp;no<br>\n  </p>\n  <h2>Description</h2>\n  <p>You create a slightly concave, circular plane of force that follows you about and carries loads for you. The disk is 3 feet in diameter and 1 inch deep at its center. It can hold 100 pounds of weight per caster level. If used to transport a liquid, its capacity is 2 gallons. The disk floats approximately 3 feet above the ground at all times and remains level. It floats along horizontally within spell range and will accompany you at a rate of no more than your normal speed each round. If not otherwise directed, it maintains a constant interval of 5 feet between itself and you.</p><p>The disk winks out of existence when the spell duration expires.</p><p>The disk also winks out if you move beyond its range or try to take the disk more than 3 feet away from the surface beneath it.</p><p>When the disk winks out, whatever it was supporting falls to the surface beneath it.</p>\n</div>\n"
    },
    "tags": [],
    "activation": {
      "type": "standard"
    },
    "unchainedAction": {
      "activation": {
        "cost": 2,
        "type": "action"
      }
    },
    "range": {
      "units": "close"
    },
    "uses": {
      "per": ""
    },
    "measureTemplate": {
      "size": "0"
    },
    "actionType": "other",
    "damage": {
      "parts": [],
      "critParts": [],
      "nonCritParts": []
    },
    "attackParts": [],
    "ability": {
      "attack": "",
      "damage": ""
    },
    "save": {
      "dc": "0"
    },
    "effectNotes": [],
    "attackNotes": [],
    "links": {
      "children": []
    },
    "flags": {
      "boolean": [],
      "dictionary": []
    },
    "scriptCalls": [],
    "learnedAt": {
      "class": [
        [
          "sorcerer/wizard",
          1
        ],
        [
          "magus",
          1
        ],
        [
          "psychic",
          1
        ],
        [
          "occultist",
          1
        ]
      ],
      "domain": [],
      "subDomain": [
        [
          "Trade",
          1
        ]
      ],
      "elementalSchool": [],
      "bloodline": []
    },
    "school": "evo",
    "types": "force",
    "conditionals": [],
    "components": {
      "verbal": true,
      "somatic": true,
      "material": true
    },
    "materials": {
      "value": "a drop of mercury"
    },
    "sr": false,
    "shortDescription": "<p>You create a slightly concave, circular plane of force that follows you about and carries loads for you. The disk is 3 feet in diameter and 1 inch deep at its center. It can hold 100 pounds of weight per caster level. If used to transport a liquid, its capacity is 2 gallons. The disk floats approximately 3 feet above the ground at all times and remains level. It floats along horizontally within spell range and will accompany you at a rate of no more than your normal speed each round. If not otherwise directed, it maintains a constant interval of 5 feet between itself and you.</p><p>The disk winks out of existence when the spell duration expires.</p><p>The disk also winks out if you move beyond its range or try to take the disk more than 3 feet away from the surface beneath it.</p><p>When the disk winks out, whatever it was supporting falls to the surface beneath it.</p>",
    "spellDuration": "1 hour/level",
    "spellEffect": "3-ft.-diameter disk of force"
  },
  "effects": [],
  "folder": null,
  "sort": 0,
  "permission": {
    "default": 0
  },
  "flags": {}
}