{
  "_id": "gigqcn4amhmhgnnl",
  "name": "Fungal Blisters",
  "type": "spell",
  "img": "systems/pf1/icons/misc/magic-swirl.png",
  "data": {
    "description": {
      "value": "<div class=\"spell-description\">\n  <p>\n    <strong>School</strong>&nbsp;transmutation;\n    <strong>Level</strong>&nbsp;alchemist 2, druid 2, hunter 2, sorcerer/wizard 2, witch 2;\n    \n    \n    \n    \n  </p>\n  <p>\n    <strong>Casting Time</strong>&nbsp;1 standard<br>\n    <strong>Components</strong>&nbsp;V, S<br>\n  </p>\n  <p>\n    <strong>Range</strong>&nbsp;personal<br>\n    \n    <strong>Targets</strong>&nbsp;you<br>\n    \n    <strong>Duration</strong>&nbsp;1 minute/level or until discharged (see text)<br>\n  </p>\n  <h2>Description</h2>\n  <p>When you cast this spell, horrible, fungal growths sprout forth all over your body. You develop 1d2+1 of these blisters per 2 caster levels. Each time you are dealt more than 5 points of bludgeoning, piercing, or slashing damage from a single attack, one of these blisters bursts, releasing a cloud of harmful spores in a 5-foot-radius burst centered on you. These spores enter the lungs of all living creatures within the cloud that need to breathe and deal 1d6+1 points of damage for every 2 caster levels you have (Fortitude negates). This is a disease effect, and you and plants aren't affected by the spores. It is possible for more than one blister to burst in a single round. If you are reduced to 0 or fewer hit points, all remaining blisters burst, and the resulting spores deal the cumulative amount of damage.  You are not able to cast this spell while wearing heavy armor. If you don heavy armor during the spell's duration, all remaining blisters burst as if you had been reduced to 0 or fewer hit points.</p>\n</div>\n"
    },
    "tags": [],
    "activation": {
      "type": "standard"
    },
    "unchainedAction": {
      "activation": {
        "cost": 2,
        "type": "action"
      }
    },
    "target": {
      "value": "you"
    },
    "range": {
      "units": "personal"
    },
    "uses": {
      "per": ""
    },
    "measureTemplate": {
      "size": "0"
    },
    "actionType": "",
    "damage": {
      "parts": [],
      "critParts": [],
      "nonCritParts": []
    },
    "attackParts": [],
    "ability": {
      "attack": "",
      "damage": ""
    },
    "save": {
      "dc": "0"
    },
    "effectNotes": [],
    "attackNotes": [],
    "links": {
      "children": []
    },
    "flags": {
      "boolean": [],
      "dictionary": []
    },
    "scriptCalls": [],
    "learnedAt": {
      "class": [
        [
          "sorcerer/wizard",
          2
        ],
        [
          "druid",
          2
        ],
        [
          "alchemist",
          2
        ],
        [
          "witch",
          2
        ],
        [
          "hunter",
          2
        ]
      ],
      "domain": [],
      "subDomain": [],
      "elementalSchool": [],
      "bloodline": []
    },
    "level": 2,
    "school": "trs",
    "conditionals": [],
    "components": {
      "verbal": true,
      "somatic": true
    },
    "sr": false,
    "shortDescription": "<p>When you cast this spell, horrible, fungal growths sprout forth all over your body. You develop 1d2+1 of these blisters per 2 caster levels. Each time you are dealt more than 5 points of bludgeoning, piercing, or slashing damage from a single attack, one of these blisters bursts, releasing a cloud of harmful spores in a 5-foot-radius burst centered on you. These spores enter the lungs of all living creatures within the cloud that need to breathe and deal 1d6+1 points of damage for every 2 caster levels you have (Fortitude negates). This is a disease effect, and you and plants aren't affected by the spores. It is possible for more than one blister to burst in a single round. If you are reduced to 0 or fewer hit points, all remaining blisters burst, and the resulting spores deal the cumulative amount of damage.  You are not able to cast this spell while wearing heavy armor. If you don heavy armor during the spell's duration, all remaining blisters burst as if you had been reduced to 0 or fewer hit points.</p>",
    "spellDuration": "1 minute/level or until discharged (see text)"
  },
  "effects": [],
  "folder": null,
  "sort": 0,
  "permission": {
    "default": 0
  },
  "flags": {}
}