{
  "_id": "ezphr0l8audntk4e",
  "name": "Furious Fire Barrage",
  "type": "spell",
  "img": "systems/pf1/icons/misc/magic-swirl.png",
  "data": {
    "description": {
      "value": "<div class=\"spell-description\">\n  <p>\n    <strong>School</strong>&nbsp;evocation&nbsp;[fire];\n    <strong>Level</strong>&nbsp;bloodrager 4, magus 5, sorcerer/wizard 6;\n    \n    \n    \n    \n  </p>\n  <p>\n    <strong>Casting Time</strong>&nbsp;1 standard<br>\n    <strong>Components</strong>&nbsp;V, S, M (two balls of guano)<br>\n  </p>\n  <p>\n    <strong>Range</strong>&nbsp;personal<br>\n    \n    \n    \n    <strong>Duration</strong>&nbsp;1 round/level; see text<br>\n  </p>\n  <h2>Description</h2>\n  <p>Upon casting this spell, you conjure forth one or two balls of flame, each resting in a free hand. As part of casting this spell or as a standard action, you can throw one flame ball a maximum of 300 feet, dealing 1d6 points of fire damage per caster level you have (maximum 10d6) to all creatures within a 10-foot-radius spread.  So long as the spell's duration lasts, you can channel your anger as a full-round action to create one new ball of flame, which can be thrown as a standard action. You cannot create additional balls of flame while you are under the effects of a <i>calm emotions</i> spell or are otherwise unable to feel anger or outrage.</p>\n</div>\n"
    },
    "tags": [],
    "activation": {
      "type": "standard"
    },
    "unchainedAction": {
      "activation": {
        "cost": 2,
        "type": "action"
      }
    },
    "range": {
      "units": "personal"
    },
    "uses": {
      "per": ""
    },
    "measureTemplate": {
      "size": "0"
    },
    "actionType": "spellsave",
    "damage": {
      "parts": [],
      "critParts": [],
      "nonCritParts": []
    },
    "attackParts": [],
    "ability": {
      "attack": "",
      "damage": ""
    },
    "save": {
      "dc": "0",
      "type": "ref",
      "description": "Reflex half"
    },
    "effectNotes": [],
    "attackNotes": [],
    "links": {
      "children": []
    },
    "flags": {
      "boolean": [],
      "dictionary": []
    },
    "scriptCalls": [],
    "learnedAt": {
      "class": [
        [
          "sorcerer/wizard",
          6
        ],
        [
          "magus",
          5
        ],
        [
          "bloodrager",
          4
        ]
      ],
      "domain": [],
      "subDomain": [],
      "elementalSchool": [],
      "bloodline": []
    },
    "level": 6,
    "school": "evo",
    "types": "fire",
    "conditionals": [],
    "components": {
      "verbal": true,
      "somatic": true,
      "material": true
    },
    "materials": {
      "value": "two balls of guano"
    },
    "shortDescription": "<p>Upon casting this spell, you conjure forth one or two balls of flame, each resting in a free hand. As part of casting this spell or as a standard action, you can throw one flame ball a maximum of 300 feet, dealing 1d6 points of fire damage per caster level you have (maximum 10d6) to all creatures within a 10-foot-radius spread.  So long as the spell's duration lasts, you can channel your anger as a full-round action to create one new ball of flame, which can be thrown as a standard action. You cannot create additional balls of flame while you are under the effects of a <i>calm emotions</i> spell or are otherwise unable to feel anger or outrage.</p>",
    "spellDuration": "1 round/level; see text"
  },
  "effects": [],
  "folder": null,
  "sort": 0,
  "permission": {
    "default": 0
  },
  "flags": {}
}