{
  "_id": "ofw6gnp6r7t2wcba",
  "name": "Geas, Lesser",
  "type": "spell",
  "img": "systems/pf1/icons/misc/magic-swirl.png",
  "data": {
    "description": {
      "value": "<div class=\"spell-description\">\n  <p>\n    <strong>School</strong>&nbsp;enchantment&nbsp;(compulsion)&nbsp;[language-dependent, mind-affecting, curse];\n    <strong>Level</strong>&nbsp;bard 3, inquisitor 4, mesmerist 3, psychic 4, sorcerer/wizard 4, witch 4;\n    \n    \n    \n    \n  </p>\n  <p>\n    <strong>Casting Time</strong>&nbsp;1 round<br>\n    <strong>Components</strong>&nbsp;V<br>\n  </p>\n  <p>\n    <strong>Range</strong>&nbsp;close (25 ft. + 5 ft./2 levels)<br>\n    \n    <strong>Targets</strong>&nbsp;one living creature with 7 HD or less<br>\n    \n    <strong>Duration</strong>&nbsp;1 day/level or until discharged<br>\n      <strong>Saving Throw</strong>&nbsp;Will negates;&nbsp;\n      <strong>Spell Resistance</strong>&nbsp;yes<br>\n  </p>\n  <h2>Description</h2>\n  <p>A <i>lesser <i>geas</i></i> places a magical command on a creature to carry out some service or to refrain from some action or course of activity, as desired by you. The creature must have 7 or fewer HD and be able to understand you. While a <i>geas</i> cannot compel a creature to kill itself or perform acts that would result in certain death, it can cause almost any other course of activity.</p><p>The <i>geas</i>ed creature must follow the given instructions until the <i>geas</i> is completed, no matter how long it takes.</p><p>If the instructions involve some open-ended task that the recipient cannot complete through his own actions, the spell remains in effect for a maximum of 1 day per caster level. A clever recipient can subvert some instructions.</p><p>If the subject is prevented from obeying the <i>lesser <i>geas</i></i> for 24 hours, it takes a -2 penalty to each of its ability scores. Each day, another -2 penalty accumulates, up to a total of -8. No ability score can be reduced to less than 1 by this effect. The ability score penalties are removed 24 hours after the subject resumes obeying the <i>lesser <i>geas</i></i>.</p><p>A <i>lesser <i>geas</i></i> (and all ability score penalties) can be ended by break enchantment, limited wish, remove curse, miracle, or <i>wish. Dispel magic</i> does not affect a <i>lesser <i>geas</i></i>.</p>\n</div>\n"
    },
    "tags": [],
    "activation": {
      "type": "round"
    },
    "unchainedAction": {
      "activation": {
        "cost": 3,
        "type": "action"
      }
    },
    "target": {
      "value": "one living creature with 7 HD or less"
    },
    "range": {
      "units": "close"
    },
    "uses": {
      "per": ""
    },
    "measureTemplate": {
      "size": "0"
    },
    "actionType": "spellsave",
    "damage": {
      "parts": [],
      "critParts": [],
      "nonCritParts": []
    },
    "attackParts": [],
    "ability": {
      "attack": "",
      "damage": ""
    },
    "save": {
      "dc": "0",
      "type": "will",
      "description": "Will negates"
    },
    "effectNotes": [],
    "attackNotes": [],
    "links": {
      "children": []
    },
    "flags": {
      "boolean": [],
      "dictionary": []
    },
    "scriptCalls": [],
    "learnedAt": {
      "class": [
        [
          "sorcerer/wizard",
          4
        ],
        [
          "bard",
          3
        ],
        [
          "witch",
          4
        ],
        [
          "inquisitor",
          4
        ],
        [
          "psychic",
          4
        ],
        [
          "mesmerist",
          3
        ]
      ],
      "domain": [],
      "subDomain": [],
      "elementalSchool": [],
      "bloodline": []
    },
    "level": 4,
    "school": "enc",
    "subschool": "compulsion",
    "types": "language-dependent, mind-affecting, curse",
    "conditionals": [],
    "components": {
      "verbal": true
    },
    "shortDescription": "<p>A <i>lesser <i>geas</i></i> places a magical command on a creature to carry out some service or to refrain from some action or course of activity, as desired by you. The creature must have 7 or fewer HD and be able to understand you. While a <i>geas</i> cannot compel a creature to kill itself or perform acts that would result in certain death, it can cause almost any other course of activity.</p><p>The <i>geas</i>ed creature must follow the given instructions until the <i>geas</i> is completed, no matter how long it takes.</p><p>If the instructions involve some open-ended task that the recipient cannot complete through his own actions, the spell remains in effect for a maximum of 1 day per caster level. A clever recipient can subvert some instructions.</p><p>If the subject is prevented from obeying the <i>lesser <i>geas</i></i> for 24 hours, it takes a -2 penalty to each of its ability scores. Each day, another -2 penalty accumulates, up to a total of -8. No ability score can be reduced to less than 1 by this effect. The ability score penalties are removed 24 hours after the subject resumes obeying the <i>lesser <i>geas</i></i>.</p><p>A <i>lesser <i>geas</i></i> (and all ability score penalties) can be ended by break enchantment, limited wish, remove curse, miracle, or <i>wish. Dispel magic</i> does not affect a <i>lesser <i>geas</i></i>.</p>",
    "spellDuration": "1 day/level or until discharged"
  },
  "effects": [],
  "folder": null,
  "sort": 0,
  "permission": {
    "default": 0
  },
  "flags": {}
}