{
  "_id": "my0eryt29f91bcnz",
  "name": "Ghostly Disguise",
  "type": "spell",
  "img": "systems/pf1/icons/misc/magic-swirl.png",
  "data": {
    "description": {
      "value": "<div class=\"spell-description\">\n  <p>\n    <strong>School</strong>&nbsp;illusion&nbsp;(glamer);\n    <strong>Level</strong>&nbsp;alchemist 2, bard 2, inquisitor 2, medium 2, mesmerist 2, occultist 2, psychic 2, sorcerer/wizard 2, witch 2;\n    \n    \n    \n    \n  </p>\n  <p>\n    <strong>Casting Time</strong>&nbsp;1 standard<br>\n    <strong>Components</strong>&nbsp;V, S<br>\n  </p>\n  <p>\n    <strong>Range</strong>&nbsp;personal<br>\n    \n    <strong>Targets</strong>&nbsp;you<br>\n    \n    <strong>Duration</strong>&nbsp;10 minutes/level (D)<br>\n  </p>\n  <h2>Description</h2>\n  <p>You make yourself-including clothing, armor, weapons, and equipment-appear translucent like a ghost. Any mundane or magical disguise on you is affected by this illusion as well; for example, if you are disguised as the king or a sahuagin, you look like a ghostly version of the king or a sahuagin. Your ghostly form may have a pale green, blue, or violet coloration, or a muted version of your normal appearance.</p><p>The spell does not actually make you ghostly or provide any incorporeal abilities. If you choose, the illusion can make you appear to float slightly above the ground, though you are actually still on the ground. A creature that interacts with the glamer gets a Will save to recognize it as an illusion.</p>\n</div>\n"
    },
    "tags": [],
    "activation": {
      "type": "standard"
    },
    "unchainedAction": {
      "activation": {
        "cost": 2,
        "type": "action"
      }
    },
    "target": {
      "value": "you"
    },
    "range": {
      "units": "personal"
    },
    "uses": {
      "per": ""
    },
    "measureTemplate": {
      "size": "0"
    },
    "actionType": "",
    "damage": {
      "parts": [],
      "critParts": [],
      "nonCritParts": []
    },
    "attackParts": [],
    "ability": {
      "attack": "",
      "damage": ""
    },
    "save": {
      "dc": "0"
    },
    "effectNotes": [],
    "attackNotes": [],
    "links": {
      "children": []
    },
    "flags": {
      "boolean": [],
      "dictionary": []
    },
    "scriptCalls": [],
    "learnedAt": {
      "class": [
        [
          "sorcerer/wizard",
          2
        ],
        [
          "bard",
          2
        ],
        [
          "alchemist",
          2
        ],
        [
          "witch",
          2
        ],
        [
          "inquisitor",
          2
        ],
        [
          "psychic",
          2
        ],
        [
          "medium",
          2
        ],
        [
          "mesmerist",
          2
        ],
        [
          "occultist",
          2
        ]
      ],
      "domain": [],
      "subDomain": [],
      "elementalSchool": [],
      "bloodline": []
    },
    "level": 2,
    "school": "ill",
    "subschool": "glamer",
    "conditionals": [],
    "components": {
      "verbal": true,
      "somatic": true
    },
    "sr": false,
    "shortDescription": "<p>You make yourself-including clothing, armor, weapons, and equipment-appear translucent like a ghost. Any mundane or magical disguise on you is affected by this illusion as well; for example, if you are disguised as the king or a sahuagin, you look like a ghostly version of the king or a sahuagin. Your ghostly form may have a pale green, blue, or violet coloration, or a muted version of your normal appearance.</p><p>The spell does not actually make you ghostly or provide any incorporeal abilities. If you choose, the illusion can make you appear to float slightly above the ground, though you are actually still on the ground. A creature that interacts with the glamer gets a Will save to recognize it as an illusion.</p>",
    "spellDuration": "10 minutes/level (D)"
  },
  "effects": [],
  "folder": null,
  "sort": 0,
  "permission": {
    "default": 0
  },
  "flags": {}
}