{
  "_id": "a6a6s9jysswthu3r",
  "name": "Guiding Star",
  "type": "spell",
  "img": "systems/pf1/icons/misc/magic-swirl.png",
  "data": {
    "description": {
      "value": "<div class=\"spell-description\">\n  <p>\n    <strong>School</strong>&nbsp;divination;\n    <strong>Level</strong>&nbsp;cleric/oracle 3, hunter 2, psychic 3, ranger 2, shaman 2, witch 3;\n    \n    \n    \n    \n  </p>\n  <p>\n    <strong>Casting Time</strong>&nbsp;1 minute<br>\n    <strong>Components</strong>&nbsp;V, S, M (a spool of thread or string)<br>\n  </p>\n  <p>\n    <strong>Range</strong>&nbsp;personal<br>\n    \n    <strong>Targets</strong>&nbsp;you<br>\n    \n    <strong>Duration</strong>&nbsp;1 day/level (D)<br>\n  </p>\n  <h2>Description</h2>\n  <p>You form a bond with your surroundings when you cast this spell. For the remaining duration of the spell you can always, as a standard action, determine your approximate distance from that area as well as the direction you must travel in order to reach it. You cannot determine the location of the area if you are on a different plane. The area counts as \"very familiar\" for the purposes of <i>teleport or</i> similar spells. You can only attune yourself to one location at a time. If you cast the spell at another spot you lose the ability to locate your original area.</p>\n</div>\n"
    },
    "tags": [],
    "activation": {
      "type": "minute"
    },
    "unchainedAction": {
      "activation": {
        "type": "minute"
      }
    },
    "target": {
      "value": "you"
    },
    "range": {
      "units": "personal"
    },
    "uses": {
      "per": ""
    },
    "measureTemplate": {
      "size": "0"
    },
    "actionType": "",
    "damage": {
      "parts": [],
      "critParts": [],
      "nonCritParts": []
    },
    "attackParts": [],
    "ability": {
      "attack": "",
      "damage": ""
    },
    "save": {
      "dc": "0"
    },
    "effectNotes": [],
    "attackNotes": [],
    "links": {
      "children": []
    },
    "flags": {
      "boolean": [],
      "dictionary": []
    },
    "scriptCalls": [],
    "learnedAt": {
      "class": [
        [
          "cleric/oracle",
          3
        ],
        [
          "ranger",
          2
        ],
        [
          "witch",
          3
        ],
        [
          "shaman",
          2
        ],
        [
          "psychic",
          3
        ],
        [
          "hunter",
          2
        ]
      ],
      "domain": [],
      "subDomain": [],
      "elementalSchool": [],
      "bloodline": []
    },
    "level": 3,
    "school": "div",
    "conditionals": [],
    "components": {
      "verbal": true,
      "somatic": true,
      "material": true
    },
    "materials": {
      "value": "a spool of thread or string"
    },
    "sr": false,
    "shortDescription": "<p>You form a bond with your surroundings when you cast this spell. For the remaining duration of the spell you can always, as a standard action, determine your approximate distance from that area as well as the direction you must travel in order to reach it. You cannot determine the location of the area if you are on a different plane. The area counts as \"very familiar\" for the purposes of <i>teleport or</i> similar spells. You can only attune yourself to one location at a time. If you cast the spell at another spot you lose the ability to locate your original area.</p>",
    "spellDuration": "1 day/level (D)"
  },
  "effects": [],
  "folder": null,
  "sort": 0,
  "permission": {
    "default": 0
  },
  "flags": {}
}