{
  "_id": "hxelivxom2c6cntk",
  "name": "Hide Weapon",
  "type": "spell",
  "img": "systems/pf1/icons/misc/magic-swirl.png",
  "data": {
    "description": {
      "value": "<div class=\"spell-description\">\n  <p>\n    <strong>School</strong>&nbsp;transmutation;\n    <strong>Level</strong>&nbsp;antipaladin 1, bloodrager 1, hunter 1, inquisitor 1, magus 1, ranger 1, sorcerer/wizard 1;\n    \n    \n    \n    \n  </p>\n  <p>\n    <strong>Casting Time</strong>&nbsp;1 standard<br>\n    <strong>Components</strong>&nbsp;V, S<br>\n  </p>\n  <p>\n    <strong>Range</strong>&nbsp;personal<br>\n    \n    <strong>Targets</strong>&nbsp;you<br>\n    \n    <strong>Duration</strong>&nbsp;1 hour/level (D)<br>\n  </p>\n  <h2>Description</h2>\n  <p>Upon casting this spell, a light or one-handed melee weapon in your hand melds with your flesh, accompanied by a disgusting sucking sound. The weapon disappears completely inside your arm, and thereafter for the duration of the spell, you can extend and retract the weapon as a move action.  While extended, the weapon remains partially melded with your hand and arm, providing a +5 bonus to your CMD against disarm combat maneuvers. While the weapon is retracted, its shape adjusts to fit inside your arm, and you retain the use of your hand. Spotting the weapon on casual inspection is impossible, but anyone frisking you can attempt a DC 25 Perception check  to notice a light weapon or a DC 20 Perception check to notice a one-handed weapon hidden inside your arm. If the weapon grants a bonus on Sleight of Hand checks to hide it (as does a dagger), the bonus is added to the DC to find the item. Anyone who sees you casting this spell doesn't need to succeed at a Perception check to know you have the hidden weapon.  If you cast this spell a second time, you can hide another weapon inside your other arm. You can extend and retract both weapons as part of the same action.</p>\n</div>\n"
    },
    "tags": [],
    "activation": {
      "type": "standard"
    },
    "unchainedAction": {
      "activation": {
        "cost": 2,
        "type": "action"
      }
    },
    "target": {
      "value": "you"
    },
    "range": {
      "units": "personal"
    },
    "uses": {
      "per": ""
    },
    "measureTemplate": {
      "size": "0"
    },
    "actionType": "",
    "damage": {
      "parts": [],
      "critParts": [],
      "nonCritParts": []
    },
    "attackParts": [],
    "ability": {
      "attack": "",
      "damage": ""
    },
    "save": {
      "dc": "0"
    },
    "effectNotes": [],
    "attackNotes": [],
    "links": {
      "children": []
    },
    "flags": {
      "boolean": [],
      "dictionary": []
    },
    "scriptCalls": [],
    "learnedAt": {
      "class": [
        [
          "sorcerer/wizard",
          1
        ],
        [
          "ranger",
          1
        ],
        [
          "inquisitor",
          1
        ],
        [
          "antipaladin",
          1
        ],
        [
          "magus",
          1
        ],
        [
          "bloodrager",
          1
        ],
        [
          "hunter",
          1
        ]
      ],
      "domain": [],
      "subDomain": [],
      "elementalSchool": [],
      "bloodline": []
    },
    "school": "trs",
    "conditionals": [],
    "components": {
      "verbal": true,
      "somatic": true
    },
    "sr": false,
    "shortDescription": "<p>Upon casting this spell, a light or one-handed melee weapon in your hand melds with your flesh, accompanied by a disgusting sucking sound. The weapon disappears completely inside your arm, and thereafter for the duration of the spell, you can extend and retract the weapon as a move action.  While extended, the weapon remains partially melded with your hand and arm, providing a +5 bonus to your CMD against disarm combat maneuvers. While the weapon is retracted, its shape adjusts to fit inside your arm, and you retain the use of your hand. Spotting the weapon on casual inspection is impossible, but anyone frisking you can attempt a DC 25 Perception check  to notice a light weapon or a DC 20 Perception check to notice a one-handed weapon hidden inside your arm. If the weapon grants a bonus on Sleight of Hand checks to hide it (as does a dagger), the bonus is added to the DC to find the item. Anyone who sees you casting this spell doesn't need to succeed at a Perception check to know you have the hidden weapon.  If you cast this spell a second time, you can hide another weapon inside your other arm. You can extend and retract both weapons as part of the same action.</p>",
    "spellDuration": "1 hour/level (D)"
  },
  "effects": [],
  "folder": null,
  "sort": 0,
  "permission": {
    "default": 0
  },
  "flags": {}
}