{
  "_id": "5nr9o7o0it6ewf17",
  "name": "Hideous Laughter",
  "type": "spell",
  "img": "systems/pf1/icons/misc/magic-swirl.png",
  "data": {
    "description": {
      "value": "<div class=\"spell-description\">\n  <p>\n    <strong>School</strong>&nbsp;enchantment&nbsp;(compulsion)&nbsp;[mind-affecting];\n    <strong>Level</strong>&nbsp;bard 1, medium 2, mesmerist 1, psychic 2, sorcerer/wizard 2;\n    \n    <strong>Subdomain</strong>&nbsp;Revelry 2, Whimsy 1;\n    \n    <strong>Bloodline</strong>&nbsp;Fey 2, Maestro 2;\n  </p>\n  <p>\n    <strong>Casting Time</strong>&nbsp;1 standard<br>\n    <strong>Components</strong>&nbsp;V, S, M (tiny fruit tarts and a feather)<br>\n  </p>\n  <p>\n    <strong>Range</strong>&nbsp;close (25 ft. + 5 ft./2 levels)<br>\n    \n    <strong>Targets</strong>&nbsp;one creature; see text<br>\n    \n    <strong>Duration</strong>&nbsp;1 round/level<br>\n      <strong>Saving Throw</strong>&nbsp;Will negates;&nbsp;\n      <strong>Spell Resistance</strong>&nbsp;yes<br>\n  </p>\n  <h2>Description</h2>\n  <p>This spell afflicts the subject with uncontrollable laughter. It collapses into gales of manic laughter, falling prone. The subject can take no actions while laughing, but is not considered helpless.</p><p>After the spell ends, it can act normally. On the creature's next turn, it may attempt a new saving throw to end the effect. This is a full round action that does not provoke attacks of opportunity.</p><p>If this save is successful, the effect ends. If not, the creature continues laughing for the entire duration.</p><p>A creature with an Intelligence score of 2 or lower is not affected.</p><p>A creature whose type is different from the caster's receives a +4 bonus on its saving throw, because humor doesn't \"translate\" well.</p>\n</div>\n"
    },
    "tags": [],
    "activation": {
      "type": "standard"
    },
    "unchainedAction": {
      "activation": {
        "cost": 2,
        "type": "action"
      }
    },
    "target": {
      "value": "one creature; see text"
    },
    "range": {
      "units": "close"
    },
    "uses": {
      "per": ""
    },
    "measureTemplate": {
      "size": "0"
    },
    "actionType": "spellsave",
    "damage": {
      "parts": [],
      "critParts": [],
      "nonCritParts": []
    },
    "attackParts": [],
    "ability": {
      "attack": "",
      "damage": ""
    },
    "save": {
      "dc": "0",
      "type": "will",
      "description": "Will negates"
    },
    "effectNotes": [],
    "attackNotes": [],
    "links": {
      "children": []
    },
    "flags": {
      "boolean": [],
      "dictionary": []
    },
    "scriptCalls": [],
    "learnedAt": {
      "class": [
        [
          "sorcerer/wizard",
          2
        ],
        [
          "bard",
          1
        ],
        [
          "psychic",
          2
        ],
        [
          "medium",
          2
        ],
        [
          "mesmerist",
          1
        ]
      ],
      "domain": [],
      "subDomain": [
        [
          "Revelry",
          2
        ],
        [
          "Whimsy",
          1
        ]
      ],
      "elementalSchool": [],
      "bloodline": [
        [
          "Fey",
          2
        ],
        [
          "Maestro",
          2
        ]
      ]
    },
    "level": 2,
    "school": "enc",
    "subschool": "compulsion",
    "types": "mind-affecting",
    "conditionals": [],
    "components": {
      "verbal": true,
      "somatic": true,
      "material": true
    },
    "materials": {
      "value": "tiny fruit tarts and a feather"
    },
    "shortDescription": "<p>This spell afflicts the subject with uncontrollable laughter. It collapses into gales of manic laughter, falling prone. The subject can take no actions while laughing, but is not considered helpless.</p><p>After the spell ends, it can act normally. On the creature's next turn, it may attempt a new saving throw to end the effect. This is a full round action that does not provoke attacks of opportunity.</p><p>If this save is successful, the effect ends. If not, the creature continues laughing for the entire duration.</p><p>A creature with an Intelligence score of 2 or lower is not affected.</p><p>A creature whose type is different from the caster's receives a +4 bonus on its saving throw, because humor doesn't \"translate\" well.</p>",
    "spellDuration": "1 round/level"
  },
  "effects": [],
  "folder": null,
  "sort": 0,
  "permission": {
    "default": 0
  },
  "flags": {}
}