{
  "_id": "78kwl5t99j9e8tzh",
  "name": "Hold Person",
  "type": "spell",
  "img": "systems/pf1/icons/misc/magic-swirl.png",
  "data": {
    "description": {
      "value": "<div class=\"spell-description\">\n  <p>\n    <strong>School</strong>&nbsp;enchantment&nbsp;(compulsion)&nbsp;[mind-affecting];\n    <strong>Level</strong>&nbsp;antipaladin 2, bard 2, bloodrager 3, cleric/oracle 2, inquisitor 2, medium 2, mesmerist 2, occultist 3, psychic 2, shaman 2, sorcerer/wizard 3, witch 2;\n    \n    \n    \n    \n  </p>\n  <p>\n    <strong>Casting Time</strong>&nbsp;1 standard<br>\n    <strong>Components</strong>&nbsp;V, S, F/DF (a small, straight piece of iron)<br>\n  </p>\n  <p>\n    <strong>Range</strong>&nbsp;medium (100 ft. + 10 ft./level)<br>\n    \n    <strong>Targets</strong>&nbsp;one humanoid creature<br>\n    \n    <strong>Duration</strong>&nbsp;1 round/level; see text<br>\n      <strong>Saving Throw</strong>&nbsp;Will negates; see text;&nbsp;\n      <strong>Spell Resistance</strong>&nbsp;yes<br>\n  </p>\n  <h2>Description</h2>\n  <p>The subject becomes paralyzed and freezes in place. It is aware and breathes normally but cannot take any actions, even speech. Each round on its turn, the subject may attempt a new saving throw to end the effect. This is a full-round action that does not provoke attacks of opportunity. A winged creature who is paralyzed cannot flap its wings and falls. A swimmer can't swim and may drown.</p>\n</div>\n"
    },
    "tags": [],
    "activation": {
      "type": "standard"
    },
    "unchainedAction": {
      "activation": {
        "cost": 2,
        "type": "action"
      }
    },
    "target": {
      "value": "one humanoid creature"
    },
    "range": {
      "units": "medium"
    },
    "uses": {
      "per": ""
    },
    "measureTemplate": {
      "size": "0"
    },
    "actionType": "spellsave",
    "damage": {
      "parts": [],
      "critParts": [],
      "nonCritParts": []
    },
    "attackParts": [],
    "ability": {
      "attack": "",
      "damage": ""
    },
    "save": {
      "dc": "0",
      "type": "will",
      "description": "Will negates; see text"
    },
    "effectNotes": [],
    "attackNotes": [],
    "links": {
      "children": []
    },
    "flags": {
      "boolean": [],
      "dictionary": []
    },
    "scriptCalls": [],
    "learnedAt": {
      "class": [
        [
          "sorcerer/wizard",
          3
        ],
        [
          "cleric/oracle",
          2
        ],
        [
          "bard",
          2
        ],
        [
          "witch",
          2
        ],
        [
          "inquisitor",
          2
        ],
        [
          "antipaladin",
          2
        ],
        [
          "bloodrager",
          3
        ],
        [
          "shaman",
          2
        ],
        [
          "psychic",
          2
        ],
        [
          "medium",
          2
        ],
        [
          "mesmerist",
          2
        ],
        [
          "occultist",
          3
        ]
      ],
      "domain": [],
      "subDomain": [],
      "elementalSchool": [],
      "bloodline": []
    },
    "level": 3,
    "school": "enc",
    "subschool": "compulsion",
    "types": "mind-affecting",
    "conditionals": [],
    "components": {
      "verbal": true,
      "somatic": true,
      "focus": true,
      "divineFocus": 3
    },
    "materials": {
      "focus": "a small, straight piece of iron"
    },
    "shortDescription": "<p>The subject becomes paralyzed and freezes in place. It is aware and breathes normally but cannot take any actions, even speech. Each round on its turn, the subject may attempt a new saving throw to end the effect. This is a full-round action that does not provoke attacks of opportunity. A winged creature who is paralyzed cannot flap its wings and falls. A swimmer can't swim and may drown.</p>",
    "spellDuration": "1 round/level; see text"
  },
  "effects": [],
  "folder": null,
  "sort": 0,
  "permission": {
    "default": 0
  },
  "flags": {}
}