{
  "_id": "1c8ads84vzffydyc",
  "name": "Homeward Bound",
  "type": "spell",
  "img": "systems/pf1/icons/misc/magic-swirl.png",
  "data": {
    "description": {
      "value": "<div class=\"spell-description\">\n  <p>\n    <strong>School</strong>&nbsp;abjuration;\n    <strong>Level</strong>&nbsp;cleric/oracle 3, sorcerer/wizard 4;\n    \n    \n    \n    \n  </p>\n  <p>\n    <strong>Casting Time</strong>&nbsp;1 minute<br>\n    <strong>Components</strong>&nbsp;V, S<br>\n  </p>\n  <p>\n    <strong>Range</strong>&nbsp;touch<br>\n    \n    <strong>Targets</strong>&nbsp;one willing extraplanar creature<br>\n    \n    <strong>Duration</strong>&nbsp;instantaneous<br>\n      <strong>Saving Throw</strong>&nbsp;Will negates (harmless);&nbsp;\n      <strong>Spell Resistance</strong>&nbsp;yes<br>\n  </p>\n  <h2>Description</h2>\n  <p>This spell functions as <i>dismissal</i>, except as noted above.</p>\n</div>\n"
    },
    "tags": [],
    "activation": {
      "type": "minute"
    },
    "unchainedAction": {
      "activation": {
        "type": "minute"
      }
    },
    "target": {
      "value": "one willing extraplanar creature"
    },
    "range": {
      "units": "touch"
    },
    "uses": {
      "per": ""
    },
    "measureTemplate": {
      "size": "0"
    },
    "actionType": "spellsave",
    "damage": {
      "parts": [],
      "critParts": [],
      "nonCritParts": []
    },
    "attackParts": [],
    "ability": {
      "attack": "",
      "damage": ""
    },
    "save": {
      "dc": "0",
      "type": "will",
      "description": "Will negates (harmless)"
    },
    "effectNotes": [],
    "attackNotes": [],
    "links": {
      "children": []
    },
    "flags": {
      "boolean": [],
      "dictionary": []
    },
    "scriptCalls": [],
    "learnedAt": {
      "class": [
        [
          "sorcerer/wizard",
          4
        ],
        [
          "cleric/oracle",
          3
        ]
      ],
      "domain": [],
      "subDomain": [],
      "elementalSchool": [],
      "bloodline": []
    },
    "level": 4,
    "school": "abj",
    "conditionals": [],
    "components": {
      "verbal": true,
      "somatic": true
    },
    "shortDescription": "<p>This spell functions as <i>dismissal</i>, except as noted above.</p>",
    "spellDuration": "instantaneous"
  },
  "effects": [],
  "folder": null,
  "sort": 0,
  "permission": {
    "default": 0
  },
  "flags": {}
}