{
  "_id": "o2y1z1uh1nja3jd2",
  "name": "Ice Crystal Teleport",
  "type": "spell",
  "img": "systems/pf1/icons/misc/magic-swirl.png",
  "data": {
    "description": {
      "value": "<div class=\"spell-description\">\n  <p>\n    <strong>School</strong>&nbsp;conjuration&nbsp;(teleportation)&nbsp;[cold];\n    <strong>Level</strong>&nbsp;sorcerer/wizard 6, summoner 5, unchained Summoner 6, witch 6;\n    \n    \n    \n    \n  </p>\n  <p>\n    <strong>Casting Time</strong>&nbsp;1 standard<br>\n    <strong>Components</strong>&nbsp;V<br>\n  </p>\n  <p>\n    <strong>Range</strong>&nbsp;long (400 ft. + 40 ft./level)<br>\n    \n    <strong>Targets</strong>&nbsp;one creature<br>\n    \n    <strong>Duration</strong>&nbsp;1d4 rounds and instantaneous<br>\n      <strong>Saving Throw</strong>&nbsp;Will negates;&nbsp;\n      <strong>Spell Resistance</strong>&nbsp;yes<br>\n  </p>\n  <h2>Description</h2>\n  <p>This spell functions as <i>teleport</i>, except you use it to <i>teleport</i> yourself or one other creature to a safe location you specify (the target can bring along objects as long as their weight doesn't exceed the target's heavy load). You can only send the target to a location with which you are very familiar. The target is first trapped in ice (hardness 0, 3 hit points per inch of thickness, 1 inch thick per caster level) for 1d4 rounds, during which time it is paralyzed, aware but unable to take any physical actions, and begins to fade away as the <i>teleport</i>ation aspect takes effect. At the end of the 1d4 rounds, the target <i>teleport</i>s to the specified location, and the ice's hit points drop to 0 and it quickly melts away. If the ice is destroyed before the target <i>teleport</i>s, the spell ends and the <i>teleport</i> doesn't occur.</p>\n</div>\n"
    },
    "tags": [],
    "activation": {
      "type": "standard"
    },
    "unchainedAction": {
      "activation": {
        "cost": 2,
        "type": "action"
      }
    },
    "target": {
      "value": "one creature"
    },
    "range": {
      "units": "long"
    },
    "uses": {
      "per": ""
    },
    "measureTemplate": {
      "size": "0"
    },
    "actionType": "spellsave",
    "damage": {
      "parts": [],
      "critParts": [],
      "nonCritParts": []
    },
    "attackParts": [],
    "ability": {
      "attack": "",
      "damage": ""
    },
    "save": {
      "dc": "0",
      "type": "will",
      "description": "Will negates"
    },
    "effectNotes": [],
    "attackNotes": [],
    "links": {
      "children": []
    },
    "flags": {
      "boolean": [],
      "dictionary": []
    },
    "scriptCalls": [],
    "learnedAt": {
      "class": [
        [
          "sorcerer/wizard",
          6
        ],
        [
          "summoner",
          5
        ],
        [
          "witch",
          6
        ],
        [
          "unchained Summoner",
          6
        ]
      ],
      "domain": [],
      "subDomain": [],
      "elementalSchool": [],
      "bloodline": []
    },
    "level": 6,
    "school": "con",
    "subschool": "teleportation",
    "types": "cold",
    "conditionals": [],
    "components": {
      "verbal": true
    },
    "shortDescription": "<p>This spell functions as <i>teleport</i>, except you use it to <i>teleport</i> yourself or one other creature to a safe location you specify (the target can bring along objects as long as their weight doesn't exceed the target's heavy load). You can only send the target to a location with which you are very familiar. The target is first trapped in ice (hardness 0, 3 hit points per inch of thickness, 1 inch thick per caster level) for 1d4 rounds, during which time it is paralyzed, aware but unable to take any physical actions, and begins to fade away as the <i>teleport</i>ation aspect takes effect. At the end of the 1d4 rounds, the target <i>teleport</i>s to the specified location, and the ice's hit points drop to 0 and it quickly melts away. If the ice is destroyed before the target <i>teleport</i>s, the spell ends and the <i>teleport</i> doesn't occur.</p>",
    "spellDuration": "1d4 rounds and instantaneous"
  },
  "effects": [],
  "folder": null,
  "sort": 0,
  "permission": {
    "default": 0
  },
  "flags": {}
}