{
  "_id": "ow2bsd2aeqaxm5go",
  "name": "Iron Spine",
  "type": "spell",
  "img": "systems/pf1/icons/misc/magic-swirl.png",
  "data": {
    "description": {
      "value": "<div class=\"spell-description\">\n  <p>\n    <strong>School</strong>&nbsp;transmutation;\n    <strong>Level</strong>&nbsp;cleric/oracle 4, magus 3, sorcerer/wizard 3, witch 3;\n    \n    \n    \n    \n  </p>\n  <p>\n    <strong>Casting Time</strong>&nbsp;1 standard<br>\n    <strong>Components</strong>&nbsp;V, S, M/DF (cold iron ingot)<br>\n  </p>\n  <p>\n    <strong>Range</strong>&nbsp;medium (100 ft. + 10 ft./level)<br>\n    \n    <strong>Targets</strong>&nbsp;one living creature<br>\n    \n    <strong>Duration</strong>&nbsp;1 round/level<br>\n      <strong>Saving Throw</strong>&nbsp;no;&nbsp;\n      <strong>Spell Resistance</strong>&nbsp;yes<br>\n  </p>\n  <h2>Description</h2>\n  <p>You launch an ingot of iron at the target. If you succeed at a ranged touch attack, the target's skeleton or exoskeleton turns into jagged shards of cold iron. Whenever the target moves, it takes 1d6 points of piercing damage and is sickened for 1 round as metal spines stab into its flesh. This damage is subject to damage reduction, but it overcomes damage reduction as though it were a weapon of cold iron and magic. A creature affected by this spell can choose to remain motionless to avoid taking damage. Creatures with DR/cold iron or DR/cold iron and magic affected by this spell are nauseated instead of sickened. This spell has no effect on a creature that has neither a skeleton nor a hard carapace.</p>\n</div>\n"
    },
    "tags": [],
    "activation": {
      "type": "standard"
    },
    "unchainedAction": {
      "activation": {
        "cost": 2,
        "type": "action"
      }
    },
    "target": {
      "value": "one living creature"
    },
    "range": {
      "units": "medium"
    },
    "uses": {
      "per": ""
    },
    "measureTemplate": {
      "size": "0"
    },
    "actionType": "spellsave",
    "damage": {
      "parts": [],
      "critParts": [],
      "nonCritParts": []
    },
    "attackParts": [],
    "ability": {
      "attack": "",
      "damage": ""
    },
    "save": {
      "dc": "0",
      "description": "no"
    },
    "effectNotes": [],
    "attackNotes": [],
    "links": {
      "children": []
    },
    "flags": {
      "boolean": [],
      "dictionary": []
    },
    "scriptCalls": [],
    "learnedAt": {
      "class": [
        [
          "sorcerer/wizard",
          3
        ],
        [
          "cleric/oracle",
          4
        ],
        [
          "witch",
          3
        ],
        [
          "magus",
          3
        ]
      ],
      "domain": [],
      "subDomain": [],
      "elementalSchool": [],
      "bloodline": []
    },
    "level": 3,
    "school": "trs",
    "conditionals": [],
    "components": {
      "verbal": true,
      "somatic": true,
      "material": true,
      "divineFocus": 2
    },
    "materials": {
      "value": "cold iron ingot"
    },
    "shortDescription": "<p>You launch an ingot of iron at the target. If you succeed at a ranged touch attack, the target's skeleton or exoskeleton turns into jagged shards of cold iron. Whenever the target moves, it takes 1d6 points of piercing damage and is sickened for 1 round as metal spines stab into its flesh. This damage is subject to damage reduction, but it overcomes damage reduction as though it were a weapon of cold iron and magic. A creature affected by this spell can choose to remain motionless to avoid taking damage. Creatures with DR/cold iron or DR/cold iron and magic affected by this spell are nauseated instead of sickened. This spell has no effect on a creature that has neither a skeleton nor a hard carapace.</p>",
    "spellDuration": "1 round/level"
  },
  "effects": [],
  "folder": null,
  "sort": 0,
  "permission": {
    "default": 0
  },
  "flags": {}
}