{
  "_id": "bbrkkjmgo5kof6gn",
  "name": "Keen Edge",
  "type": "spell",
  "img": "systems/pf1/icons/misc/magic-swirl.png",
  "data": {
    "description": {
      "value": "<div class=\"spell-description\">\n  <p>\n    <strong>School</strong>&nbsp;transmutation;\n    <strong>Level</strong>&nbsp;bloodrager 3, inquisitor 3, magus 3, occultist 3, sorcerer/wizard 3;\n    \n    <strong>Subdomain</strong>&nbsp;Murder 3;\n    \n    \n  </p>\n  <p>\n    <strong>Casting Time</strong>&nbsp;1 standard<br>\n    <strong>Components</strong>&nbsp;V, S<br>\n  </p>\n  <p>\n    <strong>Range</strong>&nbsp;close (25 ft. + 5 ft./2 levels)<br>\n    \n    <strong>Targets</strong>&nbsp;one weapon or 50 projectiles, all of which must be together at the time of casting<br>\n    \n    <strong>Duration</strong>&nbsp;10 min./level<br>\n      <strong>Saving Throw</strong>&nbsp;Will negates (harmless, object);&nbsp;\n      <strong>Spell Resistance</strong>&nbsp;yes<br>\n  </p>\n  <h2>Description</h2>\n  <p>This spell makes a weapon magically <i>keen</i>, improving its ability to deal telling blows. This transmutation doubles the threat range of the weapon. A threat range of 20 becomes 19-20, a threat range of 19-20 becomes 17-20, and a threat range of 18-20 becomes 15-20. The spell can be cast only on piercing or slashing weapons. If cast on arrows or crossbow bolts, the <i><i>keen</i> edge</i> on a particular projectile ends after one use, whether or not the missile strikes its intended target.</p><p>Treat shuriken as arrows, rather than as thrown weapons, for the purpose of this spell.</p><p>Multiple effects that increase a weapon's threat range (such as the <i>keen</i> special weapon property and the Improved Critical feat) don't stack. You can't cast this spell on a natural weapon, such as a claw.</p>\n</div>\n"
    },
    "tags": [],
    "activation": {
      "type": "standard"
    },
    "unchainedAction": {
      "activation": {
        "cost": 2,
        "type": "action"
      }
    },
    "target": {
      "value": "one weapon or 50 projectiles, all of which must be together at the time of casting"
    },
    "range": {
      "units": "close"
    },
    "uses": {
      "per": ""
    },
    "measureTemplate": {
      "size": "0"
    },
    "actionType": "spellsave",
    "damage": {
      "parts": [],
      "critParts": [],
      "nonCritParts": []
    },
    "attackParts": [],
    "ability": {
      "attack": "",
      "damage": ""
    },
    "save": {
      "dc": "0",
      "type": "will",
      "description": "Will negates (harmless, object)"
    },
    "effectNotes": [],
    "attackNotes": [],
    "links": {
      "children": []
    },
    "flags": {
      "boolean": [],
      "dictionary": []
    },
    "scriptCalls": [],
    "learnedAt": {
      "class": [
        [
          "sorcerer/wizard",
          3
        ],
        [
          "inquisitor",
          3
        ],
        [
          "magus",
          3
        ],
        [
          "bloodrager",
          3
        ],
        [
          "occultist",
          3
        ]
      ],
      "domain": [],
      "subDomain": [
        [
          "Murder",
          3
        ]
      ],
      "elementalSchool": [],
      "bloodline": []
    },
    "level": 3,
    "school": "trs",
    "conditionals": [],
    "components": {
      "verbal": true,
      "somatic": true
    },
    "shortDescription": "<p>This spell makes a weapon magically <i>keen</i>, improving its ability to deal telling blows. This transmutation doubles the threat range of the weapon. A threat range of 20 becomes 19-20, a threat range of 19-20 becomes 17-20, and a threat range of 18-20 becomes 15-20. The spell can be cast only on piercing or slashing weapons. If cast on arrows or crossbow bolts, the <i><i>keen</i> edge</i> on a particular projectile ends after one use, whether or not the missile strikes its intended target.</p><p>Treat shuriken as arrows, rather than as thrown weapons, for the purpose of this spell.</p><p>Multiple effects that increase a weapon's threat range (such as the <i>keen</i> special weapon property and the Improved Critical feat) don't stack. You can't cast this spell on a natural weapon, such as a claw.</p>",
    "spellDuration": "10 min./level"
  },
  "effects": [],
  "folder": null,
  "sort": 0,
  "permission": {
    "default": 0
  },
  "flags": {}
}