{
  "_id": "sbxbl7g46ve29dyt",
  "name": "Know Peerage",
  "type": "spell",
  "img": "systems/pf1/icons/misc/magic-swirl.png",
  "data": {
    "description": {
      "value": "<div class=\"spell-description\">\n  <p>\n    <strong>School</strong>&nbsp;divination&nbsp;[mind-affecting];\n    <strong>Level</strong>&nbsp;bard 1, cleric/oracle 2, inquisitor 2, medium 1, mesmerist 2, occultist 2, paladin 1, psychic 2, sorcerer/wizard 2;\n    \n    \n    \n    \n  </p>\n  <p>\n    <strong>Casting Time</strong>&nbsp;1 standard<br>\n    <strong>Components</strong>&nbsp;V, S, M (thread from a tabard or livery)<br>\n  </p>\n  <p>\n    <strong>Range</strong>&nbsp;touch<br>\n    \n    <strong>Targets</strong>&nbsp;creature touched<br>\n    \n    <strong>Duration</strong>&nbsp;10 minutes/level<br>\n      <strong>Saving Throw</strong>&nbsp;Will negates (harmless);&nbsp;\n      <strong>Spell Resistance</strong>&nbsp;yes<br>\n  </p>\n  <h2>Description</h2>\n  <p>You impart your knowledge of nobility and peerage to the target, allowing her to recognize members of noble households, differentiate one set of heraldry from another, and otherwise identify who's who at a royal gala or other noteworthy social event. The target is able to identify noble individuals, noble family names, and noble crests, signets, heraldry, and other symbols. The target treats her number of ranks in Knowledge (nobility) as though it were equal to your number of ranks in Knowledge (nobility), to a maximum of 5 ranks and a minimum of 0. If the target's number of ranks is greater than yours, she uses her own number of ranks instead. In addition, if the target's new total skill bonus on Knowledge (nobility) checks is at least +0, she automatically succeeds on all Knowledge (nobility) checks with a DC of 10 or lower.</p>\n</div>\n"
    },
    "tags": [],
    "activation": {
      "type": "standard"
    },
    "unchainedAction": {
      "activation": {
        "cost": 2,
        "type": "action"
      }
    },
    "target": {
      "value": "creature touched"
    },
    "range": {
      "units": "touch"
    },
    "uses": {
      "per": ""
    },
    "measureTemplate": {
      "size": "0"
    },
    "actionType": "spellsave",
    "damage": {
      "parts": [],
      "critParts": [],
      "nonCritParts": []
    },
    "attackParts": [],
    "ability": {
      "attack": "",
      "damage": ""
    },
    "save": {
      "dc": "0",
      "type": "will",
      "description": "Will negates (harmless)"
    },
    "effectNotes": [],
    "attackNotes": [],
    "links": {
      "children": []
    },
    "flags": {
      "boolean": [],
      "dictionary": []
    },
    "scriptCalls": [],
    "learnedAt": {
      "class": [
        [
          "sorcerer/wizard",
          2
        ],
        [
          "cleric/oracle",
          2
        ],
        [
          "bard",
          1
        ],
        [
          "paladin",
          1
        ],
        [
          "inquisitor",
          2
        ],
        [
          "psychic",
          2
        ],
        [
          "medium",
          1
        ],
        [
          "mesmerist",
          2
        ],
        [
          "occultist",
          2
        ]
      ],
      "domain": [],
      "subDomain": [],
      "elementalSchool": [],
      "bloodline": []
    },
    "level": 2,
    "school": "div",
    "types": "mind-affecting",
    "conditionals": [],
    "components": {
      "verbal": true,
      "somatic": true,
      "material": true
    },
    "materials": {
      "value": "thread from a tabard or livery"
    },
    "shortDescription": "<p>You impart your knowledge of nobility and peerage to the target, allowing her to recognize members of noble households, differentiate one set of heraldry from another, and otherwise identify who's who at a royal gala or other noteworthy social event. The target is able to identify noble individuals, noble family names, and noble crests, signets, heraldry, and other symbols. The target treats her number of ranks in Knowledge (nobility) as though it were equal to your number of ranks in Knowledge (nobility), to a maximum of 5 ranks and a minimum of 0. If the target's number of ranks is greater than yours, she uses her own number of ranks instead. In addition, if the target's new total skill bonus on Knowledge (nobility) checks is at least +0, she automatically succeeds on all Knowledge (nobility) checks with a DC of 10 or lower.</p>",
    "spellDuration": "10 minutes/level"
  },
  "effects": [],
  "folder": null,
  "sort": 0,
  "permission": {
    "default": 0
  },
  "flags": {}
}