{
  "_id": "3hszv44b9w3w80pq",
  "name": "Lash of the Astradaemon",
  "type": "spell",
  "img": "systems/pf1/icons/misc/magic-swirl.png",
  "data": {
    "description": {
      "value": "<div class=\"spell-description\">\n  <p>\n    <strong>School</strong>&nbsp;necromancy&nbsp;[evil];\n    <strong>Level</strong>&nbsp;cleric/oracle 6, magus 5, sorcerer/wizard 6, witch 6;\n    \n    \n    \n    \n  </p>\n  <p>\n    <strong>Casting Time</strong>&nbsp;1 standard<br>\n    <strong>Components</strong>&nbsp;V, S<br>\n  </p>\n  <p>\n    <strong>Range</strong>&nbsp;personal<br>\n    \n    \n    \n    <strong>Duration</strong>&nbsp;instantaneous<br>\n  </p>\n  <h2>Description</h2>\n  <p>You draw on the essence of astradaemons to cause one of your hands to elongate and sprout fearsome translucent claws that radiate a cold phosphorescence. You gain one claw attack, which is a primary natural attack that deals 1d6 points of slashing damage on a hit (1d4 for a Small spellcaster) and forces the creature struck to succeed at a Fortitude save against the spell (spell resistance applies) to resist gaining 1 negative level. Each time you inflict a negative level with this spell, you gain 5 temporary hit points that persist for 1 hour. A creature that succeeds at the saving throw against your claw's negative level is immune to further negative levels inflicted from this casting of <i>Lash of the Astradaemon</i> but not to the claw's damage. The claw does not interfere with your ability to cast spells or perform other actions that require hands. You can use your claw attack up to 1 time per 2 caster levels. Your claw reverts to a normal hand once you've delivered all of your potential attacks or after 24 hours (whichever comes first).</p>\n</div>\n"
    },
    "tags": [],
    "activation": {
      "type": "standard"
    },
    "unchainedAction": {
      "activation": {
        "cost": 2,
        "type": "action"
      }
    },
    "range": {
      "units": "personal"
    },
    "uses": {
      "per": ""
    },
    "measureTemplate": {
      "size": "0"
    },
    "actionType": "spellsave",
    "damage": {
      "parts": [],
      "critParts": [],
      "nonCritParts": []
    },
    "attackParts": [],
    "ability": {
      "attack": "",
      "damage": ""
    },
    "save": {
      "dc": "0",
      "type": "fort",
      "description": "Fortitude negates (see text)"
    },
    "effectNotes": [],
    "attackNotes": [],
    "links": {
      "children": []
    },
    "flags": {
      "boolean": [],
      "dictionary": []
    },
    "scriptCalls": [],
    "learnedAt": {
      "class": [
        [
          "sorcerer/wizard",
          6
        ],
        [
          "cleric/oracle",
          6
        ],
        [
          "witch",
          6
        ],
        [
          "magus",
          5
        ]
      ],
      "domain": [],
      "subDomain": [],
      "elementalSchool": [],
      "bloodline": []
    },
    "level": 6,
    "school": "nec",
    "types": "evil",
    "conditionals": [],
    "components": {
      "verbal": true,
      "somatic": true
    },
    "shortDescription": "<p>You draw on the essence of astradaemons to cause one of your hands to elongate and sprout fearsome translucent claws that radiate a cold phosphorescence. You gain one claw attack, which is a primary natural attack that deals 1d6 points of slashing damage on a hit (1d4 for a Small spellcaster) and forces the creature struck to succeed at a Fortitude save against the spell (spell resistance applies) to resist gaining 1 negative level. Each time you inflict a negative level with this spell, you gain 5 temporary hit points that persist for 1 hour. A creature that succeeds at the saving throw against your claw's negative level is immune to further negative levels inflicted from this casting of <i>Lash of the Astradaemon</i> but not to the claw's damage. The claw does not interfere with your ability to cast spells or perform other actions that require hands. You can use your claw attack up to 1 time per 2 caster levels. Your claw reverts to a normal hand once you've delivered all of your potential attacks or after 24 hours (whichever comes first).</p>",
    "spellDuration": "instantaneous"
  },
  "effects": [],
  "folder": null,
  "sort": 0,
  "permission": {
    "default": 0
  },
  "flags": {}
}