{
  "_id": "zfzmj7qvu3ib9nph",
  "name": "Lost Legacy",
  "type": "spell",
  "img": "systems/pf1/icons/misc/magic-swirl.png",
  "data": {
    "description": {
      "value": "<div class=\"spell-description\">\n  <p>\n    <strong>School</strong>&nbsp;enchantment&nbsp;[curse, mind-affecting];\n    <strong>Level</strong>&nbsp;bard 6, cleric/oracle 7, inquisitor 6, occultist 6, psychic 7, sorcerer/wizard 7, witch 6;\n    \n    \n    \n    \n  </p>\n  <p>\n    <strong>Casting Time</strong>&nbsp;1 standard<br>\n    <strong>Components</strong>&nbsp;V, S, F/DF (a holy symbol of a dead or forgotten deity, or flag of a fallen or forgotten nation)<br>\n  </p>\n  <p>\n    <strong>Range</strong>&nbsp;touch<br>\n    \n    <strong>Targets</strong>&nbsp;creature touched<br>\n    \n    <strong>Duration</strong>&nbsp;permanent<br>\n      <strong>Saving Throw</strong>&nbsp;Will negates;&nbsp;\n      <strong>Spell Resistance</strong>&nbsp;yes<br>\n  </p>\n  <h2>Description</h2>\n  <p>You inflict a powerful curse on a touched creature that causes others to quickly forget positive aspects of their interactions with the target. The target cannot attempt a Diplomacy (or wild empathy or similar ability) check to improve the attitude of other creatures. Any creature that normally has an attitude of friendly or helpful toward the target must succeed at a Will save at the spell's normal saving throw DC each time it interacts with the target, or its attitude becomes indifferent. Once this curse is removed, creatures coming back into contact with the target regain their pleasant memories of it. If their attitudes toward the target have not been reduced from indifferent, their original attitudes are restored.</p>\n</div>\n"
    },
    "tags": [],
    "activation": {
      "type": "standard"
    },
    "unchainedAction": {
      "activation": {
        "cost": 2,
        "type": "action"
      }
    },
    "target": {
      "value": "creature touched"
    },
    "range": {
      "units": "touch"
    },
    "uses": {
      "per": ""
    },
    "measureTemplate": {
      "size": "0"
    },
    "actionType": "spellsave",
    "damage": {
      "parts": [],
      "critParts": [],
      "nonCritParts": []
    },
    "attackParts": [],
    "ability": {
      "attack": "",
      "damage": ""
    },
    "save": {
      "dc": "0",
      "type": "will",
      "description": "Will negates"
    },
    "effectNotes": [],
    "attackNotes": [],
    "links": {
      "children": []
    },
    "flags": {
      "boolean": [],
      "dictionary": []
    },
    "scriptCalls": [],
    "learnedAt": {
      "class": [
        [
          "sorcerer/wizard",
          7
        ],
        [
          "cleric/oracle",
          7
        ],
        [
          "bard",
          6
        ],
        [
          "witch",
          6
        ],
        [
          "inquisitor",
          6
        ],
        [
          "psychic",
          7
        ],
        [
          "occultist",
          6
        ]
      ],
      "domain": [],
      "subDomain": [],
      "elementalSchool": [],
      "bloodline": []
    },
    "level": 7,
    "school": "enc",
    "types": "curse, mind-affecting",
    "conditionals": [],
    "components": {
      "verbal": true,
      "somatic": true,
      "focus": true,
      "divineFocus": 3
    },
    "materials": {
      "focus": "a holy symbol of a dead or forgotten deity, or flag of a fallen or forgotten nation"
    },
    "shortDescription": "<p>You inflict a powerful curse on a touched creature that causes others to quickly forget positive aspects of their interactions with the target. The target cannot attempt a Diplomacy (or wild empathy or similar ability) check to improve the attitude of other creatures. Any creature that normally has an attitude of friendly or helpful toward the target must succeed at a Will save at the spell's normal saving throw DC each time it interacts with the target, or its attitude becomes indifferent. Once this curse is removed, creatures coming back into contact with the target regain their pleasant memories of it. If their attitudes toward the target have not been reduced from indifferent, their original attitudes are restored.</p>",
    "spellDuration": "permanent"
  },
  "effects": [],
  "folder": null,
  "sort": 0,
  "permission": {
    "default": 0
  },
  "flags": {}
}