{
  "_id": "bgtmki0xl4xl4y91",
  "name": "Magic Fang, Greater",
  "type": "spell",
  "img": "systems/pf1/icons/misc/magic-swirl.png",
  "data": {
    "description": {
      "value": "<div class=\"spell-description\">\n  <p>\n    <strong>School</strong>&nbsp;transmutation;\n    <strong>Level</strong>&nbsp;druid 3, hunter 3, ranger 3, spiritualist 3, summoner 3, unchained Summoner 3;\n    <strong>Domain</strong>&nbsp;Scalykind 3;\n    <strong>Subdomain</strong>&nbsp;Cannibalism 3, Fist 3;\n    \n    \n  </p>\n  <p>\n    <strong>Casting Time</strong>&nbsp;1 standard<br>\n    <strong>Components</strong>&nbsp;V, S, DF<br>\n  </p>\n  <p>\n    <strong>Range</strong>&nbsp;close (25 ft. + 5 ft./2 levels)<br>\n    \n    <strong>Targets</strong>&nbsp;one living creature<br>\n    \n    <strong>Duration</strong>&nbsp;1 hour/level<br>\n      <strong>Saving Throw</strong>&nbsp;Will negates (harmless);&nbsp;\n      <strong>Spell Resistance</strong>&nbsp;yes<br>\n  </p>\n  <h2>Description</h2>\n  <p>This spell functions like @Compendium[pf1.spells.cfzk3vkv1c7ncaug]{Magic Fang}, except that the enhancement bonus on attack and damage rolls is +1 per four caster levels (maximum +5). This bonus does not allow a natural weapon or unarmed strike to bypass damage reduction aside from magic.</p>\n<p>Alternatively, you may imbue all of the creature's natural weapons with a +1 enhancement bonus (regardless of your caster level).</p>\n<p>Greater <em>magic fang</em> can be made permanent with a @Compendium[pf1.spells.nsxngq65mbrzgwnm]{Permanency}&nbsp;spell.</p>\n</div>\n"
    },
    "tags": [],
    "activation": {
      "type": "standard"
    },
    "unchainedAction": {
      "activation": {
        "cost": 2,
        "type": "action"
      }
    },
    "target": {
      "value": "one living creature"
    },
    "range": {
      "units": "close"
    },
    "uses": {
      "per": ""
    },
    "measureTemplate": {
      "size": "0"
    },
    "actionType": "spellsave",
    "damage": {
      "parts": [],
      "critParts": [],
      "nonCritParts": []
    },
    "attackParts": [],
    "ability": {
      "attack": "",
      "damage": ""
    },
    "save": {
      "dc": "0",
      "type": "will",
      "description": "Will negates (harmless)"
    },
    "effectNotes": [],
    "attackNotes": [],
    "links": {
      "children": []
    },
    "flags": {
      "boolean": [],
      "dictionary": []
    },
    "scriptCalls": [],
    "learnedAt": {
      "class": [
        [
          "druid",
          3
        ],
        [
          "ranger",
          3
        ],
        [
          "summoner",
          3
        ],
        [
          "spiritualist",
          3
        ],
        [
          "hunter",
          3
        ],
        [
          "unchained Summoner",
          3
        ]
      ],
      "domain": [
        [
          "Scalykind",
          3
        ]
      ],
      "subDomain": [
        [
          "Cannibalism",
          3
        ],
        [
          "Fist",
          3
        ]
      ],
      "elementalSchool": [],
      "bloodline": []
    },
    "level": 3,
    "school": "trs",
    "conditionals": [],
    "components": {
      "verbal": true,
      "somatic": true,
      "divineFocus": 1
    },
    "spellbook": "",
    "shortDescription": "<p>This spell functions like @Compendium[pf1.spells.cfzk3vkv1c7ncaug]{Magic Fang}, except that the enhancement bonus on attack and damage rolls is +1 per four caster levels (maximum +5). This bonus does not allow a natural weapon or unarmed strike to bypass damage reduction aside from magic.</p>\n<p>Alternatively, you may imbue all of the creature's natural weapons with a +1 enhancement bonus (regardless of your caster level).</p>\n<p>Greater <em>magic fang</em> can be made permanent with a @Compendium[pf1.spells.nsxngq65mbrzgwnm]{Permanency}&nbsp;spell.</p>",
    "spellDuration": "1 hour/level"
  },
  "effects": [],
  "folder": null,
  "sort": 0,
  "permission": {
    "default": 0
  },
  "flags": {}
}