{
  "_id": "eiocqcnac13xai90",
  "name": "Malediction",
  "type": "spell",
  "img": "systems/pf1/icons/misc/magic-swirl.png",
  "data": {
    "description": {
      "value": "<div class=\"spell-description\">\n  <p>\n    <strong>School</strong>&nbsp;necromancy&nbsp;[curse, evil];\n    <strong>Level</strong>&nbsp;antipaladin 4, cleric/oracle 4, shaman 4, spiritualist 4, witch 4;\n    \n    \n    \n    \n  </p>\n  <p>\n    <strong>Casting Time</strong>&nbsp;1 standard<br>\n    <strong>Components</strong>&nbsp;V, S<br>\n  </p>\n  <p>\n    <strong>Range</strong>&nbsp;touch<br>\n    \n    <strong>Targets</strong>&nbsp;1 creature touched<br>\n    \n    <strong>Duration</strong>&nbsp;1 minute and instantaneous (see text)<br>\n      <strong>Saving Throw</strong>&nbsp;Will negates;&nbsp;\n      <strong>Spell Resistance</strong>&nbsp;yes<br>\n  </p>\n  <h2>Description</h2>\n  <p>Channeling the blasphemy of fiends into your hand, you mark your target with a brief but fundamental corruption, causing its soul to be irretrievably damned should it die within the next minute. If you are lawful evil, souls are sent to Hell. If you are neutral evil, souls are sent to Abaddon. If you are chaotic evil, souls are sent to the Abyss.  A target killed while under the effect of this spell cannot be resurrected by normal means. Only a worshiper of a deity or demigod of your alignment can return a soul damned by <i>malediction</i> to life without difficulty. Other spellcasters must succeed at a caster level check (DC = 10 + your caster level) to restore to life a creature slain while under the effects of  <i>malediction</i>. <i>Miracle</i> or <i>wish</i> can return the victim of a <i>malediction</i> to life without requiring a caster level check.  A soul can also be freed by the efforts of someone bodily going to the appropriate plane, locating the affected soul, and leading it out of the plane, which allows it to go to its intended destination in the afterlife and be resurrected as normal. You can end the effects of your own <i>malediction</i> by casting the spell again and concentrating on a past target. Doing so only frees the past target to go to its rightful place in death; it does not return the target to life.  Spells such as <i>break enchantment</i>, <i>dispel magic</i>, and <i>remove curse</i> negate this spell if successfully cast before the target dies.</p>\n</div>\n"
    },
    "tags": [],
    "activation": {
      "type": "standard"
    },
    "unchainedAction": {
      "activation": {
        "cost": 2,
        "type": "action"
      }
    },
    "target": {
      "value": "1 creature touched"
    },
    "range": {
      "units": "touch"
    },
    "uses": {
      "per": ""
    },
    "measureTemplate": {
      "size": "0"
    },
    "actionType": "spellsave",
    "damage": {
      "parts": [],
      "critParts": [],
      "nonCritParts": []
    },
    "attackParts": [],
    "ability": {
      "attack": "",
      "damage": ""
    },
    "save": {
      "dc": "0",
      "type": "will",
      "description": "Will negates"
    },
    "effectNotes": [],
    "attackNotes": [],
    "links": {
      "children": []
    },
    "flags": {
      "boolean": [],
      "dictionary": []
    },
    "scriptCalls": [],
    "learnedAt": {
      "class": [
        [
          "cleric/oracle",
          4
        ],
        [
          "witch",
          4
        ],
        [
          "antipaladin",
          4
        ],
        [
          "shaman",
          4
        ],
        [
          "spiritualist",
          4
        ]
      ],
      "domain": [],
      "subDomain": [],
      "elementalSchool": [],
      "bloodline": []
    },
    "level": 4,
    "school": "nec",
    "types": "curse, evil",
    "conditionals": [],
    "components": {
      "verbal": true,
      "somatic": true
    },
    "shortDescription": "<p>Channeling the blasphemy of fiends into your hand, you mark your target with a brief but fundamental corruption, causing its soul to be irretrievably damned should it die within the next minute. If you are lawful evil, souls are sent to Hell. If you are neutral evil, souls are sent to Abaddon. If you are chaotic evil, souls are sent to the Abyss.  A target killed while under the effect of this spell cannot be resurrected by normal means. Only a worshiper of a deity or demigod of your alignment can return a soul damned by <i>malediction</i> to life without difficulty. Other spellcasters must succeed at a caster level check (DC = 10 + your caster level) to restore to life a creature slain while under the effects of  <i>malediction</i>. <i>Miracle</i> or <i>wish</i> can return the victim of a <i>malediction</i> to life without requiring a caster level check.  A soul can also be freed by the efforts of someone bodily going to the appropriate plane, locating the affected soul, and leading it out of the plane, which allows it to go to its intended destination in the afterlife and be resurrected as normal. You can end the effects of your own <i>malediction</i> by casting the spell again and concentrating on a past target. Doing so only frees the past target to go to its rightful place in death; it does not return the target to life.  Spells such as <i>break enchantment</i>, <i>dispel magic</i>, and <i>remove curse</i> negate this spell if successfully cast before the target dies.</p>",
    "spellDuration": "1 minute and instantaneous (see text)"
  },
  "effects": [],
  "folder": null,
  "sort": 0,
  "permission": {
    "default": 0
  },
  "flags": {}
}