{
  "_id": "xhzme0v6tjq95fg6",
  "name": "Meteor Swarm",
  "type": "spell",
  "img": "systems/pf1/icons/misc/magic-swirl.png",
  "data": {
    "description": {
      "value": "<div class=\"spell-description\">\n  <p>\n    <strong>School</strong>&nbsp;evocation&nbsp;[fire];\n    <strong>Level</strong>&nbsp;sorcerer/wizard 9;\n    \n    <strong>Subdomain</strong>&nbsp;Stars 9;\n    \n    <strong>Bloodline</strong>&nbsp;Boreal 9, Infernal 9, Orc 9, Starsoul 9;\n  </p>\n  <p>\n    <strong>Casting Time</strong>&nbsp;1 standard<br>\n    <strong>Components</strong>&nbsp;V, S<br>\n  </p>\n  <p>\n    <strong>Range</strong>&nbsp;long (400 ft. + 40 ft./level)<br>\n    <strong>Area</strong>&nbsp;four 40-ft.-radius spreads, see text<br>\n    \n    \n    <strong>Duration</strong>&nbsp;instantaneous<br>\n      <strong>Saving Throw</strong>&nbsp;none or Reflex half, see text;&nbsp;\n      <strong>Spell Resistance</strong>&nbsp;yes<br>\n  </p>\n  <h2>Description</h2>\n  <p><i>Meteor swarm</i> is a very powerful and spectacular spell that is similar to <i>fireball</i> in many aspects. When you cast it, four 2-foot-diameter spheres spring from your outstretched hand and streak in straight lines to the spots you select. The meteor spheres leave a fiery trail of sparks.</p><p>If you aim a sphere at a specific creature, you may make a ranged touch attack to strike the target with the meteor. Any creature struck by a sphere takes 2d6 points of bludgeoning damage (no save) and takes a -4 penalty on the saving throw against the sphere's fire damage (see below). If a targeted sphere misses its target, it simply explodes at the nearest corner of the target's space. You may aim more than one sphere at the same target.</p><p>Once a sphere reaches its destination, it explodes in a 40-foot-radius spread, dealing 6d6 points of fire damage to each creature in the area. If a creature is within the area of more than one sphere, it must save separately against each. Despite stemming from separate spheres, all of the fire damage is added together after the saves have been made, and fire resistance is applied only once.</p>\n</div>\n"
    },
    "tags": [],
    "activation": {
      "type": "standard"
    },
    "unchainedAction": {
      "activation": {
        "cost": 2,
        "type": "action"
      }
    },
    "range": {
      "units": "long"
    },
    "uses": {
      "per": ""
    },
    "measureTemplate": {
      "size": "0"
    },
    "actionType": "spellsave",
    "damage": {
      "parts": [],
      "critParts": [],
      "nonCritParts": []
    },
    "attackParts": [],
    "ability": {
      "attack": "",
      "damage": ""
    },
    "save": {
      "dc": "0",
      "type": "ref",
      "description": "none or Reflex half, see text"
    },
    "effectNotes": [],
    "attackNotes": [],
    "links": {
      "children": []
    },
    "flags": {
      "boolean": [],
      "dictionary": []
    },
    "scriptCalls": [],
    "learnedAt": {
      "class": [
        [
          "sorcerer/wizard",
          9
        ]
      ],
      "domain": [],
      "subDomain": [
        [
          "Stars",
          9
        ]
      ],
      "elementalSchool": [],
      "bloodline": [
        [
          "Boreal",
          9
        ],
        [
          "Infernal",
          9
        ],
        [
          "Orc",
          9
        ],
        [
          "Starsoul",
          9
        ]
      ]
    },
    "level": 9,
    "school": "evo",
    "types": "fire",
    "conditionals": [],
    "components": {
      "verbal": true,
      "somatic": true
    },
    "shortDescription": "<p><i>Meteor swarm</i> is a very powerful and spectacular spell that is similar to <i>fireball</i> in many aspects. When you cast it, four 2-foot-diameter spheres spring from your outstretched hand and streak in straight lines to the spots you select. The meteor spheres leave a fiery trail of sparks.</p><p>If you aim a sphere at a specific creature, you may make a ranged touch attack to strike the target with the meteor. Any creature struck by a sphere takes 2d6 points of bludgeoning damage (no save) and takes a -4 penalty on the saving throw against the sphere's fire damage (see below). If a targeted sphere misses its target, it simply explodes at the nearest corner of the target's space. You may aim more than one sphere at the same target.</p><p>Once a sphere reaches its destination, it explodes in a 40-foot-radius spread, dealing 6d6 points of fire damage to each creature in the area. If a creature is within the area of more than one sphere, it must save separately against each. Despite stemming from separate spheres, all of the fire damage is added together after the saves have been made, and fire resistance is applied only once.</p>",
    "spellDuration": "instantaneous",
    "spellArea": "four 40-ft.-radius spreads, see text"
  },
  "effects": [],
  "folder": null,
  "sort": 0,
  "permission": {
    "default": 0
  },
  "flags": {}
}