{
  "_id": "esugpfcs3zwbujt1",
  "name": "Microcosm",
  "type": "spell",
  "img": "systems/pf1/icons/misc/magic-swirl.png",
  "data": {
    "description": {
      "value": "<div class=\"spell-description\">\n  <p>\n    <strong>School</strong>&nbsp;illusion&nbsp;(phantasm)&nbsp;[mind-affecting];\n    <strong>Level</strong>&nbsp;psychic 9;\n    \n    \n    \n    <strong>Bloodline</strong>&nbsp;Psychic 9;\n  </p>\n  <p>\n    <strong>Casting Time</strong>&nbsp;1 standard<br>\n    <strong>Components</strong>&nbsp;V, S<br>\n  </p>\n  <p>\n    <strong>Range</strong>&nbsp;close (25 ft. + 5 ft./2 levels)<br>\n    \n    <strong>Targets</strong>&nbsp;one or more creatures<br>\n    \n    <strong>Duration</strong>&nbsp;permanent<br>\n      <strong>Saving Throw</strong>&nbsp;Will partial (see text);&nbsp;\n      <strong>Spell Resistance</strong>&nbsp;yes<br>\n  </p>\n  <h2>Description</h2>\n  <p>You plunge the targets' minds into a veiled immersive mindscape (see page 235) of your own design. You can affect any number of creatures whose combined total Hit Dice do not exceed 30. A creature of 10 HD or fewer gets no saving throw, one of 11-15 HD escapes after 10 minutes per level you possess on a successful save, and a creature of 16 HD or more negates the effect on a successful save. Given time, the bodies of creatures  whose minds are trapped in a <i>microcosm</i> can die of starvation and thirst without care. Creatures can neither escape from nor enter a <i>microcosm</i>, even via a <i>mindscape door</i>. <i>Microcosm</i> can be ended only by <i>miracle</i> or <i>wish</i>.  Creatures inside a <i>microcosm</i> can be affected by mind-affecting effects targeted against their real bodies. However, they perceive them as natural events within their inner mindscape. Multiple creatures affected by the same <i>microcosm</i> can interact with one another within the mindscape.</p>\n</div>\n"
    },
    "tags": [],
    "activation": {
      "type": "standard"
    },
    "unchainedAction": {
      "activation": {
        "cost": 2,
        "type": "action"
      }
    },
    "target": {
      "value": "one or more creatures"
    },
    "range": {
      "units": "close"
    },
    "uses": {
      "per": ""
    },
    "measureTemplate": {
      "size": "0"
    },
    "actionType": "spellsave",
    "damage": {
      "parts": [],
      "critParts": [],
      "nonCritParts": []
    },
    "attackParts": [],
    "ability": {
      "attack": "",
      "damage": ""
    },
    "save": {
      "dc": "0",
      "type": "will",
      "description": "Will partial (see text)"
    },
    "effectNotes": [],
    "attackNotes": [],
    "links": {
      "children": []
    },
    "flags": {
      "boolean": [],
      "dictionary": []
    },
    "scriptCalls": [],
    "learnedAt": {
      "class": [
        [
          "psychic",
          9
        ]
      ],
      "domain": [],
      "subDomain": [],
      "elementalSchool": [],
      "bloodline": [
        [
          "Psychic",
          9
        ]
      ]
    },
    "level": 9,
    "school": "ill",
    "subschool": "phantasm",
    "types": "mind-affecting",
    "conditionals": [],
    "components": {
      "verbal": true,
      "somatic": true
    },
    "shortDescription": "<p>You plunge the targets' minds into a veiled immersive mindscape (see page 235) of your own design. You can affect any number of creatures whose combined total Hit Dice do not exceed 30. A creature of 10 HD or fewer gets no saving throw, one of 11-15 HD escapes after 10 minutes per level you possess on a successful save, and a creature of 16 HD or more negates the effect on a successful save. Given time, the bodies of creatures  whose minds are trapped in a <i>microcosm</i> can die of starvation and thirst without care. Creatures can neither escape from nor enter a <i>microcosm</i>, even via a <i>mindscape door</i>. <i>Microcosm</i> can be ended only by <i>miracle</i> or <i>wish</i>.  Creatures inside a <i>microcosm</i> can be affected by mind-affecting effects targeted against their real bodies. However, they perceive them as natural events within their inner mindscape. Multiple creatures affected by the same <i>microcosm</i> can interact with one another within the mindscape.</p>",
    "spellDuration": "permanent"
  },
  "effects": [],
  "folder": null,
  "sort": 0,
  "permission": {
    "default": 0
  },
  "flags": {}
}