{
  "_id": "to00zn5k23sngjwq",
  "name": "Mindshock",
  "type": "spell",
  "img": "systems/pf1/icons/misc/magic-swirl.png",
  "data": {
    "description": {
      "value": "<div class=\"spell-description\">\n  <p>\n    <strong>School</strong>&nbsp;divination&nbsp;[mind-affecting, pain];\n    <strong>Level</strong>&nbsp;antipaladin 2, bloodrager 2, inquisitor 2, medium 2, occultist 2, psychic 2, shaman 2, spiritualist 2, witch 2;\n    \n    \n    \n    \n  </p>\n  <p>\n    <strong>Casting Time</strong>&nbsp;1 standard<br>\n    <strong>Components</strong>&nbsp;V, S<br>\n  </p>\n  <p>\n    <strong>Range</strong>&nbsp;personal<br>\n    \n    <strong>Targets</strong>&nbsp;you<br>\n    \n    <strong>Duration</strong>&nbsp;1 round/level (D)<br>\n  </p>\n  <h2>Description</h2>\n  <p>You charge yourself with violent psychic energy so attacks you make with weapons, natural weapons, and unarmed strikes cause the target to recall pain suffered in the past. Such attacks deal 1d4 points of nonlethal damage in addition to their normal damage, though creatures immune  to mind-affecting or pain effects ignore this additional damage. In addition, when you confirm a critical hit, the target is confused for 1 round by the pain. Creatures immune to critical hits, mind-affecting, or pain effects ignore the confusion. Even if you confirm multiple critical hits while this spell is in effect, an individual creature can only be confused by a single casting of <i>mindshock</i> once.</p>\n</div>\n"
    },
    "tags": [],
    "activation": {
      "type": "standard"
    },
    "unchainedAction": {
      "activation": {
        "cost": 2,
        "type": "action"
      }
    },
    "target": {
      "value": "you"
    },
    "range": {
      "units": "personal"
    },
    "uses": {
      "per": ""
    },
    "measureTemplate": {
      "size": "0"
    },
    "actionType": "",
    "damage": {
      "parts": [],
      "critParts": [],
      "nonCritParts": []
    },
    "attackParts": [],
    "ability": {
      "attack": "",
      "damage": ""
    },
    "save": {
      "dc": "0"
    },
    "effectNotes": [],
    "attackNotes": [],
    "links": {
      "children": []
    },
    "flags": {
      "boolean": [],
      "dictionary": []
    },
    "scriptCalls": [],
    "learnedAt": {
      "class": [
        [
          "witch",
          2
        ],
        [
          "inquisitor",
          2
        ],
        [
          "antipaladin",
          2
        ],
        [
          "bloodrager",
          2
        ],
        [
          "shaman",
          2
        ],
        [
          "psychic",
          2
        ],
        [
          "medium",
          2
        ],
        [
          "occultist",
          2
        ],
        [
          "spiritualist",
          2
        ]
      ],
      "domain": [],
      "subDomain": [],
      "elementalSchool": [],
      "bloodline": []
    },
    "level": 2,
    "school": "div",
    "types": "mind-affecting, pain",
    "conditionals": [],
    "components": {
      "verbal": true,
      "somatic": true
    },
    "sr": false,
    "shortDescription": "<p>You charge yourself with violent psychic energy so attacks you make with weapons, natural weapons, and unarmed strikes cause the target to recall pain suffered in the past. Such attacks deal 1d4 points of nonlethal damage in addition to their normal damage, though creatures immune  to mind-affecting or pain effects ignore this additional damage. In addition, when you confirm a critical hit, the target is confused for 1 round by the pain. Creatures immune to critical hits, mind-affecting, or pain effects ignore the confusion. Even if you confirm multiple critical hits while this spell is in effect, an individual creature can only be confused by a single casting of <i>mindshock</i> once.</p>",
    "spellDuration": "1 round/level (D)"
  },
  "effects": [],
  "folder": null,
  "sort": 0,
  "permission": {
    "default": 0
  },
  "flags": {}
}