{
  "_id": "jm0m9y5fr6z7ee6u",
  "name": "Mind Over Matter",
  "type": "spell",
  "img": "systems/pf1/icons/misc/magic-swirl.png",
  "data": {
    "description": {
      "value": "<div class=\"spell-description\">\n  <p>\n    <strong>School</strong>&nbsp;necromancy;\n    <strong>Level</strong>&nbsp;mesmerist 2, psychic 2, spiritualist 2;\n    \n    \n    \n    \n  </p>\n  <p>\n    <strong>Casting Time</strong>&nbsp;1 standard<br>\n    <strong>Components</strong>&nbsp;V, S<br>\n  </p>\n  <p>\n    <strong>Range</strong>&nbsp;touch<br>\n    \n    <strong>Targets</strong>&nbsp;one creature<br>\n    \n    <strong>Duration</strong>&nbsp;instantaneous<br>\n      <strong>Saving Throw</strong>&nbsp;Fort negates;&nbsp;\n      <strong>Spell Resistance</strong>&nbsp;yes<br>\n  </p>\n  <h2>Description</h2>\n  <p>You blur the lines between mind and body, reassigning ability damage or drain your target has taken to a corresponding ability score, as per the following table.   <table border ='1'><tr><th>Physical Ability Score</th><th>Mental Ability Score</th></tr><tr><td>Strength</td><td>Intelligence</td></tr><tr><td>Dexterity</td><td>Wisdom</td></tr><tr><td>Constitution</td><td>Charisma</td></tr></table>     The transfer of damage can go either way-you can convert Intelligence damage to Strength damage and vice versa. You can transfer any number of points of damage or drain in a single casting, though only from one ability score to the corresponding ability score. You cannot transfer enough ability damage or drain to reduce an ability score to 0.</p>\n</div>\n"
    },
    "tags": [],
    "activation": {
      "type": "standard"
    },
    "unchainedAction": {
      "activation": {
        "cost": 2,
        "type": "action"
      }
    },
    "target": {
      "value": "one creature"
    },
    "range": {
      "units": "touch"
    },
    "uses": {
      "per": ""
    },
    "measureTemplate": {
      "size": "0"
    },
    "actionType": "spellsave",
    "damage": {
      "parts": [],
      "critParts": [],
      "nonCritParts": []
    },
    "attackParts": [],
    "ability": {
      "attack": "",
      "damage": ""
    },
    "save": {
      "dc": "0",
      "type": "fort",
      "description": "Fort negates"
    },
    "effectNotes": [],
    "attackNotes": [],
    "links": {
      "children": []
    },
    "flags": {
      "boolean": [],
      "dictionary": []
    },
    "scriptCalls": [],
    "learnedAt": {
      "class": [
        [
          "psychic",
          2
        ],
        [
          "mesmerist",
          2
        ],
        [
          "spiritualist",
          2
        ]
      ],
      "domain": [],
      "subDomain": [],
      "elementalSchool": [],
      "bloodline": []
    },
    "level": 2,
    "school": "nec",
    "conditionals": [],
    "components": {
      "verbal": true,
      "somatic": true
    },
    "shortDescription": "<p>You blur the lines between mind and body, reassigning ability damage or drain your target has taken to a corresponding ability score, as per the following table.   <table border ='1'><tr><th>Physical Ability Score</th><th>Mental Ability Score</th></tr><tr><td>Strength</td><td>Intelligence</td></tr><tr><td>Dexterity</td><td>Wisdom</td></tr><tr><td>Constitution</td><td>Charisma</td></tr></table>     The transfer of damage can go either way-you can convert Intelligence damage to Strength damage and vice versa. You can transfer any number of points of damage or drain in a single casting, though only from one ability score to the corresponding ability score. You cannot transfer enough ability damage or drain to reduce an ability score to 0.</p>",
    "spellDuration": "instantaneous"
  },
  "effects": [],
  "folder": null,
  "sort": 0,
  "permission": {
    "default": 0
  },
  "flags": {}
}