{
  "_id": "2vb5orfcy57lrfmc",
  "name": "Moment of Prescience",
  "type": "spell",
  "img": "systems/pf1/icons/misc/magic-swirl.png",
  "data": {
    "description": {
      "value": "<div class=\"spell-description\">\n  <p>\n    <strong>School</strong>&nbsp;divination;\n    <strong>Level</strong>&nbsp;psychic 8, sorcerer/wizard 8, witch 8;\n    <strong>Domain</strong>&nbsp;Luck 8;\n    <strong>Subdomain</strong>&nbsp;Memory 8;\n    \n    <strong>Bloodline</strong>&nbsp;Destined 8, Dreamspun 8, Harrow 8;\n  </p>\n  <p>\n    <strong>Casting Time</strong>&nbsp;1 standard<br>\n    <strong>Components</strong>&nbsp;V, S<br>\n  </p>\n  <p>\n    <strong>Range</strong>&nbsp;personal<br>\n    \n    <strong>Targets</strong>&nbsp;you<br>\n    \n    <strong>Duration</strong>&nbsp;1 hour/level or until discharged<br>\n  </p>\n  <h2>Description</h2>\n  <p>This spell grants you a sixth sense. Once during the spell's duration, you may choose to use its effect. This spell grants you an insight bonus equal to your caster level (maximum +25) on any single attack roll, combat maneuver check, opposed ability or skill check, or saving throw. Alternatively, you can apply the insight bonus to your AC against a single attack (even if flatfooted).</p><p>Activating the effect doesn't take an action; you can even activate it on another character's turn. You must choose to use the <i>moment of prescience</i> before you make the roll it is to modify.</p><p>Once used, the spell ends. You can't have more than one <i>moment of prescience</i> active on you at the same time.</p>\n</div>\n"
    },
    "tags": [],
    "activation": {
      "type": "standard"
    },
    "unchainedAction": {
      "activation": {
        "cost": 2,
        "type": "action"
      }
    },
    "target": {
      "value": "you"
    },
    "range": {
      "units": "personal"
    },
    "uses": {
      "per": ""
    },
    "measureTemplate": {
      "size": "0"
    },
    "actionType": "",
    "damage": {
      "parts": [],
      "critParts": [],
      "nonCritParts": []
    },
    "attackParts": [],
    "ability": {
      "attack": "",
      "damage": ""
    },
    "save": {
      "dc": "0"
    },
    "effectNotes": [],
    "attackNotes": [],
    "links": {
      "children": []
    },
    "flags": {
      "boolean": [],
      "dictionary": []
    },
    "scriptCalls": [],
    "learnedAt": {
      "class": [
        [
          "sorcerer/wizard",
          8
        ],
        [
          "witch",
          8
        ],
        [
          "psychic",
          8
        ]
      ],
      "domain": [
        [
          "Luck",
          8
        ]
      ],
      "subDomain": [
        [
          "Memory",
          8
        ]
      ],
      "elementalSchool": [],
      "bloodline": [
        [
          "Destined",
          8
        ],
        [
          "Dreamspun",
          8
        ],
        [
          "Harrow",
          8
        ]
      ]
    },
    "level": 8,
    "school": "div",
    "conditionals": [],
    "components": {
      "verbal": true,
      "somatic": true
    },
    "sr": false,
    "shortDescription": "<p>This spell grants you a sixth sense. Once during the spell's duration, you may choose to use its effect. This spell grants you an insight bonus equal to your caster level (maximum +25) on any single attack roll, combat maneuver check, opposed ability or skill check, or saving throw. Alternatively, you can apply the insight bonus to your AC against a single attack (even if flatfooted).</p><p>Activating the effect doesn't take an action; you can even activate it on another character's turn. You must choose to use the <i>moment of prescience</i> before you make the roll it is to modify.</p><p>Once used, the spell ends. You can't have more than one <i>moment of prescience</i> active on you at the same time.</p>",
    "spellDuration": "1 hour/level or until discharged"
  },
  "effects": [],
  "folder": null,
  "sort": 0,
  "permission": {
    "default": 0
  },
  "flags": {}
}