{
  "_id": "xpwa181h8eghfew2",
  "name": "Monstrous Physique II",
  "type": "spell",
  "img": "systems/pf1/icons/misc/magic-swirl.png",
  "data": {
    "description": {
      "value": "<div class=\"spell-description\">\n  <p>\n    <strong>School</strong>&nbsp;transmutation&nbsp;(polymorph);\n    <strong>Level</strong>&nbsp;alchemist 4, bloodrager 4, magus 4, sorcerer/wizard 4;\n    \n    \n    \n    \n  </p>\n  <p>\n    <strong>Casting Time</strong>&nbsp;1 standard<br>\n    <strong>Components</strong>&nbsp;V, S, M (a piece of the creature whose form you plan to assume)<br>\n  </p>\n  <p>\n    <strong>Range</strong>&nbsp;personal<br>\n    \n    <strong>Targets</strong>&nbsp;you<br>\n    \n    <strong>Duration</strong>&nbsp;1 minute/level (D)<br>\n  </p>\n  <h2>Description</h2>\n  <p>This spell functions as <i><i>monstrous physique</i> I</i>, except it also allows you to assume the form of a Tiny or Large creature of the monstrous humanoid type. If the form you assume has any of the following abilities, you gain the listed ability: climb 60 feet, fly 60 feet (good maneuverability), swim 60 feet, darkvision 60 feet, low-light vision, scent, freeze, grab, leap attack, mimicry, pounce, sound mimicry, speak with sharks, and trip. If the creature has the undersized weapons special quality, you gain that quality.  <i>Tiny monstrous humanoid</i>: If the form you take is that of a <br><i>Tiny monstrous humanoid</i>, you gain a +4 size bonus to your Dexterity, a -2 penalty to your Strength, and a +1 natural armor bonus.  <br><i>Large monstrous humanoid</i>: If the form you take is that of a <i>Large monstrous humanoid</i>, you gain a +4 size bonus to your Strength, a -2 penalty to your Dexterity, and a +4 natural armor bonus.</p>\n</div>\n"
    },
    "tags": [],
    "activation": {
      "type": "standard"
    },
    "unchainedAction": {
      "activation": {
        "cost": 2,
        "type": "action"
      }
    },
    "target": {
      "value": "you"
    },
    "range": {
      "units": "personal"
    },
    "uses": {
      "per": ""
    },
    "measureTemplate": {
      "size": "0"
    },
    "actionType": "",
    "damage": {
      "parts": [],
      "critParts": [],
      "nonCritParts": []
    },
    "attackParts": [],
    "ability": {
      "attack": "",
      "damage": ""
    },
    "save": {
      "dc": "0"
    },
    "effectNotes": [],
    "attackNotes": [],
    "links": {
      "children": []
    },
    "flags": {
      "boolean": [],
      "dictionary": []
    },
    "scriptCalls": [],
    "learnedAt": {
      "class": [
        [
          "sorcerer/wizard",
          4
        ],
        [
          "alchemist",
          4
        ],
        [
          "magus",
          4
        ],
        [
          "bloodrager",
          4
        ]
      ],
      "domain": [],
      "subDomain": [],
      "elementalSchool": [],
      "bloodline": []
    },
    "level": 4,
    "school": "trs",
    "subschool": "polymorph",
    "conditionals": [],
    "components": {
      "verbal": true,
      "somatic": true,
      "material": true
    },
    "materials": {
      "value": "a piece of the creature whose form you plan to assume"
    },
    "sr": false,
    "shortDescription": "<p>This spell functions as <i><i>monstrous physique</i> I</i>, except it also allows you to assume the form of a Tiny or Large creature of the monstrous humanoid type. If the form you assume has any of the following abilities, you gain the listed ability: climb 60 feet, fly 60 feet (good maneuverability), swim 60 feet, darkvision 60 feet, low-light vision, scent, freeze, grab, leap attack, mimicry, pounce, sound mimicry, speak with sharks, and trip. If the creature has the undersized weapons special quality, you gain that quality.  <i>Tiny monstrous humanoid</i>: If the form you take is that of a <br><i>Tiny monstrous humanoid</i>, you gain a +4 size bonus to your Dexterity, a -2 penalty to your Strength, and a +1 natural armor bonus.  <br><i>Large monstrous humanoid</i>: If the form you take is that of a <i>Large monstrous humanoid</i>, you gain a +4 size bonus to your Strength, a -2 penalty to your Dexterity, and a +4 natural armor bonus.</p>",
    "spellDuration": "1 minute/level (D)"
  },
  "effects": [],
  "folder": null,
  "sort": 0,
  "permission": {
    "default": 0
  },
  "flags": {}
}