{
  "_id": "2mh7g81k30bv7b5m",
  "name": "Moonstruck",
  "type": "spell",
  "img": "systems/pf1/icons/misc/magic-swirl.png",
  "data": {
    "description": {
      "value": "<div class=\"spell-description\">\n  <p>\n    <strong>School</strong>&nbsp;enchantment&nbsp;(compulsion)&nbsp;[mind-affecting, emotion];\n    <strong>Level</strong>&nbsp;bloodrager 4, druid 4, hunter 4, psychic 4, sorcerer/wizard 4, witch 4;\n    \n    <strong>Subdomain</strong>&nbsp;Insanity 4, Moon 4, Rage 6;\n    \n    \n  </p>\n  <p>\n    <strong>Casting Time</strong>&nbsp;1 standard<br>\n    <strong>Components</strong>&nbsp;V, S, M (a pinch of powdered moonstone)<br>\n  </p>\n  <p>\n    <strong>Range</strong>&nbsp;medium (100 ft. + 10 ft./level)<br>\n    \n    <strong>Targets</strong>&nbsp;one humanoid creature<br>\n    \n    <strong>Duration</strong>&nbsp;1 round/level<br>\n      <strong>Saving Throw</strong>&nbsp;Will negates;&nbsp;\n      <strong>Spell Resistance</strong>&nbsp;yes<br>\n  </p>\n  <h2>Description</h2>\n  <p>You invoke the mystical power of the moon to drive the target into a mad, bestial frenzy. If the target fails its save, it is dazed for 1 round, dropping held items as its nails and teeth elongate and sharpen. The target gains a bite attack and two claw attacks that deal damage appropriate for the creature's size, and for the remainder of the spell's duration the target behaves as if under simultaneous <i>rage</i> and <i>confusion</i> spells, attacking with its natural weapons in preference to other actions. During the final round of the spell's duration, the target is again dazed as it returns to its normal state.</p>\n</div>\n"
    },
    "tags": [],
    "activation": {
      "type": "standard"
    },
    "unchainedAction": {
      "activation": {
        "cost": 2,
        "type": "action"
      }
    },
    "target": {
      "value": "one humanoid creature"
    },
    "range": {
      "units": "medium"
    },
    "uses": {
      "per": ""
    },
    "measureTemplate": {
      "size": "0"
    },
    "actionType": "spellsave",
    "damage": {
      "parts": [],
      "critParts": [],
      "nonCritParts": []
    },
    "attackParts": [],
    "ability": {
      "attack": "",
      "damage": ""
    },
    "save": {
      "dc": "0",
      "type": "will",
      "description": "Will negates"
    },
    "effectNotes": [],
    "attackNotes": [],
    "links": {
      "children": []
    },
    "flags": {
      "boolean": [],
      "dictionary": []
    },
    "scriptCalls": [],
    "learnedAt": {
      "class": [
        [
          "sorcerer/wizard",
          4
        ],
        [
          "druid",
          4
        ],
        [
          "witch",
          4
        ],
        [
          "bloodrager",
          4
        ],
        [
          "psychic",
          4
        ],
        [
          "hunter",
          4
        ]
      ],
      "domain": [],
      "subDomain": [
        [
          "Insanity",
          4
        ],
        [
          "Rage",
          6
        ],
        [
          "Moon",
          4
        ]
      ],
      "elementalSchool": [],
      "bloodline": []
    },
    "level": 4,
    "school": "enc",
    "subschool": "compulsion",
    "types": "mind-affecting, emotion",
    "conditionals": [],
    "components": {
      "verbal": true,
      "somatic": true,
      "material": true
    },
    "materials": {
      "value": "a pinch of powdered moonstone"
    },
    "shortDescription": "<p>You invoke the mystical power of the moon to drive the target into a mad, bestial frenzy. If the target fails its save, it is dazed for 1 round, dropping held items as its nails and teeth elongate and sharpen. The target gains a bite attack and two claw attacks that deal damage appropriate for the creature's size, and for the remainder of the spell's duration the target behaves as if under simultaneous <i>rage</i> and <i>confusion</i> spells, attacking with its natural weapons in preference to other actions. During the final round of the spell's duration, the target is again dazed as it returns to its normal state.</p>",
    "spellDuration": "1 round/level"
  },
  "effects": [],
  "folder": null,
  "sort": 0,
  "permission": {
    "default": 0
  },
  "flags": {}
}