{
  "_id": "h898kp5ne6ikwj6r",
  "name": "Muffle Sound",
  "type": "spell",
  "img": "systems/pf1/icons/misc/magic-swirl.png",
  "data": {
    "description": {
      "value": "<div class=\"spell-description\">\n  <p>\n    <strong>School</strong>&nbsp;illusion&nbsp;(glamer);\n    <strong>Level</strong>&nbsp;bard 2, cleric/oracle 2, inquisitor 2, mesmerist 2, psychic 2;\n    \n    \n    \n    \n  </p>\n  <p>\n    <strong>Casting Time</strong>&nbsp;1 round<br>\n    <strong>Components</strong>&nbsp;V, S<br>\n  </p>\n  <p>\n    <strong>Range</strong>&nbsp;close (25 ft. + 5 ft./2 levels)<br>\n    \n    <strong>Targets</strong>&nbsp;1 ally/level<br>\n    \n    <strong>Duration</strong>&nbsp;1 minute/level (D)<br>\n      <strong>Saving Throw</strong>&nbsp;Will negates;&nbsp;\n      <strong>Spell Resistance</strong>&nbsp;yes<br>\n  </p>\n  <h2>Description</h2>\n  <p>You suppress sounds made by the targets, granting them a +4 bonus on Stealth checks. The targets have a 20% chance of spell failure when casting spells with verbal components or using abilities that have audible components (such as some bardic performances). This spell does not hamper the targets' ability to hear other sounds and provides no protection against language-dependent or sonic spells and effects.</p>\n</div>\n"
    },
    "tags": [],
    "activation": {
      "type": "round"
    },
    "unchainedAction": {
      "activation": {
        "cost": 3,
        "type": "action"
      }
    },
    "target": {
      "value": "1 ally/level"
    },
    "range": {
      "units": "close"
    },
    "uses": {
      "per": ""
    },
    "measureTemplate": {
      "size": "0"
    },
    "actionType": "spellsave",
    "damage": {
      "parts": [],
      "critParts": [],
      "nonCritParts": []
    },
    "attackParts": [],
    "ability": {
      "attack": "",
      "damage": ""
    },
    "save": {
      "dc": "0",
      "type": "will",
      "description": "Will negates"
    },
    "effectNotes": [],
    "attackNotes": [],
    "links": {
      "children": []
    },
    "flags": {
      "boolean": [],
      "dictionary": []
    },
    "scriptCalls": [],
    "learnedAt": {
      "class": [
        [
          "cleric/oracle",
          2
        ],
        [
          "bard",
          2
        ],
        [
          "inquisitor",
          2
        ],
        [
          "psychic",
          2
        ],
        [
          "mesmerist",
          2
        ]
      ],
      "domain": [],
      "subDomain": [],
      "elementalSchool": [],
      "bloodline": []
    },
    "level": 2,
    "school": "ill",
    "subschool": "glamer",
    "conditionals": [],
    "components": {
      "verbal": true,
      "somatic": true
    },
    "shortDescription": "<p>You suppress sounds made by the targets, granting them a +4 bonus on Stealth checks. The targets have a 20% chance of spell failure when casting spells with verbal components or using abilities that have audible components (such as some bardic performances). This spell does not hamper the targets' ability to hear other sounds and provides no protection against language-dependent or sonic spells and effects.</p>",
    "spellDuration": "1 minute/level (D)"
  },
  "effects": [],
  "folder": null,
  "sort": 0,
  "permission": {
    "default": 0
  },
  "flags": {}
}