{
  "_id": "m1huu174stgdj3tb",
  "name": "Naga Shape II",
  "type": "spell",
  "img": "systems/pf1/icons/misc/magic-swirl.png",
  "data": {
    "description": {
      "value": "<div class=\"spell-description\">\n  <p>\n    <strong>School</strong>&nbsp;transmutation&nbsp;(polymorph);\n    <strong>Level</strong>&nbsp;alchemist 5, bloodrager 5, magus 5, sorcerer/wizard 5;\n    \n    \n    \n    \n  </p>\n  <p>\n    <strong>Casting Time</strong>&nbsp;1 standard<br>\n    <strong>Components</strong>&nbsp;V, S, M (a piece of the creature whose form you want to assume)<br>\n  </p>\n  <p>\n    <strong>Range</strong>&nbsp;personal<br>\n    \n    <strong>Targets</strong>&nbsp;you<br>\n    \n    <strong>Duration</strong>&nbsp;1 minute/level (D)<br>\n  </p>\n  <h2>Description</h2>\n  <p>This spell functions as <i>naga shape I</i>. Additionally, if the form you assume has any of the following abilities, you gain the listed ability: burrow 30 feet, climb 90 feet, fly 90 feet (good maneuverability), swim 90 feet, blindsense 30 feet, darkvision 60 feet, low-light vision, compression, constrict, detect thoughts, dreamsight, grab, hypnosis, poison, sneak attack +2d6, and spit.</p>\n</div>\n"
    },
    "tags": [],
    "activation": {
      "type": "standard"
    },
    "unchainedAction": {
      "activation": {
        "cost": 2,
        "type": "action"
      }
    },
    "target": {
      "value": "you"
    },
    "range": {
      "units": "personal"
    },
    "uses": {
      "per": ""
    },
    "measureTemplate": {
      "size": "0"
    },
    "actionType": "",
    "damage": {
      "parts": [],
      "critParts": [],
      "nonCritParts": []
    },
    "attackParts": [],
    "ability": {
      "attack": "",
      "damage": ""
    },
    "save": {
      "dc": "0"
    },
    "effectNotes": [],
    "attackNotes": [],
    "links": {
      "children": []
    },
    "flags": {
      "boolean": [],
      "dictionary": []
    },
    "scriptCalls": [],
    "learnedAt": {
      "class": [
        [
          "sorcerer/wizard",
          5
        ],
        [
          "alchemist",
          5
        ],
        [
          "magus",
          5
        ],
        [
          "bloodrager",
          5
        ]
      ],
      "domain": [],
      "subDomain": [],
      "elementalSchool": [],
      "bloodline": []
    },
    "level": 5,
    "school": "trs",
    "subschool": "polymorph",
    "conditionals": [],
    "components": {
      "verbal": true,
      "somatic": true,
      "material": true
    },
    "materials": {
      "value": "a piece of the creature whose form you want to assume"
    },
    "sr": false,
    "shortDescription": "<p>This spell functions as <i>naga shape I</i>. Additionally, if the form you assume has any of the following abilities, you gain the listed ability: burrow 30 feet, climb 90 feet, fly 90 feet (good maneuverability), swim 90 feet, blindsense 30 feet, darkvision 60 feet, low-light vision, compression, constrict, detect thoughts, dreamsight, grab, hypnosis, poison, sneak attack +2d6, and spit.</p>",
    "spellDuration": "1 minute/level (D)"
  },
  "effects": [],
  "folder": null,
  "sort": 0,
  "permission": {
    "default": 0
  },
  "flags": {}
}