{
  "_id": "7s7njmjixqkytskw",
  "name": "Node of Blasting",
  "type": "spell",
  "img": "systems/pf1/icons/misc/magic-swirl.png",
  "data": {
    "description": {
      "value": "<div class=\"spell-description\">\n  <p>\n    <strong>School</strong>&nbsp;abjuration&nbsp;[mind-affecting];\n    <strong>Level</strong>&nbsp;medium 3, mesmerist 3, occultist 2, psychic 3;\n    \n    \n    \n    \n  </p>\n  <p>\n    <strong>Casting Time</strong>&nbsp;1 standard<br>\n    <strong>Components</strong>&nbsp;V<br>\n  </p>\n  <p>\n    <strong>Range</strong>&nbsp;touch<br>\n    \n    <strong>Targets</strong>&nbsp;one touched object weighing no more than 10 lbs.<br>\n    \n    <strong>Duration</strong>&nbsp;permanent until discharged (D)<br>\n      <strong>Saving Throw</strong>&nbsp;Will partial; see text;&nbsp;\n      <strong>Spell Resistance</strong>&nbsp;no<br>\n  </p>\n  <h2>Description</h2>\n  <p>You imbue an object with psychic energy. The <i>Node of Blasting</i> unleashes a mental blast when a creature with a mind touches the object, dealing 6d6 points of damage to the creature touching the object and causing the creature to be staggered for 1 minute. A successful saving throw halves the damage and negates the staggered condition.  Magic traps such as <i>Node of Blasting</i> are hard to detect and disable. A character with the trapfinding class feature can use Disable Device to thwart <i>Node of Blasting</i>. The DCs to find a <i>Node of Blasting</i> using Perception and to disable it using Disable  Device are both equal to 25 + the spell's level. Additionally, a creature with the read aura occult skill unlock (see page 197) can attempt the same Perception check to notice a <i>Node of Blasting</i>.</p>\n</div>\n"
    },
    "tags": [],
    "activation": {
      "type": "standard"
    },
    "unchainedAction": {
      "activation": {
        "cost": 2,
        "type": "action"
      }
    },
    "target": {
      "value": "one touched object weighing no more than 10 lbs."
    },
    "range": {
      "units": "touch"
    },
    "uses": {
      "per": ""
    },
    "measureTemplate": {
      "size": "0"
    },
    "actionType": "spellsave",
    "damage": {
      "parts": [],
      "critParts": [],
      "nonCritParts": []
    },
    "attackParts": [],
    "ability": {
      "attack": "",
      "damage": ""
    },
    "save": {
      "dc": "0",
      "type": "will",
      "description": "Will partial; see text"
    },
    "effectNotes": [],
    "attackNotes": [],
    "links": {
      "children": []
    },
    "flags": {
      "boolean": [],
      "dictionary": []
    },
    "scriptCalls": [],
    "learnedAt": {
      "class": [
        [
          "psychic",
          3
        ],
        [
          "medium",
          3
        ],
        [
          "mesmerist",
          3
        ],
        [
          "occultist",
          2
        ]
      ],
      "domain": [],
      "subDomain": [],
      "elementalSchool": [],
      "bloodline": []
    },
    "level": 3,
    "school": "abj",
    "types": "mind-affecting",
    "conditionals": [],
    "components": {
      "verbal": true
    },
    "sr": false,
    "shortDescription": "<p>You imbue an object with psychic energy. The <i>Node of Blasting</i> unleashes a mental blast when a creature with a mind touches the object, dealing 6d6 points of damage to the creature touching the object and causing the creature to be staggered for 1 minute. A successful saving throw halves the damage and negates the staggered condition.  Magic traps such as <i>Node of Blasting</i> are hard to detect and disable. A character with the trapfinding class feature can use Disable Device to thwart <i>Node of Blasting</i>. The DCs to find a <i>Node of Blasting</i> using Perception and to disable it using Disable  Device are both equal to 25 + the spell's level. Additionally, a creature with the read aura occult skill unlock (see page 197) can attempt the same Perception check to notice a <i>Node of Blasting</i>.</p>",
    "spellDuration": "permanent until discharged (D)"
  },
  "effects": [],
  "folder": null,
  "sort": 0,
  "permission": {
    "default": 0
  },
  "flags": {}
}