{
  "_id": "w65f1vvajn88u1tw",
  "name": "Numerological Resistance",
  "type": "spell",
  "img": "systems/pf1/icons/misc/magic-swirl.png",
  "data": {
    "description": {
      "value": "<div class=\"spell-description\">\n  <p>\n    <strong>School</strong>&nbsp;abjuration;\n    <strong>Level</strong>&nbsp;cleric/oracle 3, sorcerer/wizard 3;\n    \n    \n    \n    \n  </p>\n  <p>\n    <strong>Casting Time</strong>&nbsp;1 standard<br>\n    <strong>Components</strong>&nbsp;V, S<br>\n  </p>\n  <p>\n    <strong>Range</strong>&nbsp;close (25 ft. + 5 ft./2 levels)<br>\n    \n    <strong>Targets</strong>&nbsp;see text<br>\n    \n    <strong>Duration</strong>&nbsp;see text<br>\n      <strong>Saving Throw</strong>&nbsp;none;&nbsp;\n      <strong>Spell Resistance</strong>&nbsp;no<br>\n  </p>\n  <h2>Description</h2>\n  <p><i>Numerological resistance</i> allows numerologists to use the Path of Numbers to grant their allies resilience in the face of elemental dangers. Roll 5d8; this is your dice pool. You will use each die in the pool exactly once to customize <i>numerological resistance</i>.</p><p>Choose one of the dice, and match its result to the appropriate value in the first column of the Eight Basic Energies table to determine the type of energy to which <i>numerological resistance</i> grants resistance. Next, allocate one of the dice to represent the number of creatures you can affect with <i>numerological resistance</i> (including yourself). All of these creatures must be within the spell's range. Then allocate one of the dice to represent the number of rounds <i>numerological resistance</i> lasts. Finally, sum the remaining two dice. This is the number of points of resistance that <i>numerological resistance</i> grants.</p>\n</div>\n"
    },
    "tags": [],
    "activation": {
      "type": "standard"
    },
    "unchainedAction": {
      "activation": {
        "cost": 2,
        "type": "action"
      }
    },
    "target": {
      "value": "see text"
    },
    "range": {
      "units": "close"
    },
    "uses": {
      "per": ""
    },
    "measureTemplate": {
      "size": "0"
    },
    "actionType": "",
    "damage": {
      "parts": [],
      "critParts": [],
      "nonCritParts": []
    },
    "attackParts": [],
    "ability": {
      "attack": "",
      "damage": ""
    },
    "save": {
      "dc": "0"
    },
    "effectNotes": [],
    "attackNotes": [],
    "links": {
      "children": []
    },
    "flags": {
      "boolean": [],
      "dictionary": []
    },
    "scriptCalls": [],
    "learnedAt": {
      "class": [
        [
          "sorcerer/wizard",
          3
        ],
        [
          "cleric/oracle",
          3
        ]
      ],
      "domain": [],
      "subDomain": [],
      "elementalSchool": [],
      "bloodline": []
    },
    "level": 3,
    "school": "abj",
    "conditionals": [],
    "components": {
      "verbal": true,
      "somatic": true
    },
    "sr": false,
    "shortDescription": "<p><i>Numerological resistance</i> allows numerologists to use the Path of Numbers to grant their allies resilience in the face of elemental dangers. Roll 5d8; this is your dice pool. You will use each die in the pool exactly once to customize <i>numerological resistance</i>.</p><p>Choose one of the dice, and match its result to the appropriate value in the first column of the Eight Basic Energies table to determine the type of energy to which <i>numerological resistance</i> grants resistance. Next, allocate one of the dice to represent the number of creatures you can affect with <i>numerological resistance</i> (including yourself). All of these creatures must be within the spell's range. Then allocate one of the dice to represent the number of rounds <i>numerological resistance</i> lasts. Finally, sum the remaining two dice. This is the number of points of resistance that <i>numerological resistance</i> grants.</p>",
    "spellDuration": "see text"
  },
  "effects": [],
  "folder": null,
  "sort": 0,
  "permission": {
    "default": 0
  },
  "flags": {}
}