{
  "_id": "g2msiy3asviz0b1n",
  "name": "Object Reading",
  "type": "spell",
  "img": "systems/pf1/icons/misc/magic-swirl.png",
  "data": {
    "description": {
      "value": "<div class=\"spell-description\">\n  <p>\n    <strong>School</strong>&nbsp;divination;\n    <strong>Level</strong>&nbsp;medium 1, mesmerist 2, occultist 1, psychic 2, spiritualist 2;\n    \n    \n    \n    \n  </p>\n  <p>\n    <strong>Casting Time</strong>&nbsp;1 standard<br>\n    <strong>Components</strong>&nbsp;V, S<br>\n  </p>\n  <p>\n    <strong>Range</strong>&nbsp;touch<br>\n    \n    <strong>Targets</strong>&nbsp;one touched object<br>\n    \n    <strong>Duration</strong>&nbsp;concentration, up to 1 round/level (D)<br>\n      <strong>Saving Throw</strong>&nbsp;none;&nbsp;\n      <strong>Spell Resistance</strong>&nbsp;no<br>\n  </p>\n  <h2>Description</h2>\n  <p>You read the psychic impressions left upon an object by emotionally or psychically charged events in the item's history, or the information imprinted by the <i>charge object</i> or <i>implant false reading</i> spells. T his spell returns the s ame i nformation a s the psychometry occult skill unlock (see page 196), but gives 1 piece of information when cast and requires 1 round of concentration per additional piece of information instead of 1 minute. You must still attempt an Appraise check to see how much information you gain. You gain a +10 competence bonus on the check.</p>\n</div>\n"
    },
    "tags": [],
    "activation": {
      "type": "standard"
    },
    "unchainedAction": {
      "activation": {
        "cost": 2,
        "type": "action"
      }
    },
    "target": {
      "value": "one touched object"
    },
    "range": {
      "units": "touch"
    },
    "uses": {
      "per": ""
    },
    "measureTemplate": {
      "size": "0"
    },
    "actionType": "",
    "damage": {
      "parts": [],
      "critParts": [],
      "nonCritParts": []
    },
    "attackParts": [],
    "ability": {
      "attack": "",
      "damage": ""
    },
    "save": {
      "dc": "0"
    },
    "effectNotes": [],
    "attackNotes": [],
    "links": {
      "children": []
    },
    "flags": {
      "boolean": [],
      "dictionary": []
    },
    "scriptCalls": [],
    "learnedAt": {
      "class": [
        [
          "psychic",
          2
        ],
        [
          "medium",
          1
        ],
        [
          "mesmerist",
          2
        ],
        [
          "occultist",
          1
        ],
        [
          "spiritualist",
          2
        ]
      ],
      "domain": [],
      "subDomain": [],
      "elementalSchool": [],
      "bloodline": []
    },
    "level": 2,
    "school": "div",
    "conditionals": [],
    "components": {
      "verbal": true,
      "somatic": true
    },
    "sr": false,
    "shortDescription": "<p>You read the psychic impressions left upon an object by emotionally or psychically charged events in the item's history, or the information imprinted by the <i>charge object</i> or <i>implant false reading</i> spells. T his spell returns the s ame i nformation a s the psychometry occult skill unlock (see page 196), but gives 1 piece of information when cast and requires 1 round of concentration per additional piece of information instead of 1 minute. You must still attempt an Appraise check to see how much information you gain. You gain a +10 competence bonus on the check.</p>",
    "spellDuration": "concentration, up to 1 round/level (D)"
  },
  "effects": [],
  "folder": null,
  "sort": 0,
  "permission": {
    "default": 0
  },
  "flags": {}
}