{
  "_id": "wouprx7l18n6o918",
  "name": "Open the Dead Roads",
  "type": "spell",
  "img": "systems/pf1/icons/misc/magic-swirl.png",
  "data": {
    "description": {
      "value": "<div class=\"spell-description\">\n  <p>\n    <strong>School</strong>&nbsp;conjuration;\n    <strong>Level</strong>&nbsp;cleric/oracle 6;\n    \n    \n    \n    \n  </p>\n  <p>\n    <strong>Casting Time</strong>&nbsp;1 minute<br>\n    <strong>Components</strong>&nbsp;V, S, DF<br>\n  </p>\n  <p>\n    <strong>Range</strong>&nbsp;touch<br>\n    \n    <strong>Targets</strong>&nbsp;up to one touched creature/level<br>\n    \n    <strong>Duration</strong>&nbsp;1 hour/level<br>\n      <strong>Saving Throw</strong>&nbsp;Will negates (harmless);&nbsp;\n      <strong>Spell Resistance</strong>&nbsp;yes<br>\n  </p>\n  <h2>Description</h2>\n  <p>To cast <i>open the</i> <i>Dead Roads</i>, you must be in an area of fog or dim light. Upon completion of the spell, swirling mists part and deposit you and any creatures you touched on a nearby stretch of the <i>Dead Roads</i>, a network of extraplanar roadways. You can take up to one creature per level, but all targets must be touching each other. You must specify a location known to you or one of your travelers as your destination when casting this spell.  When traveling the otherworldly paths of the <i>Dead Roads</i>, you move at a speed of 50 miles per hour regardless of the terrain on the Material Plane. Your own movement speed does not change; you simply arrive at distant destinations more quickly because the <i>Dead Roads</i> offer a shorter route. You can exit the <i>Dead Roads</i> at any point before reaching your destination by wandering off the path, in which case you are usually returned to your starting place. If this would place  you within a solid object, you (and any creatures with you) are shunted to the nearest empty space available.</p><p>Because the <i>Dead Roads</i> occupy another plane, it is impossible to spy on the Material Plane while using this spell without additional spells or supernatural abilities.</p><p><i>Open the</i> <i>Dead Roads</i> can be used to travel to or from the Shadow Plane, the Ethereal Plane, the Astral Plane, or the Boneyard; any of these destinations requires 10 hours of travel. Thanks to their unique nature, the <i>Dead Roads</i> can be used to travel from any plane to the Material Plane-a trip likewise requiring 10 hours-unless that plane normally bars all extraplanar travel.</p><p>Creatures you bring with you to the <i>Dead Roads</i> are not obligated to follow you. If they wander off, there is an 80% chance they arrive at a random point on the Material Plane within 2d6x10 miles of your starting point, otherwise they arrive in the Boneyard.</p>\n</div>\n"
    },
    "tags": [],
    "activation": {
      "type": "minute"
    },
    "unchainedAction": {
      "activation": {
        "type": "minute"
      }
    },
    "target": {
      "value": "up to one touched creature/level"
    },
    "range": {
      "units": "touch"
    },
    "uses": {
      "per": ""
    },
    "measureTemplate": {
      "size": "0"
    },
    "actionType": "spellsave",
    "damage": {
      "parts": [],
      "critParts": [],
      "nonCritParts": []
    },
    "attackParts": [],
    "ability": {
      "attack": "",
      "damage": ""
    },
    "save": {
      "dc": "0",
      "type": "will",
      "description": "Will negates (harmless)"
    },
    "effectNotes": [],
    "attackNotes": [],
    "links": {
      "children": []
    },
    "flags": {
      "boolean": [],
      "dictionary": []
    },
    "scriptCalls": [],
    "learnedAt": {
      "class": [
        [
          "cleric/oracle",
          6
        ]
      ],
      "domain": [],
      "subDomain": [],
      "elementalSchool": [],
      "bloodline": []
    },
    "level": 6,
    "school": "con",
    "conditionals": [],
    "components": {
      "verbal": true,
      "somatic": true,
      "divineFocus": 1
    },
    "shortDescription": "<p>To cast <i>open the</i> <i>Dead Roads</i>, you must be in an area of fog or dim light. Upon completion of the spell, swirling mists part and deposit you and any creatures you touched on a nearby stretch of the <i>Dead Roads</i>, a network of extraplanar roadways. You can take up to one creature per level, but all targets must be touching each other. You must specify a location known to you or one of your travelers as your destination when casting this spell.  When traveling the otherworldly paths of the <i>Dead Roads</i>, you move at a speed of 50 miles per hour regardless of the terrain on the Material Plane. Your own movement speed does not change; you simply arrive at distant destinations more quickly because the <i>Dead Roads</i> offer a shorter route. You can exit the <i>Dead Roads</i> at any point before reaching your destination by wandering off the path, in which case you are usually returned to your starting place. If this would place  you within a solid object, you (and any creatures with you) are shunted to the nearest empty space available.</p><p>Because the <i>Dead Roads</i> occupy another plane, it is impossible to spy on the Material Plane while using this spell without additional spells or supernatural abilities.</p><p><i>Open the</i> <i>Dead Roads</i> can be used to travel to or from the Shadow Plane, the Ethereal Plane, the Astral Plane, or the Boneyard; any of these destinations requires 10 hours of travel. Thanks to their unique nature, the <i>Dead Roads</i> can be used to travel from any plane to the Material Plane-a trip likewise requiring 10 hours-unless that plane normally bars all extraplanar travel.</p><p>Creatures you bring with you to the <i>Dead Roads</i> are not obligated to follow you. If they wander off, there is an 80% chance they arrive at a random point on the Material Plane within 2d6x10 miles of your starting point, otherwise they arrive in the Boneyard.</p>",
    "spellDuration": "1 hour/level"
  },
  "effects": [],
  "folder": null,
  "sort": 0,
  "permission": {
    "default": 0
  },
  "flags": {}
}