{
  "_id": "qwg0jjq64jtxf1vb",
  "name": "Peasant Armaments",
  "type": "spell",
  "img": "systems/pf1/icons/misc/magic-swirl.png",
  "data": {
    "description": {
      "value": "<div class=\"spell-description\">\n  <p>\n    <strong>School</strong>&nbsp;transmutation;\n    <strong>Level</strong>&nbsp;cleric/oracle 1, hunter 1, inquisitor 1, ranger 1, sorcerer/wizard 1;\n    \n    \n    \n    \n  </p>\n  <p>\n    <strong>Casting Time</strong>&nbsp;1 standard<br>\n    <strong>Components</strong>&nbsp;V, S, DF<br>\n  </p>\n  <p>\n    <strong>Range</strong>&nbsp;touch<br>\n    \n    <strong>Targets</strong>&nbsp;1 improvised weapon/level<br>\n    \n    <strong>Duration</strong>&nbsp;1 minute/level (D)<br>\n      <strong>Saving Throw</strong>&nbsp;Will negates (harmless, object);&nbsp;\n      <strong>Spell Resistance</strong>&nbsp;yes<br>\n  </p>\n  <h2>Description</h2>\n  <p>You transform one or more improvised weapons into equivalent simple or martial weapons. The bearer of such a weapon can wield it with proficiency (no penalty for using an improvised weapon or not having the required proficiency). This does not alter the weapon's shape or appearance in any way. For example, if cast on a chair leg, butter knife, and pitchfork, the weapons function as a club, dagger, and trident, respectively, and anyone who wields them does so without a nonproficiency penalty, but the weapons look no different than they were before the spell.  The spell has no effect on items that are not improvised weapons. For example, if cast on a short sword, it does not grant proficiency to anyone wielding it.</p>\n</div>\n"
    },
    "tags": [],
    "activation": {
      "type": "standard"
    },
    "unchainedAction": {
      "activation": {
        "cost": 2,
        "type": "action"
      }
    },
    "target": {
      "value": "1 improvised weapon/level"
    },
    "range": {
      "units": "touch"
    },
    "uses": {
      "per": ""
    },
    "measureTemplate": {
      "size": "0"
    },
    "actionType": "spellsave",
    "damage": {
      "parts": [],
      "critParts": [],
      "nonCritParts": []
    },
    "attackParts": [],
    "ability": {
      "attack": "",
      "damage": ""
    },
    "save": {
      "dc": "0",
      "type": "will",
      "description": "Will negates (harmless, object)"
    },
    "effectNotes": [],
    "attackNotes": [],
    "links": {
      "children": []
    },
    "flags": {
      "boolean": [],
      "dictionary": []
    },
    "scriptCalls": [],
    "learnedAt": {
      "class": [
        [
          "sorcerer/wizard",
          1
        ],
        [
          "cleric/oracle",
          1
        ],
        [
          "ranger",
          1
        ],
        [
          "inquisitor",
          1
        ],
        [
          "hunter",
          1
        ]
      ],
      "domain": [],
      "subDomain": [],
      "elementalSchool": [],
      "bloodline": []
    },
    "school": "trs",
    "conditionals": [],
    "components": {
      "verbal": true,
      "somatic": true,
      "divineFocus": 1
    },
    "shortDescription": "<p>You transform one or more improvised weapons into equivalent simple or martial weapons. The bearer of such a weapon can wield it with proficiency (no penalty for using an improvised weapon or not having the required proficiency). This does not alter the weapon's shape or appearance in any way. For example, if cast on a chair leg, butter knife, and pitchfork, the weapons function as a club, dagger, and trident, respectively, and anyone who wields them does so without a nonproficiency penalty, but the weapons look no different than they were before the spell.  The spell has no effect on items that are not improvised weapons. For example, if cast on a short sword, it does not grant proficiency to anyone wielding it.</p>",
    "spellDuration": "1 minute/level (D)"
  },
  "effects": [],
  "folder": null,
  "sort": 0,
  "permission": {
    "default": 0
  },
  "flags": {}
}