{
  "_id": "0evx195gmtcpdxef",
  "name": "Perceive Betrayal",
  "type": "spell",
  "img": "systems/pf1/icons/misc/magic-swirl.png",
  "data": {
    "description": {
      "value": "<div class=\"spell-description\">\n  <p>\n    <strong>School</strong>&nbsp;divination;\n    <strong>Level</strong>&nbsp;cleric/oracle 6, inquisitor 4, sorcerer/wizard 7, witch 6;\n    \n    \n    \n    \n  </p>\n  <p>\n    <strong>Casting Time</strong>&nbsp;1 minute<br>\n    <strong>Components</strong>&nbsp;V, S, M (12 drops of blood), F (a silver circlet worth 500 gp)<br>\n  </p>\n  <p>\n    <strong>Range</strong>&nbsp;personal<br>\n    \n    <strong>Targets</strong>&nbsp;you<br>\n    \n    <strong>Duration</strong>&nbsp;1 hour/level<br>\n  </p>\n  <h2>Description</h2>\n  <p>By donning a silver circlet anointed with blood, you gain the ability to sense traitorous intent toward a single person to whom you defer, designated when you cast the spell. The spell alerts you when a creature with traitorous intent is within 200 feet, although it doesn't identify the source. By concentrating, you can learn the strength of the greatest threat, based on the following categories.  <i>Ill Will</i>: Someone dislikes your liege, but isn't planning to act against her.  <i>Plotting</i>: Someone is actively conspiring against your liege.  <i>Imminent</i>: Someone is in the process of carrying out a plot against your liege.  Creatures that are immune to mind-affecting or thought-detecting effects cannot have their intent detected by <i>perceive betrayal</i>.</p>\n</div>\n"
    },
    "tags": [],
    "activation": {
      "type": "minute"
    },
    "unchainedAction": {
      "activation": {
        "type": "minute"
      }
    },
    "target": {
      "value": "you"
    },
    "range": {
      "units": "personal"
    },
    "uses": {
      "per": ""
    },
    "measureTemplate": {
      "size": "0"
    },
    "actionType": "",
    "damage": {
      "parts": [],
      "critParts": [],
      "nonCritParts": []
    },
    "attackParts": [],
    "ability": {
      "attack": "",
      "damage": ""
    },
    "save": {
      "dc": "0"
    },
    "effectNotes": [],
    "attackNotes": [],
    "links": {
      "children": []
    },
    "flags": {
      "boolean": [],
      "dictionary": []
    },
    "scriptCalls": [],
    "learnedAt": {
      "class": [
        [
          "sorcerer/wizard",
          7
        ],
        [
          "cleric/oracle",
          6
        ],
        [
          "witch",
          6
        ],
        [
          "inquisitor",
          4
        ]
      ],
      "domain": [],
      "subDomain": [],
      "elementalSchool": [],
      "bloodline": []
    },
    "level": 7,
    "school": "div",
    "conditionals": [],
    "components": {
      "verbal": true,
      "somatic": true,
      "material": true,
      "focus": true
    },
    "materials": {
      "value": "12 drops of blood",
      "focus": "a silver circlet worth 500 gp"
    },
    "sr": false,
    "shortDescription": "<p>By donning a silver circlet anointed with blood, you gain the ability to sense traitorous intent toward a single person to whom you defer, designated when you cast the spell. The spell alerts you when a creature with traitorous intent is within 200 feet, although it doesn't identify the source. By concentrating, you can learn the strength of the greatest threat, based on the following categories.  <i>Ill Will</i>: Someone dislikes your liege, but isn't planning to act against her.  <i>Plotting</i>: Someone is actively conspiring against your liege.  <i>Imminent</i>: Someone is in the process of carrying out a plot against your liege.  Creatures that are immune to mind-affecting or thought-detecting effects cannot have their intent detected by <i>perceive betrayal</i>.</p>",
    "spellDuration": "1 hour/level"
  },
  "effects": [],
  "folder": null,
  "sort": 0,
  "permission": {
    "default": 0
  },
  "flags": {}
}