{
  "_id": "bbmd0fj17jsf5300",
  "name": "Planar Binding, Greater",
  "type": "spell",
  "img": "systems/pf1/icons/misc/magic-swirl.png",
  "data": {
    "description": {
      "value": "<div class=\"spell-description\">\n  <p>\n    <strong>School</strong>&nbsp;conjuration&nbsp;(calling)&nbsp;[see text for lesser planar binding];\n    <strong>Level</strong>&nbsp;psychic 8, sorcerer/wizard 8, summoner 6, unchained Summoner 6;\n    <strong>Domain</strong>&nbsp;Void 8;\n    \n    \n    <strong>Bloodline</strong>&nbsp;Djinni 8;\n  </p>\n  <p>\n    <strong>Casting Time</strong>&nbsp;10 minutes<br>\n    <strong>Components</strong>&nbsp;V, S<br>\n  </p>\n  <p>\n    <strong>Range</strong>&nbsp;close (25 ft. + 5 ft./2 levels)<br>\n    \n    <strong>Targets</strong>&nbsp;up to three elementals or outsiders, totaling no more than 18 HD, no two of which can be more than 30 ft. apart when they appear.<br>\n    \n    <strong>Duration</strong>&nbsp;instantaneous<br>\n      <strong>Saving Throw</strong>&nbsp;Will negates;&nbsp;\n      <strong>Spell Resistance</strong>&nbsp;no<br>\n  </p>\n  <h2>Description</h2>\n  <p>This spell functions like @Compendium[pf1.spells.y4b1zmhmsa0gvf06]{Lesser Planar Binding}, except that you may call a single creature of 18 HD or less, or up to three creatures of the same kind whose Hit Dice total no more than 18. Each creature gets a saving throw, makes an independent attempt to escape, and must be individually persuaded to aid you.</p>\n</div>\n"
    },
    "tags": [],
    "activation": {
      "cost": 10,
      "type": "minute"
    },
    "unchainedAction": {
      "activation": {
        "cost": 10,
        "type": "minute"
      }
    },
    "target": {
      "value": "up to three elementals or outsiders, totaling no more than 18 HD, no two of which can be more than 30 ft. apart when they appear."
    },
    "range": {
      "units": "close"
    },
    "uses": {
      "per": ""
    },
    "measureTemplate": {
      "size": "0"
    },
    "actionType": "spellsave",
    "damage": {
      "parts": [],
      "critParts": [],
      "nonCritParts": []
    },
    "attackParts": [],
    "ability": {
      "attack": "",
      "damage": ""
    },
    "save": {
      "dc": "0",
      "type": "will",
      "description": "Will negates"
    },
    "effectNotes": [],
    "attackNotes": [],
    "links": {
      "children": []
    },
    "flags": {
      "boolean": [],
      "dictionary": []
    },
    "scriptCalls": [],
    "learnedAt": {
      "class": [
        [
          "sorcerer/wizard",
          8
        ],
        [
          "summoner",
          6
        ],
        [
          "psychic",
          8
        ],
        [
          "unchained Summoner",
          6
        ]
      ],
      "domain": [
        [
          "Void",
          8
        ]
      ],
      "subDomain": [],
      "elementalSchool": [],
      "bloodline": [
        [
          "Djinni",
          8
        ]
      ]
    },
    "level": 8,
    "school": "con",
    "subschool": "calling",
    "types": "see text for lesser planar binding",
    "conditionals": [],
    "components": {
      "verbal": true,
      "somatic": true
    },
    "spellbook": "",
    "sr": false,
    "shortDescription": "<p>This spell functions like @Compendium[pf1.spells.y4b1zmhmsa0gvf06]{Lesser Planar Binding}, except that you may call a single creature of 18 HD or less, or up to three creatures of the same kind whose Hit Dice total no more than 18. Each creature gets a saving throw, makes an independent attempt to escape, and must be individually persuaded to aid you.</p>",
    "spellDuration": "instantaneous"
  },
  "effects": [],
  "folder": null,
  "sort": 0,
  "permission": {
    "default": 0
  },
  "flags": {}
}