{
  "_id": "l8xwrepcmkdgb2wf",
  "name": "Purge Spirit",
  "type": "spell",
  "img": "systems/pf1/icons/misc/magic-swirl.png",
  "data": {
    "description": {
      "value": "<div class=\"spell-description\">\n  <p>\n    <strong>School</strong>&nbsp;necromancy;\n    <strong>Level</strong>&nbsp;medium 2, occultist 2, psychic 3, sorcerer/wizard 4, spiritualist 2, witch 4;\n    \n    \n    \n    \n  </p>\n  <p>\n    <strong>Casting Time</strong>&nbsp;1 standard<br>\n    <strong>Components</strong>&nbsp;V, S<br>\n  </p>\n  <p>\n    <strong>Range</strong>&nbsp;medium (100 ft. + 10 ft./level)<br>\n    \n    <strong>Targets</strong>&nbsp;one creature or haunt<br>\n    \n    <strong>Duration</strong>&nbsp;instantaneous<br>\n      <strong>Saving Throw</strong>&nbsp;Will partial;&nbsp;\n      <strong>Spell Resistance</strong>&nbsp;yes<br>\n  </p>\n  <h2>Description</h2>\n  <p><i>Purge spirit</i> rips away at the target's spiritual substance, scattering it over a wide area and hampering the target's ability to reform. The target takes 1d6 points of damage per caster level (maximum 10d6) and is staggered for 1 round. On a successful saving throw, the target takes half damage and is not staggered. This spell affects astrally projected creatures, ethereal creatures, haunts, incorporeal creatures, mediums channeling a spirit, and phantoms, and at the GM's discretion can affect other spirits or creatures made of ectoplasm. Incorporeal creatures take full damage from <i>purge spirit</i>.</p>\n</div>\n"
    },
    "tags": [],
    "activation": {
      "type": "standard"
    },
    "unchainedAction": {
      "activation": {
        "cost": 2,
        "type": "action"
      }
    },
    "target": {
      "value": "one creature or haunt"
    },
    "range": {
      "units": "medium"
    },
    "uses": {
      "per": ""
    },
    "measureTemplate": {
      "size": "0"
    },
    "actionType": "spellsave",
    "damage": {
      "parts": [],
      "critParts": [],
      "nonCritParts": []
    },
    "attackParts": [],
    "ability": {
      "attack": "",
      "damage": ""
    },
    "save": {
      "dc": "0",
      "type": "will",
      "description": "Will partial"
    },
    "effectNotes": [],
    "attackNotes": [],
    "links": {
      "children": []
    },
    "flags": {
      "boolean": [],
      "dictionary": []
    },
    "scriptCalls": [],
    "learnedAt": {
      "class": [
        [
          "sorcerer/wizard",
          4
        ],
        [
          "witch",
          4
        ],
        [
          "psychic",
          3
        ],
        [
          "medium",
          2
        ],
        [
          "occultist",
          2
        ],
        [
          "spiritualist",
          2
        ]
      ],
      "domain": [],
      "subDomain": [],
      "elementalSchool": [],
      "bloodline": []
    },
    "level": 4,
    "school": "nec",
    "conditionals": [],
    "components": {
      "verbal": true,
      "somatic": true
    },
    "shortDescription": "<p><i>Purge spirit</i> rips away at the target's spiritual substance, scattering it over a wide area and hampering the target's ability to reform. The target takes 1d6 points of damage per caster level (maximum 10d6) and is staggered for 1 round. On a successful saving throw, the target takes half damage and is not staggered. This spell affects astrally projected creatures, ethereal creatures, haunts, incorporeal creatures, mediums channeling a spirit, and phantoms, and at the GM's discretion can affect other spirits or creatures made of ectoplasm. Incorporeal creatures take full damage from <i>purge spirit</i>.</p>",
    "spellDuration": "instantaneous"
  },
  "effects": [],
  "folder": null,
  "sort": 0,
  "permission": {
    "default": 0
  },
  "flags": {}
}