{
  "_id": "8nnswcde15poheci",
  "name": "Rampart",
  "type": "spell",
  "img": "systems/pf1/icons/misc/magic-swirl.png",
  "data": {
    "description": {
      "value": "<div class=\"spell-description\">\n  <p>\n    <strong>School</strong>&nbsp;conjuration&nbsp;(creation)&nbsp;[earth];\n    <strong>Level</strong>&nbsp;druid 7, sorcerer/wizard 7;\n    \n    \n    \n    \n  </p>\n  <p>\n    <strong>Casting Time</strong>&nbsp;1 standard<br>\n    <strong>Components</strong>&nbsp;V, S, M (a handful of earth)<br>\n  </p>\n  <p>\n    <strong>Range</strong>&nbsp;medium (100 ft. + 10 ft./level)<br>\n    \n    \n    <strong>Effect</strong>&nbsp;10-ft.-high earthen wall, in a line up to 10 ft. long/2 levels, or a circle with radius of up to 3 ft. + 1 ft./level<br>\n    <strong>Duration</strong>&nbsp;instantaneous<br>\n      <strong>Saving Throw</strong>&nbsp;none;&nbsp;\n      <strong>Spell Resistance</strong>&nbsp;no<br>\n  </p>\n  <h2>Description</h2>\n  <p>You create a massive <i>rampart</i> of hard-packed earth and stone 5 feet thick. The <i>rampart</i> cannot be conjured so that it occupies the same space as another creature or object. Each 5-foot-wide section of the <i>rampart</i> has hardness 0 and 180 hit points. A section of the <i>rampart</i> whose hit points drop to 0 is breached. If a creature tries to break through the <i>rampart</i> with a single attack, the DC for the Strength check is 60. A creature can climb over the <i>rampart</i> with a DC 20 Climb check.</p>\n</div>\n"
    },
    "tags": [],
    "activation": {
      "type": "standard"
    },
    "unchainedAction": {
      "activation": {
        "cost": 2,
        "type": "action"
      }
    },
    "range": {
      "units": "medium"
    },
    "uses": {
      "per": ""
    },
    "measureTemplate": {
      "size": "0"
    },
    "actionType": "other",
    "damage": {
      "parts": [],
      "critParts": [],
      "nonCritParts": []
    },
    "attackParts": [],
    "ability": {
      "attack": "",
      "damage": ""
    },
    "save": {
      "dc": "0"
    },
    "effectNotes": [],
    "attackNotes": [],
    "links": {
      "children": []
    },
    "flags": {
      "boolean": [],
      "dictionary": []
    },
    "scriptCalls": [],
    "learnedAt": {
      "class": [
        [
          "sorcerer/wizard",
          7
        ],
        [
          "druid",
          7
        ]
      ],
      "domain": [],
      "subDomain": [],
      "elementalSchool": [],
      "bloodline": []
    },
    "level": 7,
    "school": "con",
    "subschool": "creation",
    "types": "earth",
    "conditionals": [],
    "components": {
      "verbal": true,
      "somatic": true,
      "material": true
    },
    "materials": {
      "value": "a handful of earth"
    },
    "sr": false,
    "shortDescription": "<p>You create a massive <i>rampart</i> of hard-packed earth and stone 5 feet thick. The <i>rampart</i> cannot be conjured so that it occupies the same space as another creature or object. Each 5-foot-wide section of the <i>rampart</i> has hardness 0 and 180 hit points. A section of the <i>rampart</i> whose hit points drop to 0 is breached. If a creature tries to break through the <i>rampart</i> with a single attack, the DC for the Strength check is 60. A creature can climb over the <i>rampart</i> with a DC 20 Climb check.</p>",
    "spellDuration": "instantaneous",
    "spellEffect": "10-ft.-high earthen wall, in a line up to 10 ft. long/2 levels, or a circle with radius of up to 3 ft. + 1 ft./level"
  },
  "effects": [],
  "folder": null,
  "sort": 0,
  "permission": {
    "default": 0
  },
  "flags": {}
}