{
  "_id": "dxystpv7yz6xd5z9",
  "name": "Reboot",
  "type": "spell",
  "img": "systems/pf1/icons/misc/magic-swirl.png",
  "data": {
    "description": {
      "value": "<div class=\"spell-description\">\n  <p>\n    <strong>School</strong>&nbsp;transmutation;\n    <strong>Level</strong>&nbsp;cleric/oracle 5, sorcerer/wizard 5, summoner 4, unchained Summoner 4, witch 5;\n    \n    \n    \n    \n  </p>\n  <p>\n    <strong>Casting Time</strong>&nbsp;1 round<br>\n    <strong>Components</strong>&nbsp;V, S, F (a ruby worth at least 25 gp per HD of the target construct)<br>\n  </p>\n  <p>\n    <strong>Range</strong>&nbsp;close (25 ft. + 5 ft./2 levels)<br>\n    \n    <strong>Targets</strong>&nbsp;one destroyed construct of up to 2 HD/level<br>\n    \n    <strong>Duration</strong>&nbsp;1 round/level (D)<br>\n      <strong>Saving Throw</strong>&nbsp;none;&nbsp;\n      <strong>Spell Resistance</strong>&nbsp;no<br>\n  </p>\n  <h2>Description</h2>\n  <p>Whispering in the dense, information-rich machine language of the First Ones, you bring a destroyed construct back to operational status for a short time, restoring it to 1 hit point. The construct can be further healed with spells like <i>make whole</i>, but it returns to its destroyed state as soon as this spell's duration expires or it is brought to 0 hit points, whichever comes first. As long as the construct is active, it obeys your commands to the best of its ability, fighting on your behalf and carrying out tasks that it is capable of performing.</p><p>Constructs with more than twice as many Hit Dice as your caster level cannot be targeted by this spell.</p>\n</div>\n"
    },
    "tags": [],
    "activation": {
      "type": "round"
    },
    "unchainedAction": {
      "activation": {
        "cost": 3,
        "type": "action"
      }
    },
    "target": {
      "value": "one destroyed construct of up to 2 HD/level"
    },
    "range": {
      "units": "close"
    },
    "uses": {
      "per": ""
    },
    "measureTemplate": {
      "size": "0"
    },
    "actionType": "",
    "damage": {
      "parts": [],
      "critParts": [],
      "nonCritParts": []
    },
    "attackParts": [],
    "ability": {
      "attack": "",
      "damage": ""
    },
    "save": {
      "dc": "0"
    },
    "effectNotes": [],
    "attackNotes": [],
    "links": {
      "children": []
    },
    "flags": {
      "boolean": [],
      "dictionary": []
    },
    "scriptCalls": [],
    "learnedAt": {
      "class": [
        [
          "sorcerer/wizard",
          5
        ],
        [
          "cleric/oracle",
          5
        ],
        [
          "summoner",
          4
        ],
        [
          "witch",
          5
        ],
        [
          "unchained Summoner",
          4
        ]
      ],
      "domain": [],
      "subDomain": [],
      "elementalSchool": [],
      "bloodline": []
    },
    "level": 5,
    "school": "trs",
    "conditionals": [],
    "components": {
      "verbal": true,
      "somatic": true,
      "focus": true
    },
    "materials": {
      "focus": "a ruby worth at least 25 gp per HD of the target construct"
    },
    "sr": false,
    "shortDescription": "<p>Whispering in the dense, information-rich machine language of the First Ones, you bring a destroyed construct back to operational status for a short time, restoring it to 1 hit point. The construct can be further healed with spells like <i>make whole</i>, but it returns to its destroyed state as soon as this spell's duration expires or it is brought to 0 hit points, whichever comes first. As long as the construct is active, it obeys your commands to the best of its ability, fighting on your behalf and carrying out tasks that it is capable of performing.</p><p>Constructs with more than twice as many Hit Dice as your caster level cannot be targeted by this spell.</p>",
    "spellDuration": "1 round/level (D)"
  },
  "effects": [],
  "folder": null,
  "sort": 0,
  "permission": {
    "default": 0
  },
  "flags": {}
}