{
  "_id": "qq0r0sldae6ole7n",
  "name": "Rebuke",
  "type": "spell",
  "img": "systems/pf1/icons/misc/magic-swirl.png",
  "data": {
    "description": {
      "value": "<div class=\"spell-description\">\n  <p>\n    <strong>School</strong>&nbsp;evocation&nbsp;[sonic];\n    <strong>Level</strong>&nbsp;inquisitor 4;\n    \n    <strong>Subdomain</strong>&nbsp;Judgment 4;\n    \n    \n  </p>\n  <p>\n    <strong>Casting Time</strong>&nbsp;1 standard<br>\n    <strong>Components</strong>&nbsp;V, S, DF<br>\n  </p>\n  <p>\n    <strong>Range</strong>&nbsp;20 feet<br>\n    <strong>Area</strong>&nbsp;20-ft.-radius burst centered on you<br>\n    \n    \n    <strong>Duration</strong>&nbsp;instantaneous<br>\n      <strong>Saving Throw</strong>&nbsp;Fortitude partial;&nbsp;\n      <strong>Spell Resistance</strong>&nbsp;yes<br>\n  </p>\n  <h2>Description</h2>\n  <p>Your wrathful words cause physical harm to your enemies.</p><p>Your enemies take 1d8 points of damage per two caster levels (maximum 5d8) and are staggered for 1 round. Half of this damage is sonic damage, but the other half results directly from divine power and is therefore not subject to being reduced by resistance to sonic-based attacks. is especially devastating to foes who worship your god, inflicting 1d6 points of damage per caster level (maximum 10d6) and stunning them for 1d4 rounds. A successful Fortitude save halves the damage and negates the staggering or stunning effect.</p><p>Enemies do not need to hear a <i>rebuke</i> to be harmed by it, but it is negated by magical silence.</p>\n</div>\n"
    },
    "tags": [],
    "activation": {
      "type": "standard"
    },
    "unchainedAction": {
      "activation": {
        "cost": 2,
        "type": "action"
      }
    },
    "range": {
      "value": 20,
      "units": "ft"
    },
    "uses": {
      "per": ""
    },
    "measureTemplate": {
      "size": "0"
    },
    "actionType": "spellsave",
    "damage": {
      "parts": [],
      "critParts": [],
      "nonCritParts": []
    },
    "attackParts": [],
    "ability": {
      "attack": "",
      "damage": ""
    },
    "save": {
      "dc": "0",
      "type": "fort",
      "description": "Fortitude partial"
    },
    "effectNotes": [],
    "attackNotes": [],
    "links": {
      "children": []
    },
    "flags": {
      "boolean": [],
      "dictionary": []
    },
    "scriptCalls": [],
    "learnedAt": {
      "class": [
        [
          "inquisitor",
          4
        ]
      ],
      "domain": [],
      "subDomain": [
        [
          "Judgment",
          4
        ]
      ],
      "elementalSchool": [],
      "bloodline": []
    },
    "level": 4,
    "school": "evo",
    "types": "sonic",
    "conditionals": [],
    "components": {
      "verbal": true,
      "somatic": true,
      "divineFocus": 1
    },
    "shortDescription": "<p>Your wrathful words cause physical harm to your enemies.</p><p>Your enemies take 1d8 points of damage per two caster levels (maximum 5d8) and are staggered for 1 round. Half of this damage is sonic damage, but the other half results directly from divine power and is therefore not subject to being reduced by resistance to sonic-based attacks. is especially devastating to foes who worship your god, inflicting 1d6 points of damage per caster level (maximum 10d6) and stunning them for 1d4 rounds. A successful Fortitude save halves the damage and negates the staggering or stunning effect.</p><p>Enemies do not need to hear a <i>rebuke</i> to be harmed by it, but it is negated by magical silence.</p>",
    "spellDuration": "instantaneous",
    "spellArea": "20-ft.-radius burst centered on you"
  },
  "effects": [],
  "folder": null,
  "sort": 0,
  "permission": {
    "default": 0
  },
  "flags": {}
}