{
  "_id": "f6di4ntmg79lcaxa",
  "name": "Restful Cloak",
  "type": "spell",
  "img": "systems/pf1/icons/misc/magic-swirl.png",
  "data": {
    "description": {
      "value": "<div class=\"spell-description\">\n  <p>\n    <strong>School</strong>&nbsp;conjuration&nbsp;(healing);\n    <strong>Level</strong>&nbsp;cleric/oracle 2, druid 2, hunter 2, occultist 2, paladin 2, ranger 2, shaman 2;\n    \n    \n    \n    \n  </p>\n  <p>\n    <strong>Casting Time</strong>&nbsp;1 standard<br>\n    <strong>Components</strong>&nbsp;V, S, F (cloak)<br>\n  </p>\n  <p>\n    <strong>Range</strong>&nbsp;personal<br>\n    \n    <strong>Targets</strong>&nbsp;you<br>\n    \n    <strong>Duration</strong>&nbsp;1 hour/level<br>\n  </p>\n  <h2>Description</h2>\n  <p>A cloak you are wearing transforms into a canvas tent large enough to hold four Medium creatures, firmly pitched in a flat area adjacent to you (if there is no such area, this spell simply fails). A creature regains 1 hit point for each hour it rests in the tent, in addition to any other benefits of resting. Additionally, a fatigued creature resting within the tent for 1 hour loses the fatigued condition, but a creature cannot recover from being fatigued more than once per casting of <i>restful tent</i>. At the end of the spell's duration, the tent transforms back into a cloak. If the tent is moved prior to the expiration of the spell's duration, the spell immediately ends.</p>\n</div>\n"
    },
    "tags": [],
    "activation": {
      "type": "standard"
    },
    "unchainedAction": {
      "activation": {
        "cost": 2,
        "type": "action"
      }
    },
    "target": {
      "value": "you"
    },
    "range": {
      "units": "personal"
    },
    "uses": {
      "per": ""
    },
    "measureTemplate": {
      "size": "0"
    },
    "actionType": "heal",
    "damage": {
      "parts": [],
      "critParts": [],
      "nonCritParts": []
    },
    "attackParts": [],
    "ability": {
      "attack": "",
      "damage": ""
    },
    "save": {
      "dc": "0"
    },
    "effectNotes": [],
    "attackNotes": [],
    "links": {
      "children": []
    },
    "flags": {
      "boolean": [],
      "dictionary": []
    },
    "scriptCalls": [],
    "learnedAt": {
      "class": [
        [
          "cleric/oracle",
          2
        ],
        [
          "druid",
          2
        ],
        [
          "ranger",
          2
        ],
        [
          "paladin",
          2
        ],
        [
          "shaman",
          2
        ],
        [
          "occultist",
          2
        ],
        [
          "hunter",
          2
        ]
      ],
      "domain": [],
      "subDomain": [],
      "elementalSchool": [],
      "bloodline": []
    },
    "level": 2,
    "school": "con",
    "subschool": "healing",
    "conditionals": [],
    "components": {
      "verbal": true,
      "somatic": true,
      "focus": true
    },
    "materials": {
      "focus": "cloak"
    },
    "sr": false,
    "shortDescription": "<p>A cloak you are wearing transforms into a canvas tent large enough to hold four Medium creatures, firmly pitched in a flat area adjacent to you (if there is no such area, this spell simply fails). A creature regains 1 hit point for each hour it rests in the tent, in addition to any other benefits of resting. Additionally, a fatigued creature resting within the tent for 1 hour loses the fatigued condition, but a creature cannot recover from being fatigued more than once per casting of <i>restful tent</i>. At the end of the spell's duration, the tent transforms back into a cloak. If the tent is moved prior to the expiration of the spell's duration, the spell immediately ends.</p>",
    "spellDuration": "1 hour/level"
  },
  "effects": [],
  "folder": null,
  "sort": 0,
  "permission": {
    "default": 0
  },
  "flags": {}
}