{
  "_id": "nsnub8y72ri0hw7i",
  "name": "Savage Maw",
  "type": "spell",
  "img": "systems/pf1/icons/misc/magic-swirl.png",
  "data": {
    "description": {
      "value": "<div class=\"spell-description\">\n  <p>\n    <strong>School</strong>&nbsp;transmutation;\n    <strong>Level</strong>&nbsp;antipaladin 1, cleric/oracle 2, druid 2, hunter 1, inquisitor 2, magus 2, psychic 2, ranger 1;\n    \n    \n    \n    \n  </p>\n  <p>\n    <strong>Casting Time</strong>&nbsp;1 standard<br>\n    <strong>Components</strong>&nbsp;V, S<br>\n  </p>\n  <p>\n    <strong>Range</strong>&nbsp;personal<br>\n    \n    <strong>Targets</strong>&nbsp;you<br>\n    \n    <strong>Duration</strong>&nbsp;1 minute/level (D), special (see below)<br>\n  </p>\n  <h2>Description</h2>\n  <p>Your teeth extend and sharpen, transforming your mouth into a maw of razor-sharp fangs. You gain a bite attack that deals 1d4 points of damage plus your Strength modifier. If you confirm a critical hit with this attack, it also deals 1 point of bleed damage. If you already have a bite attack, your bite deals 2 points of bleed damage on a critical hit. You are considered proficient with this attack. If used as part of a full-attack action, the bite is considered a secondary attack, is made at your full base attack bonus -5, and adds half your Strength modifier to its damage.  You can end this spell before its normal duration by making a bestial roar as a swift action. When you do, you can make an Intimidate check to demoralize all foes within a 30-foot radius that can hear the roar.</p>\n</div>\n"
    },
    "tags": [],
    "activation": {
      "type": "standard"
    },
    "unchainedAction": {
      "activation": {
        "cost": 2,
        "type": "action"
      }
    },
    "target": {
      "value": "you"
    },
    "range": {
      "units": "personal"
    },
    "uses": {
      "per": ""
    },
    "measureTemplate": {
      "size": "0"
    },
    "actionType": "",
    "damage": {
      "parts": [],
      "critParts": [],
      "nonCritParts": []
    },
    "attackParts": [],
    "ability": {
      "attack": "",
      "damage": ""
    },
    "save": {
      "dc": "0"
    },
    "effectNotes": [],
    "attackNotes": [],
    "links": {
      "children": []
    },
    "flags": {
      "boolean": [],
      "dictionary": []
    },
    "scriptCalls": [],
    "learnedAt": {
      "class": [
        [
          "cleric/oracle",
          2
        ],
        [
          "druid",
          2
        ],
        [
          "ranger",
          1
        ],
        [
          "inquisitor",
          2
        ],
        [
          "antipaladin",
          1
        ],
        [
          "magus",
          2
        ],
        [
          "psychic",
          2
        ],
        [
          "hunter",
          1
        ]
      ],
      "domain": [],
      "subDomain": [],
      "elementalSchool": [],
      "bloodline": []
    },
    "level": 2,
    "school": "trs",
    "conditionals": [],
    "components": {
      "verbal": true,
      "somatic": true
    },
    "sr": false,
    "shortDescription": "<p>Your teeth extend and sharpen, transforming your mouth into a maw of razor-sharp fangs. You gain a bite attack that deals 1d4 points of damage plus your Strength modifier. If you confirm a critical hit with this attack, it also deals 1 point of bleed damage. If you already have a bite attack, your bite deals 2 points of bleed damage on a critical hit. You are considered proficient with this attack. If used as part of a full-attack action, the bite is considered a secondary attack, is made at your full base attack bonus -5, and adds half your Strength modifier to its damage.  You can end this spell before its normal duration by making a bestial roar as a swift action. When you do, you can make an Intimidate check to demoralize all foes within a 30-foot radius that can hear the roar.</p>",
    "spellDuration": "1 minute/level (D), special (see below)"
  },
  "effects": [],
  "folder": null,
  "sort": 0,
  "permission": {
    "default": 0
  },
  "flags": {}
}