{
  "_id": "ycaghk4w6bpmyinj",
  "name": "Scintillating Wall",
  "type": "spell",
  "img": "systems/pf1/icons/misc/magic-swirl.png",
  "data": {
    "description": {
      "value": "<div class=\"spell-description\">\n  <p>\n    <strong>School</strong>&nbsp;illusion&nbsp;(pattern)&nbsp;[mind-affecting];\n    <strong>Level</strong>&nbsp;bard 4, psychic 5, sorcerer/wizard 5;\n    \n    \n    \n    \n  </p>\n  <p>\n    <strong>Casting Time</strong>&nbsp;1 standard<br>\n    <strong>Components</strong>&nbsp;V, S, M (a handful of crushed d&#x27;ziriak chitin)<br>\n  </p>\n  <p>\n    <strong>Range</strong>&nbsp;close (25 ft. + 5 ft./2 levels)<br>\n    \n    \n    <strong>Effect</strong>&nbsp;wall with an area of up to one 10-ft. square/level<br>\n    <strong>Duration</strong>&nbsp;1 round/level (D)<br>\n      <strong>Saving Throw</strong>&nbsp;see text;&nbsp;\n      <strong>Spell Resistance</strong>&nbsp;no<br>\n  </p>\n  <h2>Description</h2>\n  <p>You create a vibrant wall of hypnotic light and color. The wall does not impede movement or line of sight in any way. Creatures moving through the wall must succeed at a Will save or become fascinated. Each round, on its turn, a fascinated creature can attempt a new saving throw to end the effect as a full-round action that does not provoke attacks of opportunity. A creature that succeeds at the save against the fascination effect is no longer affected if it remains within the wall, but it must attempt a new saving throw if it leaves the area and later moves through the wall again. Creatures adjacent to the wall and creatures moving through the wall that succeed at their save against fascination are dazzled.  If you create the wall so that it appears in the same space as one or more creatures, each affected creature must succeed at a Fortitude save or become blinded. Creatures that successfully save against the blindness are subject to the fascination effect unless they leave the wall within 1 round of casting the spell.  <i>Scintillating wall</i> can be made permanent with a <i>permanency</i> spell cast by a caster of 13th level or higher, at a cost of 12,500 gp.</p>\n</div>\n"
    },
    "tags": [],
    "activation": {
      "type": "standard"
    },
    "unchainedAction": {
      "activation": {
        "cost": 2,
        "type": "action"
      }
    },
    "range": {
      "units": "close"
    },
    "uses": {
      "per": ""
    },
    "measureTemplate": {
      "size": "0"
    },
    "actionType": "spellsave",
    "damage": {
      "parts": [],
      "critParts": [],
      "nonCritParts": []
    },
    "attackParts": [],
    "ability": {
      "attack": "",
      "damage": ""
    },
    "save": {
      "dc": "0",
      "description": "see text"
    },
    "effectNotes": [],
    "attackNotes": [],
    "links": {
      "children": []
    },
    "flags": {
      "boolean": [],
      "dictionary": []
    },
    "scriptCalls": [],
    "learnedAt": {
      "class": [
        [
          "sorcerer/wizard",
          5
        ],
        [
          "bard",
          4
        ],
        [
          "psychic",
          5
        ]
      ],
      "domain": [],
      "subDomain": [],
      "elementalSchool": [],
      "bloodline": []
    },
    "level": 5,
    "school": "ill",
    "subschool": "pattern",
    "types": "mind-affecting",
    "conditionals": [],
    "components": {
      "verbal": true,
      "somatic": true,
      "material": true
    },
    "materials": {
      "value": "a handful of crushed d'ziriak chitin"
    },
    "sr": false,
    "shortDescription": "<p>You create a vibrant wall of hypnotic light and color. The wall does not impede movement or line of sight in any way. Creatures moving through the wall must succeed at a Will save or become fascinated. Each round, on its turn, a fascinated creature can attempt a new saving throw to end the effect as a full-round action that does not provoke attacks of opportunity. A creature that succeeds at the save against the fascination effect is no longer affected if it remains within the wall, but it must attempt a new saving throw if it leaves the area and later moves through the wall again. Creatures adjacent to the wall and creatures moving through the wall that succeed at their save against fascination are dazzled.  If you create the wall so that it appears in the same space as one or more creatures, each affected creature must succeed at a Fortitude save or become blinded. Creatures that successfully save against the blindness are subject to the fascination effect unless they leave the wall within 1 round of casting the spell.  <i>Scintillating wall</i> can be made permanent with a <i>permanency</i> spell cast by a caster of 13th level or higher, at a cost of 12,500 gp.</p>",
    "spellDuration": "1 round/level (D)",
    "spellEffect": "wall with an area of up to one 10-ft. square/level"
  },
  "effects": [],
  "folder": null,
  "sort": 0,
  "permission": {
    "default": 0
  },
  "flags": {}
}