{
  "_id": "g66w32kdup1f43bp",
  "name": "Scrying",
  "type": "spell",
  "img": "systems/pf1/icons/misc/magic-swirl.png",
  "data": {
    "description": {
      "value": "<div class=\"spell-description\">\n  <p>\n    <strong>School</strong>&nbsp;divination&nbsp;(scrying);\n    <strong>Level</strong>&nbsp;bard 3, cleric/oracle 5, druid 4, hunter 4, medium 3, mesmerist 3, occultist 4, psychic 4, shaman 4, sorcerer/wizard 4, spiritualist 5, witch 4;\n    \n    \n    \n    \n  </p>\n  <p>\n    <strong>Casting Time</strong>&nbsp;1 hour<br>\n    <strong>Components</strong>&nbsp;V, S, M/DF (a pool of water), F (a silver mirror worth 1,000 gp)<br>\n  </p>\n  <p>\n    \n    \n    \n    <strong>Effect</strong>&nbsp;magical sensor<br>\n    <strong>Duration</strong>&nbsp;1 min./level<br>\n      <strong>Saving Throw</strong>&nbsp;Will negates;&nbsp;\n      <strong>Spell Resistance</strong>&nbsp;yes<br>\n  </p>\n  <h2>Description</h2>\n  <p>You can observe a creature at any distance. If the subject succeeds on a Will save, the spell fails. The difficulty of the save depends on how well your knowledge of the subject and what sort of physical connection (if any) you have to that creature.</p><p>Furthermore, if the subject is on another plane, it gets a +5 bonus on its Will save.</p><p> <table><tr><th>Knowledge</th><th>Will Save Modifier</th></tr><tr><td>None*</td><td>+10</td></tr><tr><td>Secondhand (you have heard of the subject)</td><td>+5</td></tr><tr><td>Firsthand (you have met the subject)</td><td>+0</td></tr><tr><td>Familiar (you know the subject well)</td><td>-5</td></tr><tr><td colspan=\"2\">*You must have some sort of connection (see below) to a creature of which you have no knowledge.</td></tr></table> </p><p> <table><tr><th>Connection</th><th>Will Save Modifier</th></tr><tr><td>Likeness or picture</td><td>-2</td></tr><tr><td>Possession or garment</td><td>-4</td></tr><tr><td>Body part, lock of hair, bit of nail, etc.</td><td>-10</td></tr></table>  If the save fails, you can see and hear the subject and its surroundings (approximately 10 feet in all directions of the subject).</p><p>If the subject moves, the sensor follows at a speed of up to 150 feet.</p><p>As with all divination (scrying) spells, the sensor has your full visual acuity, including any magical effects. In addition, the following spells have a 5% chance per caster level of operating through the sensor: <i>detect chaos</i>, <i>detect evil</i>, <i>detect good</i>, <i>detect law</i>, <i>detect magic</i>, and <i>message.</i></p><p>If the save succeeds, you can't attempt to scry on that subject again for at least 24 hours.</p>\n</div>\n"
    },
    "tags": [],
    "activation": {
      "type": "hour"
    },
    "unchainedAction": {
      "activation": {
        "type": "hour"
      }
    },
    "uses": {
      "per": ""
    },
    "measureTemplate": {
      "size": "0"
    },
    "actionType": "spellsave",
    "damage": {
      "parts": [],
      "critParts": [],
      "nonCritParts": []
    },
    "attackParts": [],
    "ability": {
      "attack": "",
      "damage": ""
    },
    "save": {
      "dc": "0",
      "type": "will",
      "description": "Will negates"
    },
    "effectNotes": [],
    "attackNotes": [],
    "links": {
      "children": []
    },
    "flags": {
      "boolean": [],
      "dictionary": []
    },
    "scriptCalls": [],
    "learnedAt": {
      "class": [
        [
          "sorcerer/wizard",
          4
        ],
        [
          "cleric/oracle",
          5
        ],
        [
          "druid",
          4
        ],
        [
          "bard",
          3
        ],
        [
          "witch",
          4
        ],
        [
          "shaman",
          4
        ],
        [
          "psychic",
          4
        ],
        [
          "medium",
          3
        ],
        [
          "mesmerist",
          3
        ],
        [
          "occultist",
          4
        ],
        [
          "spiritualist",
          5
        ],
        [
          "hunter",
          4
        ]
      ],
      "domain": [],
      "subDomain": [],
      "elementalSchool": [],
      "bloodline": []
    },
    "level": 4,
    "school": "div",
    "subschool": "scrying",
    "conditionals": [],
    "components": {
      "verbal": true,
      "somatic": true,
      "material": true,
      "focus": true,
      "divineFocus": 2
    },
    "materials": {
      "value": "a pool of water",
      "focus": "a silver mirror worth 1,000 gp"
    },
    "shortDescription": "<p>You can observe a creature at any distance. If the subject succeeds on a Will save, the spell fails. The difficulty of the save depends on how well your knowledge of the subject and what sort of physical connection (if any) you have to that creature.</p><p>Furthermore, if the subject is on another plane, it gets a +5 bonus on its Will save.</p><p> <table><tr><th>Knowledge</th><th>Will Save Modifier</th></tr><tr><td>None*</td><td>+10</td></tr><tr><td>Secondhand (you have heard of the subject)</td><td>+5</td></tr><tr><td>Firsthand (you have met the subject)</td><td>+0</td></tr><tr><td>Familiar (you know the subject well)</td><td>-5</td></tr><tr><td colspan=\"2\">*You must have some sort of connection (see below) to a creature of which you have no knowledge.</td></tr></table> </p><p> <table><tr><th>Connection</th><th>Will Save Modifier</th></tr><tr><td>Likeness or picture</td><td>-2</td></tr><tr><td>Possession or garment</td><td>-4</td></tr><tr><td>Body part, lock of hair, bit of nail, etc.</td><td>-10</td></tr></table>  If the save fails, you can see and hear the subject and its surroundings (approximately 10 feet in all directions of the subject).</p><p>If the subject moves, the sensor follows at a speed of up to 150 feet.</p><p>As with all divination (scrying) spells, the sensor has your full visual acuity, including any magical effects. In addition, the following spells have a 5% chance per caster level of operating through the sensor: <i>detect chaos</i>, <i>detect evil</i>, <i>detect good</i>, <i>detect law</i>, <i>detect magic</i>, and <i>message.</i></p><p>If the save succeeds, you can't attempt to scry on that subject again for at least 24 hours.</p>",
    "spellDuration": "1 min./level",
    "spellEffect": "magical sensor"
  },
  "effects": [],
  "folder": null,
  "sort": 0,
  "permission": {
    "default": 0
  },
  "flags": {}
}