{
  "_id": "glt6uk3n6g6l2p6l",
  "name": "Scrying, Greater",
  "type": "spell",
  "img": "systems/pf1/icons/misc/magic-swirl.png",
  "data": {
    "description": {
      "value": "<div class=\"spell-description\">\n  <p>\n    <strong>School</strong>&nbsp;divination&nbsp;(scrying);\n    <strong>Level</strong>&nbsp;bard 6, cleric/oracle 7, druid 7, mesmerist 6, occultist 6, psychic 7, shaman 7, sorcerer/wizard 7, witch 7;\n    \n    \n    \n    \n  </p>\n  <p>\n    <strong>Casting Time</strong>&nbsp;1 standard<br>\n    <strong>Components</strong>&nbsp;V, S<br>\n  </p>\n  <p>\n    \n    \n    \n    <strong>Effect</strong>&nbsp;magical sensor<br>\n    <strong>Duration</strong>&nbsp;1 hour/level<br>\n      <strong>Saving Throw</strong>&nbsp;Will negates;&nbsp;\n      <strong>Spell Resistance</strong>&nbsp;yes<br>\n  </p>\n  <h2>Description</h2>\n  <p>This spell functions like <i>scrying,</i> except as noted above.</p><p>Additionally, all of the following spells function reliably through the sensor: <i>detect chaos</i>, <i>detect evil</i>, <i>detect good</i>, <i>detect law</i>, <i>detect magic</i>, <i>message</i>, <i>read magic,</i> and <i>tongues</i>.</p>\n</div>\n"
    },
    "tags": [],
    "activation": {
      "type": "standard"
    },
    "unchainedAction": {
      "activation": {
        "cost": 2,
        "type": "action"
      }
    },
    "uses": {
      "per": ""
    },
    "measureTemplate": {
      "size": "0"
    },
    "actionType": "spellsave",
    "damage": {
      "parts": [],
      "critParts": [],
      "nonCritParts": []
    },
    "attackParts": [],
    "ability": {
      "attack": "",
      "damage": ""
    },
    "save": {
      "dc": "0",
      "type": "will",
      "description": "Will negates"
    },
    "effectNotes": [],
    "attackNotes": [],
    "links": {
      "children": []
    },
    "flags": {
      "boolean": [],
      "dictionary": []
    },
    "scriptCalls": [],
    "learnedAt": {
      "class": [
        [
          "sorcerer/wizard",
          7
        ],
        [
          "cleric/oracle",
          7
        ],
        [
          "druid",
          7
        ],
        [
          "bard",
          6
        ],
        [
          "witch",
          7
        ],
        [
          "shaman",
          7
        ],
        [
          "psychic",
          7
        ],
        [
          "mesmerist",
          6
        ],
        [
          "occultist",
          6
        ]
      ],
      "domain": [],
      "subDomain": [],
      "elementalSchool": [],
      "bloodline": []
    },
    "level": 7,
    "school": "div",
    "subschool": "scrying",
    "conditionals": [],
    "components": {
      "verbal": true,
      "somatic": true
    },
    "shortDescription": "<p>This spell functions like <i>scrying,</i> except as noted above.</p><p>Additionally, all of the following spells function reliably through the sensor: <i>detect chaos</i>, <i>detect evil</i>, <i>detect good</i>, <i>detect law</i>, <i>detect magic</i>, <i>message</i>, <i>read magic,</i> and <i>tongues</i>.</p>",
    "spellDuration": "1 hour/level",
    "spellEffect": "magical sensor"
  },
  "effects": [],
  "folder": null,
  "sort": 0,
  "permission": {
    "default": 0
  },
  "flags": {}
}