{
  "_id": "1hi9dt2pd3mtkm24",
  "name": "Shadow Claws",
  "type": "spell",
  "img": "systems/pf1/icons/misc/magic-swirl.png",
  "data": {
    "description": {
      "value": "<div class=\"spell-description\">\n  <p>\n    <strong>School</strong>&nbsp;illusion&nbsp;(shadow)&nbsp;[shadow];\n    <strong>Level</strong>&nbsp;antipaladin 1, bard 2, bloodrager 2, magus 2, sorcerer/wizard 2, spiritualist 2;\n    \n    \n    \n    \n  </p>\n  <p>\n    <strong>Casting Time</strong>&nbsp;1 standard<br>\n    <strong>Components</strong>&nbsp;V, S<br>\n  </p>\n  <p>\n    <strong>Range</strong>&nbsp;personal<br>\n    \n    <strong>Targets</strong>&nbsp;you<br>\n    \n    <strong>Duration</strong>&nbsp;1 minute/level<br>\n  </p>\n  <h2>Description</h2>\n  <p>You summon a pair of claws over your hands formed from semi-real material. This grants you two primary claw attacks dealing 1d4 points of damage if you are Medium (1d3 if Small) plus 1 point of Strength damage. A successful Fortitude saving throw negates the Strength damage (DC = this spell's DC).</p>\n</div>\n"
    },
    "tags": [],
    "activation": {
      "type": "standard"
    },
    "unchainedAction": {
      "activation": {
        "cost": 2,
        "type": "action"
      }
    },
    "target": {
      "value": "you"
    },
    "range": {
      "units": "personal"
    },
    "uses": {
      "per": ""
    },
    "measureTemplate": {
      "size": "0"
    },
    "actionType": "",
    "damage": {
      "parts": [],
      "critParts": [],
      "nonCritParts": []
    },
    "attackParts": [],
    "ability": {
      "attack": "",
      "damage": ""
    },
    "save": {
      "dc": "0"
    },
    "effectNotes": [],
    "attackNotes": [],
    "links": {
      "children": []
    },
    "flags": {
      "boolean": [],
      "dictionary": []
    },
    "scriptCalls": [],
    "learnedAt": {
      "class": [
        [
          "sorcerer/wizard",
          2
        ],
        [
          "bard",
          2
        ],
        [
          "antipaladin",
          1
        ],
        [
          "magus",
          2
        ],
        [
          "bloodrager",
          2
        ],
        [
          "spiritualist",
          2
        ]
      ],
      "domain": [],
      "subDomain": [],
      "elementalSchool": [],
      "bloodline": []
    },
    "level": 2,
    "school": "ill",
    "subschool": "shadow",
    "types": "shadow",
    "conditionals": [],
    "components": {
      "verbal": true,
      "somatic": true
    },
    "sr": false,
    "shortDescription": "<p>You summon a pair of claws over your hands formed from semi-real material. This grants you two primary claw attacks dealing 1d4 points of damage if you are Medium (1d3 if Small) plus 1 point of Strength damage. A successful Fortitude saving throw negates the Strength damage (DC = this spell's DC).</p>",
    "spellDuration": "1 minute/level"
  },
  "effects": [],
  "folder": null,
  "sort": 0,
  "permission": {
    "default": 0
  },
  "flags": {}
}