{
  "_id": "5if5rln4qlsccrbn",
  "name": "Shout, Greater",
  "type": "spell",
  "img": "systems/pf1/icons/misc/magic-swirl.png",
  "data": {
    "description": {
      "value": "<div class=\"spell-description\">\n  <p>\n    <strong>School</strong>&nbsp;evocation&nbsp;[sonic];\n    <strong>Level</strong>&nbsp;bard 6, psychic 8, sorcerer/wizard 8;\n    \n    \n    \n    <strong>Bloodline</strong>&nbsp;Maestro 8;\n  </p>\n  <p>\n    <strong>Casting Time</strong>&nbsp;1 standard<br>\n    <strong>Components</strong>&nbsp;V, S, F (a metal or ivory horn)<br>\n  </p>\n  <p>\n    <strong>Range</strong>&nbsp;60 feet<br>\n    <strong>Area</strong>&nbsp;cone-shaped burst<br>\n    \n    \n    <strong>Duration</strong>&nbsp;instantaneous<br>\n      <strong>Saving Throw</strong>&nbsp;Fortitude partial or Reflex negates (object); see text;&nbsp;\n      <strong>Spell Resistance</strong>&nbsp;yes<br>\n  </p>\n  <h2>Description</h2>\n  <p>This spell functions like <i>shout,</i> except that the cone deals 10d6 points of sonic damage (or 1d6 points of sonic damage per caster level, maximum 20d6, against exposed brittle or crystalline objects or crystalline creatures). It also causes creatures to be stunned for 1 round and deafened for 4d6 rounds. A creature in the area of the cone can negate the stunning and halve both the damage and the duration of the deafness with a successful Fortitude save. A creature holding vulnerable objects can attempt a Reflex save to negate the damage to those objects.</p>\n</div>\n"
    },
    "tags": [],
    "activation": {
      "type": "standard"
    },
    "unchainedAction": {
      "activation": {
        "cost": 2,
        "type": "action"
      }
    },
    "range": {
      "value": 60,
      "units": "ft"
    },
    "uses": {
      "per": ""
    },
    "measureTemplate": {
      "size": "0"
    },
    "actionType": "spellsave",
    "damage": {
      "parts": [],
      "critParts": [],
      "nonCritParts": []
    },
    "attackParts": [],
    "ability": {
      "attack": "",
      "damage": ""
    },
    "save": {
      "dc": "0",
      "type": "ref",
      "description": "Fortitude partial or Reflex negates (object); see text"
    },
    "effectNotes": [],
    "attackNotes": [],
    "links": {
      "children": []
    },
    "flags": {
      "boolean": [],
      "dictionary": []
    },
    "scriptCalls": [],
    "learnedAt": {
      "class": [
        [
          "sorcerer/wizard",
          8
        ],
        [
          "bard",
          6
        ],
        [
          "psychic",
          8
        ]
      ],
      "domain": [],
      "subDomain": [],
      "elementalSchool": [],
      "bloodline": [
        [
          "Maestro",
          8
        ]
      ]
    },
    "level": 8,
    "school": "evo",
    "types": "sonic",
    "conditionals": [],
    "components": {
      "verbal": true,
      "somatic": true,
      "focus": true
    },
    "materials": {
      "focus": "a metal or ivory horn"
    },
    "shortDescription": "<p>This spell functions like <i>shout,</i> except that the cone deals 10d6 points of sonic damage (or 1d6 points of sonic damage per caster level, maximum 20d6, against exposed brittle or crystalline objects or crystalline creatures). It also causes creatures to be stunned for 1 round and deafened for 4d6 rounds. A creature in the area of the cone can negate the stunning and halve both the damage and the duration of the deafness with a successful Fortitude save. A creature holding vulnerable objects can attempt a Reflex save to negate the damage to those objects.</p>",
    "spellDuration": "instantaneous",
    "spellArea": "cone-shaped burst"
  },
  "effects": [],
  "folder": null,
  "sort": 0,
  "permission": {
    "default": 0
  },
  "flags": {}
}