{
  "_id": "td7njmfarubxh6u3",
  "name": "Shroud of Darkness",
  "type": "spell",
  "img": "systems/pf1/icons/misc/magic-swirl.png",
  "data": {
    "description": {
      "value": "<div class=\"spell-description\">\n  <p>\n    <strong>School</strong>&nbsp;evocation&nbsp;[darkness];\n    <strong>Level</strong>&nbsp;antipaladin 4, bard 5, cleric/oracle 5, inquisitor 5, mesmerist 4, shaman 5, sorcerer/wizard 5;\n    \n    \n    \n    \n  </p>\n  <p>\n    <strong>Casting Time</strong>&nbsp;1 standard<br>\n    <strong>Components</strong>&nbsp;V, S, M/DF (a pinch of black sand)<br>\n  </p>\n  <p>\n    <strong>Range</strong>&nbsp;medium (100 ft. + 10 ft./level)<br>\n    \n    <strong>Targets</strong>&nbsp;one creature/3 levels, no two of which can be more than 30 ft. apart<br>\n    \n    <strong>Duration</strong>&nbsp;1 round/level (D)<br>\n      <strong>Saving Throw</strong>&nbsp;Will negates;&nbsp;\n      <strong>Spell Resistance</strong>&nbsp;yes<br>\n  </p>\n  <h2>Description</h2>\n  <p>With a dark incantation and a gesture of your hand over your eyes, you cause a shroud of <i>darkness</i> to descend upon the targets of this spell. The subjects treat the light level as two steps lower than normal for the duration of this spell. Bright light becomes dim light, normal light becomes <i>darkness</i>, and areas of dim light and <i>darkness</i> become supernaturally dark (as <i>darkness</i>, but even creatures with darkvision cannot see).</p>\n</div>\n"
    },
    "tags": [],
    "activation": {
      "type": "standard"
    },
    "unchainedAction": {
      "activation": {
        "cost": 2,
        "type": "action"
      }
    },
    "target": {
      "value": "one creature/3 levels, no two of which can be more than 30 ft. apart"
    },
    "range": {
      "units": "medium"
    },
    "uses": {
      "per": ""
    },
    "measureTemplate": {
      "size": "0"
    },
    "actionType": "spellsave",
    "damage": {
      "parts": [],
      "critParts": [],
      "nonCritParts": []
    },
    "attackParts": [],
    "ability": {
      "attack": "",
      "damage": ""
    },
    "save": {
      "dc": "0",
      "type": "will",
      "description": "Will negates"
    },
    "effectNotes": [],
    "attackNotes": [],
    "links": {
      "children": []
    },
    "flags": {
      "boolean": [],
      "dictionary": []
    },
    "scriptCalls": [],
    "learnedAt": {
      "class": [
        [
          "sorcerer/wizard",
          5
        ],
        [
          "cleric/oracle",
          5
        ],
        [
          "bard",
          5
        ],
        [
          "inquisitor",
          5
        ],
        [
          "antipaladin",
          4
        ],
        [
          "shaman",
          5
        ],
        [
          "mesmerist",
          4
        ]
      ],
      "domain": [],
      "subDomain": [],
      "elementalSchool": [],
      "bloodline": []
    },
    "level": 5,
    "school": "evo",
    "types": "darkness",
    "conditionals": [],
    "components": {
      "verbal": true,
      "somatic": true,
      "material": true,
      "divineFocus": 2
    },
    "materials": {
      "value": "a pinch of black sand"
    },
    "shortDescription": "<p>With a dark incantation and a gesture of your hand over your eyes, you cause a shroud of <i>darkness</i> to descend upon the targets of this spell. The subjects treat the light level as two steps lower than normal for the duration of this spell. Bright light becomes dim light, normal light becomes <i>darkness</i>, and areas of dim light and <i>darkness</i> become supernaturally dark (as <i>darkness</i>, but even creatures with darkvision cannot see).</p>",
    "spellDuration": "1 round/level (D)"
  },
  "effects": [],
  "folder": null,
  "sort": 0,
  "permission": {
    "default": 0
  },
  "flags": {}
}