{
  "_id": "dm53hbl8lin781e2",
  "name": "Snapdragon Fireworks",
  "type": "spell",
  "img": "systems/pf1/icons/misc/magic-swirl.png",
  "data": {
    "description": {
      "value": "<div class=\"spell-description\">\n  <p>\n    <strong>School</strong>&nbsp;transmutation&nbsp;[fire, light];\n    <strong>Level</strong>&nbsp;bard 2, sorcerer/wizard 1;\n    \n    \n    \n    \n  </p>\n  <p>\n    <strong>Casting Time</strong>&nbsp;1 standard<br>\n    <strong>Components</strong>&nbsp;V, S, M (a bundle of sulfur wrapped in cloth)<br>\n  </p>\n  <p>\n    <strong>Range</strong>&nbsp;long (400 ft. + 40 ft./level)<br>\n    \n    \n    <strong>Effect</strong>&nbsp;dragon-shaped fireworks<br>\n    <strong>Duration</strong>&nbsp;1 round/level<br>\n      <strong>Saving Throw</strong>&nbsp;Reflex negates;&nbsp;\n      <strong>Spell Resistance</strong>&nbsp;yes<br>\n  </p>\n  <h2>Description</h2>\n  <p>A favorite display at halfling midsummer festivals, this spell lets you create fireworks in the shape of tiny dragons.</p><p>Once per round, as a move action, you may designate a target 5-foot-square within range and launch a pyrotechnic in that direction. The pyrotechnic takes a zigzag path from you to that square, always missing creatures and objects in its path, and detonates in that square with a bang and a colorful burst of fire and light. Creatures in the target square take 1d4 points of fire damage and are dazzled for 1 round (Reflex half, a successful save negates the dazzled condition).</p><p>Normally when this spell is used as part of a festival, the chosen target is high in the sky to increase visibility and protect observers.</p>\n</div>\n"
    },
    "tags": [],
    "activation": {
      "type": "standard"
    },
    "unchainedAction": {
      "activation": {
        "cost": 2,
        "type": "action"
      }
    },
    "range": {
      "units": "long"
    },
    "uses": {
      "per": ""
    },
    "measureTemplate": {
      "size": "0"
    },
    "actionType": "spellsave",
    "damage": {
      "parts": [],
      "critParts": [],
      "nonCritParts": []
    },
    "attackParts": [],
    "ability": {
      "attack": "",
      "damage": ""
    },
    "save": {
      "dc": "0",
      "type": "ref",
      "description": "Reflex negates"
    },
    "effectNotes": [],
    "attackNotes": [],
    "links": {
      "children": []
    },
    "flags": {
      "boolean": [],
      "dictionary": []
    },
    "scriptCalls": [],
    "learnedAt": {
      "class": [
        [
          "sorcerer/wizard",
          1
        ],
        [
          "bard",
          2
        ]
      ],
      "domain": [],
      "subDomain": [],
      "elementalSchool": [],
      "bloodline": []
    },
    "school": "trs",
    "types": "fire, light",
    "conditionals": [],
    "components": {
      "verbal": true,
      "somatic": true,
      "material": true
    },
    "materials": {
      "value": "a bundle of sulfur wrapped in cloth"
    },
    "shortDescription": "<p>A favorite display at halfling midsummer festivals, this spell lets you create fireworks in the shape of tiny dragons.</p><p>Once per round, as a move action, you may designate a target 5-foot-square within range and launch a pyrotechnic in that direction. The pyrotechnic takes a zigzag path from you to that square, always missing creatures and objects in its path, and detonates in that square with a bang and a colorful burst of fire and light. Creatures in the target square take 1d4 points of fire damage and are dazzled for 1 round (Reflex half, a successful save negates the dazzled condition).</p><p>Normally when this spell is used as part of a festival, the chosen target is high in the sky to increase visibility and protect observers.</p>",
    "spellDuration": "1 round/level",
    "spellEffect": "dragon-shaped fireworks"
  },
  "effects": [],
  "folder": null,
  "sort": 0,
  "permission": {
    "default": 0
  },
  "flags": {}
}