{
  "_id": "bi0kwkoqetglbhdq",
  "name": "Summon Lesser Demon",
  "type": "spell",
  "img": "systems/pf1/icons/misc/magic-swirl.png",
  "data": {
    "description": {
      "value": "<div class=\"spell-description\">\n  <p>\n    <strong>School</strong>&nbsp;conjuration&nbsp;(summoning)&nbsp;[chaotic, evil];\n    <strong>Level</strong>&nbsp;cleric/oracle 5, sorcerer/wizard 5, summoner 4, unchained Summoner 4, witch 5;\n    \n    \n    \n    \n  </p>\n  <p>\n    <strong>Casting Time</strong>&nbsp;1 round<br>\n    <strong>Components</strong>&nbsp;V, S, F/DF (a tiny bag and a small candle)<br>\n  </p>\n  <p>\n    <strong>Range</strong>&nbsp;close (25 ft. + 5 ft./2 levels)<br>\n    \n    \n    <strong>Effect</strong>&nbsp;one summoned creature<br>\n    <strong>Duration</strong>&nbsp;1 round/level (D)<br>\n      <strong>Saving Throw</strong>&nbsp;none;&nbsp;\n      <strong>Spell Resistance</strong>&nbsp;no<br>\n  </p>\n  <h2>Description</h2>\n  <p>This spell functions like <i>summon monster</i>, except it allows you to summon a single brimorak (<i>Lords of Chaos</i> 56), one incubus (<i>Bestiary 3</i> 73), one thoxel demon (see page 86), 1d3 schir demons (<i>Bestiary 3</i> 74), or 1d4+1 vermlek demons (<i>Lords of Chaos</i> 54).</p>\n</div>\n"
    },
    "tags": [],
    "activation": {
      "type": "round"
    },
    "unchainedAction": {
      "activation": {
        "cost": 3,
        "type": "action"
      }
    },
    "range": {
      "units": "close"
    },
    "uses": {
      "per": ""
    },
    "measureTemplate": {
      "size": "0"
    },
    "actionType": "other",
    "damage": {
      "parts": [],
      "critParts": [],
      "nonCritParts": []
    },
    "attackParts": [],
    "ability": {
      "attack": "",
      "damage": ""
    },
    "save": {
      "dc": "0"
    },
    "effectNotes": [],
    "attackNotes": [],
    "links": {
      "children": []
    },
    "flags": {
      "boolean": [],
      "dictionary": []
    },
    "scriptCalls": [],
    "learnedAt": {
      "class": [
        [
          "sorcerer/wizard",
          5
        ],
        [
          "cleric/oracle",
          5
        ],
        [
          "summoner",
          4
        ],
        [
          "witch",
          5
        ],
        [
          "unchained Summoner",
          4
        ]
      ],
      "domain": [],
      "subDomain": [],
      "elementalSchool": [],
      "bloodline": []
    },
    "level": 5,
    "school": "con",
    "subschool": "summoning",
    "types": "chaotic, evil",
    "conditionals": [],
    "components": {
      "verbal": true,
      "somatic": true,
      "focus": true,
      "divineFocus": 3
    },
    "materials": {
      "focus": "a tiny bag and a small candle"
    },
    "sr": false,
    "shortDescription": "<p>This spell functions like <i>summon monster</i>, except it allows you to summon a single brimorak (<i>Lords of Chaos</i> 56), one incubus (<i>Bestiary 3</i> 73), one thoxel demon (see page 86), 1d3 schir demons (<i>Bestiary 3</i> 74), or 1d4+1 vermlek demons (<i>Lords of Chaos</i> 54).</p>",
    "spellDuration": "1 round/level (D)",
    "spellEffect": "one summoned creature"
  },
  "effects": [],
  "folder": null,
  "sort": 0,
  "permission": {
    "default": 0
  },
  "flags": {}
}