{
  "_id": "j2mwv9wfxhqch10g",
  "name": "Sunburst",
  "type": "spell",
  "img": "systems/pf1/icons/misc/magic-swirl.png",
  "data": {
    "description": {
      "value": "<div class=\"spell-description\">\n  <p>\n    <strong>School</strong>&nbsp;evocation&nbsp;[light];\n    <strong>Level</strong>&nbsp;druid 8, shaman 8, sorcerer/wizard 8;\n    <strong>Domain</strong>&nbsp;Sun 8;\n    <strong>Subdomain</strong>&nbsp;Seasons 8;\n    \n    <strong>Bloodline</strong>&nbsp;Celestial 8;\n  </p>\n  <p>\n    <strong>Casting Time</strong>&nbsp;1 standard<br>\n    <strong>Components</strong>&nbsp;V, S, M/DF (sunstone and fire source)<br>\n  </p>\n  <p>\n    <strong>Range</strong>&nbsp;long (400 ft. + 40 ft./level)<br>\n    <strong>Area</strong>&nbsp;80-ft.-radius burst<br>\n    \n    \n    <strong>Duration</strong>&nbsp;instantaneous<br>\n      <strong>Saving Throw</strong>&nbsp;Reflex partial; see text;&nbsp;\n      <strong>Spell Resistance</strong>&nbsp;yes<br>\n  </p>\n  <h2>Description</h2>\n  <p><i>Sunburst</i> causes a globe of searing radiance to explode silently from a point you select. All creatures in the globe are blinded and take 6d6 points of damage. A creature to which sunlight is harmful or unnatural takes double damage. A successful Reflex save negates the blindness and reduces the damage by half.</p><p>An undead creature caught within the globe takes 1d6 points of damage per caster level (maximum 25d6), or half damage if a Reflex save is successful. In addition, the burst results in the destruction of any undead creature specifically harmed by bright light if it fails its save.</p><p>The ultraviolet light generated by the spell deals damage to fungi, mold, oozes, and slimes just as if they were undead creatures.</p><p><i>Sunburst</i> dispels any darkness spells of lower than 9th level within its area.</p>\n</div>\n"
    },
    "tags": [],
    "activation": {
      "type": "standard"
    },
    "unchainedAction": {
      "activation": {
        "cost": 2,
        "type": "action"
      }
    },
    "range": {
      "units": "long"
    },
    "uses": {
      "per": ""
    },
    "measureTemplate": {
      "size": "0"
    },
    "actionType": "spellsave",
    "damage": {
      "parts": [],
      "critParts": [],
      "nonCritParts": []
    },
    "attackParts": [],
    "ability": {
      "attack": "",
      "damage": ""
    },
    "save": {
      "dc": "0",
      "type": "ref",
      "description": "Reflex partial; see text"
    },
    "effectNotes": [],
    "attackNotes": [],
    "links": {
      "children": []
    },
    "flags": {
      "boolean": [],
      "dictionary": []
    },
    "scriptCalls": [],
    "learnedAt": {
      "class": [
        [
          "sorcerer/wizard",
          8
        ],
        [
          "druid",
          8
        ],
        [
          "shaman",
          8
        ]
      ],
      "domain": [
        [
          "Sun",
          8
        ]
      ],
      "subDomain": [
        [
          "Seasons",
          8
        ]
      ],
      "elementalSchool": [],
      "bloodline": [
        [
          "Celestial",
          8
        ]
      ]
    },
    "level": 8,
    "school": "evo",
    "types": "light",
    "conditionals": [],
    "components": {
      "verbal": true,
      "somatic": true,
      "material": true,
      "divineFocus": 2
    },
    "materials": {
      "value": "sunstone and fire source"
    },
    "shortDescription": "<p><i>Sunburst</i> causes a globe of searing radiance to explode silently from a point you select. All creatures in the globe are blinded and take 6d6 points of damage. A creature to which sunlight is harmful or unnatural takes double damage. A successful Reflex save negates the blindness and reduces the damage by half.</p><p>An undead creature caught within the globe takes 1d6 points of damage per caster level (maximum 25d6), or half damage if a Reflex save is successful. In addition, the burst results in the destruction of any undead creature specifically harmed by bright light if it fails its save.</p><p>The ultraviolet light generated by the spell deals damage to fungi, mold, oozes, and slimes just as if they were undead creatures.</p><p><i>Sunburst</i> dispels any darkness spells of lower than 9th level within its area.</p>",
    "spellDuration": "instantaneous",
    "spellArea": "80-ft.-radius burst"
  },
  "effects": [],
  "folder": null,
  "sort": 0,
  "permission": {
    "default": 0
  },
  "flags": {}
}