{
  "_id": "61z6vqxabug4u241",
  "name": "Sylvan Hideaway",
  "type": "spell",
  "img": "systems/pf1/icons/misc/magic-swirl.png",
  "data": {
    "description": {
      "value": "<div class=\"spell-description\">\n  <p>\n    <strong>School</strong>&nbsp;conjuration&nbsp;(creation);\n    <strong>Level</strong>&nbsp;druid 3, hunter 3, ranger 3, shaman 3;\n    \n    \n    \n    \n  </p>\n  <p>\n    <strong>Casting Time</strong>&nbsp;1 standard<br>\n    <strong>Components</strong>&nbsp;V, S, M (one pound of unworked stone or wood)<br>\n  </p>\n  <p>\n    <strong>Range</strong>&nbsp;touch<br>\n    \n    <strong>Targets</strong>&nbsp;one 5-foot square of touched earth<br>\n    \n    <strong>Duration</strong>&nbsp;2 hours/level (D)<br>\n      <strong>Saving Throw</strong>&nbsp;none;&nbsp;\n      <strong>Spell Resistance</strong>&nbsp;no<br>\n  </p>\n  <h2>Description</h2>\n  <p>When this spell is cast on a natural, unworked surface, it creates an extradimensional underground space large enough to comfortably hold two creatures of any size per caster level (maximum 12). The room is sealed by a 5-foot-square camouflaged trap door that can be locked from within. (This trap door has hardness 10 and 20 hit points per caster level; the Perception DC to see the hidden trap door equals the spell's save DC.) The door and room are made of the same material of the material component used to cast the spell. You can choose the shape and configuration of the room when you create it; however, any furnishings (tables, beds, etc.) in the room are made of the same material as the room and cannot be moved once created. When the spell ends, anything inside the space is ejected to the surface in the nearest available square.</p>\n</div>\n"
    },
    "tags": [],
    "activation": {
      "type": "standard"
    },
    "unchainedAction": {
      "activation": {
        "cost": 2,
        "type": "action"
      }
    },
    "target": {
      "value": "one 5-foot square of touched earth"
    },
    "range": {
      "units": "touch"
    },
    "uses": {
      "per": ""
    },
    "measureTemplate": {
      "size": "0"
    },
    "actionType": "",
    "damage": {
      "parts": [],
      "critParts": [],
      "nonCritParts": []
    },
    "attackParts": [],
    "ability": {
      "attack": "",
      "damage": ""
    },
    "save": {
      "dc": "0"
    },
    "effectNotes": [],
    "attackNotes": [],
    "links": {
      "children": []
    },
    "flags": {
      "boolean": [],
      "dictionary": []
    },
    "scriptCalls": [],
    "learnedAt": {
      "class": [
        [
          "druid",
          3
        ],
        [
          "ranger",
          3
        ],
        [
          "shaman",
          3
        ],
        [
          "hunter",
          3
        ]
      ],
      "domain": [],
      "subDomain": [],
      "elementalSchool": [],
      "bloodline": []
    },
    "level": 3,
    "school": "con",
    "subschool": "creation",
    "conditionals": [],
    "components": {
      "verbal": true,
      "somatic": true,
      "material": true
    },
    "materials": {
      "value": "one pound of unworked stone or wood"
    },
    "sr": false,
    "shortDescription": "<p>When this spell is cast on a natural, unworked surface, it creates an extradimensional underground space large enough to comfortably hold two creatures of any size per caster level (maximum 12). The room is sealed by a 5-foot-square camouflaged trap door that can be locked from within. (This trap door has hardness 10 and 20 hit points per caster level; the Perception DC to see the hidden trap door equals the spell's save DC.) The door and room are made of the same material of the material component used to cast the spell. You can choose the shape and configuration of the room when you create it; however, any furnishings (tables, beds, etc.) in the room are made of the same material as the room and cannot be moved once created. When the spell ends, anything inside the space is ejected to the surface in the nearest available square.</p>",
    "spellDuration": "2 hours/level (D)"
  },
  "effects": [],
  "folder": null,
  "sort": 0,
  "permission": {
    "default": 0
  },
  "flags": {}
}