{
  "_id": "nl4660hr6zhq8cdw",
  "name": "Temporary Resurrection",
  "type": "spell",
  "img": "systems/pf1/icons/misc/magic-swirl.png",
  "data": {
    "description": {
      "value": "<div class=\"spell-description\">\n  <p>\n    <strong>School</strong>&nbsp;necromancy;\n    <strong>Level</strong>&nbsp;occultist 6, psychic 7, sorcerer/wizard 7, witch 7;\n    \n    \n    \n    \n  </p>\n  <p>\n    <strong>Casting Time</strong>&nbsp;10 minutes<br>\n    <strong>Components</strong>&nbsp;V, S, M (diamond dust worth 500 gp)<br>\n  </p>\n  <p>\n    <strong>Range</strong>&nbsp;touch<br>\n    \n    <strong>Targets</strong>&nbsp;dead creature touched<br>\n    \n    <strong>Duration</strong>&nbsp;24 hours<br>\n      <strong>Saving Throw</strong>&nbsp;none;&nbsp;\n      <strong>Spell Resistance</strong>&nbsp;no<br>\n  </p>\n  <h2>Description</h2>\n  <p>You restore temporary life to a body that has been dead for less than 48 hours. The spell lasts for 24 hours, after which the target dies again. The target gains 1 permanent negative level while under the effect of this spell; this negative level goes away when the target dies or is permanently <i>raise</i>d from the dead (such as with <i>raise</i> dead). The target still counts as a dead corpse (but not undead) for the purpose of spells that revive dead creatures, so a cleric can cast <i>raise</i> dead or a similar spell on the target even while this spell is active. Once a creature has been revived with <i>temporary resurrection</i>, this spell cannot be used on it again until it is permanently <i>raise</i>d from the dead.</p>\n</div>\n"
    },
    "tags": [],
    "activation": {
      "cost": 10,
      "type": "minute"
    },
    "unchainedAction": {
      "activation": {
        "cost": 10,
        "type": "minute"
      }
    },
    "target": {
      "value": "dead creature touched"
    },
    "range": {
      "units": "touch"
    },
    "uses": {
      "per": ""
    },
    "measureTemplate": {
      "size": "0"
    },
    "actionType": "",
    "damage": {
      "parts": [],
      "critParts": [],
      "nonCritParts": []
    },
    "attackParts": [],
    "ability": {
      "attack": "",
      "damage": ""
    },
    "save": {
      "dc": "0"
    },
    "effectNotes": [],
    "attackNotes": [],
    "links": {
      "children": []
    },
    "flags": {
      "boolean": [],
      "dictionary": []
    },
    "scriptCalls": [],
    "learnedAt": {
      "class": [
        [
          "sorcerer/wizard",
          7
        ],
        [
          "witch",
          7
        ],
        [
          "psychic",
          7
        ],
        [
          "occultist",
          6
        ]
      ],
      "domain": [],
      "subDomain": [],
      "elementalSchool": [],
      "bloodline": []
    },
    "level": 7,
    "school": "nec",
    "conditionals": [],
    "components": {
      "verbal": true,
      "somatic": true,
      "material": true
    },
    "materials": {
      "value": "diamond dust worth 500 gp",
      "gpValue": 500
    },
    "spellbook": "",
    "preparation": {
      "autoDeductCharges": false,
      "spontaneousPrepared": false
    },
    "sr": false,
    "shortDescription": "<p>You restore temporary life to a body that has been dead for less than 48 hours. The spell lasts for 24 hours, after which the target dies again. The target gains 1 permanent negative level while under the effect of this spell; this negative level goes away when the target dies or is permanently <i>raise</i>d from the dead (such as with <i>raise</i> dead). The target still counts as a dead corpse (but not undead) for the purpose of spells that revive dead creatures, so a cleric can cast <i>raise</i> dead or a similar spell on the target even while this spell is active. Once a creature has been revived with <i>temporary resurrection</i>, this spell cannot be used on it again until it is permanently <i>raise</i>d from the dead.</p>",
    "spellDuration": "24 hours",
    "spellPoints": {
      "cost": ""
    }
  },
  "effects": [],
  "folder": null,
  "sort": 0,
  "permission": {
    "default": 0
  },
  "flags": {}
}