{
  "_id": "bdyr9oebse6haser",
  "name": "Transmute Rock to Mud",
  "type": "spell",
  "img": "systems/pf1/icons/misc/magic-swirl.png",
  "data": {
    "description": {
      "value": "<div class=\"spell-description\">\n  <p>\n    <strong>School</strong>&nbsp;transmutation&nbsp;[earth];\n    <strong>Level</strong>&nbsp;druid 5, hunter 5, occultist 5, sorcerer/wizard 5;\n    \n    \n    \n    <strong>Bloodline</strong>&nbsp;Kobold 5;\n  </p>\n  <p>\n    <strong>Casting Time</strong>&nbsp;1 standard<br>\n    <strong>Components</strong>&nbsp;V, S, M/DF (clay and water)<br>\n  </p>\n  <p>\n    <strong>Range</strong>&nbsp;medium (100 ft. + 10 ft./level)<br>\n    <strong>Area</strong>&nbsp;up to two 10-ft. cubes/level<br>\n    \n    \n    <strong>Duration</strong>&nbsp;permanent; see text<br>\n      <strong>Saving Throw</strong>&nbsp;see text;&nbsp;\n      <strong>Spell Resistance</strong>&nbsp;no<br>\n  </p>\n  <h2>Description</h2>\n  <p>This spell turns natural, uncut, or unworked rock of any sort into an equal volume of mud. Magical stone is not affected by the spell. The depth of the mud created cannot exceed 10 feet. A creature unable to levitate, fly, or otherwise free itself from the mud sinks until hip- or chest-deep, reducing its speed to 5 feet and causing a -2 penalty on attack rolls and AC. Brush or similar material thrown atop the mud can support creatures able to climb on top of it. Creatures large enough to walk on the bottom can wade through the area at a speed of 5 feet.</p><p>If <i>transmute rock to mud</i> is cast upon the ceiling of a cavern or tunnel, the mud falls to the floor and spreads out in a pool at a depth of 5 feet. The falling mud and the ensuing cave-in deal 8d6 points of bludgeoning damage to anyone caught directly beneath the targeted area, or half damage to those who succeed on Reflex saves.</p><p>Castles and large stone buildings are generally immune to the effect of the spell, since <i>transmute rock to mud</i> can't affect worked stone and doesn't reach deep enough to undermine such buildings' foundations. However, small buildings or structures often rest upon foundations shallow enough to be damaged or even partially toppled by this spell.</p><p>The mud remains until a successful <i>dispel magic</i> or <i>transmute mud to rock</i> spell restores its substance-but not necessarily its form. Evaporation turns the mud to normal dirt over a period of days. The exact time depends on exposure to the sun, wind, and normal drainage.</p><p><i>Transmute rock to mud</i> counters and dispels <i>transmute mud to rock</i>.</p>\n</div>\n"
    },
    "tags": [],
    "activation": {
      "type": "standard"
    },
    "unchainedAction": {
      "activation": {
        "cost": 2,
        "type": "action"
      }
    },
    "range": {
      "units": "medium"
    },
    "uses": {
      "per": ""
    },
    "measureTemplate": {
      "size": "0"
    },
    "actionType": "spellsave",
    "damage": {
      "parts": [],
      "critParts": [],
      "nonCritParts": []
    },
    "attackParts": [],
    "ability": {
      "attack": "",
      "damage": ""
    },
    "save": {
      "dc": "0",
      "description": "see text"
    },
    "effectNotes": [],
    "attackNotes": [],
    "links": {
      "children": []
    },
    "flags": {
      "boolean": [],
      "dictionary": []
    },
    "scriptCalls": [],
    "learnedAt": {
      "class": [
        [
          "sorcerer/wizard",
          5
        ],
        [
          "druid",
          5
        ],
        [
          "occultist",
          5
        ],
        [
          "hunter",
          5
        ]
      ],
      "domain": [],
      "subDomain": [],
      "elementalSchool": [],
      "bloodline": [
        [
          "Kobold",
          5
        ]
      ]
    },
    "level": 5,
    "school": "trs",
    "types": "earth",
    "conditionals": [],
    "components": {
      "verbal": true,
      "somatic": true,
      "material": true,
      "divineFocus": 2
    },
    "materials": {
      "value": "clay and water"
    },
    "sr": false,
    "shortDescription": "<p>This spell turns natural, uncut, or unworked rock of any sort into an equal volume of mud. Magical stone is not affected by the spell. The depth of the mud created cannot exceed 10 feet. A creature unable to levitate, fly, or otherwise free itself from the mud sinks until hip- or chest-deep, reducing its speed to 5 feet and causing a -2 penalty on attack rolls and AC. Brush or similar material thrown atop the mud can support creatures able to climb on top of it. Creatures large enough to walk on the bottom can wade through the area at a speed of 5 feet.</p><p>If <i>transmute rock to mud</i> is cast upon the ceiling of a cavern or tunnel, the mud falls to the floor and spreads out in a pool at a depth of 5 feet. The falling mud and the ensuing cave-in deal 8d6 points of bludgeoning damage to anyone caught directly beneath the targeted area, or half damage to those who succeed on Reflex saves.</p><p>Castles and large stone buildings are generally immune to the effect of the spell, since <i>transmute rock to mud</i> can't affect worked stone and doesn't reach deep enough to undermine such buildings' foundations. However, small buildings or structures often rest upon foundations shallow enough to be damaged or even partially toppled by this spell.</p><p>The mud remains until a successful <i>dispel magic</i> or <i>transmute mud to rock</i> spell restores its substance-but not necessarily its form. Evaporation turns the mud to normal dirt over a period of days. The exact time depends on exposure to the sun, wind, and normal drainage.</p><p><i>Transmute rock to mud</i> counters and dispels <i>transmute mud to rock</i>.</p>",
    "spellDuration": "permanent; see text",
    "spellArea": "up to two 10-ft. cubes/level"
  },
  "effects": [],
  "folder": null,
  "sort": 0,
  "permission": {
    "default": 0
  },
  "flags": {}
}