{
  "_id": "68acsi5rli5t9mef",
  "name": "Unconscious Agenda",
  "type": "spell",
  "img": "systems/pf1/icons/misc/magic-swirl.png",
  "data": {
    "description": {
      "value": "<div class=\"spell-description\">\n  <p>\n    <strong>School</strong>&nbsp;enchantment&nbsp;(compulsion)&nbsp;[language-dependent, mind-affecting];\n    <strong>Level</strong>&nbsp;bard 6, inquisitor 6, sorcerer/wizard 6, witch 6;\n    \n    \n    \n    \n  </p>\n  <p>\n    <strong>Casting Time</strong>&nbsp;10 minutes<br>\n    <strong>Components</strong>&nbsp;V<br>\n  </p>\n  <p>\n    \n    \n    <strong>Targets</strong>&nbsp;One humanoid<br>\n    \n    <strong>Duration</strong>&nbsp;1 week/level or until discharged (D)<br>\n      <strong>Saving Throw</strong>&nbsp;Will negates;&nbsp;\n      <strong>Spell Resistance</strong>&nbsp;yes<br>\n  </p>\n  <h2>Description</h2>\n  <p>This spell plants a subconscious directive in the target's mind that forces him to act as you dictate when specific circumstances arise. The target humanoid can be either conscious or unconscious, but must understand your language. Upon casting this spell, you must state a course of action you <i>wish</i> the target to take. This course of action must be described in 20 words or fewer. You must then state the condition under which you <i>wish</i> the target to take this action, also describing it in 20 or fewer words. Actions or conditions more elaborate than 20 words cause the spell to fail. <i>Unconscious agenda</i> cannot compel a target to kill himself, though it can compel him to perform exceedingly dangerous acts, face impossible odds, or undertake almost any other course of activity. You cannot issue new commands to the target after the spell is cast.  If the target fails his save against this spell, he is not compelled to act in any way until the specified trigger circumstances are encountered. He also has no knowledge of the details of the spell affecting him, and has no memory of the last 10 minutes (although he might come to notice the missing time or the presence of the caster). He can function as he <i>wish</i>es until the events you detailed as the condition take place. Upon experiencing the prerequisite condition, the target is forced to perform the course of action you described as per the spell <i>dominate person</i>. (If the compelled action is against the victim's nature, he immediately gains a new saving throw at a +5 bonus against the spell to end its effects.) For the next hour, the target acts as you dictated, doing all he can to fulfill your command. If, at the end of the hour, the target still has not completed your command, the target is released from the enchantment and the spell ends. Once the course of action is completed, the spell ends. The target has full memory of acts performed during this hour.  It's difficult to detect an <i>unconscious agenda</i> before the spell is triggered. Casting <i>detect magic</i> on one affected by it only reveals an aura of enchantment if the caster of <i>detect magic</i> has a higher caster level then the caster of <i>unconscious agenda</i>. Even if the spell is detected, it can only be removed by <i>break enchantment</i>, <i>limited <i>wish</i></i>, <i>remove curse</i>, <i>miracle</i>, or <i>wish</i>. <i>Dispel magic</i> does not affect <i>unconscious agenda</i>.</p>\n</div>\n"
    },
    "tags": [],
    "activation": {
      "cost": 10,
      "type": "minute"
    },
    "unchainedAction": {
      "activation": {
        "cost": 10,
        "type": "minute"
      }
    },
    "target": {
      "value": "One humanoid"
    },
    "uses": {
      "per": ""
    },
    "measureTemplate": {
      "size": "0"
    },
    "actionType": "spellsave",
    "damage": {
      "parts": [],
      "critParts": [],
      "nonCritParts": []
    },
    "attackParts": [],
    "ability": {
      "attack": "",
      "damage": ""
    },
    "save": {
      "dc": "0",
      "type": "will",
      "description": "Will negates"
    },
    "effectNotes": [],
    "attackNotes": [],
    "links": {
      "children": []
    },
    "flags": {
      "boolean": [],
      "dictionary": []
    },
    "scriptCalls": [],
    "learnedAt": {
      "class": [
        [
          "sorcerer/wizard",
          6
        ],
        [
          "bard",
          6
        ],
        [
          "witch",
          6
        ],
        [
          "inquisitor",
          6
        ]
      ],
      "domain": [],
      "subDomain": [],
      "elementalSchool": [],
      "bloodline": []
    },
    "level": 6,
    "school": "enc",
    "subschool": "compulsion",
    "types": "language-dependent, mind-affecting",
    "conditionals": [],
    "components": {
      "verbal": true
    },
    "shortDescription": "<p>This spell plants a subconscious directive in the target's mind that forces him to act as you dictate when specific circumstances arise. The target humanoid can be either conscious or unconscious, but must understand your language. Upon casting this spell, you must state a course of action you <i>wish</i> the target to take. This course of action must be described in 20 words or fewer. You must then state the condition under which you <i>wish</i> the target to take this action, also describing it in 20 or fewer words. Actions or conditions more elaborate than 20 words cause the spell to fail. <i>Unconscious agenda</i> cannot compel a target to kill himself, though it can compel him to perform exceedingly dangerous acts, face impossible odds, or undertake almost any other course of activity. You cannot issue new commands to the target after the spell is cast.  If the target fails his save against this spell, he is not compelled to act in any way until the specified trigger circumstances are encountered. He also has no knowledge of the details of the spell affecting him, and has no memory of the last 10 minutes (although he might come to notice the missing time or the presence of the caster). He can function as he <i>wish</i>es until the events you detailed as the condition take place. Upon experiencing the prerequisite condition, the target is forced to perform the course of action you described as per the spell <i>dominate person</i>. (If the compelled action is against the victim's nature, he immediately gains a new saving throw at a +5 bonus against the spell to end its effects.) For the next hour, the target acts as you dictated, doing all he can to fulfill your command. If, at the end of the hour, the target still has not completed your command, the target is released from the enchantment and the spell ends. Once the course of action is completed, the spell ends. The target has full memory of acts performed during this hour.  It's difficult to detect an <i>unconscious agenda</i> before the spell is triggered. Casting <i>detect magic</i> on one affected by it only reveals an aura of enchantment if the caster of <i>detect magic</i> has a higher caster level then the caster of <i>unconscious agenda</i>. Even if the spell is detected, it can only be removed by <i>break enchantment</i>, <i>limited <i>wish</i></i>, <i>remove curse</i>, <i>miracle</i>, or <i>wish</i>. <i>Dispel magic</i> does not affect <i>unconscious agenda</i>.</p>",
    "spellDuration": "1 week/level or until discharged (D)"
  },
  "effects": [],
  "folder": null,
  "sort": 0,
  "permission": {
    "default": 0
  },
  "flags": {}
}