{
  "_id": "atml1a51o9w777w7",
  "name": "Undead Anatomy I",
  "type": "spell",
  "img": "systems/pf1/icons/misc/magic-swirl.png",
  "data": {
    "description": {
      "value": "<div class=\"spell-description\">\n  <p>\n    <strong>School</strong>&nbsp;transmutation&nbsp;(polymorph);\n    <strong>Level</strong>&nbsp;alchemist 3, bloodrager 3, magus 3, sorcerer/wizard 3, spiritualist 3;\n    \n    \n    \n    \n  </p>\n  <p>\n    <strong>Casting Time</strong>&nbsp;1 standard<br>\n    <strong>Components</strong>&nbsp;V, S, M (a piece of the creature whose form you plan to assume)<br>\n  </p>\n  <p>\n    <strong>Range</strong>&nbsp;personal<br>\n    \n    <strong>Targets</strong>&nbsp;you<br>\n    \n    <strong>Duration</strong>&nbsp;1 minute/level (D)<br>\n  </p>\n  <h2>Description</h2>\n  <p>When you cast this spell, you can assume the form of any <i>Small</i> or <i>Medium</i> corporeal creature of the undead type, which must be vaguely humanoid-shaped (like a ghoul, skeleton, or zombie). You gain a bite attack (1d6 for <i>Medium</i> forms, 1d4 for <i>Small</i> forms), two claw or slam attacks (1d6 for <i>Medium</i> forms, 1d4 for <i>Small</i> forms), and darkvision 60 feet. If the form you assume has any of the following abilities, you gain the listed ability: climb 30 feet, fly 30 feet (average maneuverability), swim 30 feet, low-light vision, and scent.</p><p>In this form, you detect as an undead creature (such as with <i>detect undead</i>, but not with magic that reveals your <i>true</i> form, such as <i>true</i> seeing) and are treated as undead for the purposes of channeled energy, <i>cure</i> spells, and <i>inflict</i> spells, but not for other effects that specifically target or react differently to undead (such as <i>searing</i> light).</p><p><i>Small</i> undead: If the form you take is that of a <i>Small</i> undead, you gain a +2 size bonus to your Dexterity and a +1 natural armor bonus.</p><p><i>Medium</i> undead: If the form you take is that of a <i>Medium</i> undead, you gain a +2 size bonus to your Strength and a +2 natural armor bonus.</p>\n</div>\n"
    },
    "tags": [],
    "activation": {
      "type": "standard"
    },
    "unchainedAction": {
      "activation": {
        "cost": 2,
        "type": "action"
      }
    },
    "target": {
      "value": "you"
    },
    "range": {
      "units": "personal"
    },
    "uses": {
      "per": ""
    },
    "measureTemplate": {
      "size": "0"
    },
    "actionType": "",
    "damage": {
      "parts": [],
      "critParts": [],
      "nonCritParts": []
    },
    "attackParts": [],
    "ability": {
      "attack": "",
      "damage": ""
    },
    "save": {
      "dc": "0"
    },
    "effectNotes": [],
    "attackNotes": [],
    "links": {
      "children": []
    },
    "flags": {
      "boolean": [],
      "dictionary": []
    },
    "scriptCalls": [],
    "learnedAt": {
      "class": [
        [
          "sorcerer/wizard",
          3
        ],
        [
          "alchemist",
          3
        ],
        [
          "magus",
          3
        ],
        [
          "bloodrager",
          3
        ],
        [
          "spiritualist",
          3
        ]
      ],
      "domain": [],
      "subDomain": [],
      "elementalSchool": [],
      "bloodline": []
    },
    "level": 3,
    "school": "trs",
    "subschool": "polymorph",
    "conditionals": [],
    "components": {
      "verbal": true,
      "somatic": true,
      "material": true
    },
    "materials": {
      "value": "a piece of the creature whose form you plan to assume"
    },
    "sr": false,
    "shortDescription": "<p>When you cast this spell, you can assume the form of any <i>Small</i> or <i>Medium</i> corporeal creature of the undead type, which must be vaguely humanoid-shaped (like a ghoul, skeleton, or zombie). You gain a bite attack (1d6 for <i>Medium</i> forms, 1d4 for <i>Small</i> forms), two claw or slam attacks (1d6 for <i>Medium</i> forms, 1d4 for <i>Small</i> forms), and darkvision 60 feet. If the form you assume has any of the following abilities, you gain the listed ability: climb 30 feet, fly 30 feet (average maneuverability), swim 30 feet, low-light vision, and scent.</p><p>In this form, you detect as an undead creature (such as with <i>detect undead</i>, but not with magic that reveals your <i>true</i> form, such as <i>true</i> seeing) and are treated as undead for the purposes of channeled energy, <i>cure</i> spells, and <i>inflict</i> spells, but not for other effects that specifically target or react differently to undead (such as <i>searing</i> light).</p><p><i>Small</i> undead: If the form you take is that of a <i>Small</i> undead, you gain a +2 size bonus to your Dexterity and a +1 natural armor bonus.</p><p><i>Medium</i> undead: If the form you take is that of a <i>Medium</i> undead, you gain a +2 size bonus to your Strength and a +2 natural armor bonus.</p>",
    "spellDuration": "1 minute/level (D)"
  },
  "effects": [],
  "folder": null,
  "sort": 0,
  "permission": {
    "default": 0
  },
  "flags": {}
}