{
  "_id": "fbzut7nb7lvr83e4",
  "name": "Urban Grace",
  "type": "spell",
  "img": "systems/pf1/icons/misc/magic-swirl.png",
  "data": {
    "description": {
      "value": "<div class=\"spell-description\">\n  <p>\n    <strong>School</strong>&nbsp;transmutation;\n    <strong>Level</strong>&nbsp;alchemist 1, bard 1, hunter 1, ranger 1, sorcerer/wizard 1, witch 1;\n    \n    \n    \n    \n  </p>\n  <p>\n    <strong>Casting Time</strong>&nbsp;1 standard<br>\n    <strong>Components</strong>&nbsp;V, S<br>\n  </p>\n  <p>\n    <strong>Range</strong>&nbsp;personal<br>\n    \n    <strong>Targets</strong>&nbsp;you<br>\n    \n    <strong>Duration</strong>&nbsp;1 minute/level<br>\n  </p>\n  <h2>Description</h2>\n  <p>You become one with the city around you, allowing you to move more easily through its crowds and buildings. For the duration of this spell, your base land speed increases by 10 feet. In addition, it does not cost you 2 squares of movement to enter a square with crowds, though the crowd still provides cover to you. This ability does not allow you to enter the space of enemy creatures without making the appropriate Acrobatics check. In addition, you receive a +4 circumstance bonus on Acrobatics checks made to move across uneven urban surfaces, such as roofs and broken pavement, and on Climb checks made to scale walls and other artificial surfaces. Whenever you make an Acrobatics check to make a long jump between two buildings or artificial structures, you are always treated as if you had a running start, regardless of the actual distance traveled.</p>\n</div>\n"
    },
    "tags": [],
    "activation": {
      "type": "standard"
    },
    "unchainedAction": {
      "activation": {
        "cost": 2,
        "type": "action"
      }
    },
    "target": {
      "value": "you"
    },
    "range": {
      "units": "personal"
    },
    "uses": {
      "per": ""
    },
    "measureTemplate": {
      "size": "0"
    },
    "actionType": "",
    "damage": {
      "parts": [],
      "critParts": [],
      "nonCritParts": []
    },
    "attackParts": [],
    "ability": {
      "attack": "",
      "damage": ""
    },
    "save": {
      "dc": "0"
    },
    "effectNotes": [],
    "attackNotes": [],
    "links": {
      "children": []
    },
    "flags": {
      "boolean": [],
      "dictionary": []
    },
    "scriptCalls": [],
    "learnedAt": {
      "class": [
        [
          "sorcerer/wizard",
          1
        ],
        [
          "ranger",
          1
        ],
        [
          "bard",
          1
        ],
        [
          "alchemist",
          1
        ],
        [
          "witch",
          1
        ],
        [
          "hunter",
          1
        ]
      ],
      "domain": [],
      "subDomain": [],
      "elementalSchool": [],
      "bloodline": []
    },
    "school": "trs",
    "conditionals": [],
    "components": {
      "verbal": true,
      "somatic": true
    },
    "sr": false,
    "shortDescription": "<p>You become one with the city around you, allowing you to move more easily through its crowds and buildings. For the duration of this spell, your base land speed increases by 10 feet. In addition, it does not cost you 2 squares of movement to enter a square with crowds, though the crowd still provides cover to you. This ability does not allow you to enter the space of enemy creatures without making the appropriate Acrobatics check. In addition, you receive a +4 circumstance bonus on Acrobatics checks made to move across uneven urban surfaces, such as roofs and broken pavement, and on Climb checks made to scale walls and other artificial surfaces. Whenever you make an Acrobatics check to make a long jump between two buildings or artificial structures, you are always treated as if you had a running start, regardless of the actual distance traveled.</p>",
    "spellDuration": "1 minute/level"
  },
  "effects": [],
  "folder": null,
  "sort": 0,
  "permission": {
    "default": 0
  },
  "flags": {}
}