{
  "_id": "seb6hxs955gnuy31",
  "name": "Whip of Ants",
  "type": "spell",
  "img": "systems/pf1/icons/misc/magic-swirl.png",
  "data": {
    "description": {
      "value": "<div class=\"spell-description\">\n  <p>\n    <strong>School</strong>&nbsp;conjuration&nbsp;(summoning);\n    <strong>Level</strong>&nbsp;bard 6, druid 6, hunter 6, sorcerer/wizard 6, summoner 6, unchained Summoner 6, witch 6;\n    <strong>Domain</strong>&nbsp;Vermin 6;\n    \n    \n    \n  </p>\n  <p>\n    <strong>Casting Time</strong>&nbsp;1 standard<br>\n    <strong>Components</strong>&nbsp;V, S, M/DF (a square of red cloth)<br>\n  </p>\n  <p>\n    \n    \n    \n    <strong>Effect</strong>&nbsp;whiplike swarm<br>\n    <strong>Duration</strong>&nbsp;1 round/level (D (see text)<br>\n      <strong>Saving Throw</strong>&nbsp;none;&nbsp;\n      <strong>Spell Resistance</strong>&nbsp;yes<br>\n  </p>\n  <h2>Description</h2>\n  <p>This spell functions as <i>Whip of Spiders</i>, except it summons army ants, and any creature you strike with the whip takes swarm damage as if it were attacked by an army ant swarm (3d6 points of damage plus poison and distraction, <i>Pathfinder RPG Bestiary</i> 16). If you transform the whip into an army ant swarm, it has 16 hit points.</p>\n</div>\n"
    },
    "tags": [],
    "activation": {
      "type": "standard"
    },
    "unchainedAction": {
      "activation": {
        "cost": 2,
        "type": "action"
      }
    },
    "range": {
      "value": 0,
      "units": "ft"
    },
    "uses": {
      "per": ""
    },
    "measureTemplate": {
      "size": "0"
    },
    "actionType": "other",
    "damage": {
      "parts": [],
      "critParts": [],
      "nonCritParts": []
    },
    "attackParts": [],
    "ability": {
      "attack": "",
      "damage": ""
    },
    "save": {
      "dc": "0"
    },
    "effectNotes": [],
    "attackNotes": [],
    "links": {
      "children": []
    },
    "flags": {
      "boolean": [],
      "dictionary": []
    },
    "scriptCalls": [],
    "learnedAt": {
      "class": [
        [
          "sorcerer/wizard",
          6
        ],
        [
          "druid",
          6
        ],
        [
          "bard",
          6
        ],
        [
          "summoner",
          6
        ],
        [
          "witch",
          6
        ],
        [
          "hunter",
          6
        ],
        [
          "unchained Summoner",
          6
        ]
      ],
      "domain": [
        [
          "Vermin",
          6
        ]
      ],
      "subDomain": [],
      "elementalSchool": [],
      "bloodline": []
    },
    "level": 6,
    "school": "con",
    "subschool": "summoning",
    "conditionals": [],
    "components": {
      "verbal": true,
      "somatic": true,
      "material": true,
      "divineFocus": 2
    },
    "materials": {
      "value": "a square of red cloth"
    },
    "shortDescription": "<p>This spell functions as <i>Whip of Spiders</i>, except it summons army ants, and any creature you strike with the whip takes swarm damage as if it were attacked by an army ant swarm (3d6 points of damage plus poison and distraction, <i>Pathfinder RPG Bestiary</i> 16). If you transform the whip into an army ant swarm, it has 16 hit points.</p>",
    "spellDuration": "1 round/level (D (see text)",
    "spellEffect": "whiplike swarm"
  },
  "effects": [],
  "folder": null,
  "sort": 0,
  "permission": {
    "default": 0
  },
  "flags": {}
}