{
  "_id": "1stiyqBenffxJ7Ox",
  "name": "Astradaemon",
  "type": "npc",
  "img": "systems/pf1/icons/races/creature-types/outsider.png",
  "data": {
    "abilities": {
      "str": {
        "value": 21
      },
      "dex": {
        "value": 25
      },
      "con": {
        "value": 24
      },
      "int": {
        "value": 14
      },
      "wis": {
        "value": 15
      },
      "cha": {
        "value": 24
      }
    },
    "attributes": {
      "naturalAC": "+12",
      "sr": {
        "formula": "27"
      },
      "hp": {
        "value": 222
      },
      "speed": {
        "land": {
          "base": 90
        },
        "fly": {
          "base": 90,
          "maneuverability": "good"
        }
      },
      "spells": {
        "usedSpellbooks": [
          "spelllike"
        ],
        "spellbooks": {
          "spelllike": {
            "altName": "Spell-like Abilities",
            "concentrationNotes": "sbc | Total in statblock was +24, adjust as needed.",
            "clNotes": "sbc | Total in statblock was CL 17, adjust as needed.",
            "autoSpellLevelCalculation": false,
            "autoSpellLevels": false,
            "arcaneSpellFailure": false,
            "domainSlotValue": 0
          }
        }
      }
    },
    "details": {
      "alignment": "ne",
      "cr": {
        "base": 16
      }
    },
    "skills": {
      "acr": {
        "rank": 17
      },
      "esc": {
        "rank": 20
      },
      "fly": {
        "rank": 4
      },
      "int": {
        "rank": 20
      },
      "kpl": {
        "rank": 17
      },
      "per": {
        "rank": 17
      },
      "sen": {
        "rank": 17
      },
      "ste": {
        "rank": 17
      },
      "sur": {
        "rank": 20
      }
    },
    "traits": {
      "size": "lg",
      "senses": "darkvision 60 ft., deathwatch, true seeing; Perception +22",
      "dr": "10/good and silver",
      "eres": "Cold 10;Electricity 10;Fire 10;",
      "languages": {
        "value": [
          "abyssal",
          "infernal"
        ],
        "custom": "telepathy 100 ft."
      },
      "di": {
        "value": [
          "acid"
        ]
      },
      "dv": {
        "value": []
      },
      "ci": {
        "value": [
          "disease",
          "poison"
        ],
        "custom": "Death;"
      },
      "stature": ""
    }
  },
  "token": {
    "name": "Astradaemon",
    "displayName": 20,
    "actorLink": false,
    "width": 2,
    "height": 2,
    "scale": 1,
    "mirrorX": false,
    "mirrorY": false,
    "lockRotation": false,
    "rotation": 0,
    "alpha": 1,
    "vision": false,
    "dimSight": 0,
    "brightSight": "60",
    "dimLight": 0,
    "brightLight": 0,
    "sightAngle": 0,
    "lightAngle": 0,
    "lightAlpha": 0.25,
    "lightAnimation": {
      "speed": 5,
      "intensity": 5
    },
    "disposition": -1,
    "displayBars": 20,
    "bar1": {
      "attribute": null
    },
    "bar2": {
      "attribute": null
    },
    "flags": {
      "pf1": {
        "lowLightVision": false
      }
    },
    "randomImg": false,
    "img": "systems/pf1/icons/races/creature-types/outsider.png"
  },
  "items": [
    {
      "_id": "cV7yHt8i5YCV0ZTd",
      "name": "Outsider (Daemon, Evil, Extraplanar)",
      "type": "class",
      "img": "systems/pf1/icons/skills/yellow_40.jpg",
      "data": {
        "description": {
          "value": "<p>An outsider is at least partially composed of the essence (but not necessarily the material) of some plane other than the Material Plane. Some creatures start out as some other type and become outsiders when they attain a higher (or lower) state of spiritual existence.</p>\n<h2><span id=\"Features\">Features</span></h2>\n<p>An outsider has the following features.</p>\n<ul>\n<li>d10 Hit Dice.</li>\n<li>Base attack bonus equal to total Hit Dice (fast progression).</li>\n<li>Two good saving throws, usually&nbsp;<a href=\"https://www.d20pfsrd.com/gamemastering/combat#TOC-Reflex\" rel=\"nofollow\">Reflex</a>&nbsp;and Will.</li>\n<li>Skill points equal to 6 + Int modifier (minimum 1) per Hit Die. The following are class skills for outsiders: <a href=\"https://www.d20pfsrd.com/skills/bluff\" rel=\"nofollow\">Bluff</a>, <a href=\"https://www.d20pfsrd.com/skills/craft\" rel=\"nofollow\">Craft</a>, <a href=\"https://www.d20pfsrd.com/skills/knowledge\" rel=\"nofollow\">Knowledge</a>&nbsp;(planes), <a href=\"https://www.d20pfsrd.com/skills/perception\" rel=\"nofollow\">Perception</a>, <a href=\"https://www.d20pfsrd.com/skills/sense-motive\" rel=\"nofollow\">Sense Motive</a>, and <a href=\"https://www.d20pfsrd.com/skills/stealth\" rel=\"nofollow\">Stealth</a>. Due to their varied nature, outsiders also receive 4 additional class skills determined by the creature’s theme.</li>\n</ul>\n<h2><span id=\"Traits\">Traits</span></h2>\n<p>An outsider possesses the following traits (unless otherwise noted in a creature’s entry).</p>\n<ul>\n<li>Darkvision 60 feet.</li>\n<li>Unlike most living creatures, an outsider does not have a dual nature—its soul and body form one unit. When an outsider is slain, no soul is set loose. Spells that restore souls to their bodies, such as&nbsp;<a href=\"https://www.d20pfsrd.com/magic/all-spells/r/raise-dead\" rel=\"nofollow\">raise dead</a>,&nbsp;<a href=\"https://www.d20pfsrd.com/magic/all-spells/r/reincarnate\" rel=\"nofollow\">reincarnate</a>,&nbsp;and&nbsp;<a href=\"https://www.d20pfsrd.com/magic/all-spells/r/resurrection\" rel=\"nofollow\">resurrection</a>,&nbsp;don’t work on an outsider. It takes a different magical effect, such as&nbsp;<a href=\"https://www.d20pfsrd.com/magic/all-spells/l/limited-wish\" rel=\"nofollow\">limited wish</a>,&nbsp;<a href=\"https://www.d20pfsrd.com/magic/all-spells/w/wish\" rel=\"nofollow\">wish</a>,&nbsp;<a href=\"https://www.d20pfsrd.com/magic/all-spells/m/miracle\" rel=\"nofollow\">miracle</a>,&nbsp;or&nbsp;<a href=\"https://www.d20pfsrd.com/magic/all-spells/t/true-resurrection\" rel=\"nofollow\">true resurrection</a>&nbsp;to restore it to life. An outsider with the native subtype can be raised, reincarnated, or resurrected just as other living creatures can be.</li>\n<li>Proficient with all simple and martial weapons and any weapons mentioned in its entry.</li>\n<li>Proficient with whatever type of armor (light, medium, or heavy) it is described as wearing, as well as all lighter types. Outsiders not indicated as wearing armor are not proficient with armor. Outsiders are proficient with shields if they are proficient with any form of armor.</li>\n<li>Outsiders breathe, but do not need to eat or sleep (although they can do so if they wish). Native outsiders breathe, eat, and sleep.</li>\n</ul>"
        },
        "tags": [],
        "changes": [],
        "links": "",
        "tag": "outsider",
        "useCustomTag": true,
        "armorProf": {
          "value": []
        },
        "weaponProf": {
          "value": []
        },
        "flags": {
          "boolean": [],
          "dictionary": []
        },
        "scriptCalls": [],
        "classType": "racial",
        "level": 17,
        "hd": 10,
        "hp": 103,
        "bab": "high",
        "skillsPerLevel": 6,
        "savingThrows": {
          "ref": {
            "value": "high"
          },
          "will": {
            "value": "high"
          }
        },
        "classSkills": {
          "acr": false,
          "apr": false,
          "art": false,
          "blf": true,
          "clm": false,
          "crf": true,
          "dip": false,
          "dev": false,
          "dis": false,
          "esc": false,
          "fly": false,
          "han": false,
          "hea": false,
          "int": false,
          "kar": false,
          "kdu": false,
          "ken": false,
          "kge": false,
          "khi": false,
          "klo": false,
          "kna": false,
          "kno": false,
          "kpl": true,
          "kre": false,
          "lin": false,
          "lor": false,
          "per": true,
          "prf": false,
          "pro": false,
          "rid": false,
          "sen": true,
          "slt": false,
          "spl": false,
          "ste": true,
          "sur": false,
          "swm": false,
          "umd": false
        }
      },
      "effects": [],
      "folder": null,
      "sort": 0,
      "permission": {
        "default": 0
      },
      "flags": {}
    },
    {
      "_id": "mz35wij9uff0bonj",
      "name": "Race: Outsider",
      "type": "race",
      "img": "systems/pf1/icons/skills/yellow_40.jpg",
      "data": {
        "description": {
          "value": "sbc | As no playable race was found a placeholder was generated."
        },
        "tags": [],
        "changes": [],
        "contextNotes": [],
        "links": {
          "children": []
        },
        "armorProf": {
          "value": []
        },
        "weaponProf": {
          "value": []
        },
        "flags": {
          "boolean": [],
          "dictionary": []
        },
        "scriptCalls": [],
        "creatureType": "outsider",
        "subTypes": [
          [
            "daemon"
          ],
          [
            "evil"
          ],
          [
            "extraplanar"
          ]
        ]
      },
      "effects": [],
      "folder": null,
      "sort": 0,
      "permission": {
        "default": 0
      },
      "flags": {}
    },
    {
      "_id": "x8fpq4l8gt83lr89",
      "name": "Sense: Darkvision 60ft.",
      "type": "feat",
      "img": "systems/pf1/icons/skills/shadow_12.jpg",
      "data": {
        "description": {
          "value": "Darkvision is the extraordinary ability to see with no light source at all, out to a range specified for the creature. Darkvision is black-and-white only (colors cannot be discerned). It does not allow characters to see anything that they could not see otherwise—invisible objects are still invisible, and illusions are still visible as what they seem to be. Likewise, darkvision subjects a creature to gaze attacks normally. The presence of light does not spoil darkvision."
        },
        "tags": [],
        "damage": {
          "parts": [],
          "critParts": [],
          "nonCritParts": []
        },
        "attackParts": [],
        "effectNotes": [],
        "attackNotes": [],
        "changes": [],
        "contextNotes": [],
        "links": {
          "children": [],
          "charges": []
        },
        "tag": "senseDarkvision60ft",
        "armorProf": {
          "value": []
        },
        "weaponProf": {
          "value": []
        },
        "flags": {
          "boolean": [],
          "dictionary": []
        },
        "scriptCalls": [],
        "featType": "racial",
        "associations": {
          "classes": []
        },
        "abilityType": "ex"
      },
      "effects": [],
      "folder": null,
      "sort": 0,
      "permission": {
        "default": 0
      },
      "flags": {}
    },
    {
      "_id": "mbvkj7hmpydvu24p",
      "name": "Sense: Deathwatch",
      "type": "feat",
      "img": "systems/pf1/icons/skills/shadow_01.jpg",
      "data": {
        "description": {
          "value": "Using the powers of necromancy, you can determine the condition of creatures near death within the spell’s range. You instantly know whether each creature within the area is dead, fragile (alive and wounded, with 3 or fewer hit points left), fighting off death (alive with 4 or more hit points), healthy, undead, or neither alive nor dead (such as a construct). Deathwatch sees through any spell or ability that allows creatures to feign death."
        },
        "tags": [],
        "damage": {
          "parts": [],
          "critParts": [],
          "nonCritParts": []
        },
        "attackParts": [],
        "effectNotes": [],
        "attackNotes": [],
        "changes": [],
        "contextNotes": [],
        "links": {
          "children": [],
          "charges": []
        },
        "tag": "senseDeathwatch",
        "armorProf": {
          "value": []
        },
        "weaponProf": {
          "value": []
        },
        "flags": {
          "boolean": [],
          "dictionary": []
        },
        "scriptCalls": [],
        "featType": "racial",
        "associations": {
          "classes": []
        },
        "abilityType": "ex"
      },
      "effects": [],
      "folder": null,
      "sort": 0,
      "permission": {
        "default": 0
      },
      "flags": {}
    },
    {
      "_id": "2ocrqc8ky3t5kvr0",
      "name": "Sense: True Seeing",
      "type": "feat",
      "img": "systems/pf1/icons/skills/red_09.jpg",
      "data": {
        "description": {
          "value": "The subject sees through normal and magical darkness, notices secret doors hidden by magic, sees the exact locations of creatures or objects under blur or displacement effects, sees invisible creatures or objects normally, sees through illusions, and sees the true form of polymorphed, changed, or transmuted things. Further, the subject can focus its vision to see into the Ethereal Plane (but not into extra-dimensional spaces). The range of true seeing conferred is 120 feet.<br><br>\n                True seeing, however, does not penetrate solid objects. It in no way confers X-ray vision or its equivalent. It does not negate concealment, including that caused by fog and the like. True seeing does not help the viewer see through mundane disguises, spot creatures who are simply hiding, or notice secret doors hidden by mundane means. In addition, the spell effects cannot be further enhanced with known magic, so one cannot use true seeing through a crystal ball or in conjunction with clairaudience/clairvoyance."
        },
        "tags": [],
        "damage": {
          "parts": [],
          "critParts": [],
          "nonCritParts": []
        },
        "attackParts": [],
        "effectNotes": [],
        "attackNotes": [],
        "changes": [],
        "contextNotes": [],
        "links": {
          "children": [],
          "charges": []
        },
        "tag": "senseTrueSeeing",
        "armorProf": {
          "value": []
        },
        "weaponProf": {
          "value": []
        },
        "flags": {
          "boolean": [],
          "dictionary": []
        },
        "scriptCalls": [],
        "featType": "racial",
        "associations": {
          "classes": []
        },
        "abilityType": "su"
      },
      "effects": [],
      "folder": null,
      "sort": 0,
      "permission": {
        "default": 0
      },
      "flags": {}
    },
    {
      "_id": "nu23yzo33u8y9zxv",
      "name": "Aura: Soul Siphon",
      "type": "feat",
      "img": "systems/pf1/icons/spells/runes-blue-3.jpg",
      "data": {
        "tags": [],
        "activation": {
          "cost": null,
          "type": "passive"
        },
        "unchainedAction": {
          "activation": {
            "cost": null,
            "type": "passive"
          }
        },
        "duration": {
          "units": "perm"
        },
        "target": {
          "value": "centered on self"
        },
        "range": {
          "value": "10",
          "units": "ft"
        },
        "measureTemplate": {
          "type": "circle",
          "size": "10"
        },
        "damage": {
          "parts": [],
          "critParts": [],
          "nonCritParts": []
        },
        "attackParts": [],
        "save": {
          "dc": ""
        },
        "effectNotes": [],
        "attackNotes": [],
        "changes": [],
        "contextNotes": [],
        "links": {
          "children": [],
          "charges": []
        },
        "tag": "auraSoulSiphon",
        "armorProf": {
          "value": []
        },
        "weaponProf": {
          "value": []
        },
        "flags": {
          "boolean": [],
          "dictionary": []
        },
        "scriptCalls": [],
        "featType": "racial",
        "associations": {
          "classes": []
        }
      },
      "effects": [],
      "folder": null,
      "sort": 0,
      "permission": {
        "default": 0
      },
      "flags": {}
    },
    {
      "_id": "h9nHYLxXvIXBTmup",
      "name": "Combat Reflexes",
      "type": "feat",
      "img": "systems/pf1/icons/feats/combat-reflexes.jpg",
      "data": {
        "description": {
          "value": "\n                <i>You can make additional attacks of opportunity.</i>\n                <br />\n                <br />\n                \n                <p><b>Benefits</b></p>\n                <p><p class=\"stat-block-1\"> You may make a number of additional attacks of opportunity per round equal to your Dexterity bonus. With this feat, you may also make attacks of opportunity while flat-footed.</p></p>\n                \n            <br />\n                <p><b>Normal</b></p>\n                <p><p class=\"stat-block-1\"> A character without this feat can make only one attack of opportunity per round and can't make attacks of opportunity while flat-footed.</p></p>\n                \n            <br />\n                <p><b>Special</b></p>\n                <p><p class=\"stat-block-1\"> The Combat Reflexes feat does not allow a rogue to use her opportunist ability more than once per round.</p></p>\n                \n            \n            "
        },
        "tags": [
          [
            "Combat"
          ],
          [
            "Offensive"
          ]
        ],
        "measureTemplate": {
          "size": "0"
        },
        "actionType": "",
        "damage": {
          "parts": [],
          "critParts": [],
          "nonCritParts": []
        },
        "attackParts": [],
        "effectNotes": [],
        "attackNotes": [],
        "changes": [],
        "contextNotes": [],
        "links": {
          "children": [],
          "charges": []
        },
        "tag": "combatReflexes",
        "armorProf": {
          "value": []
        },
        "weaponProf": {
          "value": []
        },
        "flags": {
          "boolean": [],
          "dictionary": []
        },
        "scriptCalls": [],
        "associations": {
          "classes": []
        }
      },
      "effects": [],
      "folder": null,
      "sort": 0,
      "permission": {
        "default": 0
      },
      "flags": {}
    },
    {
      "_id": "JreaiTHdyWFNj3Tb",
      "name": "Dodge",
      "type": "feat",
      "img": "systems/pf1/icons/feats/dodge.jpg",
      "data": {
        "description": {
          "value": "\n                <i>Your training and reflexes allow you to react swiftly to avoid an opponents' attacks.</i>\n                <br />\n                <br />\n                \n                <p><b>Prerequisites</b></p>\n                <p> Dex 13.</p>\n                \n            <br />\n                <p><b>Benefits</b></p>\n                <p><p class=\"stat-block-1\"> You gain a +1 dodge bonus to your AC. A condition that makes you lose your Dex bonus to AC also makes you lose the benefits of this feat.</p></p>\n                \n            \n            "
        },
        "tags": [
          [
            "Combat"
          ],
          [
            "Defensive"
          ]
        ],
        "measureTemplate": {
          "size": "0"
        },
        "actionType": "",
        "damage": {
          "parts": [],
          "critParts": [],
          "nonCritParts": []
        },
        "attackParts": [],
        "effectNotes": [],
        "attackNotes": [],
        "changes": [
          {
            "_id": "9onhsept",
            "formula": "1",
            "operator": "add",
            "subTarget": "ac",
            "modifier": "dodge",
            "priority": 0,
            "value": 0,
            "target": "ac"
          }
        ],
        "contextNotes": [],
        "links": {
          "children": [],
          "charges": []
        },
        "tag": "dodge",
        "armorProf": {
          "value": []
        },
        "weaponProf": {
          "value": []
        },
        "flags": {
          "boolean": [],
          "dictionary": []
        },
        "scriptCalls": [],
        "associations": {
          "classes": []
        }
      },
      "effects": [],
      "folder": null,
      "sort": 0,
      "permission": {
        "default": 0
      },
      "flags": {}
    },
    {
      "_id": "37nnjyijkpugt7pn",
      "name": "Flyby Attack",
      "type": "feat",
      "img": "systems/pf1/icons/skills/yellow_36.jpg",
      "data": {
        "description": {
          "value": "sbc | As Flyby Attack could not be found in any compendium, a placeholder was generated."
        },
        "tags": [],
        "damage": {
          "parts": [],
          "critParts": [],
          "nonCritParts": []
        },
        "attackParts": [],
        "effectNotes": [],
        "attackNotes": [],
        "changes": [],
        "contextNotes": [],
        "links": {
          "children": [],
          "charges": []
        },
        "armorProf": {
          "value": []
        },
        "weaponProf": {
          "value": []
        },
        "flags": {
          "boolean": [],
          "dictionary": []
        },
        "scriptCalls": [],
        "associations": {
          "classes": []
        }
      },
      "effects": [],
      "folder": null,
      "sort": 0,
      "permission": {
        "default": 0
      },
      "flags": {}
    },
    {
      "_id": "iAbIGhm7T2OK9Brt",
      "name": "Iron Will",
      "type": "feat",
      "img": "systems/pf1/icons/feats/iron-will.jpg",
      "data": {
        "description": {
          "value": "\n                <i>You are more resistant to mental effects.</i>\n                <br />\n                <br />\n                \n                <p><b>Benefits</b></p>\n                <p><p class=\"stat-block-1\"> You get a +2 bonus on all Will saving throws.</p></p>\n                \n            \n            "
        },
        "tags": [
          [
            "General"
          ],
          [
            "Saving Throw"
          ]
        ],
        "measureTemplate": {
          "size": "0"
        },
        "actionType": "",
        "damage": {
          "parts": [],
          "critParts": [],
          "nonCritParts": []
        },
        "attackParts": [],
        "effectNotes": [],
        "attackNotes": [],
        "changes": [
          {
            "_id": "vafl2kz4",
            "formula": "2",
            "operator": "add",
            "subTarget": "will",
            "modifier": "untyped",
            "priority": 0,
            "value": 0,
            "target": "savingThrows"
          }
        ],
        "contextNotes": [],
        "links": {
          "children": [],
          "charges": []
        },
        "tag": "ironWill",
        "armorProf": {
          "value": []
        },
        "weaponProf": {
          "value": []
        },
        "flags": {
          "boolean": [],
          "dictionary": []
        },
        "scriptCalls": [],
        "associations": {
          "classes": []
        }
      },
      "effects": [],
      "folder": null,
      "sort": 0,
      "permission": {
        "default": 0
      },
      "flags": {}
    },
    {
      "_id": "R7L4SlGRlnThqFrP",
      "name": "Mobility",
      "type": "feat",
      "img": "systems/pf1/icons/feats/mobility.jpg",
      "data": {
        "description": {
          "value": "\n                <i>You can easily move through a dangerous melee.</i>\n                <br />\n                <br />\n                \n                <p><b>Prerequisites</b></p>\n                <p> Dex 13, Dodge.</p>\n                \n            <br />\n                <p><b>Benefits</b></p>\n                <p><p class=\"stat-block-1\"> You get a +4 dodge bonus to Armor Class against attacks of opportunity caused when you move out of or within a threatened area. A condition that makes you lose your Dexterity bonus to Armor Class (if any) also makes you lose dodge bonuses.</p><p class=\"stat-block-2\">Dodge bonuses stack with each other, unlike most types of bonuses.</p></p>\n                \n            \n            "
        },
        "tags": [
          [
            "Combat"
          ],
          [
            "Movement"
          ],
          [
            "Defensive"
          ]
        ],
        "measureTemplate": {
          "size": "0"
        },
        "actionType": "",
        "damage": {
          "parts": [],
          "critParts": [],
          "nonCritParts": []
        },
        "attackParts": [],
        "effectNotes": [],
        "attackNotes": [],
        "changes": [],
        "contextNotes": [],
        "links": {
          "children": [],
          "charges": []
        },
        "tag": "mobility",
        "armorProf": {
          "value": []
        },
        "weaponProf": {
          "value": []
        },
        "flags": {
          "boolean": [],
          "dictionary": []
        },
        "scriptCalls": [],
        "associations": {
          "classes": []
        }
      },
      "effects": [],
      "folder": null,
      "sort": 0,
      "permission": {
        "default": 0
      },
      "flags": {}
    },
    {
      "_id": "VMVAqGze4cs3naya",
      "name": "Nimble Moves",
      "type": "feat",
      "img": "systems/pf1/icons/feats/nimble-moves.png",
      "data": {
        "description": {
          "value": "\n                <i>You can move across a single obstacle with ease.</i>\n                <br />\n                <br />\n                \n                <p><b>Prerequisites</b></p>\n                <p> Dex 13.</p>\n                \n            <br />\n                <p><b>Benefits</b></p>\n                <p><p class=\"stat-block-1\"> Whenever you move, you may move through 5 feet of difficult terrain each round as if it were normal terrain. This feat allows you to take a 5-foot step into difficult terrain.</p></p>\n                \n            \n            "
        },
        "tags": [
          [
            "General"
          ],
          [
            "Movement"
          ]
        ],
        "measureTemplate": {
          "size": "0"
        },
        "actionType": "",
        "damage": {
          "parts": [],
          "critParts": [],
          "nonCritParts": []
        },
        "attackParts": [],
        "effectNotes": [],
        "attackNotes": [],
        "changes": [],
        "contextNotes": [],
        "links": {
          "children": [],
          "charges": []
        },
        "tag": "nimbleMoves",
        "armorProf": {
          "value": []
        },
        "weaponProf": {
          "value": []
        },
        "flags": {
          "boolean": [],
          "dictionary": []
        },
        "scriptCalls": [],
        "associations": {
          "classes": []
        }
      },
      "effects": [],
      "folder": null,
      "sort": 0,
      "permission": {
        "default": 0
      },
      "flags": {}
    },
    {
      "_id": "FUW5mIXHNBBIQ1Sq",
      "name": "Power Attack",
      "type": "feat",
      "img": "systems/pf1/icons/feats/power-attack.jpg",
      "data": {
        "description": {
          "value": "\n                <i>You can make exceptionally deadly melee attacks by sacrificing accuracy for strength.</i>\n                <br />\n                <br />\n                \n                <p><b>Prerequisites</b></p>\n                <p> Str 13, base attack bonus +1.</p>\n                \n            <br />\n                <p><b>Benefits</b></p>\n                <p><p class=\"stat-block-1\"> You can choose to take a &ndash;1 penalty on all melee attack rolls and combat maneuver checks to gain a +2 bonus on all melee damage rolls. This bonus to damage is increased by half (+50%) if you are making an attack with a two-handed weapon, a one handed weapon using two hands, or a primary natural weapon that adds 1-1/2 times your Strength modifier on damage rolls. This bonus to damage is halved (&ndash;50%) if you are making an attack with an off-hand weapon or secondary natural weapon. When your base attack bonus reaches +4, and every 4 points thereafter, the penalty increases by &ndash;1 and the bonus to damage increases by +2. You must choose to use this feat before making an attack roll, and its effects last until your next turn. The bonus damage does not apply to touch attacks or effects that do not deal hit point damage.</p></p>\n                \n            \n            "
        },
        "tags": [
          [
            "Combat"
          ],
          [
            "Offensive"
          ]
        ],
        "measureTemplate": {
          "size": "0"
        },
        "actionType": "",
        "damage": {
          "parts": [],
          "critParts": [],
          "nonCritParts": []
        },
        "attackParts": [],
        "effectNotes": [],
        "attackNotes": [],
        "changes": [],
        "contextNotes": [],
        "links": {
          "children": [],
          "charges": []
        },
        "tag": "powerAttack",
        "armorProf": {
          "value": []
        },
        "weaponProf": {
          "value": []
        },
        "flags": {
          "boolean": [],
          "dictionary": []
        },
        "scriptCalls": [],
        "associations": {
          "classes": []
        }
      },
      "effects": [],
      "folder": null,
      "sort": 0,
      "permission": {
        "default": 0
      },
      "flags": {}
    },
    {
      "_id": "ugQyUpqPBDsqLyra",
      "name": "Spring Attack",
      "type": "feat",
      "img": "systems/pf1/icons/feats/spring-attack.jpg",
      "data": {
        "description": {
          "value": "\n                <i>You can deftly move up to a foe, strike, and withdraw before he can react.</i>\n                <br />\n                <br />\n                \n                <p><b>Prerequisites</b></p>\n                <p> Dex 13, Dodge, Mobility, base attack bonus +4.</p>\n                \n            <br />\n                <p><b>Benefits</b></p>\n                <p><p class=\"stat-block-1\"> As a full-round action, you can move up to your speed and make a single melee attack without provoking any attacks of opportunity from the target of your attack. You can move both before and after the attack, but you must move at least 10 feet before the attack and the total distance that you move cannot be greater than your speed. You cannot use this ability to attack a foe that is adjacent to you at the start of your turn.</p></p>\n                \n            <br />\n                <p><b>Normal</b></p>\n                <p><p class=\"stat-block-1\"> You cannot move before and after an attack.</p></p>\n                \n            \n            "
        },
        "tags": [
          [
            "Combat"
          ],
          [
            "Offensive"
          ],
          [
            "Movement"
          ]
        ],
        "measureTemplate": {
          "size": "0"
        },
        "actionType": "",
        "damage": {
          "parts": [],
          "critParts": [],
          "nonCritParts": []
        },
        "attackParts": [],
        "effectNotes": [],
        "attackNotes": [],
        "changes": [],
        "contextNotes": [],
        "links": {
          "children": [],
          "charges": []
        },
        "tag": "springAttack",
        "armorProf": {
          "value": []
        },
        "weaponProf": {
          "value": []
        },
        "flags": {
          "boolean": [],
          "dictionary": []
        },
        "scriptCalls": [],
        "associations": {
          "classes": []
        }
      },
      "effects": [],
      "folder": null,
      "sort": 0,
      "permission": {
        "default": 0
      },
      "flags": {}
    },
    {
      "_id": "vWiTqHC4Y3Xn1Pme",
      "name": "Weapon Finesse",
      "type": "feat",
      "img": "systems/pf1/icons/feats/weapon-finesse.jpg",
      "data": {
        "description": {
          "value": "\n                <i>You are trained in using your agility in melee combat, as opposed to brute strength.</i>\n                <br />\n                <br />\n                \n                <p><b>Benefits</b></p>\n                <p><p class=\"stat-block-1\"> With a light weapon, rapier, whip, or spiked chain made for a creature of your size category, you may use your Dexterity modifier instead of your Strength modifier on attack rolls. If you carry a shield, its armor check penalty applies to your attack rolls.</p></p>\n                \n            <br />\n                <p><b>Special</b></p>\n                <p><p class=\"stat-block-1\"> Natural weapons are considered light weapons.</p></p>\n                \n            \n            "
        },
        "tags": [
          [
            "Combat"
          ],
          [
            "Weapon"
          ]
        ],
        "measureTemplate": {
          "size": "0"
        },
        "actionType": "",
        "damage": {
          "parts": [],
          "critParts": [],
          "nonCritParts": []
        },
        "attackParts": [],
        "effectNotes": [],
        "attackNotes": [],
        "changes": [],
        "contextNotes": [],
        "links": {
          "children": [],
          "charges": []
        },
        "tag": "weaponFinesse",
        "armorProf": {
          "value": []
        },
        "weaponProf": {
          "value": []
        },
        "flags": {
          "boolean": [],
          "dictionary": []
        },
        "scriptCalls": [],
        "associations": {
          "classes": []
        }
      },
      "effects": [],
      "folder": null,
      "sort": 0,
      "permission": {
        "default": 0
      },
      "flags": {}
    },
    {
      "_id": "fojo0ueg1e179vy5",
      "name": "Displacement",
      "type": "feat",
      "img": "systems/pf1/icons/skills/yellow_36.jpg",
      "data": {
        "description": {
          "value": "sbc | Placeholder"
        },
        "tags": [],
        "damage": {
          "parts": [],
          "critParts": [],
          "nonCritParts": []
        },
        "attackParts": [],
        "effectNotes": [],
        "attackNotes": [],
        "changes": [],
        "contextNotes": [],
        "links": {
          "children": [],
          "charges": []
        },
        "armorProf": {
          "value": []
        },
        "weaponProf": {
          "value": []
        },
        "flags": {
          "boolean": [],
          "dictionary": []
        },
        "scriptCalls": [],
        "featType": "classFeat",
        "associations": {
          "classes": []
        },
        "abilityType": ""
      },
      "effects": [],
      "folder": null,
      "sort": 0,
      "permission": {
        "default": 0
      },
      "flags": {}
    },
    {
      "_id": "aybbtymoazm13p3u",
      "name": "Bite",
      "type": "attack",
      "img": "systems/pf1/icons/items/inventory/monster-head.jpg",
      "data": {
        "tags": [],
        "activation": {
          "type": "attack"
        },
        "unchainedAction": {
          "activation": {
            "type": "attack"
          }
        },
        "duration": {
          "units": "inst"
        },
        "range": {
          "value": "",
          "units": "melee"
        },
        "attackName": "Bite",
        "actionType": "mwak",
        "attackBonus": "2",
        "damage": {
          "parts": [
            [
              "2d6+0",
              "B, P and S"
            ]
          ],
          "critParts": [],
          "nonCritParts": []
        },
        "attackParts": [],
        "ability": {
          "attack": "str",
          "damage": "str"
        },
        "effectNotes": [
          "energy drain",
          "grab"
        ],
        "attackNotes": [
          "bite +23 (2d6+5 plus energy drain and grab)"
        ],
        "links": {
          "children": [],
          "charges": [],
          "ammunition": []
        },
        "flags": {
          "boolean": [],
          "dictionary": []
        },
        "scriptCalls": [],
        "attackType": "natural",
        "conditionals": []
      },
      "effects": [],
      "folder": null,
      "sort": 0,
      "permission": {
        "default": 0
      },
      "flags": {}
    },
    {
      "_id": "bfw7i10q1nhpnpbl",
      "name": "Claws",
      "type": "attack",
      "img": "systems/pf1/icons/items/inventory/monster-paw-bear.jpg",
      "data": {
        "tags": [],
        "activation": {
          "type": "attack"
        },
        "unchainedAction": {
          "activation": {
            "type": "attack"
          }
        },
        "duration": {
          "units": "inst"
        },
        "range": {
          "value": "",
          "units": "melee"
        },
        "attackName": "Claws",
        "actionType": "mwak",
        "attackBonus": "2",
        "damage": {
          "parts": [
            [
              "1d8+0",
              "B and S"
            ]
          ],
          "critParts": [],
          "nonCritParts": []
        },
        "attackParts": [
          [
            "0",
            "Claws: 1"
          ]
        ],
        "ability": {
          "attack": "str",
          "damage": "str"
        },
        "effectNotes": [
          "energy drain"
        ],
        "attackNotes": [
          "2 claws +23 (1d8+5 plus energy drain)"
        ],
        "links": {
          "children": [],
          "charges": [],
          "ammunition": []
        },
        "flags": {
          "boolean": [],
          "dictionary": []
        },
        "scriptCalls": [],
        "attackType": "natural",
        "conditionals": []
      },
      "effects": [],
      "folder": null,
      "sort": 0,
      "permission": {
        "default": 0
      },
      "flags": {}
    },
    {
      "_id": "0jw3gde09a3euis6",
      "name": "Tail Slap",
      "type": "attack",
      "img": "systems/pf1/icons/items/inventory/monster-tail.jpg",
      "data": {
        "tags": [],
        "activation": {
          "type": "attack"
        },
        "unchainedAction": {
          "activation": {
            "type": "attack"
          }
        },
        "duration": {
          "units": "inst"
        },
        "range": {
          "value": "",
          "units": "melee"
        },
        "attackName": "Tail Slap",
        "actionType": "mwak",
        "attackBonus": "2",
        "damage": {
          "parts": [
            [
              "1d12+2",
              ""
            ]
          ],
          "critParts": [],
          "nonCritParts": []
        },
        "attackParts": [],
        "ability": {
          "attack": "str",
          "damage": "str"
        },
        "effectNotes": [
          "energy drain"
        ],
        "attackNotes": [
          "tail slap +18 (1d12+2 plus energy drain)"
        ],
        "links": {
          "children": [],
          "charges": [],
          "ammunition": []
        },
        "flags": {
          "boolean": [],
          "dictionary": []
        },
        "scriptCalls": [],
        "attackType": "natural",
        "primaryAttack": false,
        "conditionals": []
      },
      "effects": [],
      "folder": null,
      "sort": 0,
      "permission": {
        "default": 0
      },
      "flags": {}
    },
    {
      "_id": "djvuatfujwuso9b6",
      "name": "Special Attack: Devour Soul",
      "type": "attack",
      "img": "systems/pf1/icons/skills/yellow_36.jpg",
      "data": {
        "description": {
          "value": "sbc | Placeholder for Special Attacks, which in most statblocks are listed under 'Special Attacks' in the statistics block, but are described in the 'Special Abilities' block. Remove duplicates as needed!"
        },
        "tags": [],
        "damage": {
          "parts": [],
          "critParts": [],
          "nonCritParts": []
        },
        "attackParts": [],
        "effectNotes": [],
        "attackNotes": [],
        "links": {
          "children": [],
          "charges": [],
          "ammunition": []
        },
        "flags": {
          "boolean": [],
          "dictionary": []
        },
        "scriptCalls": [],
        "attackType": "misc",
        "conditionals": []
      },
      "effects": [],
      "folder": null,
      "sort": 0,
      "permission": {
        "default": 0
      },
      "flags": {}
    },
    {
      "_id": "abr4kvkidytxbzmj",
      "name": "Special Attack: Energy Drain (1 Level, Dc 25)",
      "type": "attack",
      "img": "systems/pf1/icons/skills/yellow_36.jpg",
      "data": {
        "description": {
          "value": "sbc | Placeholder for Special Attacks, which in most statblocks are listed under 'Special Attacks' in the statistics block, but are described in the 'Special Abilities' block. Remove duplicates as needed!"
        },
        "tags": [],
        "damage": {
          "parts": [],
          "critParts": [],
          "nonCritParts": []
        },
        "attackParts": [],
        "effectNotes": [],
        "attackNotes": [],
        "links": {
          "children": [],
          "charges": [],
          "ammunition": []
        },
        "flags": {
          "boolean": [],
          "dictionary": []
        },
        "scriptCalls": [],
        "attackType": "misc",
        "conditionals": []
      },
      "effects": [],
      "folder": null,
      "sort": 0,
      "permission": {
        "default": 0
      },
      "flags": {}
    },
    {
      "_id": "1hjxxr3k62rcpb5c",
      "name": "Constant: Deathwatch",
      "type": "spell",
      "img": "systems/pf1/icons/misc/magic-swirl.png",
      "data": {
        "description": {
          "value": "<div class=\"spell-description\">\n  <p>\n    <strong>School</strong>&nbsp;necromancy;\n    <strong>Level</strong>&nbsp;cleric/oracle 1, medium 1, spiritualist 1;\n    <strong>Domain</strong>&nbsp;Repose 1;\n    \n    \n    \n  </p>\n  <p>\n    <strong>Casting Time</strong>&nbsp;1 standard action<br>\n    <strong>Components</strong>&nbsp;V, S<br>\n  </p>\n  <p>\n    <strong>Range</strong>&nbsp;30 feet<br>\n    <strong>Area</strong>&nbsp;cone-shaped emanation<br>\n    \n    \n    <strong>Duration</strong>&nbsp;10 min./level<br>\n    <strong>Saving Throw</strong>&nbsp;none;&nbsp;<strong>Spell Resistance</strong>&nbsp;no<br>\n  </p>\n  <h2>Description</h2>\n  <p>Using the powers of necromancy, you can determine the condition of creatures near death within the spell's range. You instantly know whether each creature within the area is dead, fragile (alive and wounded, with 3 or fewer hit points left), fighting off death (alive with 4 or more hit points), healthy, undead, or neither alive nor dead (such as a construct). <i>Deathwatch</i> sees through any spell or ability that allows creatures to feign death.</p>\n</div>\n"
        },
        "tags": [],
        "activation": {
          "type": "standard"
        },
        "unchainedAction": {
          "activation": {
            "cost": 2,
            "type": "action"
          }
        },
        "range": {
          "value": 30,
          "units": "ft"
        },
        "uses": {
          "per": ""
        },
        "measureTemplate": {
          "size": "0"
        },
        "actionType": "",
        "damage": {
          "parts": [],
          "critParts": [],
          "nonCritParts": []
        },
        "attackParts": [],
        "ability": {
          "attack": "",
          "damage": ""
        },
        "save": {
          "dc": "0"
        },
        "effectNotes": [],
        "attackNotes": [],
        "links": {
          "children": []
        },
        "flags": {
          "boolean": [],
          "dictionary": []
        },
        "scriptCalls": [],
        "learnedAt": {
          "class": [
            [
              "cleric/oracle",
              1
            ],
            [
              "medium",
              1
            ],
            [
              "spiritualist",
              1
            ]
          ],
          "domain": [
            [
              "Repose",
              1
            ]
          ],
          "subDomain": [],
          "elementalSchool": [],
          "bloodline": []
        },
        "school": "nec",
        "conditionals": [],
        "components": {
          "verbal": true,
          "somatic": true
        },
        "spellbook": "spelllike",
        "atWill": true,
        "sr": false,
        "shortDescription": "<p>Using the powers of necromancy, you can determine the condition of creatures near death within the spell's range. You instantly know whether each creature within the area is dead, fragile (alive and wounded, with 3 or fewer hit points left), fighting off death (alive with 4 or more hit points), healthy, undead, or neither alive nor dead (such as a construct). <i>Deathwatch</i> sees through any spell or ability that allows creatures to feign death.</p>",
        "spellDuration": "10 min./level",
        "spellArea": "cone-shaped emanation"
      },
      "effects": [],
      "folder": null,
      "sort": 0,
      "permission": {
        "default": 0
      },
      "flags": {}
    },
    {
      "_id": "r190q9zxmei82lmv",
      "name": "Constant: Displacement",
      "type": "spell",
      "img": "systems/pf1/icons/misc/magic-swirl.png",
      "data": {
        "description": {
          "value": "<div class=\"spell-description\">\n  <p>\n    <strong>School</strong>&nbsp;illusion&nbsp;(glamer);\n    <strong>Level</strong>&nbsp;alchemist 3, bard 3, magus 3, medium 3, mesmerist 3, occultist 3, psychic 3, sorcerer/wizard 3, spiritualist 3, summoner 3, unchained Summoner 3;\n    \n    <strong>Subdomain</strong>&nbsp;Protean 3;\n    \n    \n  </p>\n  <p>\n    <strong>Casting Time</strong>&nbsp;1 standard action<br>\n    <strong>Components</strong>&nbsp;V, M (a small loop of leather)<br>\n  </p>\n  <p>\n    <strong>Range</strong>&nbsp;touch<br>\n    \n    <strong>Targets</strong>&nbsp;creature touched<br>\n    \n    <strong>Duration</strong>&nbsp;1 round/level<br>\n    <strong>Saving Throw</strong>&nbsp;Will negates (harmless);&nbsp;<strong>Spell Resistance</strong>&nbsp;yes<br>\n  </p>\n  <h2>Description</h2>\n  <p>The subject of this spell appears to be about 2 feet away from its true location. The creature benefits from a 50% miss chance as if it had total concealment. Unlike actual total concealment, <i>displacement</i> does not prevent enemies from targeting the creature normally. <i>True seeing</i> reveals its true location and negates the miss chance.</p>\n</div>\n"
        },
        "tags": [],
        "activation": {
          "type": "standard"
        },
        "unchainedAction": {
          "activation": {
            "cost": 2,
            "type": "action"
          }
        },
        "target": {
          "value": "creature touched"
        },
        "range": {
          "units": "touch"
        },
        "uses": {
          "per": ""
        },
        "measureTemplate": {
          "size": "0"
        },
        "actionType": "spellsave",
        "damage": {
          "parts": [],
          "critParts": [],
          "nonCritParts": []
        },
        "attackParts": [],
        "ability": {
          "attack": "",
          "damage": ""
        },
        "save": {
          "dc": "0",
          "type": "will",
          "description": "Will negates (harmless)"
        },
        "effectNotes": [],
        "attackNotes": [],
        "links": {
          "children": []
        },
        "flags": {
          "boolean": [],
          "dictionary": []
        },
        "scriptCalls": [],
        "learnedAt": {
          "class": [
            [
              "sorcerer/wizard",
              3
            ],
            [
              "bard",
              3
            ],
            [
              "alchemist",
              3
            ],
            [
              "summoner",
              3
            ],
            [
              "magus",
              3
            ],
            [
              "psychic",
              3
            ],
            [
              "medium",
              3
            ],
            [
              "mesmerist",
              3
            ],
            [
              "occultist",
              3
            ],
            [
              "spiritualist",
              3
            ],
            [
              "unchained Summoner",
              3
            ]
          ],
          "domain": [],
          "subDomain": [
            [
              "Protean",
              3
            ]
          ],
          "elementalSchool": [],
          "bloodline": []
        },
        "level": 3,
        "school": "ill",
        "subschool": "glamer",
        "conditionals": [],
        "components": {
          "verbal": true,
          "material": true
        },
        "materials": {
          "value": "a small loop of leather"
        },
        "spellbook": "spelllike",
        "atWill": true,
        "shortDescription": "<p>The subject of this spell appears to be about 2 feet away from its true location. The creature benefits from a 50% miss chance as if it had total concealment. Unlike actual total concealment, <i>displacement</i> does not prevent enemies from targeting the creature normally. <i>True seeing</i> reveals its true location and negates the miss chance.</p>",
        "spellDuration": "1 round/level"
      },
      "effects": [],
      "folder": null,
      "sort": 0,
      "permission": {
        "default": 0
      },
      "flags": {}
    },
    {
      "_id": "jbqo4o2b2tmdz7wv",
      "name": "Constant: True Seeing",
      "type": "spell",
      "img": "systems/pf1/icons/misc/magic-swirl.png",
      "data": {
        "description": {
          "value": "<div class=\"spell-description\">\n  <p>\n    <strong>School</strong>&nbsp;divination;\n    <strong>Level</strong>&nbsp;adept 5, alchemist 6, cleric/oracle 5, druid 7, inquisitor 5, magus 6, medium 4, mesmerist 6, occultist 5, psychic 5, shaman 5, sorcerer/wizard 6, spiritualist 6, summoner 5, unchained Summoner 6, witch 6;\n    <strong>Domain</strong>&nbsp;Knowledge 5;\n    <strong>Subdomain</strong>&nbsp;Revelation 5;\n    \n    <strong>Bloodline</strong>&nbsp;Arcane 6;\n  </p>\n  <p>\n    <strong>Casting Time</strong>&nbsp;1 standard action<br>\n    <strong>Components</strong>&nbsp;V, S, M (an eye ointment that costs 250 gp)<br>\n  </p>\n  <p>\n    <strong>Range</strong>&nbsp;touch<br>\n    \n    <strong>Targets</strong>&nbsp;creature touched<br>\n    \n    <strong>Duration</strong>&nbsp;1 min./level<br>\n      <strong>Saving Throw</strong>&nbsp;Will negates (harmless);&nbsp;\n      <strong>Spell Resistance</strong>&nbsp;yes<br>\n  </p>\n  <h2>Description</h2>\n  <p>You confer on the subject the ability to see all things as they actually are. The subject sees through normal and magical darkness, notices secret doors hidden by magic, sees the exact locations of creatures or objects under <i>blur</i> or <i>displacement</i> effects, sees invisible creatures or objects normally, sees through illusions, and sees the true form of polymorphed, changed, or transmuted things. Further, the subject can focus its vision to see into the Ethereal Plane (but not into extradimensional spaces). The range of <i>true seeing</i> conferred is 120 feet.</p><p><i>True seeing</i>, however, does not penetrate solid objects. It in no way confers X-ray vision or its equivalent. It does not negate concealment, including that caused by fog and the like. <i>True seeing</i> does not help the viewer see through mundane disguises, spot creatures who are simply hiding, or notice secret doors hidden by mundane means. In addition, the spell effects cannot be further enhanced with known magic, so one cannot use <i>true seeing</i> through a <i>crystal ball</i> or in conjunction with clairaudience/clairvoyance.</p>\n</div>\n"
        },
        "tags": [],
        "activation": {
          "type": "standard"
        },
        "unchainedAction": {
          "activation": {
            "cost": 2,
            "type": "action"
          }
        },
        "target": {
          "value": "creature touched"
        },
        "range": {
          "units": "touch"
        },
        "uses": {
          "value": 3,
          "per": "day"
        },
        "measureTemplate": {
          "size": "0"
        },
        "actionType": "spellsave",
        "damage": {
          "parts": [],
          "critParts": [],
          "nonCritParts": []
        },
        "attackParts": [],
        "ability": {
          "attack": "",
          "damage": ""
        },
        "save": {
          "dc": "0",
          "type": "will",
          "description": "Will negates (harmless)"
        },
        "effectNotes": [],
        "attackNotes": [],
        "links": {
          "children": []
        },
        "flags": {
          "boolean": [],
          "dictionary": []
        },
        "scriptCalls": [],
        "learnedAt": {
          "class": [
            [
              "sorcerer/wizard",
              6
            ],
            [
              "cleric/oracle",
              5
            ],
            [
              "druid",
              7
            ],
            [
              "alchemist",
              6
            ],
            [
              "summoner",
              5
            ],
            [
              "witch",
              6
            ],
            [
              "inquisitor",
              5
            ],
            [
              "magus",
              6
            ],
            [
              "adept",
              5
            ],
            [
              "shaman",
              5
            ],
            [
              "psychic",
              5
            ],
            [
              "medium",
              4
            ],
            [
              "mesmerist",
              6
            ],
            [
              "occultist",
              5
            ],
            [
              "spiritualist",
              6
            ],
            [
              "unchained Summoner",
              6
            ]
          ],
          "domain": [
            [
              "Knowledge",
              5
            ]
          ],
          "subDomain": [
            [
              "Revelation",
              5
            ]
          ],
          "elementalSchool": [],
          "bloodline": [
            [
              "Arcane",
              6
            ]
          ]
        },
        "level": 6,
        "school": "div",
        "conditionals": [],
        "components": {
          "verbal": true,
          "somatic": true,
          "material": true
        },
        "materials": {
          "value": "an eye ointment that costs 250 gp",
          "gpValue": 250
        },
        "spellbook": "spelllike",
        "preparation": {
          "preparedAmount": 3,
          "maxAmount": 3,
          "autoDeductCharges": false,
          "spontaneousPrepared": false
        },
        "atWill": true,
        "shortDescription": "<p>You confer on the subject the ability to see all things as they actually are. The subject sees through normal and magical darkness, notices secret doors hidden by magic, sees the exact locations of creatures or objects under <i>blur</i> or <i>displacement</i> effects, sees invisible creatures or objects normally, sees through illusions, and sees the true form of polymorphed, changed, or transmuted things. Further, the subject can focus its vision to see into the Ethereal Plane (but not into extradimensional spaces). The range of <i>true seeing</i> conferred is 120 feet.</p><p><i>True seeing</i>, however, does not penetrate solid objects. It in no way confers X-ray vision or its equivalent. It does not negate concealment, including that caused by fog and the like. <i>True seeing</i> does not help the viewer see through mundane disguises, spot creatures who are simply hiding, or notice secret doors hidden by mundane means. In addition, the spell effects cannot be further enhanced with known magic, so one cannot use <i>true seeing</i> through a <i>crystal ball</i> or in conjunction with clairaudience/clairvoyance.</p>",
        "spellDuration": "1 min./level",
        "spellPoints": {
          "cost": ""
        }
      },
      "effects": [],
      "folder": null,
      "sort": 0,
      "permission": {
        "default": 0
      },
      "flags": {}
    },
    {
      "_id": "bc3nc0ri47egssht",
      "name": "Enervation",
      "type": "spell",
      "img": "systems/pf1/icons/misc/magic-swirl.png",
      "data": {
        "description": {
          "value": "<div class=\"spell-description\">\n  <p>\n    <strong>School</strong>&nbsp;necromancy;\n    <strong>Level</strong>&nbsp;bloodrager 4, mesmerist 4, sorcerer/wizard 4, spiritualist 4, witch 4;\n    \n    <strong>Subdomain</strong>&nbsp;Loss 5, Undead 4;\n    \n    \n  </p>\n  <p>\n    <strong>Casting Time</strong>&nbsp;1 standard action<br>\n    <strong>Components</strong>&nbsp;V, S<br>\n  </p>\n  <p>\n    <strong>Range</strong>&nbsp;close (25 ft. + 5 ft./2 levels)<br>\n    \n    \n    <strong>Effect</strong>&nbsp;ray of negative energy<br>\n    <strong>Duration</strong>&nbsp;instantaneous<br>\n    <strong>Saving Throw</strong>&nbsp;none;&nbsp;<strong>Spell Resistance</strong>&nbsp;yes<br>\n  </p>\n  <h2>Description</h2>\n  <p>You point your finger and fire a black ray of negative energy that suppresses the life force of any living creature it strikes. You must make a ranged touch attack to hit. If you hit, the subject gains 1d4 temporary negative levels (see Appendix 1). Negative levels stack.</p><p>Assuming the subject survives, it regains lost levels after a number of hours equal to your caster level (maximum 15 hours).</p><p>Usually, negative levels have a chance of becoming permanent, but the negative levels from <i>enervation</i> don't last long enough to do so.</p><p>An undead creature struck by the ray gains 1d4 x 5 temporary hit points for 1 hour.</p>\n</div>\n"
        },
        "tags": [],
        "activation": {
          "type": "standard"
        },
        "unchainedAction": {
          "activation": {
            "cost": 2,
            "type": "action"
          }
        },
        "range": {
          "units": "close"
        },
        "uses": {
          "per": ""
        },
        "measureTemplate": {
          "size": "0"
        },
        "actionType": "other",
        "damage": {
          "parts": [],
          "critParts": [],
          "nonCritParts": []
        },
        "attackParts": [],
        "ability": {
          "attack": "",
          "damage": ""
        },
        "save": {
          "dc": "0"
        },
        "effectNotes": [],
        "attackNotes": [],
        "links": {
          "children": []
        },
        "flags": {
          "boolean": [],
          "dictionary": []
        },
        "scriptCalls": [],
        "learnedAt": {
          "class": [
            [
              "sorcerer/wizard",
              4
            ],
            [
              "witch",
              4
            ],
            [
              "bloodrager",
              4
            ],
            [
              "mesmerist",
              4
            ],
            [
              "spiritualist",
              4
            ]
          ],
          "domain": [],
          "subDomain": [
            [
              "Loss",
              5
            ],
            [
              "Undead",
              4
            ]
          ],
          "elementalSchool": [],
          "bloodline": []
        },
        "level": 4,
        "school": "nec",
        "conditionals": [],
        "components": {
          "verbal": true,
          "somatic": true
        },
        "spellbook": "spelllike",
        "atWill": true,
        "shortDescription": "<p>You point your finger and fire a black ray of negative energy that suppresses the life force of any living creature it strikes. You must make a ranged touch attack to hit. If you hit, the subject gains 1d4 temporary negative levels (see Appendix 1). Negative levels stack.</p><p>Assuming the subject survives, it regains lost levels after a number of hours equal to your caster level (maximum 15 hours).</p><p>Usually, negative levels have a chance of becoming permanent, but the negative levels from <i>enervation</i> don't last long enough to do so.</p><p>An undead creature struck by the ray gains 1d4 x 5 temporary hit points for 1 hour.</p>",
        "spellDuration": "instantaneous",
        "spellEffect": "ray of negative energy"
      },
      "effects": [],
      "folder": null,
      "sort": 0,
      "permission": {
        "default": 0
      },
      "flags": {}
    },
    {
      "_id": "be88e90guqbi1q1z",
      "name": "Fear",
      "type": "spell",
      "img": "systems/pf1/icons/misc/magic-swirl.png",
      "data": {
        "description": {
          "value": "<div class=\"spell-description\">\n  <p>\n    <strong>School</strong>&nbsp;necromancy&nbsp;[fear, mind-affecting, emotion];\n    <strong>Level</strong>&nbsp;antipaladin 4, bard 3, bloodrager 4, inquisitor 4, medium 4, mesmerist 3, occultist 4, psychic 4, shaman 4, sorcerer/wizard 4, spiritualist 4, witch 4;\n    \n    <strong>Subdomain</strong>&nbsp;Fear 4;\n    \n    <strong>Bloodline</strong>&nbsp;Draconic 4, Ghoul 4;\n  </p>\n  <p>\n    <strong>Casting Time</strong>&nbsp;1 standard action<br>\n    <strong>Components</strong>&nbsp;V, S, M (the heart of a hen or a white feather)<br>\n  </p>\n  <p>\n    <strong>Range</strong>&nbsp;30 feet<br>\n    <strong>Area</strong>&nbsp;cone-shaped burst<br>\n    \n    \n    <strong>Duration</strong>&nbsp;1 round/level or 1 round; see text<br>\n    <strong>Saving Throw</strong>&nbsp;Will partial;&nbsp;<strong>Spell Resistance</strong>&nbsp;yes<br>\n  </p>\n  <h2>Description</h2>\n  <p>An invisible cone of terror causes each living creature in the area to become panicked unless it succeeds on a Will save. If cornered, a panicked creature begins cowering. If the Will save succeeds, the creature is shaken for 1 round.</p>\n</div>\n"
        },
        "tags": [],
        "activation": {
          "type": "standard"
        },
        "unchainedAction": {
          "activation": {
            "cost": 2,
            "type": "action"
          }
        },
        "range": {
          "value": 30,
          "units": "ft"
        },
        "uses": {
          "value": 1,
          "per": "day"
        },
        "measureTemplate": {
          "size": "0"
        },
        "actionType": "spellsave",
        "damage": {
          "parts": [],
          "critParts": [],
          "nonCritParts": []
        },
        "attackParts": [],
        "ability": {
          "attack": "",
          "damage": ""
        },
        "save": {
          "dc": "0",
          "type": "will",
          "description": "Will partial"
        },
        "effectNotes": [],
        "attackNotes": [],
        "links": {
          "children": []
        },
        "flags": {
          "boolean": [],
          "dictionary": []
        },
        "scriptCalls": [],
        "learnedAt": {
          "class": [
            [
              "sorcerer/wizard",
              4
            ],
            [
              "bard",
              3
            ],
            [
              "witch",
              4
            ],
            [
              "inquisitor",
              4
            ],
            [
              "antipaladin",
              4
            ],
            [
              "bloodrager",
              4
            ],
            [
              "shaman",
              4
            ],
            [
              "psychic",
              4
            ],
            [
              "medium",
              4
            ],
            [
              "mesmerist",
              3
            ],
            [
              "occultist",
              4
            ],
            [
              "spiritualist",
              4
            ]
          ],
          "domain": [],
          "subDomain": [
            [
              "Fear",
              4
            ]
          ],
          "elementalSchool": [],
          "bloodline": [
            [
              "Draconic",
              4
            ],
            [
              "Ghoul",
              4
            ]
          ]
        },
        "level": 4,
        "school": "nec",
        "types": "fear, mind-affecting, emotion",
        "conditionals": [],
        "components": {
          "verbal": true,
          "somatic": true,
          "material": true
        },
        "materials": {
          "value": "the heart of a hen or a white feather"
        },
        "spellbook": "spelllike",
        "preparation": {
          "preparedAmount": 1,
          "maxAmount": 1
        },
        "atWill": true,
        "shortDescription": "<p>An invisible cone of terror causes each living creature in the area to become panicked unless it succeeds on a Will save. If cornered, a panicked creature begins cowering. If the Will save succeeds, the creature is shaken for 1 round.</p>",
        "spellDuration": "1 round/level or 1 round; see text",
        "spellArea": "cone-shaped burst"
      },
      "effects": [],
      "folder": null,
      "sort": 0,
      "permission": {
        "default": 0
      },
      "flags": {}
    },
    {
      "_id": "p3vpn9l8iw6jqqha",
      "name": "Greater Teleport",
      "type": "spell",
      "img": "systems/pf1/icons/skills/yellow_36.jpg",
      "data": {
        "description": {
          "value": "sbc | As greater teleport could not be found in any compendium, a placeholder was generated."
        },
        "tags": [],
        "damage": {
          "parts": [],
          "critParts": [],
          "nonCritParts": []
        },
        "attackParts": [],
        "effectNotes": [],
        "attackNotes": [],
        "links": {
          "children": []
        },
        "flags": {
          "boolean": [],
          "dictionary": []
        },
        "scriptCalls": [],
        "learnedAt": {
          "class": [],
          "domain": [],
          "subDomain": [],
          "elementalSchool": [],
          "bloodline": []
        },
        "conditionals": [],
        "spellbook": "spelllike",
        "atWill": true
      },
      "effects": [],
      "folder": null,
      "sort": 0,
      "permission": {
        "default": 0
      },
      "flags": {}
    },
    {
      "_id": "3efy1ico48ccrzni",
      "name": "Vampiric Touch",
      "type": "spell",
      "img": "systems/pf1/icons/misc/magic-swirl.png",
      "data": {
        "description": {
          "value": "<div class=\"spell-description\">\n  <p>\n    <strong>School</strong>&nbsp;necromancy;\n    <strong>Level</strong>&nbsp;antipaladin 3, bloodrager 3, magus 3, medium 3, mesmerist 3, psychic 3, sorcerer/wizard 3, spiritualist 3, witch 3;\n    \n    <strong>Subdomain</strong>&nbsp;Blood 3, Daemon 3;\n    \n    <strong>Bloodline</strong>&nbsp;Daemon 3, Ghoul 3, Undead 3;\n  </p>\n  <p>\n    <strong>Casting Time</strong>&nbsp;1 standard action<br>\n    <strong>Components</strong>&nbsp;V, S<br>\n  </p>\n  <p>\n    <strong>Range</strong>&nbsp;touch<br>\n    \n    <strong>Targets</strong>&nbsp;living creature touched<br>\n    \n    <strong>Duration</strong>&nbsp;instantaneous/1 hour; see text<br>\n    <strong>Saving Throw</strong>&nbsp;none;&nbsp;<strong>Spell Resistance</strong>&nbsp;yes<br>\n  </p>\n  <h2>Description</h2>\n  <p>You must succeed on a melee touch attack. Your touch deals 1d6 points of damage per two caster levels (maximum 10d6). You gain temporary hit points equal to the damage you deal. You can't gain more than the subject's current hit points + the subject's Constitution score (which is enough to kill the subject). The temporary hit points disappear 1 hour later.</p>\n</div>\n"
        },
        "tags": [],
        "activation": {
          "type": "standard"
        },
        "unchainedAction": {
          "activation": {
            "cost": 2,
            "type": "action"
          }
        },
        "target": {
          "value": "living creature touched"
        },
        "range": {
          "units": "touch"
        },
        "uses": {
          "per": ""
        },
        "measureTemplate": {
          "size": "0"
        },
        "actionType": "msak",
        "damage": {
          "parts": [],
          "critParts": [],
          "nonCritParts": []
        },
        "attackParts": [],
        "ability": {
          "attack": "str",
          "damage": ""
        },
        "save": {
          "dc": "0"
        },
        "effectNotes": [],
        "attackNotes": [],
        "links": {
          "children": []
        },
        "flags": {
          "boolean": [],
          "dictionary": []
        },
        "scriptCalls": [],
        "learnedAt": {
          "class": [
            [
              "sorcerer/wizard",
              3
            ],
            [
              "witch",
              3
            ],
            [
              "antipaladin",
              3
            ],
            [
              "magus",
              3
            ],
            [
              "bloodrager",
              3
            ],
            [
              "psychic",
              3
            ],
            [
              "medium",
              3
            ],
            [
              "mesmerist",
              3
            ],
            [
              "spiritualist",
              3
            ]
          ],
          "domain": [],
          "subDomain": [
            [
              "Blood",
              3
            ],
            [
              "Daemon",
              3
            ]
          ],
          "elementalSchool": [],
          "bloodline": [
            [
              "Undead",
              3
            ],
            [
              "Daemon",
              3
            ],
            [
              "Ghoul",
              3
            ]
          ]
        },
        "level": 3,
        "school": "nec",
        "conditionals": [],
        "components": {
          "verbal": true,
          "somatic": true
        },
        "spellbook": "spelllike",
        "atWill": true,
        "shortDescription": "<p>You must succeed on a melee touch attack. Your touch deals 1d6 points of damage per two caster levels (maximum 10d6). You gain temporary hit points equal to the damage you deal. You can't gain more than the subject's current hit points + the subject's Constitution score (which is enough to kill the subject). The temporary hit points disappear 1 hour later.</p>",
        "spellDuration": "instantaneous/1 hour; see text"
      },
      "effects": [],
      "folder": null,
      "sort": 0,
      "permission": {
        "default": 0
      },
      "flags": {}
    },
    {
      "_id": "vl2mznu91c3efcam",
      "name": "Locate Creature",
      "type": "spell",
      "img": "systems/pf1/icons/misc/magic-swirl.png",
      "data": {
        "description": {
          "value": "<div class=\"spell-description\">\n  <p>\n    <strong>School</strong>&nbsp;divination;\n    <strong>Level</strong>&nbsp;bard 4, medium 3, mesmerist 4, occultist 4, psychic 4, sorcerer/wizard 4, spiritualist 4, summoner 3, unchained Summoner 4, witch 4;\n    \n    <strong>Subdomain</strong>&nbsp;Exploration 4;\n    \n    \n  </p>\n  <p>\n    <strong>Casting Time</strong>&nbsp;1 standard action<br>\n    <strong>Components</strong>&nbsp;V, S, M (fur from a bloodhound)<br>\n  </p>\n  <p>\n    <strong>Range</strong>&nbsp;long (400 ft. + 40 ft./level)<br>\n    <strong>Area</strong>&nbsp;circle, centered on you, with a radius of 400 ft. + 40 ft./level<br>\n    \n    \n    <strong>Duration</strong>&nbsp;10 min./level<br>\n    <strong>Saving Throw</strong>&nbsp;none;&nbsp;<strong>Spell Resistance</strong>&nbsp;no<br>\n  </p>\n  <h2>Description</h2>\n  <p>This spell functions like <i>locate object,</i> except this spell locates a known creature. You slowly turn and sense when you are facing in the direction of the creature to be located, provided it is within range. You also know in which direction the creature is moving, if any.</p><p>The spell can locate a creature of a specific kind or a specific creature known to you. It cannot find a creature of a certain type. To find a kind of creature, you must have seen such a creature up close (within 30 feet) at least once.</p><p>Running water blocks the spell. It cannot detect objects. It can be fooled by <i>mislead, nondetection</i>, and <i>polymorph</i> spells.</p>\n</div>\n"
        },
        "tags": [],
        "activation": {
          "type": "standard"
        },
        "unchainedAction": {
          "activation": {
            "cost": 2,
            "type": "action"
          }
        },
        "range": {
          "units": "long"
        },
        "uses": {
          "value": 3,
          "per": "day"
        },
        "measureTemplate": {
          "size": "0"
        },
        "actionType": "",
        "damage": {
          "parts": [],
          "critParts": [],
          "nonCritParts": []
        },
        "attackParts": [],
        "ability": {
          "attack": "",
          "damage": ""
        },
        "save": {
          "dc": "0"
        },
        "effectNotes": [],
        "attackNotes": [],
        "links": {
          "children": []
        },
        "flags": {
          "boolean": [],
          "dictionary": []
        },
        "scriptCalls": [],
        "learnedAt": {
          "class": [
            [
              "sorcerer/wizard",
              4
            ],
            [
              "bard",
              4
            ],
            [
              "summoner",
              3
            ],
            [
              "witch",
              4
            ],
            [
              "psychic",
              4
            ],
            [
              "medium",
              3
            ],
            [
              "mesmerist",
              4
            ],
            [
              "occultist",
              4
            ],
            [
              "spiritualist",
              4
            ],
            [
              "unchained Summoner",
              4
            ]
          ],
          "domain": [],
          "subDomain": [
            [
              "Exploration",
              4
            ]
          ],
          "elementalSchool": [],
          "bloodline": []
        },
        "level": 4,
        "school": "div",
        "conditionals": [],
        "components": {
          "verbal": true,
          "somatic": true,
          "material": true
        },
        "materials": {
          "value": "fur from a bloodhound"
        },
        "spellbook": "spelllike",
        "preparation": {
          "preparedAmount": 3,
          "maxAmount": 3
        },
        "atWill": true,
        "sr": false,
        "shortDescription": "<p>This spell functions like <i>locate object,</i> except this spell locates a known creature. You slowly turn and sense when you are facing in the direction of the creature to be located, provided it is within range. You also know in which direction the creature is moving, if any.</p><p>The spell can locate a creature of a specific kind or a specific creature known to you. It cannot find a creature of a certain type. To find a kind of creature, you must have seen such a creature up close (within 30 feet) at least once.</p><p>Running water blocks the spell. It cannot detect objects. It can be fooled by <i>mislead, nondetection</i>, and <i>polymorph</i> spells.</p>",
        "spellDuration": "10 min./level",
        "spellArea": "circle, centered on you, with a radius of 400 ft. + 40 ft./level"
      },
      "effects": [],
      "folder": null,
      "sort": 0,
      "permission": {
        "default": 0
      },
      "flags": {}
    },
    {
      "_id": "q3st18udsalnyz5v",
      "name": "Plane Shift",
      "type": "spell",
      "img": "systems/pf1/icons/misc/magic-swirl.png",
      "data": {
        "description": {
          "value": "<div class=\"spell-description\">\n  <p>\n    <strong>School</strong>&nbsp;conjuration&nbsp;(teleportation);\n    <strong>Level</strong>&nbsp;cleric/oracle 5, medium 4, psychic 5, shaman 7, sorcerer/wizard 7, spiritualist 5, summoner 5, unchained Summoner 6, witch 7;\n    \n    <strong>Subdomain</strong>&nbsp;Freedom 5;\n    \n    <strong>Bloodline</strong>&nbsp;Djinni 7, Efreeti 7, Marid 7, Shaitan 7;\n  </p>\n  <p>\n    <strong>Casting Time</strong>&nbsp;1 standard action<br>\n    <strong>Components</strong>&nbsp;V, S, F (a forked metal rod attuned to the plane of travel)<br>\n  </p>\n  <p>\n    <strong>Range</strong>&nbsp;touch<br>\n    \n    <strong>Targets</strong>&nbsp;creature touched, or up to eight willing creatures joining hands<br>\n    \n    <strong>Duration</strong>&nbsp;instantaneous<br>\n    <strong>Saving Throw</strong>&nbsp;Will negates;&nbsp;<strong>Spell Resistance</strong>&nbsp;yes<br>\n  </p>\n  <h2>Description</h2>\n  <p>You move yourself or some other creature to another plane of existence or alternate dimension. If several willing persons link hands in a circle, as many as eight can be affected by the <i>plane shift</i> at the same time. Precise accuracy as to a particular arrival location on the intended plane is nigh impossible. From the Material Plane, you can reach any other plane, though you appear 5 to 500 miles (5d%) from your intended destination. <i>Plane shift</i> transports creatures instantaneously and then ends. The creatures need to find other means if they are to travel back (including casting <i>plane shift</i> again).</p>\n</div>\n"
        },
        "tags": [],
        "activation": {
          "type": "standard"
        },
        "unchainedAction": {
          "activation": {
            "cost": 2,
            "type": "action"
          }
        },
        "target": {
          "value": "creature touched, or up to eight willing creatures joining hands"
        },
        "range": {
          "units": "touch"
        },
        "uses": {
          "value": 3,
          "per": "day"
        },
        "measureTemplate": {
          "size": "0"
        },
        "actionType": "spellsave",
        "damage": {
          "parts": [],
          "critParts": [],
          "nonCritParts": []
        },
        "attackParts": [],
        "ability": {
          "attack": "",
          "damage": ""
        },
        "save": {
          "dc": "2",
          "type": "will",
          "description": "Will negates"
        },
        "effectNotes": [],
        "attackNotes": [],
        "links": {
          "children": []
        },
        "flags": {
          "boolean": [],
          "dictionary": []
        },
        "scriptCalls": [],
        "learnedAt": {
          "class": [
            [
              "sorcerer/wizard",
              7
            ],
            [
              "cleric/oracle",
              5
            ],
            [
              "summoner",
              5
            ],
            [
              "witch",
              7
            ],
            [
              "shaman",
              7
            ],
            [
              "psychic",
              5
            ],
            [
              "medium",
              4
            ],
            [
              "spiritualist",
              5
            ],
            [
              "unchained Summoner",
              6
            ]
          ],
          "domain": [],
          "subDomain": [
            [
              "Freedom",
              5
            ]
          ],
          "elementalSchool": [],
          "bloodline": [
            [
              "Djinni",
              7
            ],
            [
              "Efreeti",
              7
            ],
            [
              "Marid",
              7
            ],
            [
              "Shaitan",
              7
            ]
          ]
        },
        "level": 5,
        "school": "con",
        "subschool": "teleportation",
        "conditionals": [],
        "components": {
          "verbal": true,
          "somatic": true,
          "focus": true
        },
        "materials": {
          "focus": "a forked metal rod attuned to the plane of travel"
        },
        "spellbook": "spelllike",
        "preparation": {
          "preparedAmount": 3,
          "maxAmount": 3
        },
        "atWill": true,
        "shortDescription": "<p>You move yourself or some other creature to another plane of existence or alternate dimension. If several willing persons link hands in a circle, as many as eight can be affected by the <i>plane shift</i> at the same time. Precise accuracy as to a particular arrival location on the intended plane is nigh impossible. From the Material Plane, you can reach any other plane, though you appear 5 to 500 miles (5d%) from your intended destination. <i>Plane shift</i> transports creatures instantaneously and then ends. The creatures need to find other means if they are to travel back (including casting <i>plane shift</i> again).</p>",
        "spellDuration": "instantaneous"
      },
      "effects": [],
      "folder": null,
      "sort": 0,
      "permission": {
        "default": 0
      },
      "flags": {}
    },
    {
      "_id": "khfprkujokr9uigq",
      "name": "Energy Drain",
      "type": "spell",
      "img": "systems/pf1/icons/misc/magic-swirl.png",
      "data": {
        "description": {
          "value": "<div class=\"spell-description\">\n  <p>\n    <strong>School</strong>&nbsp;necromancy;\n    <strong>Level</strong>&nbsp;cleric/oracle 9, shaman 9, sorcerer/wizard 9;\n    \n    <strong>Subdomain</strong>&nbsp;Loss 9, Undead 9;\n    \n    <strong>Bloodline</strong>&nbsp;Accursed 9, Undead 9;\n  </p>\n  <p>\n    <strong>Casting Time</strong>&nbsp;1 standard action<br>\n    <strong>Components</strong>&nbsp;V, S<br>\n  </p>\n  <p>\n    <strong>Range</strong>&nbsp;close (25 ft. + 5 ft./2 levels)<br>\n    \n    \n    <strong>Effect</strong>&nbsp;ray of negative energy<br>\n    <strong>Duration</strong>&nbsp;instantaneous<br>\n    <strong>Saving Throw</strong>&nbsp;Fortitude partial; see text for enervation;&nbsp;<strong>Spell Resistance</strong>&nbsp;yes<br>\n  </p>\n  <h2>Description</h2>\n  <p>This spell functions like <i>enervation</i>, except that the creature struck gains 2d4 temporary negative levels. Twenty-four hours after gaining them, the subject must make a Fortitude saving throw (DC = <i>energy drain</i> spell's save DC) for each negative level. If the save succeeds, that negative level is removed. If it fails, that negative level becomes permanent.</p><p>An undead creature struck by the ray gains 2d4x5 temporary hit points for 1 hour.</p>\n</div>\n"
        },
        "tags": [],
        "activation": {
          "type": "standard"
        },
        "unchainedAction": {
          "activation": {
            "cost": 2,
            "type": "action"
          }
        },
        "range": {
          "units": "close"
        },
        "uses": {
          "value": 1,
          "per": "day"
        },
        "measureTemplate": {
          "size": "0"
        },
        "actionType": "spellsave",
        "damage": {
          "parts": [],
          "critParts": [],
          "nonCritParts": []
        },
        "attackParts": [],
        "ability": {
          "attack": "",
          "damage": ""
        },
        "save": {
          "dc": "-2",
          "type": "fort",
          "description": "Fortitude partial; see text for enervation"
        },
        "effectNotes": [],
        "attackNotes": [],
        "links": {
          "children": []
        },
        "flags": {
          "boolean": [],
          "dictionary": []
        },
        "scriptCalls": [],
        "learnedAt": {
          "class": [
            [
              "sorcerer/wizard",
              9
            ],
            [
              "cleric/oracle",
              9
            ],
            [
              "shaman",
              9
            ]
          ],
          "domain": [],
          "subDomain": [
            [
              "Loss",
              9
            ],
            [
              "Undead",
              9
            ]
          ],
          "elementalSchool": [],
          "bloodline": [
            [
              "Accursed",
              9
            ],
            [
              "Undead",
              9
            ]
          ]
        },
        "level": 9,
        "school": "nec",
        "conditionals": [],
        "components": {
          "verbal": true,
          "somatic": true
        },
        "spellbook": "spelllike",
        "preparation": {
          "preparedAmount": 1,
          "maxAmount": 1
        },
        "shortDescription": "<p>This spell functions like <i>enervation</i>, except that the creature struck gains 2d4 temporary negative levels. Twenty-four hours after gaining them, the subject must make a Fortitude saving throw (DC = <i>energy drain</i> spell's save DC) for each negative level. If the save succeeds, that negative level is removed. If it fails, that negative level becomes permanent.</p><p>An undead creature struck by the ray gains 2d4x5 temporary hit points for 1 hour.</p>",
        "spellDuration": "instantaneous",
        "spellEffect": "ray of negative energy"
      },
      "effects": [],
      "folder": null,
      "sort": 0,
      "permission": {
        "default": 0
      },
      "flags": {}
    },
    {
      "_id": "7toeli7vcq5a7tv1",
      "name": "Finger of Death",
      "type": "spell",
      "img": "systems/pf1/icons/misc/magic-swirl.png",
      "data": {
        "description": {
          "value": "<div class=\"spell-description\">\n  <p>\n    <strong>School</strong>&nbsp;necromancy&nbsp;[death];\n    <strong>Level</strong>&nbsp;druid 8, psychic 7, sorcerer/wizard 7;\n    \n    \n    \n    <strong>Bloodline</strong>&nbsp;Undead 7;\n  </p>\n  <p>\n    <strong>Casting Time</strong>&nbsp;1 standard action<br>\n    <strong>Components</strong>&nbsp;V, S<br>\n  </p>\n  <p>\n    <strong>Range</strong>&nbsp;close (25 ft. + 5 ft./2 levels)<br>\n    \n    <strong>Targets</strong>&nbsp;one creature<br>\n    \n    <strong>Duration</strong>&nbsp;instantaneous<br>\n    <strong>Saving Throw</strong>&nbsp;Fortitude partial;&nbsp;<strong>Spell Resistance</strong>&nbsp;yes<br>\n  </p>\n  <h2>Description</h2>\n  <p>This spell instantly delivers 10 points of damage per caster level. If the target's Fortitude saving throw succeeds, it instead takes 3d6 points of damage + 1 point per caster level. The subject might die from damage even if it succeeds on its saving throw.</p>\n</div>\n"
        },
        "tags": [],
        "activation": {
          "type": "standard"
        },
        "unchainedAction": {
          "activation": {
            "cost": 2,
            "type": "action"
          }
        },
        "target": {
          "value": "one creature"
        },
        "range": {
          "units": "close"
        },
        "uses": {
          "value": 1,
          "per": "day"
        },
        "measureTemplate": {
          "size": "0"
        },
        "actionType": "spellsave",
        "damage": {
          "parts": [],
          "critParts": [],
          "nonCritParts": []
        },
        "attackParts": [],
        "ability": {
          "attack": "",
          "damage": ""
        },
        "save": {
          "dc": "0",
          "type": "fort",
          "description": "Fortitude partial"
        },
        "effectNotes": [],
        "attackNotes": [],
        "links": {
          "children": []
        },
        "flags": {
          "boolean": [],
          "dictionary": []
        },
        "scriptCalls": [],
        "learnedAt": {
          "class": [
            [
              "sorcerer/wizard",
              7
            ],
            [
              "druid",
              8
            ],
            [
              "psychic",
              7
            ]
          ],
          "domain": [],
          "subDomain": [],
          "elementalSchool": [],
          "bloodline": [
            [
              "Undead",
              7
            ]
          ]
        },
        "level": 7,
        "school": "nec",
        "types": "death",
        "conditionals": [],
        "components": {
          "verbal": true,
          "somatic": true
        },
        "spellbook": "spelllike",
        "preparation": {
          "preparedAmount": 1,
          "maxAmount": 1
        },
        "shortDescription": "<p>This spell instantly delivers 10 points of damage per caster level. If the target's Fortitude saving throw succeeds, it instead takes 3d6 points of damage + 1 point per caster level. The subject might die from damage even if it succeeds on its saving throw.</p>",
        "spellDuration": "instantaneous"
      },
      "effects": [],
      "folder": null,
      "sort": 0,
      "permission": {
        "default": 0
      },
      "flags": {}
    },
    {
      "_id": "m6fi38o7ecfcrfqj",
      "name": "Summon",
      "type": "spell",
      "img": "systems/pf1/icons/skills/yellow_36.jpg",
      "data": {
        "description": {
          "value": "sbc | As summon could not be found in any compendium, a placeholder was generated."
        },
        "tags": [],
        "uses": {
          "value": 1,
          "per": "day"
        },
        "damage": {
          "parts": [],
          "critParts": [],
          "nonCritParts": []
        },
        "attackParts": [],
        "effectNotes": [],
        "attackNotes": [],
        "links": {
          "children": []
        },
        "flags": {
          "boolean": [],
          "dictionary": []
        },
        "scriptCalls": [],
        "learnedAt": {
          "class": [],
          "domain": [],
          "subDomain": [],
          "elementalSchool": [],
          "bloodline": []
        },
        "conditionals": [],
        "spellbook": "spelllike",
        "preparation": {
          "preparedAmount": 1,
          "maxAmount": 1
        }
      },
      "effects": [],
      "folder": null,
      "sort": 0,
      "permission": {
        "default": 0
      },
      "flags": {}
    },
    {
      "_id": "4y3xbps3mvwma1xk",
      "name": "Ecology",
      "type": "feat",
      "img": "icons/environment/wilderness/tree-oak.webp",
      "data": {
        "description": {
          "value": "<div><strong>Environment</strong>:  any (Abaddon or Astral Plane)</div><div><strong>Organization</strong>:  solitary, pair, or pack (3-6)</div><div><strong>Treasure</strong>:  standard</div>"
        },
        "tags": [],
        "damage": {
          "parts": [],
          "critParts": [],
          "nonCritParts": []
        },
        "attackParts": [],
        "effectNotes": [],
        "attackNotes": [],
        "changes": [],
        "contextNotes": [],
        "links": {
          "children": [],
          "charges": []
        },
        "armorProf": {
          "value": []
        },
        "weaponProf": {
          "value": []
        },
        "flags": {
          "boolean": [],
          "dictionary": []
        },
        "scriptCalls": [],
        "featType": "misc",
        "associations": {
          "classes": []
        }
      },
      "effects": [],
      "folder": null,
      "sort": 0,
      "permission": {
        "default": 0
      },
      "flags": {}
    },
    {
      "_id": "0ptshvyigg9ncsor",
      "name": "Devour Soul",
      "type": "feat",
      "img": "systems/pf1/icons/skills/yellow_36.jpg",
      "data": {
        "description": {
          "value": "As a standard action, an astradaemon that begins its turn with a grappled opponent can attempt to draw out and consume the soul of its victim, killing it instantly. This ability only works on living creatures, which may resist with a DC 25 Fortitude saving throw. The save is Constitution-based. For every 5 HD of the slain creature, the daemon gains a +1 profane bonus on attacks, saving throws, and checks for 24 hours. This ability does not consume all of the soul, and pieces of it still exist after the daemon completes its feast (enough to be able to resurrect the slain victim normally)."
        },
        "tags": [],
        "damage": {
          "parts": [],
          "critParts": [],
          "nonCritParts": []
        },
        "attackParts": [],
        "effectNotes": [],
        "attackNotes": [],
        "changes": [],
        "contextNotes": [],
        "links": {
          "children": [],
          "charges": []
        },
        "armorProf": {
          "value": []
        },
        "weaponProf": {
          "value": []
        },
        "flags": {
          "boolean": [],
          "dictionary": []
        },
        "scriptCalls": [],
        "featType": "classFeat",
        "associations": {
          "classes": []
        },
        "abilityType": "su"
      },
      "effects": [],
      "folder": null,
      "sort": 0,
      "permission": {
        "default": 0
      },
      "flags": {}
    },
    {
      "_id": "gx11v5dayeoblzoh",
      "name": "Soul Siphon",
      "type": "feat",
      "img": "systems/pf1/icons/skills/yellow_36.jpg",
      "data": {
        "description": {
          "value": "If a Small or larger living creature dies within 10 feet of an astradaemon, the daemon gains 1d8 temporary hit points and a +2 bonus to Strength for 10 minutes. These bonuses stack with themselves. Incorporeal undead and living spirits traveling outside the body (such as a person using astral projection or magic jar) take 1d8 points of damage each round within the daemon’s aura."
        },
        "tags": [],
        "damage": {
          "parts": [],
          "critParts": [],
          "nonCritParts": []
        },
        "attackParts": [],
        "effectNotes": [],
        "attackNotes": [],
        "changes": [],
        "contextNotes": [],
        "links": {
          "children": [],
          "charges": []
        },
        "armorProf": {
          "value": []
        },
        "weaponProf": {
          "value": []
        },
        "flags": {
          "boolean": [],
          "dictionary": []
        },
        "scriptCalls": [],
        "featType": "classFeat",
        "associations": {
          "classes": []
        },
        "abilityType": "su"
      },
      "effects": [],
      "folder": null,
      "sort": 0,
      "permission": {
        "default": 0
      },
      "flags": {}
    },
    {
      "_id": "DbdtrTVruSVCW3b5",
      "name": "sbc | Conversion Buff",
      "type": "buff",
      "img": "systems/pf1/icons/skills/yellow_36.jpg",
      "data": {
        "description": {
          "value": "<h2>sbc | Conversion Buff</h2>\n                        This Buff was created by <strong>sbc</strong> to compensate for differences between the input and the values FoundryVTT calculates automatically.\n                        <br><br>\n                        Especially when the pathfinder system gets upgraded, entries in compendiums get updated or foundry changes in some way, this buff may become outdated.\n                        <br><br>\n                        For most mooks the conversion should more or less work, but for important NPCs or creatures it is adviced to double check the conversion manually."
        },
        "tags": [],
        "changes": [
          {
            "formula": "1",
            "modifier": "dodge",
            "operator": "add",
            "priority": 0,
            "subTarget": "ac",
            "target": "ac",
            "value": 1,
            "id": "1kcwkf33"
          },
          {
            "formula": "-10",
            "modifier": "untypedPerm",
            "operator": "add",
            "priority": 0,
            "subTarget": "mhp",
            "target": "misc",
            "value": -10,
            "id": "fkx9oryz"
          },
          {
            "formula": "-1",
            "modifier": "untypedPerm",
            "operator": "add",
            "priority": 0,
            "subTarget": "aac",
            "target": "ac",
            "value": -1,
            "id": "87k57272"
          },
          {
            "formula": "-4",
            "modifier": "untypedPerm",
            "operator": "add",
            "priority": 0,
            "subTarget": "skill.fly",
            "target": "skill",
            "value": -4,
            "id": "xc3hk6oz"
          }
        ],
        "contextNotes": [],
        "links": {
          "children": []
        },
        "tag": "sbcConversionBuff",
        "useCustomTag": true,
        "flags": {
          "boolean": [],
          "dictionary": []
        },
        "scriptCalls": [],
        "buffType": "perm",
        "active": true,
        "hideFromToken": true
      },
      "effects": [],
      "folder": null,
      "sort": 0,
      "permission": {
        "default": 0,
        "iM1ACTqH0Ml6HJtd": 3
      },
      "flags": {}
    }
  ],
  "effects": [],
  "folder": null,
  "sort": 0,
  "permission": {
    "default": 0
  },
  "flags": {}
}