{
  "_id": "PSW7KjKDliXrDnfk",
  "name": "Neothelid",
  "type": "npc",
  "img": "systems/pf1/icons/races/creature-types/abberation.png",
  "data": {
    "abilities": {
      "str": {
        "value": 30
      },
      "dex": {
        "value": 7
      },
      "con": {
        "value": 24
      },
      "int": {
        "value": 16
      },
      "wis": {
        "value": 15
      },
      "cha": {
        "value": 21
      }
    },
    "attributes": {
      "naturalAC": "+26",
      "sr": {
        "formula": "26"
      },
      "cmdNotes": "can’t be tripped",
      "hp": {
        "value": 238
      },
      "speed": {
        "fly": {
          "base": 60,
          "maneuverability": "good"
        }
      },
      "spells": {
        "usedSpellbooks": [
          "spelllike"
        ],
        "spellbooks": {
          "spelllike": {
            "altName": "Spell-like Abilities",
            "concentrationNotes": "sbc | Total in statblock was +0, adjust as needed.",
            "clNotes": "sbc | Total in statblock was CL 20, adjust as needed.",
            "autoSpellLevelCalculation": false,
            "autoSpellLevels": false,
            "arcaneSpellFailure": false,
            "domainSlotValue": 0
          }
        }
      }
    },
    "details": {
      "alignment": "ce",
      "cr": {
        "base": 15
      }
    },
    "skills": {
      "blf": {
        "rank": 20
      },
      "clm": {
        "rank": 20
      },
      "dip": {
        "rank": 20
      },
      "fly": {
        "rank": 1
      },
      "int": {
        "rank": 20
      },
      "kar": {
        "rank": 23
      },
      "per": {
        "rank": 20
      },
      "spl": {
        "rank": 20
      }
    },
    "traits": {
      "size": "grg",
      "senses": "blindsight 100 ft., trace teleport 60 ft.; Perception +25",
      "dr": "10/cold iron",
      "languages": {
        "value": [
          "aklo",
          "terran",
          "undercommon"
        ],
        "custom": "telepathy 100 ft."
      },
      "di": {
        "value": []
      },
      "dv": {
        "value": []
      },
      "ci": {
        "value": []
      },
      "stature": ""
    }
  },
  "token": {
    "name": "Neothelid",
    "displayName": 20,
    "actorLink": false,
    "width": 4,
    "height": 4,
    "scale": 1,
    "mirrorX": false,
    "mirrorY": false,
    "lockRotation": false,
    "rotation": 0,
    "alpha": 1,
    "vision": false,
    "dimSight": 0,
    "brightSight": 0,
    "dimLight": 0,
    "brightLight": 0,
    "sightAngle": 0,
    "lightAngle": 0,
    "lightAlpha": 0.25,
    "lightAnimation": {
      "speed": 5,
      "intensity": 5
    },
    "disposition": -1,
    "displayBars": 20,
    "bar1": {
      "attribute": null
    },
    "bar2": {
      "attribute": null
    },
    "flags": {
      "pf1": {
        "lowLightVision": false
      }
    },
    "randomImg": false,
    "img": "systems/pf1/icons/races/creature-types/abberation.png"
  },
  "items": [
    {
      "_id": "WiROthmRgcwDncDM",
      "name": "Aberration (Orc)",
      "type": "class",
      "img": "systems/pf1/icons/skills/yellow_25.jpg",
      "data": {
        "description": {
          "value": "<p>An aberration has a bizarre anatomy, strange abilities, an alien mindset, or any combination of the three.</p>\n<h2><span id=\"Features\">Features</span></h2>\n<p>An aberration has the following features.</p>\n<ul>\n<li>d8 Hit Die.</li>\n<li>Base attack bonus equal to 3/4 total Hit Dice (medium progression).</li>\n<li>Good&nbsp;<a href=\"https://www.d20pfsrd.com/gamemastering/combat#TOC-Will\" rel=\"nofollow\">Will</a>&nbsp;Saves.</li>\n<li>Skill points equal to 4 + Int modifier (minimum 1) per Hit Die. The following are class skills for aberrations: <a href=\"https://www.d20pfsrd.com/skills/acrobatics\" rel=\"nofollow\">Acrobatics</a>, <a href=\"https://www.d20pfsrd.com/skills/climb\" rel=\"nofollow\">Climb</a>, <a href=\"https://www.d20pfsrd.com/skills/escape-artist\" rel=\"nofollow\">Escape Artist</a>, <a href=\"https://www.d20pfsrd.com/skills/fly\" rel=\"nofollow\">Fly</a>, <a href=\"https://www.d20pfsrd.com/skills/intimidate\" rel=\"nofollow\">Intimidate</a>, <a href=\"https://www.d20pfsrd.com/skills/knowledge\" rel=\"nofollow\">Knowledge</a>&nbsp;(pick one), <a href=\"https://www.d20pfsrd.com/skills/perception\" rel=\"nofollow\">Perception</a>, <a href=\"https://www.d20pfsrd.com/skills/spellcraft\" rel=\"nofollow\">Spellcraft</a>, <a href=\"https://www.d20pfsrd.com/skills/stealth\" rel=\"nofollow\">Stealth</a>, <a href=\"https://www.d20pfsrd.com/skills/survival\" rel=\"nofollow\">Survival</a>, and <a href=\"https://www.d20pfsrd.com/skills/swim\" rel=\"nofollow\">Swim</a>.</li>\n</ul>\n<h2><span id=\"Traits\">Traits</span></h2>\n<p>An aberration possesses the following traits (unless otherwise noted in a creature’s entry).</p>\n<ul>\n<li>Darkvision 60 feet.</li>\n<li>Proficient with its natural weapons. If generally humanoid in form, proficient with all simple weapons and any weapon it is described as using.</li>\n<li>Proficient with whatever type of armor (light, medium, or heavy) it is described as wearing, as well as all lighter types. Aberrations not indicated as wearing armor are not proficient with armor. Aberrations are proficient with shields if they are proficient with any form of armor.</li>\n<li>Aberrations breathe, eat, and sleep.</li>\n</ul>"
        },
        "tags": [],
        "changes": [],
        "links": "",
        "tag": "aberration",
        "useCustomTag": true,
        "armorProf": {
          "value": []
        },
        "weaponProf": {
          "value": []
        },
        "flags": {
          "boolean": [],
          "dictionary": []
        },
        "scriptCalls": [],
        "classType": "racial",
        "level": 20,
        "hp": 98,
        "bab": "med",
        "skillsPerLevel": 4,
        "savingThrows": {
          "will": {
            "value": "high"
          }
        },
        "classSkills": {
          "acr": true,
          "apr": false,
          "art": false,
          "blf": false,
          "clm": true,
          "crf": false,
          "dip": false,
          "dev": false,
          "dis": false,
          "esc": true,
          "fly": true,
          "han": false,
          "hea": false,
          "int": true,
          "kar": false,
          "kdu": false,
          "ken": false,
          "kge": false,
          "khi": false,
          "klo": false,
          "kna": false,
          "kno": false,
          "kpl": false,
          "kre": false,
          "lin": false,
          "lor": false,
          "per": true,
          "prf": false,
          "pro": false,
          "rid": false,
          "sen": false,
          "slt": false,
          "spl": true,
          "ste": true,
          "sur": true,
          "swm": true,
          "umd": false
        }
      },
      "effects": [],
      "folder": null,
      "sort": 0,
      "permission": {
        "default": 0
      },
      "flags": {}
    },
    {
      "_id": "myl68h4jl0k3xbd8",
      "name": "Race: Aberration",
      "type": "race",
      "img": "systems/pf1/icons/skills/yellow_25.jpg",
      "data": {
        "description": {
          "value": "sbc | As no playable race was found a placeholder was generated."
        },
        "tags": [],
        "changes": [],
        "contextNotes": [],
        "links": {
          "children": []
        },
        "armorProf": {
          "value": []
        },
        "weaponProf": {
          "value": []
        },
        "flags": {
          "boolean": [],
          "dictionary": []
        },
        "scriptCalls": [],
        "creatureType": "aberration",
        "subTypes": [
          [
            ""
          ]
        ]
      },
      "effects": [],
      "folder": null,
      "sort": 0,
      "permission": {
        "default": 0
      },
      "flags": {}
    },
    {
      "_id": "i85q65o2nabqpom5",
      "name": "Sense: Blindsight",
      "type": "feat",
      "img": "systems/pf1/icons/skills/light_01.jpg",
      "data": {
        "description": {
          "value": "Using nonvisual senses such as acute smell or hearing, members of this race notice things they cannot see.\n                Members of this race usually do not need to make Perception checks to pinpoint the location of a creature within 30 feet, provided they have line of effect to that creature.<br><br>\n                A creature that members of this race cannot see still has total concealment against individuals with blindsense, and members of this race still have the normal miss chance when attacking creatures that have concealment.<br><br>\n                Visibility still affects the movement of members of this race. Members of this race are still denied their Dexterity bonus to AC against attacks from creatures they cannot see."
        },
        "tags": [],
        "damage": {
          "parts": [],
          "critParts": [],
          "nonCritParts": []
        },
        "attackParts": [],
        "effectNotes": [],
        "attackNotes": [],
        "changes": [],
        "contextNotes": [],
        "links": {
          "children": [],
          "charges": []
        },
        "tag": "senseBlindsight",
        "armorProf": {
          "value": []
        },
        "weaponProf": {
          "value": []
        },
        "flags": {
          "boolean": [],
          "dictionary": []
        },
        "scriptCalls": [],
        "featType": "racial",
        "associations": {
          "classes": []
        },
        "abilityType": "ex"
      },
      "effects": [],
      "folder": null,
      "sort": 0,
      "permission": {
        "default": 0
      },
      "flags": {}
    },
    {
      "_id": "Zeq6RWYv5otvg8q7",
      "name": "Cleave",
      "type": "feat",
      "img": "systems/pf1/icons/feats/cleave.jpg",
      "data": {
        "description": {
          "value": "\n                <i>You can strike two adjacent foes with a single swing.</i>\n                <br />\n                <br />\n                \n                <p><b>Prerequisites</b></p>\n                <p> Str 13, Power Attack, base attack bonus +1.</p>\n                \n            <br />\n                <p><b>Benefits</b></p>\n                <p><p class=\"stat-block-1\"> As a standard action, you can make a single attack at your full base attack bonus against a foe within reach. If you hit, you deal damage normally and can make an additional attack (using your full base attack bonus) against a foe that is adjacent to the first and also within reach. You can only make one additional attack per round with this feat. When you use this feat, you take a &ndash;2 penalty to your Armor Class until your next turn.</p></p>\n                \n            \n            "
        },
        "tags": [
          [
            "Combat"
          ],
          [
            "Offensive"
          ]
        ],
        "measureTemplate": {
          "size": "0"
        },
        "actionType": "",
        "damage": {
          "parts": [],
          "critParts": [],
          "nonCritParts": []
        },
        "attackParts": [],
        "effectNotes": [],
        "attackNotes": [],
        "changes": [],
        "contextNotes": [],
        "links": {
          "children": [],
          "charges": []
        },
        "tag": "cleave",
        "armorProf": {
          "value": []
        },
        "weaponProf": {
          "value": []
        },
        "flags": {
          "boolean": [],
          "dictionary": []
        },
        "scriptCalls": [],
        "associations": {
          "classes": []
        }
      },
      "effects": [],
      "folder": null,
      "sort": 0,
      "permission": {
        "default": 0
      },
      "flags": {}
    },
    {
      "_id": "6HSMdwX1VS6nZ6Zf",
      "name": "Great Cleave",
      "type": "feat",
      "img": "systems/pf1/icons/feats/great-cleave.jpg",
      "data": {
        "description": {
          "value": "\n                <i>You can strike many adjacent foes with a single blow.</i>\n                <br />\n                <br />\n                \n                <p><b>Prerequisites</b></p>\n                <p> Str 13, Cleave, Power Attack, base attack bonus +4.</p>\n                \n            <br />\n                <p><b>Benefits</b></p>\n                <p><p class=\"stat-block-1\"> As a standard action, you can make a single attack at your full base attack bonus against a foe within reach. If you hit, you deal damage normally and can make an additional attack (using your full base attack bonus) against a foe that is adjacent to the previous foe and also within reach. If you hit, you can continue to make attacks against foes adjacent to the previous foe, so long as they are within your reach. You cannot attack an individual foe more than once during this attack action. When you use this feat, you take a &ndash;2 penalty to your Armor Class until your next turn.</p></p>\n                \n            \n            "
        },
        "tags": [
          [
            "Combat"
          ],
          [
            "Offensive"
          ]
        ],
        "measureTemplate": {
          "size": "0"
        },
        "actionType": "",
        "damage": {
          "parts": [],
          "critParts": [],
          "nonCritParts": []
        },
        "attackParts": [],
        "effectNotes": [],
        "attackNotes": [],
        "changes": [],
        "contextNotes": [],
        "links": {
          "children": [],
          "charges": []
        },
        "tag": "greatCleave",
        "armorProf": {
          "value": []
        },
        "weaponProf": {
          "value": []
        },
        "flags": {
          "boolean": [],
          "dictionary": []
        },
        "scriptCalls": [],
        "associations": {
          "classes": []
        }
      },
      "effects": [],
      "folder": null,
      "sort": 0,
      "permission": {
        "default": 0
      },
      "flags": {}
    },
    {
      "_id": "fVRnBIHR4Jq6btvm",
      "name": "Great Fortitude",
      "type": "feat",
      "img": "systems/pf1/icons/feats/great-fortitude.jpg",
      "data": {
        "description": {
          "value": "\n                <i>You are resistant to poisons, diseases, and other maladies.</i>\n                <br />\n                <br />\n                \n                <p><b>Benefits</b></p>\n                <p><p class=\"stat-block-1\"> You get a +2 bonus on all Fortitude saving throws.</p></p>\n                \n            \n            "
        },
        "tags": [
          [
            "General"
          ],
          [
            "Saving Throw"
          ],
          [
            "Defensive"
          ]
        ],
        "measureTemplate": {
          "size": "0"
        },
        "actionType": "",
        "damage": {
          "parts": [],
          "critParts": [],
          "nonCritParts": []
        },
        "attackParts": [],
        "effectNotes": [],
        "attackNotes": [],
        "changes": [
          {
            "_id": "0rubibb4",
            "formula": "2",
            "operator": "add",
            "subTarget": "fort",
            "modifier": "untyped",
            "priority": 0,
            "value": 0,
            "target": "savingThrows"
          }
        ],
        "contextNotes": [],
        "links": {
          "children": [],
          "charges": []
        },
        "tag": "greatFortitude",
        "armorProf": {
          "value": []
        },
        "weaponProf": {
          "value": []
        },
        "flags": {
          "boolean": [],
          "dictionary": []
        },
        "scriptCalls": [],
        "associations": {
          "classes": []
        }
      },
      "effects": [],
      "folder": null,
      "sort": 0,
      "permission": {
        "default": 0
      },
      "flags": {}
    },
    {
      "_id": "dn2KgHFQRbuoNRx0",
      "name": "Improved Bull Rush",
      "type": "feat",
      "img": "systems/pf1/icons/feats/improved-bull-rush.jpg",
      "data": {
        "description": {
          "value": "\n                <i>You are skilled at pushing your foes around.</i>\n                <br />\n                <br />\n                \n                <p><b>Prerequisites</b></p>\n                <p> Str 13, Power Attack, base attack bonus +1.</p>\n                \n            <br />\n                <p><b>Benefits</b></p>\n                <p><p class=\"stat-block-1\"> You do not provoke an attack of opportunity when performing a bull rush combat maneuver. In addition, you receive a +2 bonus on checks made to bull rush a foe. You also receive a +2 bonus to your Combat Maneuver Defense whenever an opponent tries to bull rush you.</p></p>\n                \n            <br />\n                <p><b>Normal</b></p>\n                <p><p class=\"stat-block-1\"> You provoke an attack of opportunity when performing a bull rush combat maneuver.</p></p>\n                \n            \n            "
        },
        "tags": [
          [
            "Combat"
          ],
          [
            "Combat Maneuver"
          ],
          [
            "Offensive"
          ]
        ],
        "measureTemplate": {
          "size": "0"
        },
        "actionType": "",
        "damage": {
          "parts": [],
          "critParts": [],
          "nonCritParts": []
        },
        "attackParts": [],
        "effectNotes": [],
        "attackNotes": [],
        "changes": [],
        "contextNotes": [],
        "links": {
          "children": [],
          "charges": []
        },
        "tag": "improvedBullRush",
        "armorProf": {
          "value": []
        },
        "weaponProf": {
          "value": []
        },
        "flags": {
          "boolean": [],
          "dictionary": []
        },
        "scriptCalls": [],
        "associations": {
          "classes": []
        }
      },
      "effects": [],
      "folder": null,
      "sort": 0,
      "permission": {
        "default": 0
      },
      "flags": {}
    },
    {
      "_id": "TbOPtIL8Fv8obXtP",
      "name": "Improved Critical",
      "type": "feat",
      "img": "systems/pf1/icons/feats/improved-critical.jpg",
      "data": {
        "description": {
          "value": "\n                <i>Attacks made with your chosen weapon are quite deadly.</i>\n                <br />\n                <br />\n                \n                <p><b>Prerequisites</b></p>\n                <p> Proficient with weapon, base attack bonus +8.</p>\n                \n            <br />\n                <p><b>Benefits</b></p>\n                <p><p class=\"stat-block-1\"> When using the weapon you selected, your threat range is doubled.</p></p>\n                \n            <br />\n                <p><b>Special</b></p>\n                <p><p class=\"stat-block-1\"> You can gain Improved Critical multiple times. The effects do not stack. Each time you take the feat, it applies to a new type of weapon.</p><p class=\"stat-block-2\">This effect doesn't stack with any other effect that expands the threat range of a weapon.</p></p>\n                \n            \n            "
        },
        "tags": [
          [
            "Combat"
          ],
          [
            "Critical"
          ],
          [
            "Offensive"
          ]
        ],
        "measureTemplate": {
          "size": "0"
        },
        "actionType": "",
        "damage": {
          "parts": [],
          "critParts": [],
          "nonCritParts": []
        },
        "attackParts": [],
        "effectNotes": [],
        "attackNotes": [],
        "changes": [],
        "contextNotes": [],
        "links": {
          "children": [],
          "charges": []
        },
        "tag": "improvedCritical",
        "armorProf": {
          "value": []
        },
        "weaponProf": {
          "value": []
        },
        "flags": {
          "boolean": [],
          "dictionary": []
        },
        "scriptCalls": [],
        "associations": {
          "classes": []
        }
      },
      "effects": [],
      "folder": null,
      "sort": 0,
      "permission": {
        "default": 0
      },
      "flags": {}
    },
    {
      "_id": "Uuiu3p982omhMEPj",
      "name": "Improved Initiative",
      "type": "feat",
      "img": "systems/pf1/icons/feats/improved-initiative.jpg",
      "data": {
        "description": {
          "value": "\n                <i>Your quick reflexes allow you to react rapidly to danger.</i>\n                <br />\n                <br />\n                \n                <p><b>Benefits</b></p>\n                <p><p class=\"stat-block-1\"> You get a +4 bonus on initiative checks.</p></p>\n                \n            \n            "
        },
        "tags": [
          [
            "Combat"
          ]
        ],
        "measureTemplate": {
          "size": "0"
        },
        "actionType": "",
        "damage": {
          "parts": [],
          "critParts": [],
          "nonCritParts": []
        },
        "attackParts": [],
        "effectNotes": [],
        "attackNotes": [],
        "changes": [
          {
            "_id": "ign7okhi",
            "formula": "4",
            "operator": "add",
            "subTarget": "init",
            "modifier": "untyped",
            "priority": 0,
            "value": 0,
            "target": "misc"
          }
        ],
        "contextNotes": [],
        "links": {
          "children": [],
          "charges": []
        },
        "tag": "improvedInitiative",
        "armorProf": {
          "value": []
        },
        "weaponProf": {
          "value": []
        },
        "flags": {
          "boolean": [],
          "dictionary": []
        },
        "scriptCalls": [],
        "associations": {
          "classes": []
        }
      },
      "effects": [],
      "folder": null,
      "sort": 0,
      "permission": {
        "default": 0
      },
      "flags": {}
    },
    {
      "_id": "go4xOiSUP8R1QJ5N",
      "name": "Improved Overrun",
      "type": "feat",
      "img": "systems/pf1/icons/feats/improved-overrrun.jpg",
      "data": {
        "description": {
          "value": "\n                <i>You are skilled at running down your foes.</i>\n                <br />\n                <br />\n                \n                <p><b>Prerequisites</b></p>\n                <p> Str 13, Power Attack, base attack bonus +1.</p>\n                \n            <br />\n                <p><b>Benefits</b></p>\n                <p><p class=\"stat-block-1\"> You do not provoke an attack of opportunity when performing an overrun combat maneuver. In addition, you receive a +2 bonus on checks made to overrrun a foe. You also receive a +2 bonus to your Combat Maneuver Defense whenever an opponent tries to overrun you. Targets of your overrun attempt may not chose to avoid you.</p></p>\n                \n            <br />\n                <p><b>Normal</b></p>\n                <p><p class=\"stat-block-1\"> You provoke an attack of opportunity when performing an overrun combat maneuver.</p></p>\n                \n            \n            "
        },
        "tags": [
          [
            "Combat"
          ],
          [
            "Combat Maneuver"
          ],
          [
            "Offensive"
          ]
        ],
        "measureTemplate": {
          "size": "0"
        },
        "actionType": "",
        "damage": {
          "parts": [],
          "critParts": [],
          "nonCritParts": []
        },
        "attackParts": [],
        "effectNotes": [],
        "attackNotes": [],
        "changes": [],
        "contextNotes": [],
        "links": {
          "children": [],
          "charges": []
        },
        "tag": "improvedOverrun",
        "armorProf": {
          "value": []
        },
        "weaponProf": {
          "value": []
        },
        "flags": {
          "boolean": [],
          "dictionary": []
        },
        "scriptCalls": [],
        "associations": {
          "classes": []
        }
      },
      "effects": [],
      "folder": null,
      "sort": 0,
      "permission": {
        "default": 0
      },
      "flags": {}
    },
    {
      "_id": "iAbIGhm7T2OK9Brt",
      "name": "Iron Will",
      "type": "feat",
      "img": "systems/pf1/icons/feats/iron-will.jpg",
      "data": {
        "description": {
          "value": "\n                <i>You are more resistant to mental effects.</i>\n                <br />\n                <br />\n                \n                <p><b>Benefits</b></p>\n                <p><p class=\"stat-block-1\"> You get a +2 bonus on all Will saving throws.</p></p>\n                \n            \n            "
        },
        "tags": [
          [
            "General"
          ],
          [
            "Saving Throw"
          ]
        ],
        "measureTemplate": {
          "size": "0"
        },
        "actionType": "",
        "damage": {
          "parts": [],
          "critParts": [],
          "nonCritParts": []
        },
        "attackParts": [],
        "effectNotes": [],
        "attackNotes": [],
        "changes": [
          {
            "_id": "vafl2kz4",
            "formula": "2",
            "operator": "add",
            "subTarget": "will",
            "modifier": "untyped",
            "priority": 0,
            "value": 0,
            "target": "savingThrows"
          }
        ],
        "contextNotes": [],
        "links": {
          "children": [],
          "charges": []
        },
        "tag": "ironWill",
        "armorProf": {
          "value": []
        },
        "weaponProf": {
          "value": []
        },
        "flags": {
          "boolean": [],
          "dictionary": []
        },
        "scriptCalls": [],
        "associations": {
          "classes": []
        }
      },
      "effects": [],
      "folder": null,
      "sort": 0,
      "permission": {
        "default": 0
      },
      "flags": {}
    },
    {
      "_id": "FUW5mIXHNBBIQ1Sq",
      "name": "Power Attack",
      "type": "feat",
      "img": "systems/pf1/icons/feats/power-attack.jpg",
      "data": {
        "description": {
          "value": "\n                <i>You can make exceptionally deadly melee attacks by sacrificing accuracy for strength.</i>\n                <br />\n                <br />\n                \n                <p><b>Prerequisites</b></p>\n                <p> Str 13, base attack bonus +1.</p>\n                \n            <br />\n                <p><b>Benefits</b></p>\n                <p><p class=\"stat-block-1\"> You can choose to take a &ndash;1 penalty on all melee attack rolls and combat maneuver checks to gain a +2 bonus on all melee damage rolls. This bonus to damage is increased by half (+50%) if you are making an attack with a two-handed weapon, a one handed weapon using two hands, or a primary natural weapon that adds 1-1/2 times your Strength modifier on damage rolls. This bonus to damage is halved (&ndash;50%) if you are making an attack with an off-hand weapon or secondary natural weapon. When your base attack bonus reaches +4, and every 4 points thereafter, the penalty increases by &ndash;1 and the bonus to damage increases by +2. You must choose to use this feat before making an attack roll, and its effects last until your next turn. The bonus damage does not apply to touch attacks or effects that do not deal hit point damage.</p></p>\n                \n            \n            "
        },
        "tags": [
          [
            "Combat"
          ],
          [
            "Offensive"
          ]
        ],
        "measureTemplate": {
          "size": "0"
        },
        "actionType": "",
        "damage": {
          "parts": [],
          "critParts": [],
          "nonCritParts": []
        },
        "attackParts": [],
        "effectNotes": [],
        "attackNotes": [],
        "changes": [],
        "contextNotes": [],
        "links": {
          "children": [],
          "charges": []
        },
        "tag": "powerAttack",
        "armorProf": {
          "value": []
        },
        "weaponProf": {
          "value": []
        },
        "flags": {
          "boolean": [],
          "dictionary": []
        },
        "scriptCalls": [],
        "associations": {
          "classes": []
        }
      },
      "effects": [],
      "folder": null,
      "sort": 0,
      "permission": {
        "default": 0
      },
      "flags": {}
    },
    {
      "_id": "2bfhh59m01tc9fwt",
      "name": "Quicken Spell-like Ability",
      "type": "feat",
      "img": "systems/pf1/icons/skills/yellow_36.jpg",
      "data": {
        "description": {
          "value": "sbc | As Quicken Spell-Like Ability could not be found in any compendium, a placeholder was generated."
        },
        "tags": [],
        "damage": {
          "parts": [],
          "critParts": [],
          "nonCritParts": []
        },
        "attackParts": [],
        "effectNotes": [],
        "attackNotes": [],
        "changes": [],
        "contextNotes": [],
        "links": {
          "children": [],
          "charges": []
        },
        "armorProf": {
          "value": []
        },
        "weaponProf": {
          "value": []
        },
        "flags": {
          "boolean": [],
          "dictionary": []
        },
        "scriptCalls": [],
        "associations": {
          "classes": []
        }
      },
      "effects": [],
      "folder": null,
      "sort": 0,
      "permission": {
        "default": 0
      },
      "flags": {}
    },
    {
      "_id": "hrv6r71wk35choo0",
      "name": "Tongues",
      "type": "attack",
      "img": null,
      "data": {
        "tags": [],
        "activation": {
          "type": "attack"
        },
        "unchainedAction": {
          "activation": {
            "type": "attack"
          }
        },
        "duration": {
          "units": "inst"
        },
        "range": {
          "value": "",
          "units": "melee"
        },
        "attackName": "Tongues",
        "actionType": "mwak",
        "attackBonus": "0",
        "damage": {
          "parts": [
            [
              "3d6+0",
              ""
            ]
          ],
          "critParts": [],
          "nonCritParts": []
        },
        "attackParts": [
          [
            "0",
            "Tongues: 1"
          ],
          [
            "0",
            "Tongues: 2"
          ],
          [
            "0",
            "Tongues: 3"
          ]
        ],
        "ability": {
          "attack": "str",
          "damage": "str",
          "critRange": "19"
        },
        "effectNotes": [
          "grab"
        ],
        "attackNotes": [
          "4 tongues +21 (3d6+10/19-20 plus grab)"
        ],
        "links": {
          "children": [],
          "charges": [],
          "ammunition": []
        },
        "flags": {
          "boolean": [],
          "dictionary": []
        },
        "scriptCalls": [],
        "primaryAttack": false,
        "conditionals": []
      },
      "effects": [],
      "folder": null,
      "sort": 0,
      "permission": {
        "default": 0
      },
      "flags": {}
    },
    {
      "_id": "3d86n1db9n7a14gv",
      "name": "Special Attack: Mind Thrust",
      "type": "attack",
      "img": "systems/pf1/icons/skills/yellow_36.jpg",
      "data": {
        "description": {
          "value": "sbc | Placeholder for Special Attacks, which in most statblocks are listed under 'Special Attacks' in the statistics block, but are described in the 'Special Abilities' block. Remove duplicates as needed!"
        },
        "tags": [],
        "damage": {
          "parts": [],
          "critParts": [],
          "nonCritParts": []
        },
        "attackParts": [],
        "effectNotes": [],
        "attackNotes": [],
        "links": {
          "children": [],
          "charges": [],
          "ammunition": []
        },
        "flags": {
          "boolean": [],
          "dictionary": []
        },
        "scriptCalls": [],
        "attackType": "misc",
        "conditionals": []
      },
      "effects": [],
      "folder": null,
      "sort": 0,
      "permission": {
        "default": 0
      },
      "flags": {}
    },
    {
      "_id": "prcbawtq1pgvmpap",
      "name": "Special Attack:  Psychic Crush",
      "type": "attack",
      "img": "systems/pf1/icons/skills/yellow_36.jpg",
      "data": {
        "description": {
          "value": "sbc | Placeholder for Special Attacks, which in most statblocks are listed under 'Special Attacks' in the statistics block, but are described in the 'Special Abilities' block. Remove duplicates as needed!"
        },
        "tags": [],
        "damage": {
          "parts": [],
          "critParts": [],
          "nonCritParts": []
        },
        "attackParts": [],
        "effectNotes": [],
        "attackNotes": [],
        "links": {
          "children": [],
          "charges": [],
          "ammunition": []
        },
        "flags": {
          "boolean": [],
          "dictionary": []
        },
        "scriptCalls": [],
        "attackType": "misc",
        "conditionals": []
      },
      "effects": [],
      "folder": null,
      "sort": 0,
      "permission": {
        "default": 0
      },
      "flags": {}
    },
    {
      "_id": "sy6ke1cc3bacglxj",
      "name": "Special Attack: Breath Weapon (50-ft. Cone, 14d10 Acid, Reflex Dc 27 Half, Once Every 1d4 Rounds)",
      "type": "attack",
      "img": "systems/pf1/icons/skills/yellow_36.jpg",
      "data": {
        "description": {
          "value": "sbc | Placeholder for Special Attacks, which in most statblocks are listed under 'Special Attacks' in the statistics block, but are described in the 'Special Abilities' block. Remove duplicates as needed!"
        },
        "tags": [],
        "damage": {
          "parts": [],
          "critParts": [],
          "nonCritParts": []
        },
        "attackParts": [],
        "effectNotes": [],
        "attackNotes": [],
        "links": {
          "children": [],
          "charges": [],
          "ammunition": []
        },
        "flags": {
          "boolean": [],
          "dictionary": []
        },
        "scriptCalls": [],
        "attackType": "misc",
        "conditionals": []
      },
      "effects": [],
      "folder": null,
      "sort": 0,
      "permission": {
        "default": 0
      },
      "flags": {}
    },
    {
      "_id": "68cpaclvwqg9cd7v",
      "name": "Special Attack: Swallow Whole (2d6+10 Plus 2d6 Acid, Ac 23, Hp 23)",
      "type": "attack",
      "img": "systems/pf1/icons/skills/yellow_36.jpg",
      "data": {
        "description": {
          "value": "sbc | Placeholder for Special Attacks, which in most statblocks are listed under 'Special Attacks' in the statistics block, but are described in the 'Special Abilities' block. Remove duplicates as needed!"
        },
        "tags": [],
        "damage": {
          "parts": [],
          "critParts": [],
          "nonCritParts": []
        },
        "attackParts": [],
        "effectNotes": [],
        "attackNotes": [],
        "links": {
          "children": [],
          "charges": [],
          "ammunition": []
        },
        "flags": {
          "boolean": [],
          "dictionary": []
        },
        "scriptCalls": [],
        "attackType": "misc",
        "conditionals": []
      },
      "effects": [],
      "folder": null,
      "sort": 0,
      "permission": {
        "default": 0
      },
      "flags": {}
    },
    {
      "_id": "7d6sv5ecvi7kho3m",
      "name": "Constant: Fly",
      "type": "spell",
      "img": "systems/pf1/icons/misc/magic-swirl.png",
      "data": {
        "description": {
          "value": "<div class=\"spell-description\">\n  <p>\n    <strong>School</strong>&nbsp;transmutation;\n    <strong>Level</strong>&nbsp;alchemist 3, bloodrager 3, magus 3, medium 3, occultist 3, psychic 3, shaman 3, sorcerer/wizard 3, spiritualist 3, summoner 3, unchained Summoner 3, witch 3;\n    <strong>Domain</strong>&nbsp;Travel 3, Void 3;\n    <strong>Subdomain</strong>&nbsp;Azata 3, Feather 3;\n    \n    <strong>Bloodline</strong>&nbsp;Djinni 3, Draconic 3, Oni 3;\n  </p>\n  <p>\n    <strong>Casting Time</strong>&nbsp;1 standard action<br>\n    <strong>Components</strong>&nbsp;V, S, F (a wing feather)<br>\n  </p>\n  <p>\n    <strong>Range</strong>&nbsp;touch<br>\n    \n    <strong>Targets</strong>&nbsp;creature touched<br>\n    \n    <strong>Duration</strong>&nbsp;1 min./level<br>\n    <strong>Saving Throw</strong>&nbsp;Will negates (harmless);&nbsp;<strong>Spell Resistance</strong>&nbsp;yes<br>\n  </p>\n  <h2>Description</h2>\n  <p>The subject can <i>fly</i> at a speed of 60 feet (or 40 feet if it wears medium or heavy armor, or if it carries a medium or heavy load).</p><p>It can ascend at half speed and descend at double speed, and its maneuverability is good. Using a <i>fly</i> spell requires only as much concentration as walking, so the subject can attack or cast spells normally. The subject of a <i>fly</i> spell can charge but not run, and it cannot carry aloft more weight than its maximum load, plus any armor it wears. The subject gains a bonus on Fly skill checks equal to 1/2 your caster level.</p><p>Should the spell duration expire while the subject is still aloft, the magic fails slowly. The subject floats downward 60 feet per round for 1d6 rounds. If it reaches the ground in that amount of time, it lands safely. If not, it falls the rest of the distance, taking 1d6 points of damage per 10 feet of fall. Since dispelling a spell effectively ends it, the subject also descends safely in this way if the <i>fly</i> spell is dispelled, but not if it is negated by an <i>antimagic field</i>.</p>\n</div>\n"
        },
        "tags": [],
        "activation": {
          "type": "standard"
        },
        "unchainedAction": {
          "activation": {
            "cost": 2,
            "type": "action"
          }
        },
        "target": {
          "value": "creature touched"
        },
        "range": {
          "units": "touch"
        },
        "uses": {
          "value": 3,
          "per": "day"
        },
        "measureTemplate": {
          "size": "0"
        },
        "actionType": "spellsave",
        "damage": {
          "parts": [],
          "critParts": [],
          "nonCritParts": []
        },
        "attackParts": [],
        "ability": {
          "attack": "",
          "damage": ""
        },
        "save": {
          "dc": "0",
          "type": "will",
          "description": "Will negates (harmless)"
        },
        "effectNotes": [],
        "attackNotes": [],
        "links": {
          "children": []
        },
        "flags": {
          "boolean": [],
          "dictionary": []
        },
        "scriptCalls": [],
        "learnedAt": {
          "class": [
            [
              "sorcerer/wizard",
              3
            ],
            [
              "alchemist",
              3
            ],
            [
              "summoner",
              3
            ],
            [
              "witch",
              3
            ],
            [
              "magus",
              3
            ],
            [
              "bloodrager",
              3
            ],
            [
              "shaman",
              3
            ],
            [
              "psychic",
              3
            ],
            [
              "medium",
              3
            ],
            [
              "occultist",
              3
            ],
            [
              "spiritualist",
              3
            ],
            [
              "unchained Summoner",
              3
            ]
          ],
          "domain": [
            [
              "Travel",
              3
            ],
            [
              "Void",
              3
            ]
          ],
          "subDomain": [
            [
              "Azata",
              3
            ],
            [
              "Feather",
              3
            ]
          ],
          "elementalSchool": [],
          "bloodline": [
            [
              "Djinni",
              3
            ],
            [
              "Draconic",
              3
            ],
            [
              "Oni",
              3
            ]
          ]
        },
        "level": 3,
        "school": "trs",
        "conditionals": [],
        "components": {
          "verbal": true,
          "somatic": true,
          "focus": true
        },
        "materials": {
          "focus": "a wing feather"
        },
        "spellbook": "spelllike",
        "preparation": {
          "preparedAmount": 3,
          "maxAmount": 3
        },
        "atWill": true,
        "shortDescription": "<p>The subject can <i>fly</i> at a speed of 60 feet (or 40 feet if it wears medium or heavy armor, or if it carries a medium or heavy load).</p><p>It can ascend at half speed and descend at double speed, and its maneuverability is good. Using a <i>fly</i> spell requires only as much concentration as walking, so the subject can attack or cast spells normally. The subject of a <i>fly</i> spell can charge but not run, and it cannot carry aloft more weight than its maximum load, plus any armor it wears. The subject gains a bonus on Fly skill checks equal to 1/2 your caster level.</p><p>Should the spell duration expire while the subject is still aloft, the magic fails slowly. The subject floats downward 60 feet per round for 1d6 rounds. If it reaches the ground in that amount of time, it lands safely. If not, it falls the rest of the distance, taking 1d6 points of damage per 10 feet of fall. Since dispelling a spell effectively ends it, the subject also descends safely in this way if the <i>fly</i> spell is dispelled, but not if it is negated by an <i>antimagic field</i>.</p>",
        "spellDuration": "1 min./level"
      },
      "effects": [],
      "folder": null,
      "sort": 0,
      "permission": {
        "default": 0
      },
      "flags": {}
    },
    {
      "_id": "xllxylvvqr82o2d5",
      "name": "Constant: Detect Thoughts",
      "type": "spell",
      "img": "systems/pf1/icons/misc/magic-swirl.png",
      "data": {
        "description": {
          "value": "<div class=\"spell-description\">\n  <p>\n    <strong>School</strong>&nbsp;divination&nbsp;[mind-affecting];\n    <strong>Level</strong>&nbsp;alchemist 2, bard 2, inquisitor 2, medium 2, mesmerist 2, psychic 1, sorcerer/wizard 2, spiritualist 2, summoner 2, unchained Summoner 2, witch 2;\n    <strong>Domain</strong>&nbsp;Knowledge 2;\n    \n    \n    \n  </p>\n  <p>\n    <strong>Casting Time</strong>&nbsp;1 standard action<br>\n    <strong>Components</strong>&nbsp;V, S, F/DF (a copper piece)<br>\n  </p>\n  <p>\n    <strong>Range</strong>&nbsp;60 feet<br>\n    <strong>Area</strong>&nbsp;cone-shaped emanation<br>\n    \n    \n    <strong>Duration</strong>&nbsp;concentration, up to 1 min./level<br>\n    <strong>Saving Throw</strong>&nbsp;Will negates; see text;&nbsp;<strong>Spell Resistance</strong>&nbsp;no<br>\n  </p>\n  <h2>Description</h2>\n  <p>You detect surface thoughts. The amount of information revealed depends on how long you study a particular area or subject.</p><p><i>1st Round</i>: Presence or absence of thoughts (from conscious creatures with Intelligence scores of 1 or higher).</p><p><i>2nd Round</i>: Number of thinking minds and the Intelligence score of each. If the highest Intelligence is 26 or higher (and at least 10 points higher than your own Intelligence score), you are stunned for 1 round and the spell ends. This spell does not let you determine the location of the thinking minds if you can't see the creatures whose thoughts you are detecting.</p><p><i>3rd Round</i>: Surface thoughts of any mind in the area. A target's Will save prevents you from reading its thoughts, and you must cast <i>detect thoughts</i> again to have another chance. Creatures of animal intelligence (Int 1 or 2) have simple, instinctual thoughts.</p><p>Each round, you can turn to detect thoughts in a new area. The spell can penetrate barriers, but 1 foot of stone, 1 inch of common metal, a thin sheet of lead, or 3 feet of wood or dirt blocks it.</p>\n</div>\n"
        },
        "tags": [],
        "activation": {
          "type": "standard"
        },
        "unchainedAction": {
          "activation": {
            "cost": 2,
            "type": "action"
          }
        },
        "range": {
          "value": 60,
          "units": "ft"
        },
        "uses": {
          "value": 1,
          "per": "day"
        },
        "measureTemplate": {
          "size": "0"
        },
        "actionType": "spellsave",
        "damage": {
          "parts": [],
          "critParts": [],
          "nonCritParts": []
        },
        "attackParts": [],
        "ability": {
          "attack": "",
          "damage": ""
        },
        "save": {
          "dc": "0",
          "type": "will",
          "description": "Will negates; see text"
        },
        "effectNotes": [],
        "attackNotes": [],
        "links": {
          "children": []
        },
        "flags": {
          "boolean": [],
          "dictionary": []
        },
        "scriptCalls": [],
        "learnedAt": {
          "class": [
            [
              "sorcerer/wizard",
              2
            ],
            [
              "bard",
              2
            ],
            [
              "alchemist",
              2
            ],
            [
              "summoner",
              2
            ],
            [
              "witch",
              2
            ],
            [
              "inquisitor",
              2
            ],
            [
              "psychic",
              1
            ],
            [
              "medium",
              2
            ],
            [
              "mesmerist",
              2
            ],
            [
              "spiritualist",
              2
            ],
            [
              "unchained Summoner",
              2
            ]
          ],
          "domain": [
            [
              "Knowledge",
              2
            ]
          ],
          "subDomain": [],
          "elementalSchool": [],
          "bloodline": []
        },
        "level": 2,
        "school": "div",
        "types": "mind-affecting",
        "conditionals": [],
        "components": {
          "verbal": true,
          "somatic": true,
          "focus": true,
          "divineFocus": 3
        },
        "materials": {
          "focus": "a copper piece"
        },
        "spellbook": "spelllike",
        "preparation": {
          "preparedAmount": 1,
          "maxAmount": 1
        },
        "atWill": true,
        "sr": false,
        "shortDescription": "<p>You detect surface thoughts. The amount of information revealed depends on how long you study a particular area or subject.</p><p><i>1st Round</i>: Presence or absence of thoughts (from conscious creatures with Intelligence scores of 1 or higher).</p><p><i>2nd Round</i>: Number of thinking minds and the Intelligence score of each. If the highest Intelligence is 26 or higher (and at least 10 points higher than your own Intelligence score), you are stunned for 1 round and the spell ends. This spell does not let you determine the location of the thinking minds if you can't see the creatures whose thoughts you are detecting.</p><p><i>3rd Round</i>: Surface thoughts of any mind in the area. A target's Will save prevents you from reading its thoughts, and you must cast <i>detect thoughts</i> again to have another chance. Creatures of animal intelligence (Int 1 or 2) have simple, instinctual thoughts.</p><p>Each round, you can turn to detect thoughts in a new area. The spell can penetrate barriers, but 1 foot of stone, 1 inch of common metal, a thin sheet of lead, or 3 feet of wood or dirt blocks it.</p>",
        "spellDuration": "concentration, up to 1 min./level",
        "spellArea": "cone-shaped emanation"
      },
      "effects": [],
      "folder": null,
      "sort": 0,
      "permission": {
        "default": 0
      },
      "flags": {}
    },
    {
      "_id": "smbkd2yobhshbpqf",
      "name": "Charm Monster",
      "type": "spell",
      "img": "systems/pf1/icons/misc/magic-swirl.png",
      "data": {
        "description": {
          "value": "<div class=\"spell-description\">\n  <p>\n    <strong>School</strong>&nbsp;enchantment&nbsp;(charm)&nbsp;[mind-affecting];\n    <strong>Level</strong>&nbsp;bard 3, mesmerist 3, occultist 4, psychic 4, sorcerer/wizard 4, summoner 3, unchained Summoner 4, witch 4;\n    <strong>Domain</strong>&nbsp;Charm 5;\n    \n    \n    <strong>Bloodline</strong>&nbsp;Infernal 4, Oni 4;\n  </p>\n  <p>\n    <strong>Casting Time</strong>&nbsp;1 standard action<br>\n    <strong>Components</strong>&nbsp;V, S<br>\n  </p>\n  <p>\n    <strong>Range</strong>&nbsp;close (25 ft. + 5 ft./2 levels)<br>\n    \n    <strong>Targets</strong>&nbsp;one living creature<br>\n    \n    <strong>Duration</strong>&nbsp;1 day/level<br>\n    <strong>Saving Throw</strong>&nbsp;Will negates;&nbsp;<strong>Spell Resistance</strong>&nbsp;yes<br>\n  </p>\n  <h2>Description</h2>\n  <p>This spell functions like <i>charm person</i>, except that the effect is not restricted by creature type or size.</p>\n</div>\n"
        },
        "tags": [],
        "activation": {
          "type": "standard"
        },
        "unchainedAction": {
          "activation": {
            "cost": 2,
            "type": "action"
          }
        },
        "target": {
          "value": "one living creature"
        },
        "range": {
          "units": "close"
        },
        "uses": {
          "value": 3,
          "per": "day"
        },
        "measureTemplate": {
          "size": "0"
        },
        "actionType": "spellsave",
        "damage": {
          "parts": [],
          "critParts": [],
          "nonCritParts": []
        },
        "attackParts": [],
        "ability": {
          "attack": "",
          "damage": ""
        },
        "save": {
          "dc": "0",
          "type": "will",
          "description": "Will negates"
        },
        "effectNotes": [],
        "attackNotes": [],
        "links": {
          "children": []
        },
        "flags": {
          "boolean": [],
          "dictionary": []
        },
        "scriptCalls": [],
        "learnedAt": {
          "class": [
            [
              "sorcerer/wizard",
              4
            ],
            [
              "bard",
              3
            ],
            [
              "summoner",
              3
            ],
            [
              "witch",
              4
            ],
            [
              "psychic",
              4
            ],
            [
              "mesmerist",
              3
            ],
            [
              "occultist",
              4
            ],
            [
              "unchained Summoner",
              4
            ]
          ],
          "domain": [
            [
              "Charm",
              5
            ]
          ],
          "subDomain": [],
          "elementalSchool": [],
          "bloodline": [
            [
              "Infernal",
              4
            ],
            [
              "Oni",
              4
            ]
          ]
        },
        "level": 4,
        "school": "enc",
        "subschool": "charm",
        "types": "mind-affecting",
        "conditionals": [],
        "components": {
          "verbal": true,
          "somatic": true
        },
        "spellbook": "spelllike",
        "preparation": {
          "preparedAmount": 3,
          "maxAmount": 3
        },
        "atWill": true,
        "shortDescription": "<p>This spell functions like <i>charm person</i>, except that the effect is not restricted by creature type or size.</p>",
        "spellDuration": "1 day/level"
      },
      "effects": [],
      "folder": null,
      "sort": 0,
      "permission": {
        "default": 0
      },
      "flags": {}
    },
    {
      "_id": "2qjgarq4rz254bb9",
      "name": "Clairvoyance/clairaudience",
      "type": "spell",
      "img": "systems/pf1/icons/skills/yellow_36.jpg",
      "data": {
        "description": {
          "value": "sbc | As clairvoyance/clairaudience could not be found in any compendium, a placeholder was generated."
        },
        "tags": [],
        "damage": {
          "parts": [],
          "critParts": [],
          "nonCritParts": []
        },
        "attackParts": [],
        "effectNotes": [],
        "attackNotes": [],
        "links": {
          "children": []
        },
        "flags": {
          "boolean": [],
          "dictionary": []
        },
        "scriptCalls": [],
        "learnedAt": {
          "class": [],
          "domain": [],
          "subDomain": [],
          "elementalSchool": [],
          "bloodline": []
        },
        "conditionals": [],
        "spellbook": "spelllike",
        "atWill": true
      },
      "effects": [],
      "folder": null,
      "sort": 0,
      "permission": {
        "default": 0
      },
      "flags": {}
    },
    {
      "_id": "zqj5qzyl46af27v0",
      "name": "Suggestion",
      "type": "spell",
      "img": "systems/pf1/icons/misc/magic-swirl.png",
      "data": {
        "description": {
          "value": "<div class=\"spell-description\">\n  <p>\n    <strong>School</strong>&nbsp;enchantment&nbsp;(compulsion)&nbsp;[language-dependent, mind-affecting];\n    <strong>Level</strong>&nbsp;bard 2, medium 2, mesmerist 2, occultist 3, psychic 2, sorcerer/wizard 3, witch 3;\n    <strong>Domain</strong>&nbsp;Charm 3;\n    <strong>Subdomain</strong>&nbsp;Corruption 2, Devil 3, Innuendo 3;\n    \n    <strong>Bloodline</strong>&nbsp;Infernal 3, Maestro 3, Rakshasa 3;\n  </p>\n  <p>\n    <strong>Casting Time</strong>&nbsp;1 standard action<br>\n    <strong>Components</strong>&nbsp;V, M (a snake&#x27;s tongue and a honeycomb)<br>\n  </p>\n  <p>\n    <strong>Range</strong>&nbsp;close (25 ft. + 5 ft./2 levels)<br>\n    \n    <strong>Targets</strong>&nbsp;one living creature<br>\n    \n    <strong>Duration</strong>&nbsp;1 hour/level or until completed<br>\n    <strong>Saving Throw</strong>&nbsp;Will negates;&nbsp;<strong>Spell Resistance</strong>&nbsp;yes<br>\n  </p>\n  <h2>Description</h2>\n  <p>You influence the actions of the target creature by suggesting a course of activity (limited to a sentence or two). The <i>suggestion</i> must be worded in such a manner as to make the activity sound reasonable. Asking the creature to do some obviously harmful act automatically negates the effect of the spell.</p><p>The suggested course of activity can continue for the entire duration. If the suggested activity can be completed in a shorter time, the spell ends when the subject finishes what it was asked to do. You can instead specify conditions that will trigger a special activity during the duration. If the condition is not met before the spell duration expires, the activity is not performed.</p><p>A very reasonable <i>suggestion</i> causes the save to be made with a penalty (such as -1 or -2).</p>\n</div>\n"
        },
        "tags": [],
        "activation": {
          "type": "standard"
        },
        "unchainedAction": {
          "activation": {
            "cost": 2,
            "type": "action"
          }
        },
        "target": {
          "value": "one living creature"
        },
        "range": {
          "units": "close"
        },
        "uses": {
          "value": 3,
          "per": "day"
        },
        "measureTemplate": {
          "size": "0"
        },
        "actionType": "spellsave",
        "damage": {
          "parts": [],
          "critParts": [],
          "nonCritParts": []
        },
        "attackParts": [],
        "ability": {
          "attack": "",
          "damage": ""
        },
        "save": {
          "dc": "0",
          "type": "will",
          "description": "Will negates"
        },
        "effectNotes": [],
        "attackNotes": [],
        "links": {
          "children": []
        },
        "flags": {
          "boolean": [],
          "dictionary": []
        },
        "scriptCalls": [],
        "learnedAt": {
          "class": [
            [
              "sorcerer/wizard",
              3
            ],
            [
              "bard",
              2
            ],
            [
              "witch",
              3
            ],
            [
              "psychic",
              2
            ],
            [
              "medium",
              2
            ],
            [
              "mesmerist",
              2
            ],
            [
              "occultist",
              3
            ]
          ],
          "domain": [
            [
              "Charm",
              3
            ]
          ],
          "subDomain": [
            [
              "Devil",
              3
            ],
            [
              "Corruption",
              2
            ],
            [
              "Innuendo",
              3
            ]
          ],
          "elementalSchool": [],
          "bloodline": [
            [
              "Infernal",
              3
            ],
            [
              "Maestro",
              3
            ],
            [
              "Rakshasa",
              3
            ]
          ]
        },
        "level": 3,
        "school": "enc",
        "subschool": "compulsion",
        "types": "language-dependent, mind-affecting",
        "conditionals": [],
        "components": {
          "verbal": true,
          "material": true
        },
        "materials": {
          "value": "a snake's tongue and a honeycomb"
        },
        "spellbook": "spelllike",
        "preparation": {
          "preparedAmount": 3,
          "maxAmount": 3
        },
        "atWill": true,
        "shortDescription": "<p>You influence the actions of the target creature by suggesting a course of activity (limited to a sentence or two). The <i>suggestion</i> must be worded in such a manner as to make the activity sound reasonable. Asking the creature to do some obviously harmful act automatically negates the effect of the spell.</p><p>The suggested course of activity can continue for the entire duration. If the suggested activity can be completed in a shorter time, the spell ends when the subject finishes what it was asked to do. You can instead specify conditions that will trigger a special activity during the duration. If the condition is not met before the spell duration expires, the activity is not performed.</p><p>A very reasonable <i>suggestion</i> causes the save to be made with a penalty (such as -1 or -2).</p>",
        "spellDuration": "1 hour/level or until completed"
      },
      "effects": [],
      "folder": null,
      "sort": 0,
      "permission": {
        "default": 0
      },
      "flags": {}
    },
    {
      "_id": "3lfx1ccxo2hdqrf3",
      "name": "Telekinesis",
      "type": "spell",
      "img": "systems/pf1/icons/misc/magic-swirl.png",
      "data": {
        "description": {
          "value": "<div class=\"spell-description\">\n  <p>\n    <strong>School</strong>&nbsp;transmutation;\n    <strong>Level</strong>&nbsp;magus 5, occultist 5, psychic 4, sorcerer/wizard 5, spiritualist 5;\n    \n    \n    \n    \n  </p>\n  <p>\n    <strong>Casting Time</strong>&nbsp;1 standard action<br>\n    <strong>Components</strong>&nbsp;V, S<br>\n  </p>\n  <p>\n    <strong>Range</strong>&nbsp;long (400 ft. + 40 ft./level)<br>\n    \n    <strong>Targets</strong>&nbsp;or  see text<br>\n    \n    <strong>Duration</strong>&nbsp;concentration (up to 1 round/level) or instantaneous; see text<br>\n    <strong>Saving Throw</strong>&nbsp;Will negates (object) or none; see text;&nbsp;<strong>Spell Resistance</strong>&nbsp;yes<br>\n  </p>\n  <h2>Description</h2>\n  <p>You move objects or creatures by concentrating on them.</p><p>Depending on the version selected, the spell can provide a gentle, sustained force, perform a variety of combat maneuvers, or exert a single short, violent thrust.</p><p><i>Sustained Force</i>: A sustained force moves an object weighing no more than 25 pounds per caster level (maximum 375 pounds at 15th level) up to 20 feet per round. A creature can negate the effect on an object it possesses with a successful Will save or with spell resistance.</p><p>This version of the spell can last 1 round per caster level, but it ends if you cease concentration. The weight can be moved vertically, horizontally, or in both directions. An object cannot be moved beyond your range. The spell ends if the object is forced beyond the range. If you cease concentration for any reason, the object falls or stops.</p><p>An object can be telekinetically manipulated as if with one hand.</p><p>For example, a lever or rope can be pulled, a key can be turned, an object rotated, and so on, if the force required is within the weight limitation. You might even be able to untie simple knots, though delicate activities such as these require DC 15 Intelligence checks.</p><p><i>Combat Maneuver</i>: Alternatively, once per round, you can use <i>telekinesis</i> to perform a bull rush, disarm, grapple (including pin), or trip. Resolve these attempts as normal, except that they don't provoke attacks of opportunity, you use your caster level in place of your <i>Combat Maneuver</i> Bonus, and you add your Intelligence modifier (if a wizard) or Charisma modifier (if a sorcerer) in place of your Strength or Dexterity modifier. No save is allowed against these attempts, but spell resistance applies normally. This version of the spell can last 1 round per caster level, but it ends if you cease concentration.</p><p><i>Violent Thrust</i>: Alternatively, the spell energy can be spent in a single round. You can hurl one object or creature per caster level (maximum 15) that are within range and all within 10 feet of each other toward any target within 10 feet per level of all the objects.</p><p>You can hurl up to a total weight of 25 pounds per caster level (maximum 375 pounds at 15th level).</p><p>You must succeed on attack rolls (one per creature or object thrown) to hit the target with the items, using your base attack bonus + your Intelligence modifier (if a wizard) or Charisma modifier (if a sorcerer). Weapons cause standard damage (with no Strength bonus; note that arrows or bolts deal damage as daggers of their size when used in this manner). Other objects cause damage ranging from 1 point per 25 pounds (for less dangerous objects) to 1d6 points of damage per 25 pounds (for hard, dense objects).</p><p>Objects and creatures that miss their target land in a square adjacent to the target.</p><p>Creatures who fall within the weight capacity of the spell can be hurled, but they are allowed Will saves (and spell resistance) to negate the effect, as are those whose held possessions are targeted by the spell.</p><p>If a telekinesed creature is hurled against a solid surface, it takes damage as if it had fallen 10 feet (1d6 points).</p>\n</div>\n"
        },
        "tags": [],
        "activation": {
          "type": "standard"
        },
        "unchainedAction": {
          "activation": {
            "cost": 2,
            "type": "action"
          }
        },
        "target": {
          "value": "or  see text"
        },
        "range": {
          "units": "long"
        },
        "uses": {
          "value": 3,
          "per": "day"
        },
        "measureTemplate": {
          "size": "0"
        },
        "actionType": "spellsave",
        "damage": {
          "parts": [],
          "critParts": [],
          "nonCritParts": []
        },
        "attackParts": [],
        "ability": {
          "attack": "",
          "damage": ""
        },
        "save": {
          "dc": "0",
          "type": "will",
          "description": "Will negates (object) or none; see text"
        },
        "effectNotes": [],
        "attackNotes": [],
        "links": {
          "children": []
        },
        "flags": {
          "boolean": [],
          "dictionary": []
        },
        "scriptCalls": [],
        "learnedAt": {
          "class": [
            [
              "sorcerer/wizard",
              5
            ],
            [
              "magus",
              5
            ],
            [
              "psychic",
              4
            ],
            [
              "occultist",
              5
            ],
            [
              "spiritualist",
              5
            ]
          ],
          "domain": [],
          "subDomain": [],
          "elementalSchool": [],
          "bloodline": []
        },
        "level": 5,
        "school": "trs",
        "conditionals": [],
        "components": {
          "verbal": true,
          "somatic": true
        },
        "spellbook": "spelllike",
        "preparation": {
          "preparedAmount": 3,
          "maxAmount": 3
        },
        "atWill": true,
        "shortDescription": "<p>You move objects or creatures by concentrating on them.</p><p>Depending on the version selected, the spell can provide a gentle, sustained force, perform a variety of combat maneuvers, or exert a single short, violent thrust.</p><p><i>Sustained Force</i>: A sustained force moves an object weighing no more than 25 pounds per caster level (maximum 375 pounds at 15th level) up to 20 feet per round. A creature can negate the effect on an object it possesses with a successful Will save or with spell resistance.</p><p>This version of the spell can last 1 round per caster level, but it ends if you cease concentration. The weight can be moved vertically, horizontally, or in both directions. An object cannot be moved beyond your range. The spell ends if the object is forced beyond the range. If you cease concentration for any reason, the object falls or stops.</p><p>An object can be telekinetically manipulated as if with one hand.</p><p>For example, a lever or rope can be pulled, a key can be turned, an object rotated, and so on, if the force required is within the weight limitation. You might even be able to untie simple knots, though delicate activities such as these require DC 15 Intelligence checks.</p><p><i>Combat Maneuver</i>: Alternatively, once per round, you can use <i>telekinesis</i> to perform a bull rush, disarm, grapple (including pin), or trip. Resolve these attempts as normal, except that they don't provoke attacks of opportunity, you use your caster level in place of your <i>Combat Maneuver</i> Bonus, and you add your Intelligence modifier (if a wizard) or Charisma modifier (if a sorcerer) in place of your Strength or Dexterity modifier. No save is allowed against these attempts, but spell resistance applies normally. This version of the spell can last 1 round per caster level, but it ends if you cease concentration.</p><p><i>Violent Thrust</i>: Alternatively, the spell energy can be spent in a single round. You can hurl one object or creature per caster level (maximum 15) that are within range and all within 10 feet of each other toward any target within 10 feet per level of all the objects.</p><p>You can hurl up to a total weight of 25 pounds per caster level (maximum 375 pounds at 15th level).</p><p>You must succeed on attack rolls (one per creature or object thrown) to hit the target with the items, using your base attack bonus + your Intelligence modifier (if a wizard) or Charisma modifier (if a sorcerer). Weapons cause standard damage (with no Strength bonus; note that arrows or bolts deal damage as daggers of their size when used in this manner). Other objects cause damage ranging from 1 point per 25 pounds (for less dangerous objects) to 1d6 points of damage per 25 pounds (for hard, dense objects).</p><p>Objects and creatures that miss their target land in a square adjacent to the target.</p><p>Creatures who fall within the weight capacity of the spell can be hurled, but they are allowed Will saves (and spell resistance) to negate the effect, as are those whose held possessions are targeted by the spell.</p><p>If a telekinesed creature is hurled against a solid surface, it takes damage as if it had fallen 10 feet (1d6 points).</p>",
        "spellDuration": "concentration (up to 1 round/level) or instantaneous; see text"
      },
      "effects": [],
      "folder": null,
      "sort": 0,
      "permission": {
        "default": 0
      },
      "flags": {}
    },
    {
      "_id": "ptqu8gtrujxsvwy1",
      "name": "Teleport",
      "type": "spell",
      "img": "systems/pf1/icons/misc/magic-swirl.png",
      "data": {
        "description": {
          "value": "<div class=\"spell-description\">\n  <p>\n    <strong>School</strong>&nbsp;conjuration&nbsp;(teleportation);\n    <strong>Level</strong>&nbsp;magus 5, medium 4, occultist 5, psychic 5, sorcerer/wizard 5, spiritualist 5, summoner 4, unchained Summoner 5, witch 5;\n    <strong>Domain</strong>&nbsp;Travel 5;\n    \n    \n    \n  </p>\n  <p>\n    <strong>Casting Time</strong>&nbsp;1 standard action<br>\n    <strong>Components</strong>&nbsp;V<br>\n  </p>\n  <p>\n    <strong>Range</strong>&nbsp;personal<br>\n    \n    <strong>Targets</strong>&nbsp;you and touched objects or other touched willing creatures<br>\n    \n    <strong>Duration</strong>&nbsp;instantaneous<br>\n    \n  </p>\n  <h2>Description</h2>\n  <p>This spell instantly transports you to a designated destination, which may be as distant as 100 miles per caster level. Interplanar travel is not possible. You can bring along objects as long as their weight doesn't exceed your maximum load. You may also bring one additional willing Medium or smaller creature (carrying gear or objects up to its maximum load) or its equivalent per three caster levels. A Large creature counts as two Medium creatures, a Huge creature counts as four Medium creatures, and so forth. All creatures to be transported must be in contact with one another, and at least one of those creatures must be in contact with you. As with all spells where the range is personal and the target is you, you need not make a saving throw, nor is spell resistance applicable to you. Only objects held or in use (attended) by another person receive saving throws and spell resistance.</p><p>You must have some clear idea of the location and layout of the destination. The clearer your mental image, the more likely the teleportation works. Areas of strong physical or magical energy may make teleportation more hazardous or even impossible.</p><p>To see how well the teleportation works, roll d% and consult the table at the end of this spell. Refer to the following information for definitions of the terms on the table.</p><p><i>Familiarity:</i> \"Very familiar\" is a place where you have been very often and where you feel at home. \"Studied carefully\" is a place you know well, either because you can currently physically see it or you've been there often. \"Seen casually\" is a place that you have seen more than once but with which you are not very familiar. \"Viewed once\" is a place that you have seen once, possibly using magic such as <i>scrying.</i></p><p>\"False destination\" is a place that does not truly exist or if you are teleporting to an otherwise familiar location that no longer exists as such or has been so completely altered as to no longer be familiar to you. When traveling to a false destination, roll 1d20+80 to obtain results on the table, rather than rolling d%, since there is no real destination for you to hope to arrive at or even be off target from.</p><p><i>On Target</i>: You appear where you want to be.</p><p><i>Off Target</i>: You appear safely a random distance away from the destination in a random direction. Distance off target is d% of the distance that was to be traveled. The direction off target is determined randomly.</p><p><i>Similar Area</i>: You wind up in an area that's visually or thematically similar to the target area. Generally, you appear in the closest similar place within range. If no such area exists within the spell's range, the spell simply fails instead.</p><p><i>Mishap:</i> You and anyone else teleporting with you have gotten \"scrambled.\" You each take 1d10 points of damage, and you reroll on the chart to see where you wind up. For these rerolls, roll 1d20+80.</p><p>Each time \"Mishap\" comes up, the characters take more damage and must reroll.</p><p> <table><tr><th>Familiarity</th><th>On Target</th><th>Off Target</th><th>Similar Area</th><th>mishap</th></tr><tr><td>Very familiar</td><td>01-97</td><td>98-99</td><td>100</td><td>-</td></tr><tr><td>Studied carefully</td><td>01-94</td><td>95-97</td><td>98-99</td><td>100</td></tr><tr><td>Seen casually</td><td>01-88</td><td>89-94</td><td>95-98</td><td>99-100</td></tr><tr><td>Viewed once</td><td>01-76</td><td>77-88</td><td>89-96</td><td>97-100</td></tr><tr><td>False destination</td><td>-</td><td>-</td><td>81-92</td><td>93-100</td></tr></table> </p>\n</div>\n"
        },
        "tags": [],
        "activation": {
          "type": "standard"
        },
        "unchainedAction": {
          "activation": {
            "cost": 2,
            "type": "action"
          }
        },
        "target": {
          "value": "you and touched objects or other touched willing creatures"
        },
        "range": {
          "units": "personal"
        },
        "uses": {
          "value": 3,
          "per": "day"
        },
        "measureTemplate": {
          "size": "0"
        },
        "actionType": "spellsave",
        "damage": {
          "parts": [],
          "critParts": [],
          "nonCritParts": []
        },
        "attackParts": [],
        "ability": {
          "attack": "",
          "damage": ""
        },
        "save": {
          "dc": "0",
          "type": "will",
          "description": "none and Will negates (object)"
        },
        "effectNotes": [],
        "attackNotes": [],
        "links": {
          "children": []
        },
        "flags": {
          "boolean": [],
          "dictionary": []
        },
        "scriptCalls": [],
        "learnedAt": {
          "class": [
            [
              "sorcerer/wizard",
              5
            ],
            [
              "summoner",
              4
            ],
            [
              "witch",
              5
            ],
            [
              "magus",
              5
            ],
            [
              "psychic",
              5
            ],
            [
              "medium",
              4
            ],
            [
              "occultist",
              5
            ],
            [
              "spiritualist",
              5
            ],
            [
              "unchained Summoner",
              5
            ]
          ],
          "domain": [
            [
              "Travel",
              5
            ]
          ],
          "subDomain": [],
          "elementalSchool": [],
          "bloodline": []
        },
        "level": 5,
        "school": "con",
        "subschool": "teleportation",
        "conditionals": [],
        "components": {
          "verbal": true
        },
        "spellbook": "spelllike",
        "preparation": {
          "preparedAmount": 3,
          "maxAmount": 3
        },
        "atWill": true,
        "sr": false,
        "shortDescription": "<p>This spell instantly transports you to a designated destination, which may be as distant as 100 miles per caster level. Interplanar travel is not possible. You can bring along objects as long as their weight doesn't exceed your maximum load. You may also bring one additional willing Medium or smaller creature (carrying gear or objects up to its maximum load) or its equivalent per three caster levels. A Large creature counts as two Medium creatures, a Huge creature counts as four Medium creatures, and so forth. All creatures to be transported must be in contact with one another, and at least one of those creatures must be in contact with you. As with all spells where the range is personal and the target is you, you need not make a saving throw, nor is spell resistance applicable to you. Only objects held or in use (attended) by another person receive saving throws and spell resistance.</p><p>You must have some clear idea of the location and layout of the destination. The clearer your mental image, the more likely the teleportation works. Areas of strong physical or magical energy may make teleportation more hazardous or even impossible.</p><p>To see how well the teleportation works, roll d% and consult the table at the end of this spell. Refer to the following information for definitions of the terms on the table.</p><p><i>Familiarity:</i> \"Very familiar\" is a place where you have been very often and where you feel at home. \"Studied carefully\" is a place you know well, either because you can currently physically see it or you've been there often. \"Seen casually\" is a place that you have seen more than once but with which you are not very familiar. \"Viewed once\" is a place that you have seen once, possibly using magic such as <i>scrying.</i></p><p>\"False destination\" is a place that does not truly exist or if you are teleporting to an otherwise familiar location that no longer exists as such or has been so completely altered as to no longer be familiar to you. When traveling to a false destination, roll 1d20+80 to obtain results on the table, rather than rolling d%, since there is no real destination for you to hope to arrive at or even be off target from.</p><p><i>On Target</i>: You appear where you want to be.</p><p><i>Off Target</i>: You appear safely a random distance away from the destination in a random direction. Distance off target is d% of the distance that was to be traveled. The direction off target is determined randomly.</p><p><i>Similar Area</i>: You wind up in an area that's visually or thematically similar to the target area. Generally, you appear in the closest similar place within range. If no such area exists within the spell's range, the spell simply fails instead.</p><p><i>Mishap:</i> You and anyone else teleporting with you have gotten \"scrambled.\" You each take 1d10 points of damage, and you reroll on the chart to see where you wind up. For these rerolls, roll 1d20+80.</p><p>Each time \"Mishap\" comes up, the characters take more damage and must reroll.</p><p> <table><tr><th>Familiarity</th><th>On Target</th><th>Off Target</th><th>Similar Area</th><th>mishap</th></tr><tr><td>Very familiar</td><td>01-97</td><td>98-99</td><td>100</td><td>-</td></tr><tr><td>Studied carefully</td><td>01-94</td><td>95-97</td><td>98-99</td><td>100</td></tr><tr><td>Seen casually</td><td>01-88</td><td>89-94</td><td>95-98</td><td>99-100</td></tr><tr><td>Viewed once</td><td>01-76</td><td>77-88</td><td>89-96</td><td>97-100</td></tr><tr><td>False destination</td><td>-</td><td>-</td><td>81-92</td><td>93-100</td></tr></table> </p>",
        "spellDuration": "instantaneous"
      },
      "effects": [],
      "folder": null,
      "sort": 0,
      "permission": {
        "default": 0
      },
      "flags": {}
    },
    {
      "_id": "vdh0yuzpjwhky6kr",
      "name": "Poison",
      "type": "spell",
      "img": "systems/pf1/icons/misc/magic-swirl.png",
      "data": {
        "description": {
          "value": "<div class=\"spell-description\">\n  <p>\n    <strong>School</strong>&nbsp;necromancy&nbsp;[poison];\n    <strong>Level</strong>&nbsp;antipaladin 4, cleric/oracle 4, druid 3, hunter 3, mesmerist 4, occultist 4, shaman 4, witch 4;\n    <strong>Domain</strong>&nbsp;Scalykind 4;\n    <strong>Subdomain</strong>&nbsp;Decay 4;\n    \n    <strong>Bloodline</strong>&nbsp;Fey 4, Serpentine 4;\n  </p>\n  <p>\n    <strong>Casting Time</strong>&nbsp;1 standard action<br>\n    <strong>Components</strong>&nbsp;V, S, DF<br>\n  </p>\n  <p>\n    <strong>Range</strong>&nbsp;touch<br>\n    \n    <strong>Targets</strong>&nbsp;living creature touched<br>\n    \n    <strong>Duration</strong>&nbsp;instantaneous; see text<br>\n    <strong>Saving Throw</strong>&nbsp;Fortitude negates; see text;&nbsp;<strong>Spell Resistance</strong>&nbsp;yes<br>\n  </p>\n  <h2>Description</h2>\n  <p>Calling upon the venomous powers of natural predators, you infect the subject with a horrible poison by making a successful melee touch attack. This poison deals 1d3 Constitution damage per round for 6 rounds. Poisoned creatures can make a Fortitude save each round to negate the damage and end the affliction.</p>\n</div>\n"
        },
        "tags": [],
        "activation": {
          "type": "standard"
        },
        "unchainedAction": {
          "activation": {
            "cost": 2,
            "type": "action"
          }
        },
        "target": {
          "value": "living creature touched"
        },
        "range": {
          "units": "touch"
        },
        "uses": {
          "value": 1,
          "per": "day"
        },
        "measureTemplate": {
          "size": "0"
        },
        "actionType": "spellsave",
        "damage": {
          "parts": [],
          "critParts": [],
          "nonCritParts": []
        },
        "attackParts": [],
        "ability": {
          "attack": "",
          "damage": ""
        },
        "save": {
          "dc": "0",
          "type": "fort",
          "description": "Fortitude negates; see text"
        },
        "effectNotes": [],
        "attackNotes": [],
        "links": {
          "children": []
        },
        "flags": {
          "boolean": [],
          "dictionary": []
        },
        "scriptCalls": [],
        "learnedAt": {
          "class": [
            [
              "cleric/oracle",
              4
            ],
            [
              "druid",
              3
            ],
            [
              "witch",
              4
            ],
            [
              "antipaladin",
              4
            ],
            [
              "shaman",
              4
            ],
            [
              "mesmerist",
              4
            ],
            [
              "occultist",
              4
            ],
            [
              "hunter",
              3
            ]
          ],
          "domain": [
            [
              "Scalykind",
              4
            ]
          ],
          "subDomain": [
            [
              "Decay",
              4
            ]
          ],
          "elementalSchool": [],
          "bloodline": [
            [
              "Fey",
              4
            ],
            [
              "Serpentine",
              4
            ]
          ]
        },
        "level": 4,
        "school": "nec",
        "types": "poison",
        "conditionals": [],
        "components": {
          "verbal": true,
          "somatic": true,
          "divineFocus": 1
        },
        "spellbook": "spelllike",
        "preparation": {
          "preparedAmount": 1,
          "maxAmount": 1
        },
        "atWill": true,
        "shortDescription": "<p>Calling upon the venomous powers of natural predators, you infect the subject with a horrible poison by making a successful melee touch attack. This poison deals 1d3 Constitution damage per round for 6 rounds. Poisoned creatures can make a Fortitude save each round to negate the damage and end the affliction.</p>",
        "spellDuration": "instantaneous; see text"
      },
      "effects": [],
      "folder": null,
      "sort": 0,
      "permission": {
        "default": 0
      },
      "flags": {}
    },
    {
      "_id": "5vknvykrhpjniki1",
      "name": "Quickened Suggestion",
      "type": "spell",
      "img": "systems/pf1/icons/skills/yellow_36.jpg",
      "data": {
        "description": {
          "value": "sbc | As quickened suggestion could not be found in any compendium, a placeholder was generated."
        },
        "tags": [],
        "uses": {
          "value": 3,
          "per": "day"
        },
        "damage": {
          "parts": [],
          "critParts": [],
          "nonCritParts": []
        },
        "attackParts": [],
        "save": {
          "dc": "2"
        },
        "effectNotes": [],
        "attackNotes": [],
        "links": {
          "children": []
        },
        "flags": {
          "boolean": [],
          "dictionary": []
        },
        "scriptCalls": [],
        "learnedAt": {
          "class": [],
          "domain": [],
          "subDomain": [],
          "elementalSchool": [],
          "bloodline": []
        },
        "conditionals": [],
        "spellbook": "spelllike",
        "preparation": {
          "preparedAmount": 3,
          "maxAmount": 3
        }
      },
      "effects": [],
      "folder": null,
      "sort": 0,
      "permission": {
        "default": 0
      },
      "flags": {}
    },
    {
      "_id": "hypg2zjma85lycny",
      "name": "Ecology",
      "type": "feat",
      "img": "icons/environment/wilderness/tree-oak.webp",
      "data": {
        "description": {
          "value": "<div><strong>Environment</strong>:  any underground</div><div><strong>Organization</strong>:  solitary, pair, or cult (3-5 plus 4-12 charmed slaves of various races)</div><div><strong>Treasure</strong>:  standard</div>"
        },
        "tags": [],
        "damage": {
          "parts": [],
          "critParts": [],
          "nonCritParts": []
        },
        "attackParts": [],
        "effectNotes": [],
        "attackNotes": [],
        "changes": [],
        "contextNotes": [],
        "links": {
          "children": [],
          "charges": []
        },
        "armorProf": {
          "value": []
        },
        "weaponProf": {
          "value": []
        },
        "flags": {
          "boolean": [],
          "dictionary": []
        },
        "scriptCalls": [],
        "featType": "misc",
        "associations": {
          "classes": []
        }
      },
      "effects": [],
      "folder": null,
      "sort": 0,
      "permission": {
        "default": 0
      },
      "flags": {}
    },
    {
      "_id": "5ojtk1cnb8di57lg",
      "name": "Mind Thrust",
      "type": "feat",
      "img": "systems/pf1/icons/skills/yellow_36.jpg",
      "data": {
        "description": {
          "value": "As a standard action up to three times a day, a neothelid can deliver a massive blast of mental energy at any one target within 60 feet, inflicting 15d10 points of damage. A successful DC 25 Will save negates the effect. This effect can only harm creatures with Intelligence scores. This is a mind-affecting effect. The save DC is Charisma-based."
        },
        "tags": [],
        "damage": {
          "parts": [],
          "critParts": [],
          "nonCritParts": []
        },
        "attackParts": [],
        "effectNotes": [],
        "attackNotes": [],
        "changes": [],
        "contextNotes": [],
        "links": {
          "children": [],
          "charges": []
        },
        "armorProf": {
          "value": []
        },
        "weaponProf": {
          "value": []
        },
        "flags": {
          "boolean": [],
          "dictionary": []
        },
        "scriptCalls": [],
        "featType": "classFeat",
        "associations": {
          "classes": []
        },
        "abilityType": "su"
      },
      "effects": [],
      "folder": null,
      "sort": 0,
      "permission": {
        "default": 0
      },
      "flags": {}
    },
    {
      "_id": "kfl8od11mekjr9z7",
      "name": "Psychic Crush",
      "type": "feat",
      "img": "systems/pf1/icons/skills/yellow_36.jpg",
      "data": {
        "description": {
          "value": "As a standard action up to three times a day, a neothelid can attempt to crush the mind of a single creature within 60 feet. The target must make a DC 25 Will save or collapse, becoming unconscious and dying at -1 hit points. If the target succeeds on the save, it takes 6d6 points of damage and is sickened for 1 round. This is a mind-affecting effect. The save DC is Charisma-based."
        },
        "tags": [],
        "damage": {
          "parts": [],
          "critParts": [],
          "nonCritParts": []
        },
        "attackParts": [],
        "effectNotes": [],
        "attackNotes": [],
        "changes": [],
        "contextNotes": [],
        "links": {
          "children": [],
          "charges": []
        },
        "armorProf": {
          "value": []
        },
        "weaponProf": {
          "value": []
        },
        "flags": {
          "boolean": [],
          "dictionary": []
        },
        "scriptCalls": [],
        "featType": "classFeat",
        "associations": {
          "classes": []
        },
        "abilityType": "su"
      },
      "effects": [],
      "folder": null,
      "sort": 0,
      "permission": {
        "default": 0
      },
      "flags": {}
    },
    {
      "_id": "0d6dope5v1dtxhq0",
      "name": "Trace Teleport",
      "type": "feat",
      "img": "systems/pf1/icons/skills/yellow_36.jpg",
      "data": {
        "description": {
          "value": "A neothelid telepathically and reflexively learns the mental coordinates of the destination, of all creatures that teleport within 60 feet of it, gaining an awareness of the location equivalent to “seen casually.” This knowledge fades and is lost after 1 minute. This power does not grant any environmental information about the conditions of the destination."
        },
        "tags": [],
        "damage": {
          "parts": [],
          "critParts": [],
          "nonCritParts": []
        },
        "attackParts": [],
        "effectNotes": [],
        "attackNotes": [],
        "changes": [],
        "contextNotes": [],
        "links": {
          "children": [],
          "charges": []
        },
        "armorProf": {
          "value": []
        },
        "weaponProf": {
          "value": []
        },
        "flags": {
          "boolean": [],
          "dictionary": []
        },
        "scriptCalls": [],
        "featType": "classFeat",
        "associations": {
          "classes": []
        },
        "abilityType": "ex"
      },
      "effects": [],
      "folder": null,
      "sort": 0,
      "permission": {
        "default": 0
      },
      "flags": {}
    },
    {
      "_id": "KqLvEc1AQsbVvEon",
      "name": "sbc | Conversion Buff",
      "type": "buff",
      "img": "systems/pf1/icons/skills/yellow_36.jpg",
      "data": {
        "description": {
          "value": "<h2>sbc | Conversion Buff</h2>\n                        This Buff was created by <strong>sbc</strong> to compensate for differences between the input and the values FoundryVTT calculates automatically.\n                        <br><br>\n                        Especially when the pathfinder system gets upgraded, entries in compendiums get updated or foundry changes in some way, this buff may become outdated.\n                        <br><br>\n                        For most mooks the conversion should more or less work, but for important NPCs or creatures it is adviced to double check the conversion manually."
        },
        "tags": [],
        "changes": [
          {
            "formula": "-8",
            "modifier": "untypedPerm",
            "operator": "add",
            "priority": 0,
            "subTarget": "mhp",
            "target": "misc",
            "value": -8,
            "id": "o6q2e17f"
          },
          {
            "formula": "-4",
            "modifier": "untypedPerm",
            "operator": "add",
            "priority": 0,
            "subTarget": "skill.fly",
            "target": "skill",
            "value": -4,
            "id": "ehvr8khh"
          }
        ],
        "contextNotes": [
          {
            "subTarget": "cmb",
            "target": "misc",
            "text": "+33 grapple"
          }
        ],
        "links": {
          "children": []
        },
        "tag": "sbcConversionBuff",
        "useCustomTag": true,
        "flags": {
          "boolean": [],
          "dictionary": []
        },
        "scriptCalls": [],
        "buffType": "perm",
        "active": true,
        "hideFromToken": true
      },
      "effects": [],
      "folder": null,
      "sort": 0,
      "permission": {
        "default": 0,
        "iM1ACTqH0Ml6HJtd": 3
      },
      "flags": {}
    }
  ],
  "effects": [],
  "folder": null,
  "sort": 0,
  "permission": {
    "default": 0
  },
  "flags": {}
}